{
  "id": "9a2f8ee6-c23c-47dd-a580-1b2dee7c2af0",
  "name": "map-sort",
  "isOverridable": true,
  "isEnum": false,
  "isRegexp": false,
  "automatedExpansion": false,
  "allowFuzzyExtraction": false
}