[
  {
    "id": "a2d238b0-f138-488d-ac70-98c761c57d33",
    "data": [
      {
        "text": "phone too",
        "userDefined": false
      }
    ],
    "isTemplate": false,
    "count": 0,
    "updated": 0
  },
  {
    "id": "530afba0-ff9b-41b3-9eaa-35f8faedf3cc",
    "data": [
      {
        "text": "what about ",
        "userDefined": false
      },
      {
        "text": "contact",
        "meta": "@sys.ignore",
        "userDefined": false
      },
      {
        "text": " number",
        "userDefined": false
      }
    ],
    "isTemplate": false,
    "count": 0,
    "updated": 0
  },
  {
    "id": "9bfe992d-35b0-4678-8f2d-233020a566a0",
    "data": [
      {
        "text": "how to make a phone call",
        "userDefined": false
      }
    ],
    "isTemplate": false,
    "count": 0,
    "updated": 0
  },
  {
    "id": "077291a2-5c59-47d9-8ce8-8a81786710ab",
    "data": [
      {
        "text": "what ",
        "userDefined": false
      },
      {
        "text": "about",
        "meta": "@sys.ignore",
        "userDefined": false
      },
      {
        "text": " his ",
        "userDefined": false
      },
      {
        "text": "phone",
        "meta": "@sys.ignore",
        "userDefined": false
      }
    ],
    "isTemplate": false,
    "count": 0,
    "updated": 0
  },
  {
    "id": "d6d8ac6c-63fa-496f-b5d5-cd6c1daadefe",
    "data": [
      {
        "text": "and ",
        "userDefined": false
      },
      {
        "text": "contact",
        "meta": "@sys.ignore",
        "userDefined": false
      },
      {
        "text": " number",
        "userDefined": false
      }
    ],
    "isTemplate": false,
    "count": 0,
    "updated": 0
  },
  {
    "id": "8d140c81-e017-47f8-8e9f-eac6ce0fd15d",
    "data": [
      {
        "text": "what about phone number",
        "userDefined": false
      }
    ],
    "isTemplate": false,
    "count": 0,
    "updated": 0
  },
  {
    "id": "72d1f705-dbbf-479c-b7e2-dc01df7ade2e",
    "data": [
      {
        "text": "and their phone",
        "userDefined": false
      }
    ],
    "isTemplate": false,
    "count": 0,
    "updated": 0
  },
  {
    "id": "dc6525a0-d339-45d7-9b5d-9af43aa8dba1",
    "data": [
      {
        "text": "and ",
        "userDefined": false
      },
      {
        "text": "phone",
        "meta": "@sys.ignore",
        "userDefined": false
      }
    ],
    "isTemplate": false,
    "count": 0,
    "updated": 0
  },
  {
    "id": "b8d85958-3082-4447-a9ec-4b869077b95d",
    "data": [
      {
        "text": "her",
        "meta": "@sys.ignore",
        "userDefined": false
      },
      {
        "text": " ",
        "userDefined": false
      },
      {
        "text": "number",
        "meta": "@sys.ignore",
        "userDefined": false
      }
    ],
    "isTemplate": false,
    "count": 0,
    "updated": 0
  },
  {
    "id": "269b83d3-ec05-4b31-833d-25d9fa5df473",
    "data": [
      {
        "text": "I need their phone too",
        "userDefined": false
      }
    ],
    "isTemplate": false,
    "count": 0,
    "updated": 0
  },
  {
    "id": "e012100b-8736-4f9a-8329-4843fbf35731",
    "data": [
      {
        "text": "now their phone",
        "userDefined": false
      }
    ],
    "isTemplate": false,
    "count": 0,
    "updated": 0
  },
  {
    "id": "ce42f784-9611-4588-9811-faf18cc7e0a8",
    "data": [
      {
        "text": "phone number too",
        "userDefined": false
      }
    ],
    "isTemplate": false,
    "count": 0,
    "updated": 0
  },
  {
    "id": "99fa2fc8-9786-4aea-827d-e91f1572c5bb",
    "data": [
      {
        "text": "can I call ",
        "userDefined": false
      },
      {
        "text": "them",
        "meta": "@sys.ignore",
        "userDefined": false
      }
    ],
    "isTemplate": false,
    "count": 0,
    "updated": 0
  }
]