[
  {
    "id": "fa975e6e-957a-45d8-8717-c3697c8eae0e",
    "data": [
      {
        "text": "дай мне почту разработчиков",
        "userDefined": false
      }
    ],
    "isTemplate": false,
    "count": 0,
    "updated": 0
  },
  {
    "id": "849607dd-d608-435d-b9e5-0bb5dce9490d",
    "data": [
      {
        "text": "мне нужно написать разработчикам дай мне адрес электронной почты",
        "userDefined": false
      }
    ],
    "isTemplate": false,
    "count": 0,
    "updated": 0
  },
  {
    "id": "62445259-65bc-424b-bfef-2b94df9ee0b8",
    "data": [
      {
        "text": "я бы хотел написать на почту разработчикам",
        "userDefined": false
      }
    ],
    "isTemplate": false,
    "count": 0,
    "updated": 0
  },
  {
    "id": "ee6c3df3-b6fa-4873-9bfd-a5d832bcfe4e",
    "data": [
      {
        "text": "хочу связаться с разработчиками покажи их почту",
        "userDefined": false
      }
    ],
    "isTemplate": false,
    "count": 0,
    "updated": 0
  },
  {
    "id": "f9b26add-831d-4654-9d8e-29cec0c41ce1",
    "data": [
      {
        "text": "как связаться с разработчиками",
        "userDefined": false
      }
    ],
    "isTemplate": false,
    "count": 0,
    "updated": 0
  },
  {
    "id": "ac93f343-9a10-4125-aa23-9ae54a1cb62a",
    "data": [
      {
        "text": "почта разработчиков",
        "userDefined": false
      }
    ],
    "isTemplate": false,
    "count": 0,
    "updated": 0
  },
  {
    "id": "08d72a9b-8808-4476-b20b-29df6a084d83",
    "data": [
      {
        "text": "где взять почту разработчиков",
        "userDefined": false
      }
    ],
    "isTemplate": false,
    "count": 0,
    "updated": 0
  },
  {
    "id": "8386490c-1b24-48ab-86df-12dcf4bbaa88",
    "data": [
      {
        "text": "хочу связаться с твоими создателями по электронной почте",
        "userDefined": false
      }
    ],
    "isTemplate": false,
    "count": 1,
    "updated": 0
  },
  {
    "id": "0ff5181f-9fda-4d39-8b8d-6071d82eaec3",
    "data": [
      {
        "text": "покажи электронный адрес разработчиков",
        "userDefined": false
      }
    ],
    "isTemplate": false,
    "count": 0,
    "updated": 0
  },
  {
    "id": "062dd666-6337-42e6-b6fc-06a8465f18cd",
    "data": [
      {
        "text": "как написать разработчикам",
        "userDefined": false
      }
    ],
    "isTemplate": false,
    "count": 0,
    "updated": 0
  },
  {
    "id": "e0220b20-7b48-4fed-8661-3ca311e14382",
    "data": [
      {
        "text": "можно мне выслать разработчикам email",
        "userDefined": false
      }
    ],
    "isTemplate": false,
    "count": 0,
    "updated": 0
  },
  {
    "id": "5566d618-5724-4c88-aea7-56a445e51bba",
    "data": [
      {
        "text": "электронный адрес твоих создателей",
        "userDefined": false
      }
    ],
    "isTemplate": false,
    "count": 0,
    "updated": 0
  },
  {
    "id": "0ec54027-3843-4086-9bc8-5a0decdb9633",
    "data": [
      {
        "text": "я хочу связаться с разработчиками по электронной почте",
        "userDefined": false
      }
    ],
    "isTemplate": false,
    "count": 0,
    "updated": 0
  },
  {
    "id": "d4a03ab1-430a-4721-bbed-bf1f66df1c9f",
    "data": [
      {
        "text": "электронный адрес разработчиков",
        "userDefined": false
      }
    ],
    "isTemplate": false,
    "count": 0,
    "updated": 0
  },
  {
    "id": "8a9dc33b-5fd0-40b8-bdcd-56e4ed215013",
    "data": [
      {
        "text": "можешь пожалуйста дать мне адрес почты разработчиков",
        "userDefined": false
      }
    ],
    "isTemplate": false,
    "count": 0,
    "updated": 0
  },
  {
    "id": "37ad404c-4539-4de4-8cfe-9fe58240d0f7",
    "data": [
      {
        "text": "открой электронный адрес разработчиков",
        "userDefined": false
      }
    ],
    "isTemplate": false,
    "count": 0,
    "updated": 0
  }
]