[
  {
    "id": "67377f8f-1e5d-4d79-a35c-0f6bf9e3a383",
    "data": [
      {
        "text": "portami sul tuo sito",
        "userDefined": false
      }
    ],
    "isTemplate": false,
    "count": 0,
    "updated": 0
  },
  {
    "id": "560c6a18-8714-40c8-b7d9-658cfbb830a1",
    "data": [
      {
        "text": "cerca il tuo sito",
        "userDefined": false
      }
    ],
    "isTemplate": false,
    "count": 0,
    "updated": 0
  },
  {
    "id": "c785aef8-94f3-41a3-b3e6-f25d4a3e5a4a",
    "data": [
      {
        "text": "trova il tuo sito",
        "userDefined": false
      }
    ],
    "isTemplate": false,
    "count": 0,
    "updated": 0
  },
  {
    "id": "db1aafaa-5762-4240-9b69-32b89e1ab7ff",
    "data": [
      {
        "text": "mostra il tuo sito",
        "userDefined": false
      }
    ],
    "isTemplate": false,
    "count": 0,
    "updated": 0
  },
  {
    "id": "31826d06-0e3d-4f77-8701-c29fd7152b6c",
    "data": [
      {
        "text": "mostrami il tuo sito",
        "userDefined": false
      }
    ],
    "isTemplate": false,
    "count": 0,
    "updated": 0
  },
  {
    "id": "47e506f5-fef7-4f5e-a5d8-a9b427e4911f",
    "data": [
      {
        "text": "vai a quel sito su di te online",
        "userDefined": false
      }
    ],
    "isTemplate": false,
    "count": 0,
    "updated": 0
  },
  {
    "id": "f41adfc8-f966-4a98-8d5c-bcef2671e8ec",
    "data": [
      {
        "text": "sito dei tuoi creatori",
        "userDefined": false
      }
    ],
    "isTemplate": false,
    "count": 0,
    "updated": 0
  },
  {
    "id": "56a156f9-54e9-4b31-918c-e5675a18bbe7",
    "data": [
      {
        "text": "il tuo sito",
        "userDefined": false
      }
    ],
    "isTemplate": false,
    "count": 1,
    "updated": 0
  }
]