[
  {
    "id": "60daf35a-1b26-4e5b-b769-4bad4b5924c0",
    "data": [
      {
        "text": "作成者が誰か教えてください",
        "userDefined": false
      }
    ],
    "isTemplate": false,
    "count": 0,
    "updated": 0
  },
  {
    "id": "b58f4188-434a-4987-9527-5f3d99c93ed6",
    "data": [
      {
        "text": "作成者の名前は何ですか",
        "userDefined": false
      }
    ],
    "isTemplate": false,
    "count": 0,
    "updated": 0
  },
  {
    "id": "b21452d3-3cc0-4a7f-954e-6cbc4cb02394",
    "data": [
      {
        "text": "誰に作成されたかわかりますか",
        "userDefined": false
      }
    ],
    "isTemplate": false,
    "count": 0,
    "updated": 0
  },
  {
    "id": "8d303ba0-84d0-4fea-9a0b-012b9cb4025e",
    "data": [
      {
        "text": "作成者について教えてください",
        "userDefined": false
      }
    ],
    "isTemplate": false,
    "count": 0,
    "updated": 0
  },
  {
    "id": "50a1f75f-ec73-4ff9-9a08-cbce35802dbf",
    "data": [
      {
        "text": "プログラマーはどなたですか",
        "userDefined": false
      }
    ],
    "isTemplate": false,
    "count": 0,
    "updated": 0
  },
  {
    "id": "37858129-1636-48be-80c2-4779ee03cc3e",
    "data": [
      {
        "text": "デベロッパーの名前は何ですか",
        "userDefined": false
      }
    ],
    "isTemplate": false,
    "count": 0,
    "updated": 0
  },
  {
    "id": "766e514e-3a32-42b4-8998-9e23291b7cae",
    "data": [
      {
        "text": "あなたを作ったのは誰",
        "userDefined": false
      }
    ],
    "isTemplate": false,
    "count": 0,
    "updated": 0
  },
  {
    "id": "3885d8b3-1114-4abc-b660-753209e89d28",
    "data": [
      {
        "text": "作成者は誰ですか、教えてください",
        "userDefined": false
      }
    ],
    "isTemplate": false,
    "count": 0,
    "updated": 0
  },
  {
    "id": "0266f4d8-11e7-4652-a0c7-8fda94751418",
    "data": [
      {
        "text": "作成したのはどなたですか",
        "userDefined": false
      }
    ],
    "isTemplate": false,
    "count": 0,
    "updated": 0
  },
  {
    "id": "738a9fe8-7f37-49d6-a7d0-47d761ea9379",
    "data": [
      {
        "text": "あなたの教師はどなたですか",
        "userDefined": false
      }
    ],
    "isTemplate": false,
    "count": 0,
    "updated": 0
  },
  {
    "id": "e7f59d4e-35f1-4056-9aac-97d939dba03f",
    "data": [
      {
        "text": "デベロッパー名は何ですか",
        "userDefined": false
      }
    ],
    "isTemplate": false,
    "count": 0,
    "updated": 0
  }
]