[
  {
    "id": "b3e04e50-d5b5-4f18-8dd0-f754f9537f9b",
    "data": [
      {
        "text": "你的開發人員在哪裏",
        "userDefined": false
      }
    ],
    "isTemplate": false,
    "count": 0,
    "updated": 0
  },
  {
    "id": "f338127a-4c43-4674-adab-5f83b0713a2c",
    "data": [
      {
        "text": "你",
        "userDefined": false
      },
      {
        "text": "的",
        "meta": "@sys.ignore",
        "userDefined": false
      },
      {
        "text": "開發",
        "meta": "@sys.ignore",
        "userDefined": false
      },
      {
        "text": "人員",
        "userDefined": false
      },
      {
        "text": "的地址",
        "meta": "@sys.ignore",
        "userDefined": false
      }
    ],
    "isTemplate": false,
    "count": 0,
    "updated": 0
  },
  {
    "id": "b357e9e1-860b-4e90-b9ef-9ba02761da81",
    "data": [
      {
        "text": "你公司在哪裏",
        "userDefined": false
      }
    ],
    "isTemplate": false,
    "count": 0,
    "updated": 0
  },
  {
    "id": "cb22286f-efbe-456e-91e2-28a947457fa1",
    "data": [
      {
        "text": "在哪裏可以找到你公司的地址",
        "userDefined": false
      }
    ],
    "isTemplate": false,
    "count": 0,
    "updated": 0
  },
  {
    "id": "a50df9ea-5d5c-42f6-bfb6-204a97e0b2bf",
    "data": [
      {
        "text": "你的創作者在哪裏",
        "userDefined": false
      }
    ],
    "isTemplate": false,
    "count": 0,
    "updated": 0
  },
  {
    "id": "38727c9e-f61a-4eb4-a7b2-f68c7a0a7f9c",
    "data": [
      {
        "text": "我需要你的公司地址",
        "userDefined": false
      }
    ],
    "isTemplate": false,
    "count": 0,
    "updated": 0
  },
  {
    "id": "8fe1b4b4-6e8d-46c2-a340-ce55213609d5",
    "data": [
      {
        "text": "告訴我你的開發人員的辦公室在哪裏",
        "userDefined": false
      }
    ],
    "isTemplate": false,
    "count": 0,
    "updated": 0
  },
  {
    "id": "55d3b332-a7d0-45cd-b345-2baa99c595c9",
    "data": [
      {
        "text": "你的開發者的地址是什麽",
        "userDefined": false
      }
    ],
    "isTemplate": false,
    "count": 0,
    "updated": 0
  },
  {
    "id": "1cd011da-1e71-4a12-a07a-ec01212b4cfc",
    "data": [
      {
        "text": "你的開發者辦公室的地址",
        "userDefined": false
      }
    ],
    "isTemplate": false,
    "count": 0,
    "updated": 0
  },
  {
    "id": "c11fc94d-5bd9-4d66-902c-c7c6e554bcc6",
    "data": [
      {
        "text": "您的開發人員的位置",
        "userDefined": false
      }
    ],
    "isTemplate": false,
    "count": 0,
    "updated": 0
  },
  {
    "id": "182f56b1-af47-4cd0-985c-c5d7ba5f64b7",
    "data": [
      {
        "text": "你能給我你的開發者地址嗎",
        "userDefined": false
      }
    ],
    "isTemplate": false,
    "count": 0,
    "updated": 0
  },
  {
    "id": "e41d5bc5-9a48-446c-bde8-20dc936abdb9",
    "data": [
      {
        "text": "向我提供開發人員的地址",
        "userDefined": false
      }
    ],
    "isTemplate": false,
    "count": 0,
    "updated": 0
  },
  {
    "id": "50e59148-82dc-49a9-98cf-b6f4a5623805",
    "data": [
      {
        "text": "你的開發人員在哪裏工作",
        "userDefined": false
      }
    ],
    "isTemplate": false,
    "count": 0,
    "updated": 0
  },
  {
    "id": "fc3babf1-8019-487c-9896-efe6783199eb",
    "data": [
      {
        "text": "我想知道你公司的主要辦公室在哪裏",
        "userDefined": false
      }
    ],
    "isTemplate": false,
    "count": 0,
    "updated": 0
  },
  {
    "id": "a8adff60-e637-422f-8a2c-1c459c3a9efe",
    "data": [
      {
        "text": "你的開發者的地址",
        "userDefined": false
      }
    ],
    "isTemplate": false,
    "count": 0,
    "updated": 0
  },
  {
    "id": "f144315f-873e-4967-8c3e-28181dea787f",
    "data": [
      {
        "text": "你的開發人員住在哪裏",
        "userDefined": false
      }
    ],
    "isTemplate": false,
    "count": 0,
    "updated": 0
  },
  {
    "id": "83235785-4209-479d-ada3-4abb7c1ac6fe",
    "data": [
      {
        "text": "告訴我你的開發者地址",
        "userDefined": false
      }
    ],
    "isTemplate": false,
    "count": 0,
    "updated": 0
  },
  {
    "id": "332b0965-fa9a-455d-b4e2-ec727ea11be0",
    "data": [
      {
        "text": "你",
        "userDefined": false
      },
      {
        "text": "的",
        "meta": "@sys.ignore",
        "userDefined": false
      },
      {
        "text": "開發",
        "meta": "@sys.ignore",
        "userDefined": false
      },
      {
        "text": "人員住在哪兒",
        "userDefined": false
      }
    ],
    "isTemplate": false,
    "count": 0,
    "updated": 0
  },
  {
    "id": "3328a7d7-23ff-464c-9162-ddecab570b76",
    "data": [
      {
        "text": "給我你的開發者的地址",
        "userDefined": false
      }
    ],
    "isTemplate": false,
    "count": 0,
    "updated": 0
  }
]