[
  {
    "id": "aa448bb2-edfa-45f8-ae10-a3c3b7acb81c",
    "data": [
      {
        "text": "website too please",
        "userDefined": false
      }
    ],
    "isTemplate": false,
    "count": 0,
    "updated": 0
  },
  {
    "id": "f0ff6360-740c-4494-ab02-7b021584321f",
    "data": [
      {
        "text": "your",
        "meta": "@sys.ignore",
        "userDefined": false
      },
      {
        "text": " site",
        "userDefined": false
      }
    ],
    "isTemplate": false,
    "count": 0,
    "updated": 0
  },
  {
    "id": "5bb2aeb1-b9e8-4034-aaff-3dc62eb1f96c",
    "data": [
      {
        "text": "now",
        "meta": "@sys.ignore",
        "userDefined": false
      },
      {
        "text": " the website",
        "userDefined": false
      }
    ],
    "isTemplate": false,
    "count": 0,
    "updated": 0
  },
  {
    "id": "db7c9a83-dce9-4e83-8ce6-949b98959e09",
    "data": [
      {
        "text": "site also",
        "userDefined": false
      }
    ],
    "isTemplate": false,
    "count": 0,
    "updated": 0
  },
  {
    "id": "40f48157-8ec6-4728-ae05-0acb99c1e57a",
    "data": [
      {
        "text": "your",
        "meta": "@sys.ignore",
        "userDefined": false
      },
      {
        "text": " website",
        "userDefined": false
      }
    ],
    "isTemplate": false,
    "count": 0,
    "updated": 0
  },
  {
    "id": "09790ba9-bb4e-40c6-87e2-e5e161f9637f",
    "data": [
      {
        "text": "and ",
        "userDefined": false
      },
      {
        "text": "your",
        "meta": "@sys.ignore",
        "userDefined": false
      },
      {
        "text": " website",
        "userDefined": false
      }
    ],
    "isTemplate": false,
    "count": 0,
    "updated": 0
  },
  {
    "id": "e3558265-e3c4-4c71-8cf8-177036e7b0e5",
    "data": [
      {
        "text": "what about ",
        "userDefined": false
      },
      {
        "text": "your",
        "meta": "@sys.ignore",
        "userDefined": false
      },
      {
        "text": " website",
        "userDefined": false
      }
    ],
    "isTemplate": false,
    "count": 0,
    "updated": 0
  },
  {
    "id": "7bbe5800-728d-41d7-ae95-ba8a0a44b567",
    "data": [
      {
        "text": "now their website",
        "userDefined": false
      }
    ],
    "isTemplate": false,
    "count": 0,
    "updated": 0
  },
  {
    "id": "a9f3ad28-402d-4e56-a725-0fef966cb73f",
    "data": [
      {
        "text": "website",
        "userDefined": false
      }
    ],
    "isTemplate": false,
    "count": 0,
    "updated": 0
  },
  {
    "id": "74ec426b-57a5-42e6-8ca3-0e7070143417",
    "data": [
      {
        "text": "show their website",
        "userDefined": false
      }
    ],
    "isTemplate": false,
    "count": 0,
    "updated": 0
  },
  {
    "id": "081aa6da-bc91-4c3d-aef2-d31a0354d257",
    "data": [
      {
        "text": "and ",
        "userDefined": false
      },
      {
        "text": "your",
        "meta": "@sys.ignore",
        "userDefined": false
      },
      {
        "text": " web page",
        "userDefined": false
      }
    ],
    "isTemplate": false,
    "count": 0,
    "updated": 0
  },
  {
    "id": "01209916-6504-4065-8ef8-c1fa3235d7ab",
    "data": [
      {
        "text": "do they have a website",
        "userDefined": false
      }
    ],
    "isTemplate": false,
    "count": 0,
    "updated": 0
  },
  {
    "id": "b0847caa-711a-439d-9ead-76364d3b65a3",
    "data": [
      {
        "text": "your",
        "meta": "@sys.ignore",
        "userDefined": false
      },
      {
        "text": " web page",
        "userDefined": false
      }
    ],
    "isTemplate": false,
    "count": 0,
    "updated": 0
  },
  {
    "id": "cab9e45b-a4b8-43f4-a5d5-b2453718161d",
    "data": [
      {
        "text": "and web site",
        "userDefined": false
      }
    ],
    "isTemplate": false,
    "count": 0,
    "updated": 0
  },
  {
    "id": "c50c421b-1d23-4c32-9ff8-58635fab5ebf",
    "data": [
      {
        "text": "the site as well",
        "meta": "@sys.ignore",
        "userDefined": false
      }
    ],
    "isTemplate": false,
    "count": 0,
    "updated": 0
  },
  {
    "id": "61afc47d-f11d-435c-a872-ab1cf5df471b",
    "data": [
      {
        "text": "website ",
        "userDefined": false
      },
      {
        "text": "now",
        "meta": "@sys.ignore",
        "userDefined": false
      }
    ],
    "isTemplate": false,
    "count": 0,
    "updated": 0
  }
]