[
  {
    "id": "30d8bce2-6c85-4ae5-a326-f034089f36d5",
    "data": [
      {
        "text": "ベータ版を表示してください",
        "userDefined": false
      }
    ],
    "isTemplate": false,
    "count": 0,
    "updated": 0
  },
  {
    "id": "c67c8e6d-480a-46e8-b2f0-1fafccc750eb",
    "data": [
      {
        "text": "ベータ版テストは実施していますか",
        "userDefined": false
      }
    ],
    "isTemplate": false,
    "count": 0,
    "updated": 0
  },
  {
    "id": "fd020f5c-4ed9-4d94-9a86-33187806d2ab",
    "data": [
      {
        "text": "ベータ版を提供してください",
        "userDefined": false
      }
    ],
    "isTemplate": false,
    "count": 0,
    "updated": 0
  },
  {
    "id": "51de6fb6-ccb5-455c-bccf-8d27e71937b0",
    "data": [
      {
        "text": "ベータ版アプリはどこで入手できますか",
        "userDefined": false
      }
    ],
    "isTemplate": false,
    "count": 1,
    "updated": 0
  },
  {
    "id": "397f2cf8-b5c2-4a06-84ef-90e0fe527b69",
    "data": [
      {
        "text": "ベータ版はありますか",
        "userDefined": false
      }
    ],
    "isTemplate": false,
    "count": 0,
    "updated": 0
  },
  {
    "id": "f0e83e82-2a72-4347-a91f-f5a7c5f5941c",
    "data": [
      {
        "text": "ベータ版を入手したいのですが",
        "userDefined": false
      }
    ],
    "isTemplate": false,
    "count": 0,
    "updated": 0
  },
  {
    "id": "1aaa3cd9-3acd-4d82-a99d-a43fd25196ff",
    "data": [
      {
        "text": "ベータ版テストに参加したいです",
        "userDefined": false
      }
    ],
    "isTemplate": false,
    "count": 0,
    "updated": 0
  },
  {
    "id": "7b7cb174-174b-4f37-ad55-7d511ef50fcb",
    "data": [
      {
        "text": "ベータ版のテストグループにはどうしたら参加できますか",
        "userDefined": false
      }
    ],
    "isTemplate": false,
    "count": 1,
    "updated": 0
  },
  {
    "id": "46b80d62-4c29-4937-bdb8-4d81a9b451f2",
    "data": [
      {
        "text": "ベータ版を入手してください",
        "userDefined": false
      }
    ],
    "isTemplate": false,
    "count": 1,
    "updated": 0
  },
  {
    "id": "fe88efd7-f514-46d2-afce-bb380a913a10",
    "data": [
      {
        "text": "ベータ版テストに加わりたいです",
        "userDefined": false
      }
    ],
    "isTemplate": false,
    "count": 0,
    "updated": 0
  }
]