[
  {
    "id": "b1cb91fa-05c4-44c1-a419-e2ad5c8f9ac0",
    "data": [
      {
        "text": "給我你的開發者電子郵件",
        "userDefined": false
      }
    ],
    "isTemplate": false,
    "count": 0,
    "updated": 0
  },
  {
    "id": "3c4b1c61-d342-4eab-a548-417592b56239",
    "data": [
      {
        "text": "你的開發者的電子郵件地址是什麽",
        "userDefined": false
      }
    ],
    "isTemplate": false,
    "count": 1,
    "updated": 0
  },
  {
    "id": "a0f88747-4105-4472-b22b-183af98085ff",
    "data": [
      {
        "text": "你的開發人員的電子郵件是什麽",
        "userDefined": false
      }
    ],
    "isTemplate": false,
    "count": 0,
    "updated": 0
  },
  {
    "id": "6cd63d49-dcf2-4744-ad00-963eb33fc6f0",
    "data": [
      {
        "text": "聯系你的開發人員電子郵件",
        "userDefined": false
      }
    ],
    "isTemplate": false,
    "count": 0,
    "updated": 0
  },
  {
    "id": "bff32b82-ad96-4f60-bca2-6f4b97029230",
    "data": [
      {
        "text": "我想給你的開發者寫一封電子郵件",
        "userDefined": false
      }
    ],
    "isTemplate": false,
    "count": 0,
    "updated": 0
  },
  {
    "id": "2795bfb7-934b-4278-95bc-f425c3dc0ec7",
    "data": [
      {
        "text": "給我你的開發人員的電子郵件地址",
        "userDefined": false
      }
    ],
    "isTemplate": false,
    "count": 0,
    "updated": 0
  },
  {
    "id": "ad6e33b3-d7ba-4fe6-8fc8-2e93ca9d1c30",
    "data": [
      {
        "text": "怎麽聯系你的開發人員電子郵件",
        "userDefined": false
      }
    ],
    "isTemplate": false,
    "count": 0,
    "updated": 0
  },
  {
    "id": "2f527b38-d964-4712-ac45-c5d1c9fb88ed",
    "data": [
      {
        "text": "我想要聯系你的開發人員電子郵件",
        "userDefined": false
      }
    ],
    "isTemplate": false,
    "count": 0,
    "updated": 0
  },
  {
    "id": "edfa3a69-8256-4dd8-9d47-5c8044d964e1",
    "data": [
      {
        "text": "我想通過電子郵件與您的開發人員聯系",
        "userDefined": false
      }
    ],
    "isTemplate": false,
    "count": 0,
    "updated": 0
  },
  {
    "id": "d52a48c3-6f8d-4c5f-ac48-5c3aa17d430b",
    "data": [
      {
        "text": "我要聯系你的開發人員電子郵件",
        "userDefined": false
      }
    ],
    "isTemplate": false,
    "count": 0,
    "updated": 0
  },
  {
    "id": "e0b906c7-2ae0-401f-a090-f09ef24c9a4a",
    "data": [
      {
        "text": "如何聯系你的開發人員電子郵件",
        "userDefined": false
      }
    ],
    "isTemplate": false,
    "count": 0,
    "updated": 0
  },
  {
    "id": "1958f62b-a38e-46a5-9316-f020985ece09",
    "data": [
      {
        "text": "你的開發人員電子郵件",
        "userDefined": false
      }
    ],
    "isTemplate": false,
    "count": 0,
    "updated": 0
  },
  {
    "id": "b74bbb49-1249-4bf1-87a0-0f306c40d1f2",
    "data": [
      {
        "text": "告訴我怎聯系你的開發人員電子郵件",
        "userDefined": false
      }
    ],
    "isTemplate": false,
    "count": 0,
    "updated": 0
  },
  {
    "id": "df4e9b78-275a-4e63-91ba-ddc6bbe76003",
    "data": [
      {
        "text": "你能給我開發者的電子郵件地址嗎",
        "userDefined": false
      }
    ],
    "isTemplate": false,
    "count": 0,
    "updated": 0
  },
  {
    "id": "48d51b39-be45-4741-922a-090362e8e8ff",
    "data": [
      {
        "text": "你的開發者有什麽電子郵件",
        "userDefined": false
      }
    ],
    "isTemplate": false,
    "count": 0,
    "updated": 0
  },
  {
    "id": "83035002-c4ed-4ef3-ae32-654f1d4c39c1",
    "data": [
      {
        "text": "您的開發人員發郵",
        "userDefined": false
      }
    ],
    "isTemplate": false,
    "count": 0,
    "updated": 0
  }
]