[
  {
    "id": "5bdeedf0-727e-4e60-b1ea-e300e3ba1f73",
    "data": [
      {
        "text": "デベロッパーに電話をかけてもいいですか",
        "userDefined": false
      }
    ],
    "isTemplate": false,
    "count": 0,
    "updated": 0
  },
  {
    "id": "4b1696e4-0aba-4321-b5e8-1f30b061443e",
    "data": [
      {
        "text": "開発者と話がしたいので、電話番号を教えてください",
        "userDefined": false
      }
    ],
    "isTemplate": false,
    "count": 0,
    "updated": 0
  },
  {
    "id": "d29d5f01-e71f-4df9-abfc-6ac091cea746",
    "data": [
      {
        "text": "デベロッパーの電話番号が必要です",
        "userDefined": false
      }
    ],
    "isTemplate": false,
    "count": 1,
    "updated": 0
  },
  {
    "id": "d38cc4c2-5e5e-46d8-8219-ae6b217583b7",
    "data": [
      {
        "text": "デベロッパーと連絡をとりたいので、電話番号を教えてください",
        "userDefined": false
      }
    ],
    "isTemplate": false,
    "count": 3,
    "updated": 0
  },
  {
    "id": "f34cb262-a065-44a8-a357-14868253785c",
    "data": [
      {
        "text": "デベロッパーに電話で連絡をとることはできますか",
        "userDefined": false
      }
    ],
    "isTemplate": false,
    "count": 0,
    "updated": 0
  },
  {
    "id": "337d009d-967d-4fbe-800d-2bc0f4499af5",
    "data": [
      {
        "text": "開発者の電話場合を知らせてください",
        "userDefined": false
      }
    ],
    "isTemplate": false,
    "count": 1,
    "updated": 0
  },
  {
    "id": "1b5997b5-c612-4255-bc88-92869d6b1b55",
    "data": [
      {
        "text": "デベロッパーの電話番号を教えていただけますか",
        "userDefined": false
      }
    ],
    "isTemplate": false,
    "count": 0,
    "updated": 0
  },
  {
    "id": "3af2bef5-8009-4f52-9ec8-47ce57606c24",
    "data": [
      {
        "text": "デベロッパーの電話番号",
        "userDefined": false
      }
    ],
    "isTemplate": false,
    "count": 1,
    "updated": 0
  },
  {
    "id": "d8bf7782-4597-41bd-8f84-7377f674937e",
    "data": [
      {
        "text": "開発者と電話で話がしたい",
        "userDefined": false
      }
    ],
    "isTemplate": false,
    "count": 1,
    "updated": 0
  },
  {
    "id": "1a722e07-4571-4a1c-80e1-2439344c7823",
    "data": [
      {
        "text": "デベロッパーの電話番号を教えて",
        "userDefined": false
      }
    ],
    "isTemplate": false,
    "count": 0,
    "updated": 0
  }
]