[
  {
    "id": "ce3bd288-ec5f-4927-99df-10918d1befd8",
    "data": [
      {
        "text": "deine Firmenwebsite",
        "userDefined": false
      }
    ],
    "isTemplate": false,
    "count": 0,
    "updated": 0
  },
  {
    "id": "2f9f9423-f6f8-4322-af79-71fc0dda8c0e",
    "data": [
      {
        "text": "suche nach deiner Website",
        "userDefined": false
      }
    ],
    "isTemplate": false,
    "count": 0,
    "updated": 0
  },
  {
    "id": "89b2128e-ef9a-4859-8731-b52faa2e0c9a",
    "data": [
      {
        "text": "hast du eine Website",
        "userDefined": false
      }
    ],
    "isTemplate": false,
    "count": 0,
    "updated": 0
  },
  {
    "id": "08e89a91-80fe-497e-8839-2699c264189b",
    "data": [
      {
        "text": "haben deine Entwickler eine Website",
        "userDefined": false
      }
    ],
    "isTemplate": false,
    "count": 0,
    "updated": 0
  },
  {
    "id": "5eefa27d-2f19-4e55-950a-5de19ef0e4b1",
    "data": [
      {
        "text": "deine Homepage",
        "userDefined": false
      }
    ],
    "isTemplate": false,
    "count": 0,
    "updated": 0
  },
  {
    "id": "fcf0aff8-4f1c-49fe-a42b-e1f2e40c8bcb",
    "data": [
      {
        "text": "deine Website",
        "userDefined": false
      }
    ],
    "isTemplate": false,
    "count": 0,
    "updated": 0
  },
  {
    "id": "e1b38b42-c719-4887-b50f-192d25df6273",
    "data": [
      {
        "text": "hast du eine Homepage",
        "userDefined": false
      }
    ],
    "isTemplate": false,
    "count": 0,
    "updated": 0
  },
  {
    "id": "a918dbbc-2857-4129-9ed6-649479c18821",
    "data": [
      {
        "text": "zeig mir deine Website",
        "userDefined": false
      }
    ],
    "isTemplate": false,
    "count": 0,
    "updated": 0
  },
  {
    "id": "f3eef015-1e3d-4c1d-bb77-9deba061036b",
    "data": [
      {
        "text": "finde deine Website",
        "userDefined": false
      }
    ],
    "isTemplate": false,
    "count": 0,
    "updated": 0
  },
  {
    "id": "fa66c997-8eb5-48de-9c87-836fb6a782b5",
    "data": [
      {
        "text": "Website von deiner Firma",
        "userDefined": false
      }
    ],
    "isTemplate": false,
    "count": 0,
    "updated": 0
  }
]