[
  {
    "id": "d30f80ab-99f1-405f-8859-7a89abd5e899",
    "data": [
      {
        "text": "sua empresa desenvolve alguma outra coisa",
        "userDefined": false
      }
    ],
    "isTemplate": false,
    "count": 0,
    "updated": 0
  },
  {
    "id": "833650f9-10ed-48c1-84ca-1653500a79a5",
    "data": [
      {
        "text": "o que seus desenvolvedores fazem",
        "userDefined": false
      }
    ],
    "isTemplate": false,
    "count": 0,
    "updated": 0
  },
  {
    "id": "d5500b95-205d-4000-b2d9-ce1184dad416",
    "data": [
      {
        "text": "o que sua empresa cria",
        "userDefined": false
      }
    ],
    "isTemplate": false,
    "count": 0,
    "updated": 0
  },
  {
    "id": "6f5c920b-0b08-4697-83f7-df35421b2417",
    "data": [
      {
        "text": "qual é o produto mais vendido da sua empresa",
        "userDefined": false
      }
    ],
    "isTemplate": false,
    "count": 0,
    "updated": 0
  },
  {
    "id": "f75eee44-04e0-4f20-8495-55d3dc010ece",
    "data": [
      {
        "text": "sua empresa tem mais apps",
        "userDefined": false
      }
    ],
    "isTemplate": false,
    "count": 0,
    "updated": 0
  },
  {
    "id": "d1e8ef80-9942-4a2f-8f88-2907488e4cdf",
    "data": [
      {
        "text": "sua empresa tem algum outro produto",
        "userDefined": false
      }
    ],
    "isTemplate": false,
    "count": 0,
    "updated": 0
  },
  {
    "id": "4020eb28-635d-40e4-ac94-add953099499",
    "data": [
      {
        "text": "o que mais seus desenvolvedores fazem",
        "userDefined": false
      }
    ],
    "isTemplate": false,
    "count": 0,
    "updated": 0
  },
  {
    "id": "9c41f52f-26eb-4653-b7c1-c5bb0a47e819",
    "data": [
      {
        "text": "o que sua empresa desenvolve",
        "userDefined": false
      }
    ],
    "isTemplate": false,
    "count": 0,
    "updated": 0
  },
  {
    "id": "a651d600-e3e4-4788-a0e0-cc9bda13bd3f",
    "data": [
      {
        "text": "seus desenvolvedores criaram alguma outra coisa",
        "userDefined": false
      }
    ],
    "isTemplate": false,
    "count": 0,
    "updated": 0
  },
  {
    "id": "42df22bd-8334-43d9-a008-b865243cf85f",
    "data": [
      {
        "text": "o que mais seus desenvolvedores criam",
        "userDefined": false
      }
    ],
    "isTemplate": false,
    "count": 0,
    "updated": 0
  }
]