[
  {
    "id": "d7521ea1-1e2b-40cf-bddb-b2352e0d9df9",
    "data": [
      {
        "text": "que ",
        "userDefined": false
      },
      {
        "text": "le micro ne fonctionne pas correctement",
        "alias": "message",
        "meta": "@sys.any",
        "userDefined": true
      }
    ],
    "isTemplate": false,
    "count": 0,
    "updated": 0
  },
  {
    "id": "222efdfc-17bb-4dd6-a617-1863c879bb07",
    "data": [
      {
        "text": "et que ",
        "userDefined": false
      },
      {
        "text": "le micro ne marche pas",
        "alias": "message",
        "meta": "@sys.any",
        "userDefined": true
      }
    ],
    "isTemplate": false,
    "count": 0,
    "updated": 0
  },
  {
    "id": "df5ff700-a9c2-4149-871e-8288c131867e",
    "data": [
      {
        "text": "ajoute que ",
        "userDefined": false
      },
      {
        "text": "je n\u0027aime pas les avatars",
        "alias": "message",
        "meta": "@sys.any",
        "userDefined": true
      }
    ],
    "isTemplate": false,
    "count": 0,
    "updated": 0
  },
  {
    "id": "84ba44a2-ace8-4fc8-9685-19a340440b05",
    "data": [
      {
        "text": "et j\u0027ai des problèmes niveau ",
        "userDefined": false
      },
      {
        "text": "microphone",
        "alias": "message",
        "meta": "@sys.any",
        "userDefined": true
      }
    ],
    "isTemplate": false,
    "count": 0,
    "updated": 0
  },
  {
    "id": "3b8cc507-26bd-4f73-9c0e-0687a80e9a9e",
    "data": [
      {
        "text": "et que j\u0027ai des soucis avec ",
        "userDefined": false
      },
      {
        "text": "des avatars",
        "alias": "message",
        "meta": "@sys.any",
        "userDefined": true
      }
    ],
    "isTemplate": false,
    "count": 0,
    "updated": 0
  },
  {
    "id": "3322661b-bfd8-4856-8a07-64435dca083a",
    "data": [
      {
        "text": "et ajoute que ",
        "userDefined": false
      },
      {
        "text": "le micro ne fonctionne pas du tout",
        "alias": "message",
        "meta": "@sys.any",
        "userDefined": true
      }
    ],
    "isTemplate": false,
    "count": 0,
    "updated": 0
  },
  {
    "id": "085ab9a1-2e6d-4ba7-ba89-53c67945bba0",
    "data": [
      {
        "text": "et qu\u0027il y a ",
        "userDefined": false
      },
      {
        "text": "un",
        "meta": "@sys.ignore",
        "userDefined": false
      },
      {
        "text": " problème avec ",
        "userDefined": false
      },
      {
        "text": "le micro",
        "alias": "message",
        "meta": "@sys.any",
        "userDefined": true
      }
    ],
    "isTemplate": false,
    "count": 0,
    "updated": 0
  },
  {
    "id": "fae19333-71dd-45a4-aa38-f3935c9e4d8e",
    "data": [
      {
        "text": "et",
        "meta": "@sys.ignore",
        "userDefined": false
      },
      {
        "text": " que ",
        "userDefined": false
      },
      {
        "text": "j\u0027ai un problème",
        "alias": "message",
        "meta": "@sys.any",
        "userDefined": true
      }
    ],
    "isTemplate": false,
    "count": 0,
    "updated": 0
  }
]