[
  {
    "id": "d2526afe-da4e-4d6d-ac28-c12118aee0c1",
    "data": [
      {
        "text": "還要發郵件",
        "userDefined": false
      }
    ],
    "isTemplate": false,
    "count": 0,
    "updated": 0
  },
  {
    "id": "be1ef2d5-2c46-4fd6-81a6-fa9cd4f12463",
    "data": [
      {
        "text": "還能不能發郵件",
        "userDefined": false
      }
    ],
    "isTemplate": false,
    "count": 0,
    "updated": 0
  },
  {
    "id": "8e016486-69b7-4f1f-9874-5cb9e1ecf02a",
    "data": [
      {
        "text": "爲了他們的電子郵件",
        "userDefined": false
      }
    ],
    "isTemplate": false,
    "count": 0,
    "updated": 0
  },
  {
    "id": "ecef9943-4b40-43e1-becb-73e9b266eaf3",
    "data": [
      {
        "text": "會不會發郵件",
        "userDefined": false
      }
    ],
    "isTemplate": false,
    "count": 0,
    "updated": 0
  },
  {
    "id": "6e915916-b45f-4c8f-b37a-edcd8427bc75",
    "data": [
      {
        "text": "現在爲了他們的電子郵件",
        "userDefined": false
      }
    ],
    "isTemplate": false,
    "count": 0,
    "updated": 0
  },
  {
    "id": "3c5786d2-50b8-4b34-96bc-df66d33e5e6e",
    "data": [
      {
        "text": "現在要他們的電子郵件",
        "userDefined": false
      }
    ],
    "isTemplate": false,
    "count": 0,
    "updated": 0
  },
  {
    "id": "784245b0-ecfc-4f52-90b6-36b967de6371",
    "data": [
      {
        "text": "怎麽能發郵件",
        "userDefined": false
      }
    ],
    "isTemplate": false,
    "count": 0,
    "updated": 0
  },
  {
    "id": "29e9edab-f632-4c18-975a-bcd51b1ff552",
    "data": [
      {
        "text": "他們的電子郵件",
        "userDefined": false
      }
    ],
    "isTemplate": false,
    "count": 0,
    "updated": 0
  },
  {
    "id": "ffe11f1a-2f06-4c1e-a3e9-f744ee857b9c",
    "data": [
      {
        "text": "我還要發郵件",
        "userDefined": false
      }
    ],
    "isTemplate": false,
    "count": 0,
    "updated": 0
  },
  {
    "id": "5e5923e5-c4cc-4d9e-84f6-0aafe115c8af",
    "data": [
      {
        "text": "爲他們的電子郵件",
        "userDefined": false
      }
    ],
    "isTemplate": false,
    "count": 0,
    "updated": 0
  },
  {
    "id": "19578f78-ad38-4580-90f4-1daef3130d1a",
    "data": [
      {
        "text": "現在發郵件",
        "userDefined": false
      }
    ],
    "isTemplate": false,
    "count": 0,
    "updated": 0
  },
  {
    "id": "30315ac6-8aa9-486e-98bd-514eae8f76d4",
    "data": [
      {
        "text": "現在他們的電子郵件",
        "userDefined": false
      }
    ],
    "isTemplate": false,
    "count": 0,
    "updated": 0
  },
  {
    "id": "f7b7156e-36e9-469c-b929-a93669782081",
    "data": [
      {
        "text": "關于發郵件",
        "userDefined": false
      }
    ],
    "isTemplate": false,
    "count": 0,
    "updated": 0
  },
  {
    "id": "35262397-7624-4ce0-8b36-3e56985954d1",
    "data": [
      {
        "text": "能不能發郵件",
        "userDefined": false
      }
    ],
    "isTemplate": false,
    "count": 0,
    "updated": 0
  },
  {
    "id": "8c012ada-6a7d-4524-a8fc-f1ad9b614564",
    "data": [
      {
        "text": "關于他們的電子郵件",
        "userDefined": false
      }
    ],
    "isTemplate": false,
    "count": 0,
    "updated": 0
  },
  {
    "id": "5bf11d68-3e37-4170-a6e2-2f0f66ce6f83",
    "data": [
      {
        "text": "在要他們的電子郵件",
        "userDefined": false
      }
    ],
    "isTemplate": false,
    "count": 0,
    "updated": 0
  },
  {
    "id": "18a73f49-9682-40d9-aafe-f1070ead633a",
    "data": [
      {
        "text": "我還很想發郵件",
        "userDefined": false
      }
    ],
    "isTemplate": false,
    "count": 0,
    "updated": 0
  },
  {
    "id": "0cd9eee4-d68a-4551-926d-a08d98d5da24",
    "data": [
      {
        "text": "還需要發郵件",
        "userDefined": false
      }
    ],
    "isTemplate": false,
    "count": 0,
    "updated": 0
  }
]