[
  {
    "id": "4d5ad353-c946-4d59-86be-5fe21d890645",
    "data": [
      {
        "text": "quisiera escribir un correo a tus desarrolladores",
        "userDefined": false
      }
    ],
    "isTemplate": false,
    "count": 0,
    "updated": 0
  },
  {
    "id": "fbe480c4-1695-43f1-85a9-7d2074fe3c2a",
    "data": [
      {
        "text": "dame el contacto de correo de tus diseñadores",
        "userDefined": false
      }
    ],
    "isTemplate": false,
    "count": 0,
    "updated": 0
  },
  {
    "id": "68420da2-6199-4a47-934d-c80bf62298bc",
    "data": [
      {
        "text": "quiero ponerme en contacto con tus creadores por correo electrónico",
        "userDefined": false
      }
    ],
    "isTemplate": false,
    "count": 0,
    "updated": 0
  },
  {
    "id": "7c7165a2-ed27-449f-afc5-df30d92450f2",
    "data": [
      {
        "text": "ponme en contacto con tus creadores por correo electrónico",
        "userDefined": false
      }
    ],
    "isTemplate": false,
    "count": 0,
    "updated": 0
  },
  {
    "id": "7b40178b-71e0-4089-8971-12ae3a3ba78b",
    "data": [
      {
        "text": "dime el correo de tus creadores",
        "userDefined": false
      }
    ],
    "isTemplate": false,
    "count": 0,
    "updated": 0
  },
  {
    "id": "21a20ab8-9449-47d2-98e4-7a15dcd40909",
    "data": [
      {
        "text": "dame la dirección de correo de tus desarrolladores",
        "userDefined": false
      }
    ],
    "isTemplate": false,
    "count": 0,
    "updated": 0
  },
  {
    "id": "90b04d2e-8695-4223-91d3-da7320f4ad93",
    "data": [
      {
        "text": "cuál es el correo electrónico de tus creadores",
        "userDefined": false
      }
    ],
    "isTemplate": false,
    "count": 0,
    "updated": 0
  },
  {
    "id": "80ed165b-2342-43ec-8c01-ecd9ff2f3271",
    "data": [
      {
        "text": "necesito la dirección de correo de tus creadores",
        "userDefined": false
      }
    ],
    "isTemplate": false,
    "count": 0,
    "updated": 0
  },
  {
    "id": "f4594c46-9c31-4abd-9e4b-5364cfb6fe4c",
    "data": [
      {
        "text": "necesito contactar a tus creadores por correo electrónico",
        "userDefined": false
      }
    ],
    "isTemplate": false,
    "count": 0,
    "updated": 0
  }
]