[
  {
    "id": "29d7cd1a-3160-4cde-bccc-0a7af72b002a",
    "data": [
      {
        "text": "люблю тебя",
        "alias": "message",
        "meta": "@sys.any",
        "userDefined": true
      },
      {
        "text": " так и передай разработчикам",
        "userDefined": false
      }
    ],
    "isTemplate": false,
    "count": 0,
    "updated": 0
  },
  {
    "id": "11c1b072-3b0e-48c7-86bf-909930f6e746",
    "data": [
      {
        "text": "свяжись с разработчиками и скажи им что ",
        "userDefined": false
      },
      {
        "text": "мне это не нравится",
        "alias": "message",
        "meta": "@sys.any",
        "userDefined": true
      }
    ],
    "isTemplate": false,
    "count": 0,
    "updated": 0
  },
  {
    "id": "537f93fe-5374-4335-950d-027d63ba1d02",
    "data": [
      {
        "text": "отправь команде обратную связь ",
        "userDefined": false
      },
      {
        "text": "продолжайте в том же духе",
        "alias": "message",
        "meta": "@sys.any",
        "userDefined": true
      }
    ],
    "isTemplate": false,
    "count": 0,
    "updated": 0
  },
  {
    "id": "73ed62b3-c975-49e8-8c1e-fc03e3b24bfb",
    "data": [
      {
        "text": "сообщение твоим создателям",
        "userDefined": false
      }
    ],
    "isTemplate": false,
    "count": 0,
    "updated": 0
  },
  {
    "id": "35c59f29-8587-4854-af0c-0bfb40d8f90e",
    "data": [
      {
        "text": "оставь отзыв",
        "userDefined": false
      }
    ],
    "isTemplate": false,
    "count": 0,
    "updated": 0
  },
  {
    "id": "0fb0283f-e218-44f1-a875-cb1f2ded2275",
    "data": [
      {
        "text": "расскажи своим разработчикам как ",
        "userDefined": false
      },
      {
        "text": "я люблю тебя",
        "alias": "message",
        "meta": "@sys.any",
        "userDefined": true
      }
    ],
    "isTemplate": false,
    "count": 0,
    "updated": 0
  },
  {
    "id": "3ed7c472-0df4-4054-81a5-e100cedbff5f",
    "data": [
      {
        "text": "хочу оставить отзыв",
        "userDefined": false
      }
    ],
    "isTemplate": false,
    "count": 0,
    "updated": 0
  },
  {
    "id": "6c2f9b7b-8160-48a5-9089-e8f524c07425",
    "data": [
      {
        "text": "скажи своим разработчикам что ",
        "userDefined": false
      },
      {
        "text": "ты мне нравишься",
        "alias": "message",
        "meta": "@sys.any",
        "userDefined": true
      }
    ],
    "isTemplate": false,
    "count": 3,
    "updated": 0
  },
  {
    "id": "e040c78c-3a88-4617-8dbd-988a050b724f",
    "data": [
      {
        "text": "передай разработчикам",
        "userDefined": false
      }
    ],
    "isTemplate": false,
    "count": 0,
    "updated": 0
  },
  {
    "id": "ad48fd79-4ea5-48a8-b838-e92157c0aeba",
    "data": [
      {
        "text": "свяжись со своими разработчиками",
        "userDefined": false
      }
    ],
    "isTemplate": false,
    "count": 0,
    "updated": 0
  },
  {
    "id": "860272e1-9081-40ae-91e4-3d77f2504f93",
    "data": [
      {
        "text": "дай знать разработчикам о том что ",
        "userDefined": false
      },
      {
        "text": "я тебя обожаю",
        "alias": "message",
        "meta": "@sys.any",
        "userDefined": true
      }
    ],
    "isTemplate": false,
    "count": 3,
    "updated": 0
  },
  {
    "id": "a9047d6e-f927-4cdb-9d6e-c12cc25d13f4",
    "data": [
      {
        "text": "скажи тем кто создал тебя что ",
        "userDefined": false
      },
      {
        "text": "ты как моя мама",
        "alias": "message",
        "meta": "@sys.any",
        "userDefined": true
      }
    ],
    "isTemplate": false,
    "count": 1,
    "updated": 0
  },
  {
    "id": "43f4a591-e0d8-42e0-b3c6-145b92690278",
    "data": [
      {
        "text": "скажи разработчикам что ",
        "userDefined": false
      },
      {
        "text": "ты прекрасное создание",
        "alias": "message",
        "meta": "@sys.any",
        "userDefined": true
      }
    ],
    "isTemplate": false,
    "count": 2,
    "updated": 0
  },
  {
    "id": "4ffce62c-31d8-4ab2-a21c-255d07f079dc",
    "data": [
      {
        "text": "напиши отзыв ",
        "userDefined": false
      },
      {
        "text": "приложение просто чудо",
        "alias": "message",
        "meta": "@sys.any",
        "userDefined": true
      }
    ],
    "isTemplate": false,
    "count": 0,
    "updated": 0
  },
  {
    "id": "1b1e46a4-f46f-4f2b-ad75-bd28ab7f0761",
    "data": [
      {
        "text": "хочу написать отзыв разработчикам ",
        "userDefined": false
      },
      {
        "text": "добавьте больше картинок",
        "alias": "message",
        "meta": "@sys.any",
        "userDefined": true
      }
    ],
    "isTemplate": false,
    "count": 0,
    "updated": 0
  },
  {
    "id": "11967532-17ba-4214-9915-6381471b8fac",
    "data": [
      {
        "text": "сообщение разработчикам ",
        "userDefined": false
      },
      {
        "text": "приложение просто супер",
        "alias": "message",
        "meta": "@sys.any",
        "userDefined": true
      }
    ],
    "isTemplate": false,
    "count": 0,
    "updated": 0
  },
  {
    "id": "aabdffa1-7530-4068-8d8c-2eda9a38bac0",
    "data": [
      {
        "text": "скажи своим создателям",
        "userDefined": false
      }
    ],
    "isTemplate": false,
    "count": 0,
    "updated": 0
  },
  {
    "id": "84e26f21-47be-43d8-957e-2a63a1b74249",
    "data": [
      {
        "text": "отправь команде обратную связь",
        "userDefined": false
      }
    ],
    "isTemplate": false,
    "count": 0,
    "updated": 0
  },
  {
    "id": "e45099b5-ea6a-465a-83a6-a24db939cfb9",
    "data": [
      {
        "text": "хочу чтобы твои разработчики знали что ",
        "userDefined": false
      },
      {
        "text": "ты мне очень нравишься",
        "alias": "message",
        "meta": "@sys.any",
        "userDefined": true
      }
    ],
    "isTemplate": false,
    "count": 2,
    "updated": 0
  },
  {
    "id": "7f538ee4-12da-42f7-b08e-8efb448d2148",
    "data": [
      {
        "text": "передай разработчикам что ",
        "userDefined": false
      },
      {
        "text": "я люблю тебя",
        "alias": "message",
        "meta": "@sys.any",
        "userDefined": true
      }
    ],
    "isTemplate": false,
    "count": 0,
    "updated": 0
  },
  {
    "id": "d16aa3cd-6807-4826-8e85-8ef1cbfc3c4c",
    "data": [
      {
        "text": "напиши разработчикам ",
        "userDefined": false
      },
      {
        "text": "мне нужен ответ",
        "alias": "message",
        "meta": "@sys.any",
        "userDefined": true
      }
    ],
    "isTemplate": false,
    "count": 3,
    "updated": 0
  },
  {
    "id": "aa4077ba-ba01-4c1d-ab66-e825a8755352",
    "data": [
      {
        "text": "отправь сообщение программистам ",
        "userDefined": false
      },
      {
        "text": "пожалуйста почините это",
        "alias": "message",
        "meta": "@sys.any",
        "userDefined": true
      }
    ],
    "isTemplate": false,
    "count": 0,
    "updated": 0
  },
  {
    "id": "2b0a31b1-b192-4f0d-b2f7-f051455cc561",
    "data": [
      {
        "text": "передай своим создателям чтобы ",
        "userDefined": false
      },
      {
        "text": "тебя улучшали",
        "alias": "message",
        "meta": "@sys.any",
        "userDefined": true
      }
    ],
    "isTemplate": false,
    "count": 0,
    "updated": 0
  },
  {
    "id": "caeadf80-faf1-4ff5-8077-93222e356ce3",
    "data": [
      {
        "text": "у меня есть что сказать твоим разработчикам",
        "userDefined": false
      }
    ],
    "isTemplate": false,
    "count": 0,
    "updated": 0
  },
  {
    "id": "ac8358f0-e418-409c-a66e-cc5366a97493",
    "data": [
      {
        "text": "передай своим разработчикам что ",
        "userDefined": false
      },
      {
        "text": "мне нравится это приложение",
        "alias": "message",
        "meta": "@sys.any",
        "userDefined": true
      }
    ],
    "isTemplate": false,
    "count": 1,
    "updated": 0
  }
]