[
  {
    "id": "cc92f839-d725-476b-bebb-ee2e54219b99",
    "data": [
      {
        "text": "el",
        "meta": "@sys.ignore",
        "userDefined": false
      },
      {
        "text": " ",
        "userDefined": false
      },
      {
        "text": "nombre",
        "meta": "@sys.ignore",
        "userDefined": false
      },
      {
        "text": " de ",
        "userDefined": false
      },
      {
        "text": "la",
        "meta": "@sys.ignore",
        "userDefined": false
      },
      {
        "text": " aplicación",
        "userDefined": false
      }
    ],
    "isTemplate": false,
    "count": 0,
    "updated": 0
  },
  {
    "id": "d1d23fb1-cbf5-49f0-8af1-89f433719353",
    "data": [
      {
        "text": "el",
        "meta": "@sys.ignore",
        "userDefined": false
      },
      {
        "text": " ",
        "userDefined": false
      },
      {
        "text": "nombre",
        "meta": "@sys.ignore",
        "userDefined": false
      },
      {
        "text": " de ",
        "userDefined": false
      },
      {
        "text": "la",
        "meta": "@sys.ignore",
        "userDefined": false
      },
      {
        "text": " app",
        "userDefined": false
      }
    ],
    "isTemplate": false,
    "count": 0,
    "updated": 0
  },
  {
    "id": "6cb6ae77-39e0-4f8c-8ee7-07e9e63b4289",
    "data": [
      {
        "text": "cómo se llama tu aplicación",
        "userDefined": false
      }
    ],
    "isTemplate": false,
    "count": 0,
    "updated": 0
  },
  {
    "id": "6d48ad2b-96e7-4e02-9217-1777b129fd68",
    "data": [
      {
        "text": "cómo",
        "meta": "@sys.ignore",
        "userDefined": false
      },
      {
        "text": " se ",
        "userDefined": false
      },
      {
        "text": "llama",
        "meta": "@sys.ignore",
        "userDefined": false
      },
      {
        "text": " ",
        "userDefined": false
      },
      {
        "text": "la",
        "meta": "@sys.ignore",
        "userDefined": false
      },
      {
        "text": " aplicación",
        "userDefined": false
      }
    ],
    "isTemplate": false,
    "count": 0,
    "updated": 0
  },
  {
    "id": "1aa092a5-50d5-42f6-a26e-d0db8253ecac",
    "data": [
      {
        "text": "cómo",
        "meta": "@sys.ignore",
        "userDefined": false
      },
      {
        "text": " se ",
        "userDefined": false
      },
      {
        "text": "llama",
        "meta": "@sys.ignore",
        "userDefined": false
      },
      {
        "text": " ",
        "userDefined": false
      },
      {
        "text": "la",
        "meta": "@sys.ignore",
        "userDefined": false
      },
      {
        "text": " app",
        "userDefined": false
      }
    ],
    "isTemplate": false,
    "count": 0,
    "updated": 0
  },
  {
    "id": "97d90e66-2d8e-47a6-b9af-ad017d01a4ff",
    "data": [
      {
        "text": "quisiera saber cómo se llama tu aplicación",
        "userDefined": false
      }
    ],
    "isTemplate": false,
    "count": 0,
    "updated": 0
  },
  {
    "id": "54717cef-006c-49db-be83-82c3877c6b18",
    "data": [
      {
        "text": "dime el nombre de tu aplicación",
        "userDefined": false
      }
    ],
    "isTemplate": false,
    "count": 0,
    "updated": 0
  },
  {
    "id": "d1d3a81b-29a7-4434-bcec-c871f251e19f",
    "data": [
      {
        "text": "cuál es el nombre de tu aplicación",
        "userDefined": false
      }
    ],
    "isTemplate": false,
    "count": 0,
    "updated": 0
  }
]