[
  {
    "id": "ba0f8b41-4296-4ecb-a396-fd399a60f4d6",
    "data": [
      {
        "text": "マイクを使う場合も同様です",
        "alias": "message",
        "meta": "@sys.any",
        "userDefined": true
      }
    ],
    "isTemplate": false,
    "count": 0,
    "updated": 0
  },
  {
    "id": "9f3b4210-b8c3-4ac6-8880-e16bb204daed",
    "data": [
      {
        "text": "マイクが機能していません",
        "alias": "message",
        "meta": "@sys.any",
        "userDefined": true
      }
    ],
    "isTemplate": false,
    "count": 0,
    "updated": 0
  },
  {
    "id": "1761a0bb-83a3-4fdb-9972-91d9ca95a34d",
    "data": [
      {
        "text": "マイクも同様です",
        "alias": "message",
        "meta": "@sys.any",
        "userDefined": true
      }
    ],
    "isTemplate": false,
    "count": 3,
    "updated": 0
  },
  {
    "id": "eead4cfc-d54a-4526-8d1e-8f0c3ef96829",
    "data": [
      {
        "text": "また、",
        "userDefined": false
      },
      {
        "text": "マイクも機能しません",
        "alias": "message",
        "meta": "@sys.any",
        "userDefined": true
      }
    ],
    "isTemplate": false,
    "count": 0,
    "updated": 0
  },
  {
    "id": "4e171549-7d3d-4a54-95be-064c68bcddf5",
    "data": [
      {
        "text": "また、",
        "userDefined": false
      },
      {
        "text": "発信者番号が機能していません",
        "alias": "message",
        "meta": "@sys.any",
        "userDefined": true
      }
    ],
    "isTemplate": false,
    "count": 0,
    "updated": 0
  },
  {
    "id": "0d5b3e84-2bc9-45b3-8279-634f732f36ae",
    "data": [
      {
        "text": "マイクも機能しません",
        "alias": "message",
        "meta": "@sys.any",
        "userDefined": true
      }
    ],
    "isTemplate": false,
    "count": 0,
    "updated": 0
  },
  {
    "id": "5219cced-97cb-4d1c-8c55-25baf7f09d6f",
    "data": [
      {
        "text": "また、",
        "userDefined": false
      },
      {
        "text": "オフラインモードになりません",
        "alias": "message",
        "meta": "@sys.any",
        "userDefined": true
      }
    ],
    "isTemplate": false,
    "count": 1,
    "updated": 0
  },
  {
    "id": "7d71c4cf-d4a3-4704-9f20-b36354cfadce",
    "data": [
      {
        "text": "また、",
        "userDefined": false
      },
      {
        "text": "オンラインでしか機能しません",
        "alias": "message",
        "meta": "@sys.any",
        "userDefined": true
      }
    ],
    "isTemplate": false,
    "count": 0,
    "updated": 0
  },
  {
    "id": "9027fbb2-fe58-453c-95ac-2d8a647f51aa",
    "data": [
      {
        "text": "オフラインで機能できない",
        "alias": "message",
        "meta": "@sys.any",
        "userDefined": true
      },
      {
        "text": "ことを追加してください",
        "userDefined": false
      }
    ],
    "isTemplate": false,
    "count": 0,
    "updated": 0
  },
  {
    "id": "c3455c66-79b9-4332-b60e-449b40626276",
    "data": [
      {
        "text": "オフラインモードが必要である",
        "alias": "message",
        "meta": "@sys.any",
        "userDefined": true
      },
      {
        "text": "ことを追加してください",
        "userDefined": false
      }
    ],
    "isTemplate": false,
    "count": 1,
    "updated": 0
  }
]