[
  {
    "id": "9b1aba5b-4664-42ff-830e-7b92073a907b",
    "data": [
      {
        "text": "quienes son tus diseñadores",
        "userDefined": false
      }
    ],
    "isTemplate": false,
    "count": 0,
    "updated": 0
  },
  {
    "id": "1724a91d-6d7b-4ae5-a063-1540996c4993",
    "data": [
      {
        "text": "tus creadores",
        "userDefined": false
      }
    ],
    "isTemplate": false,
    "count": 0,
    "updated": 0
  },
  {
    "id": "fd0d8a32-9d9e-433a-8746-9afcb0bca547",
    "data": [
      {
        "text": "por quién fuiste diseñado",
        "userDefined": false
      }
    ],
    "isTemplate": false,
    "count": 0,
    "updated": 0
  },
  {
    "id": "3092b00b-7a44-4c05-9108-c4602603eb64",
    "data": [
      {
        "text": "dime quién te creó",
        "userDefined": false
      }
    ],
    "isTemplate": false,
    "count": 0,
    "updated": 0
  },
  {
    "id": "38b50fb0-ceaa-427c-aed3-13342f159706",
    "data": [
      {
        "text": "quién te creó",
        "userDefined": false
      }
    ],
    "isTemplate": false,
    "count": 0,
    "updated": 0
  },
  {
    "id": "39abb7f5-133b-457f-868d-59480393d9b3",
    "data": [
      {
        "text": "quiero saber quién te diseñó",
        "userDefined": false
      }
    ],
    "isTemplate": false,
    "count": 0,
    "updated": 0
  },
  {
    "id": "4267238b-581b-41ba-bdc6-8c5505f87112",
    "data": [
      {
        "text": "me podrías decir quién te creó",
        "userDefined": false
      }
    ],
    "isTemplate": false,
    "count": 0,
    "updated": 0
  },
  {
    "id": "802d48ba-d597-4d0d-88ec-dc4e2e97469b",
    "data": [
      {
        "text": "quién te hizo",
        "userDefined": false
      }
    ],
    "isTemplate": false,
    "count": 0,
    "updated": 0
  },
  {
    "id": "b2615252-f6f7-4cf1-86c1-9fc45263fc21",
    "data": [
      {
        "text": "dime quién te diseño",
        "userDefined": false
      }
    ],
    "isTemplate": false,
    "count": 0,
    "updated": 0
  },
  {
    "id": "31517fdb-c0f6-4caf-902a-fdc2020c6e1f",
    "data": [
      {
        "text": "quién es tu creador",
        "userDefined": false
      }
    ],
    "isTemplate": false,
    "count": 0,
    "updated": 0
  },
  {
    "id": "235e3593-83fa-451d-b8f0-90a470ead506",
    "data": [
      {
        "text": "tus creadores quiénes son",
        "userDefined": false
      }
    ],
    "isTemplate": false,
    "count": 0,
    "updated": 0
  },
  {
    "id": "d7e968a1-113a-47af-b335-48fb84c8cda4",
    "data": [
      {
        "text": "quién fue el que te hizo",
        "userDefined": false
      }
    ],
    "isTemplate": false,
    "count": 0,
    "updated": 0
  },
  {
    "id": "f85dd562-f106-4f24-b834-4ad2b09b23b4",
    "data": [
      {
        "text": "me dirías quién te creó",
        "userDefined": false
      }
    ],
    "isTemplate": false,
    "count": 0,
    "updated": 0
  },
  {
    "id": "6c1de93e-0174-4efc-ae7a-ccf461fe3a45",
    "data": [
      {
        "text": "quisiera saber quién te hizo",
        "userDefined": false
      }
    ],
    "isTemplate": false,
    "count": 0,
    "updated": 0
  },
  {
    "id": "09646623-e30a-48c0-893a-1f5e0dfb78b0",
    "data": [
      {
        "text": "quienes te crearon",
        "userDefined": false
      }
    ],
    "isTemplate": false,
    "count": 0,
    "updated": 0
  }
]