[
  {
    "id": "e60ca610-2427-4896-be13-f516206eed5d",
    "data": [
      {
        "text": "agora o telemóvel deles",
        "userDefined": false
      }
    ],
    "isTemplate": false,
    "count": 0,
    "updated": 0
  },
  {
    "id": "7046278a-69b6-43d3-a495-4db182d10b5f",
    "data": [
      {
        "text": "e o telemóvel dele",
        "userDefined": false
      }
    ],
    "isTemplate": false,
    "count": 0,
    "updated": 0
  },
  {
    "id": "17a71ef2-41d2-4283-a0a4-87f6309ea6d9",
    "data": [
      {
        "text": "como efetuar uma chamada",
        "userDefined": false
      }
    ],
    "isTemplate": false,
    "count": 0,
    "updated": 0
  },
  {
    "id": "a25ae701-52ff-45a5-bb16-c133e66df6f5",
    "data": [
      {
        "text": "e número de contacto",
        "userDefined": false
      }
    ],
    "isTemplate": false,
    "count": 0,
    "updated": 0
  },
  {
    "id": "f8e631f8-c6ef-4e57-a768-d3a74b872f8b",
    "data": [
      {
        "text": "e o número de contacto",
        "userDefined": false
      }
    ],
    "isTemplate": false,
    "count": 0,
    "updated": 0
  },
  {
    "id": "563994c8-84e4-4ced-963a-aa861a9281c4",
    "data": [
      {
        "text": "o número dela",
        "userDefined": false
      }
    ],
    "isTemplate": false,
    "count": 0,
    "updated": 0
  },
  {
    "id": "556da684-c0cb-4547-a812-916faeda5c20",
    "data": [
      {
        "text": "e telemóvel",
        "userDefined": false
      }
    ],
    "isTemplate": false,
    "count": 0,
    "updated": 0
  },
  {
    "id": "e53834dc-a76b-4bb5-acc6-c88cceec522f",
    "data": [
      {
        "text": "também preciso do telemóvel deles",
        "userDefined": false
      }
    ],
    "isTemplate": false,
    "count": 0,
    "updated": 0
  },
  {
    "id": "6c99e7ee-47d2-4221-8f2f-ebd1a79b5963",
    "data": [
      {
        "text": "e o número de telefone",
        "userDefined": false
      }
    ],
    "isTemplate": false,
    "count": 0,
    "updated": 0
  },
  {
    "id": "138e97cb-1393-482d-b711-f145eba17c38",
    "data": [
      {
        "text": "e o telemóvel deles",
        "userDefined": false
      }
    ],
    "isTemplate": false,
    "count": 0,
    "updated": 0
  }
]