[
  {
    "id": "c77862f7-7985-4b28-8b7e-8f9c89f1bd37",
    "data": [
      {
        "text": "diga o número de telefone dos seus desenvolvedores eu gostaria de falar com eles",
        "userDefined": false
      }
    ],
    "isTemplate": false,
    "count": 0,
    "updated": 0
  },
  {
    "id": "1ca2cabf-71b0-4141-991c-6d1931050c2a",
    "data": [
      {
        "text": "me passe o número de telefone dos seus desenvolvedores",
        "userDefined": false
      }
    ],
    "isTemplate": false,
    "count": 0,
    "updated": 0
  },
  {
    "id": "568a7964-34b6-4c4b-b4aa-8b7067b298d7",
    "data": [
      {
        "text": "preciso do número de telefone dos seus desenvolvedores",
        "userDefined": false
      }
    ],
    "isTemplate": false,
    "count": 0,
    "updated": 0
  },
  {
    "id": "2032348c-4ed7-4692-b24d-d1c096092b67",
    "data": [
      {
        "text": "me dê o número de telefone dos seus desenvolvedores",
        "userDefined": false
      }
    ],
    "isTemplate": false,
    "count": 0,
    "updated": 0
  },
  {
    "id": "8df1c11c-98c4-494f-8fd8-65ec8d189f41",
    "data": [
      {
        "text": "o telefone dos seus desenvolvedores",
        "userDefined": false
      }
    ],
    "isTemplate": false,
    "count": 0,
    "updated": 0
  },
  {
    "id": "ff1e330f-0fac-4bd0-b1cd-375b29364625",
    "data": [
      {
        "text": "posso falar com seus desenvolvedores por telefone",
        "userDefined": false
      }
    ],
    "isTemplate": false,
    "count": 0,
    "updated": 0
  },
  {
    "id": "5d8383b7-e21c-4b40-a2a7-17b9fe65096b",
    "data": [
      {
        "text": "quero falar com seus desenvolvedores por telefone",
        "userDefined": false
      }
    ],
    "isTemplate": false,
    "count": 0,
    "updated": 0
  },
  {
    "id": "6bb54a6a-ef26-41c2-a491-72c9c5a5813d",
    "data": [
      {
        "text": "quero falar com seus desenvolvedores me passe o número de telefone deles",
        "userDefined": false
      }
    ],
    "isTemplate": false,
    "count": 0,
    "updated": 0
  },
  {
    "id": "ffebc1d0-738d-4416-8c0b-08de652b18c7",
    "data": [
      {
        "text": "posso ligar para seus desenvolvedores",
        "userDefined": false
      }
    ],
    "isTemplate": false,
    "count": 0,
    "updated": 0
  },
  {
    "id": "b4ca38ea-afbc-421e-91e1-b79fc7fb95a2",
    "data": [
      {
        "text": "você poderia me dar o número de telefone dos seus desenvolvedores",
        "userDefined": false
      }
    ],
    "isTemplate": false,
    "count": 0,
    "updated": 0
  },
  {
    "id": "e56b9abb-4a44-4f67-8f63-6c22f014dc5f",
    "data": [
      {
        "text": "pesquise o número de telefone do seu desenvolvedor",
        "userDefined": false
      }
    ],
    "isTemplate": false,
    "count": 0,
    "updated": 0
  }
]