[
  {
    "id": "f6d969c3-fee3-46a7-b71c-784a242bf058",
    "data": [
      {
        "text": "为我打开你的网站",
        "userDefined": false
      }
    ],
    "isTemplate": false,
    "count": 0,
    "updated": 0
  },
  {
    "id": "7501d905-f8c2-461e-ae6f-ebb6ece6c68e",
    "data": [
      {
        "text": "给我看你的网站",
        "userDefined": false
      }
    ],
    "isTemplate": false,
    "count": 0,
    "updated": 0
  },
  {
    "id": "4fee4795-8066-4a34-8f40-68ae31874cf1",
    "data": [
      {
        "text": "找到你的网站",
        "userDefined": false
      }
    ],
    "isTemplate": false,
    "count": 0,
    "updated": 0
  },
  {
    "id": "b2d21e79-8115-4dcd-9ed0-1698791aa053",
    "data": [
      {
        "text": "如何访问你的网站",
        "userDefined": false
      }
    ],
    "isTemplate": false,
    "count": 0,
    "updated": 0
  },
  {
    "id": "daf6a042-83ad-4c13-b306-a09dcb46d2af",
    "data": [
      {
        "text": "你的开发者有网站吗",
        "userDefined": false
      }
    ],
    "isTemplate": false,
    "count": 0,
    "updated": 0
  },
  {
    "id": "7ec7b8e0-b672-4cc0-8c6f-ecbd7f1e6127",
    "data": [
      {
        "text": "你有自己的网站吗",
        "userDefined": false
      }
    ],
    "isTemplate": false,
    "count": 0,
    "updated": 0
  },
  {
    "id": "81641ebd-aec0-4e50-816c-b67550b6169a",
    "data": [
      {
        "text": "你的网站在哪里",
        "userDefined": false
      }
    ],
    "isTemplate": false,
    "count": 0,
    "updated": 0
  },
  {
    "id": "71296bfc-b89b-4c57-8095-5ff3e9331b30",
    "data": [
      {
        "text": "你的开发者的网站",
        "userDefined": false
      }
    ],
    "isTemplate": false,
    "count": 0,
    "updated": 0
  },
  {
    "id": "e859e741-567b-4b11-ae58-df0da0219746",
    "data": [
      {
        "text": "请显示你的开发者网站",
        "userDefined": false
      }
    ],
    "isTemplate": false,
    "count": 0,
    "updated": 0
  },
  {
    "id": "2ee1d1a1-4457-473b-b346-29b541df85a3",
    "data": [
      {
        "text": "你",
        "userDefined": false
      },
      {
        "text": "的",
        "meta": "@sys.ignore",
        "userDefined": false
      },
      {
        "text": "网络",
        "userDefined": false
      }
    ],
    "isTemplate": false,
    "count": 0,
    "updated": 0
  },
  {
    "id": "5501f2cd-5726-43ea-9f5c-f6c039bf7ffb",
    "data": [
      {
        "text": "你能打开你的网站吗",
        "userDefined": false
      }
    ],
    "isTemplate": false,
    "count": 0,
    "updated": 0
  },
  {
    "id": "0a1287ae-8dab-4f07-bbe4-55cc77549af8",
    "data": [
      {
        "text": "打开你公司的网站",
        "userDefined": false
      }
    ],
    "isTemplate": false,
    "count": 0,
    "updated": 0
  },
  {
    "id": "46bf68b5-2b10-4fe9-9012-676f2dbce2ff",
    "data": [
      {
        "text": "你",
        "userDefined": false
      },
      {
        "text": "的",
        "meta": "@sys.ignore",
        "userDefined": false
      },
      {
        "text": "网",
        "userDefined": false
      },
      {
        "text": "站",
        "meta": "@sys.ignore",
        "userDefined": false
      }
    ],
    "isTemplate": false,
    "count": 0,
    "updated": 0
  },
  {
    "id": "be5a9b8a-cee9-49dc-9367-21692ccfa6c9",
    "data": [
      {
        "text": "你的网页",
        "userDefined": false
      }
    ],
    "isTemplate": false,
    "count": 0,
    "updated": 0
  },
  {
    "id": "cb9400fc-6d18-424b-a888-e8d81f3bab8a",
    "data": [
      {
        "text": "你有网站吗",
        "userDefined": false
      }
    ],
    "isTemplate": false,
    "count": 0,
    "updated": 0
  }
]