[
  {
    "id": "a9ebda10-159c-4556-b86d-c2f09857068f",
    "data": [
      {
        "text": "Telefonnummer von deinem Entwickler",
        "userDefined": false
      }
    ],
    "isTemplate": false,
    "count": 0,
    "updated": 0
  },
  {
    "id": "cccc40f9-cd49-4f6d-b971-683140ba64b3",
    "data": [
      {
        "text": "wie kann ich deine Firma anrufen",
        "userDefined": false
      }
    ],
    "isTemplate": false,
    "count": 0,
    "updated": 0
  },
  {
    "id": "672bdd02-8a54-4f0e-974e-c635f25444cf",
    "data": [
      {
        "text": "wie erreiche ich deinen Entwickler",
        "userDefined": false
      }
    ],
    "isTemplate": false,
    "count": 0,
    "updated": 0
  },
  {
    "id": "f36b7a0d-98c8-4d2c-a850-cfa3d2b4bc01",
    "data": [
      {
        "text": "gib mir die Telefonnummer deiner Entwickler",
        "userDefined": false
      }
    ],
    "isTemplate": false,
    "count": 0,
    "updated": 0
  },
  {
    "id": "cce63c4e-7e3e-47cf-bdbb-a15965948d6b",
    "data": [
      {
        "text": "Telefonnummer von deiner Firma",
        "userDefined": false
      }
    ],
    "isTemplate": false,
    "count": 0,
    "updated": 0
  },
  {
    "id": "b8b52781-af27-4f3a-9164-ea8e9f242f64",
    "data": [
      {
        "text": "unter welcher Nummer kann ich deine Entwickler erreichen",
        "userDefined": false
      }
    ],
    "isTemplate": false,
    "count": 0,
    "updated": 0
  },
  {
    "id": "66ae621f-fa1d-4ba9-a136-1ba52ec2e1d2",
    "data": [
      {
        "text": "deine Telefonnummer",
        "userDefined": false
      }
    ],
    "isTemplate": false,
    "count": 0,
    "updated": 0
  },
  {
    "id": "2785dd08-0095-453e-a867-0034d4ce3029",
    "data": [
      {
        "text": "suche ",
        "userDefined": false
      },
      {
        "text": "nach",
        "meta": "@sys.ignore",
        "userDefined": false
      },
      {
        "text": " Telefonnummer von deiner Firma",
        "userDefined": false
      }
    ],
    "isTemplate": false,
    "count": 0,
    "updated": 0
  },
  {
    "id": "93102518-c7c2-43f6-a4f7-880802e6fb80",
    "data": [
      {
        "text": "unter welcher Nummer kann ich deine Entwickler anrufen",
        "userDefined": false
      }
    ],
    "isTemplate": false,
    "count": 0,
    "updated": 0
  },
  {
    "id": "2f3668dd-96fc-4a2e-9f90-7481fdbb365b",
    "data": [
      {
        "text": "wie kann ich deine Entwickler anrufen",
        "userDefined": false
      }
    ],
    "isTemplate": false,
    "count": 0,
    "updated": 0
  }
]