[
  {
    "id": "14688ee4-9d4b-45ce-9217-26b124f155b2",
    "data": [
      {
        "text": "auf ",
        "userDefined": false
      },
      {
        "text": "Spanisch",
        "alias": "lang-to",
        "meta": "@sys.language",
        "userDefined": false
      }
    ],
    "isTemplate": false,
    "count": 0,
    "updated": 0
  },
  {
    "id": "11a5dfa0-0be5-4409-a0c6-4f5ee91e882f",
    "data": [
      {
        "text": "und auf ",
        "userDefined": false
      },
      {
        "text": "Russisch",
        "alias": "lang-to",
        "meta": "@sys.language",
        "userDefined": false
      }
    ],
    "isTemplate": false,
    "count": 0,
    "updated": 0
  },
  {
    "id": "1609ffab-ca75-4f51-9ccf-6f8b7b427b1e",
    "data": [
      {
        "text": "ins ",
        "userDefined": false
      },
      {
        "text": "Spanische",
        "alias": "lang-to",
        "meta": "@sys.language",
        "userDefined": true
      }
    ],
    "isTemplate": false,
    "count": 0,
    "updated": 0
  },
  {
    "id": "332e6c80-5328-4325-81ec-43729f7af06e",
    "data": [
      {
        "text": "jetzt auf ",
        "userDefined": false
      },
      {
        "text": "Englisch",
        "alias": "lang-to",
        "meta": "@sys.language",
        "userDefined": false
      }
    ],
    "isTemplate": false,
    "count": 0,
    "updated": 0
  },
  {
    "id": "5cf930d7-286a-46c3-88ff-0b803ac0fc44",
    "data": [
      {
        "text": "und bitte auch ins ",
        "userDefined": false
      },
      {
        "text": "Russische",
        "alias": "lang-to",
        "meta": "@sys.language",
        "userDefined": true
      }
    ],
    "isTemplate": false,
    "count": 0,
    "updated": 0
  },
  {
    "id": "ee1999d3-c83f-4c00-81a8-197af0b8bd46",
    "data": [
      {
        "text": "jetzt bitte ins ",
        "userDefined": false
      },
      {
        "text": "Türkische",
        "alias": "lang-to",
        "meta": "@sys.language",
        "userDefined": true
      }
    ],
    "isTemplate": false,
    "count": 0,
    "updated": 0
  },
  {
    "id": "db761d57-7faa-4451-b975-f1749621ad5c",
    "data": [
      {
        "text": "und wie heißt das auf ",
        "userDefined": false
      },
      {
        "text": "Türkisch",
        "alias": "lang-to",
        "meta": "@sys.language",
        "userDefined": false
      }
    ],
    "isTemplate": false,
    "count": 0,
    "updated": 0
  },
  {
    "id": "57922e77-49ae-489e-a879-df9cadf59b75",
    "data": [
      {
        "text": "und wie sagt man das auf ",
        "userDefined": false
      },
      {
        "text": "Spanisch",
        "alias": "lang-to",
        "meta": "@sys.language",
        "userDefined": false
      }
    ],
    "isTemplate": false,
    "count": 0,
    "updated": 0
  }
]