[
  {
    "id": "c8c973c3-b941-4e09-adca-48a83abcdf3a",
    "data": [
      {
        "text": "where I am",
        "userDefined": false
      }
    ],
    "isTemplate": false,
    "count": 0,
    "updated": 0
  },
  {
    "id": "50af37e3-9bf2-49f9-a5d3-992df142953c",
    "data": [
      {
        "text": "where is my ",
        "userDefined": false
      },
      {
        "text": "current",
        "meta": "@sys.ignore",
        "userDefined": true
      },
      {
        "text": " location",
        "userDefined": false
      }
    ],
    "isTemplate": false,
    "count": 0,
    "updated": 0
  },
  {
    "id": "45baae1b-2d69-46ea-832a-d02e35531cfb",
    "data": [
      {
        "text": "find where am I",
        "userDefined": false
      }
    ],
    "isTemplate": false,
    "count": 0,
    "updated": 0
  },
  {
    "id": "595f713b-95ab-4992-8fc1-684ff151b674",
    "data": [
      {
        "text": "I want to know my location",
        "userDefined": false
      }
    ],
    "isTemplate": false,
    "count": 0,
    "updated": 0
  },
  {
    "id": "07b7c870-8f32-417e-b05b-1a137b98f7e6",
    "data": [
      {
        "text": "tell me where I am ",
        "userDefined": false
      },
      {
        "text": "right now",
        "meta": "@sys.ignore",
        "userDefined": false
      }
    ],
    "isTemplate": false,
    "count": 0,
    "updated": 0
  },
  {
    "id": "5310826f-1170-46e8-af11-c8405be23a86",
    "data": [
      {
        "text": "what is our ",
        "userDefined": false
      },
      {
        "text": "current",
        "meta": "@sys.ignore",
        "userDefined": false
      },
      {
        "text": " location",
        "userDefined": false
      }
    ],
    "isTemplate": false,
    "count": 0,
    "updated": 0
  },
  {
    "id": "1609c458-f989-46fe-b1bc-0cd25435a2c1",
    "data": [
      {
        "text": "show me ",
        "userDefined": false
      },
      {
        "text": "on",
        "meta": "@sys.ignore",
        "userDefined": false
      },
      {
        "text": " the ",
        "userDefined": false
      },
      {
        "text": "map",
        "meta": "@sys.ignore",
        "userDefined": false
      }
    ],
    "isTemplate": false,
    "count": 0,
    "updated": 0
  },
  {
    "id": "31b4d977-8c03-4044-adc4-fb25527d093a",
    "data": [
      {
        "text": "find my location",
        "userDefined": false
      }
    ],
    "isTemplate": false,
    "count": 0,
    "updated": 0
  },
  {
    "id": "ce5a1b42-7b57-4452-b1bd-ad727df585b1",
    "data": [
      {
        "text": "find me ",
        "userDefined": false
      },
      {
        "text": "on",
        "meta": "@sys.ignore",
        "userDefined": true
      },
      {
        "text": " ",
        "userDefined": false
      },
      {
        "text": "map",
        "meta": "@sys.ignore",
        "userDefined": true
      }
    ],
    "isTemplate": false,
    "count": 0,
    "updated": 0
  },
  {
    "id": "2f7a483f-4dc8-4b06-8dea-8dfb5ee79fbc",
    "data": [
      {
        "text": "can you tell me where I am ",
        "userDefined": false
      },
      {
        "text": "right now",
        "meta": "@sys.ignore",
        "userDefined": true
      }
    ],
    "isTemplate": false,
    "count": 0,
    "updated": 0
  },
  {
    "id": "759694c4-cb57-4234-84a9-056440613650",
    "data": [
      {
        "text": "where am I at the moment",
        "userDefined": false
      }
    ],
    "isTemplate": false,
    "count": 0,
    "updated": 0
  },
  {
    "id": "09344dac-8892-4598-afe7-98394725e4af",
    "data": [
      {
        "text": "please tell me my location",
        "userDefined": false
      }
    ],
    "isTemplate": false,
    "count": 0,
    "updated": 0
  },
  {
    "id": "10952922-ad34-4243-88b3-7241a35f0d90",
    "data": [
      {
        "text": "show me my location ",
        "userDefined": false
      },
      {
        "text": "on",
        "meta": "@sys.ignore",
        "userDefined": false
      },
      {
        "text": " ",
        "userDefined": false
      },
      {
        "text": "map",
        "meta": "@sys.ignore",
        "userDefined": false
      }
    ],
    "isTemplate": false,
    "count": 0,
    "updated": 0
  },
  {
    "id": "2bd3b490-53ad-499a-af0b-a48a059257ef",
    "data": [
      {
        "text": "I",
        "meta": "@sys.ignore",
        "userDefined": false
      },
      {
        "text": " ",
        "userDefined": false
      },
      {
        "text": "am",
        "meta": "@sys.ignore",
        "userDefined": false
      },
      {
        "text": " ",
        "userDefined": false
      },
      {
        "text": "lost",
        "meta": "@sys.ignore",
        "userDefined": false
      }
    ],
    "isTemplate": false,
    "count": 0,
    "updated": 0
  },
  {
    "id": "e454e179-6b41-4ee9-9f27-67dd7d0e2f8a",
    "data": [
      {
        "text": "show my ",
        "userDefined": false
      },
      {
        "text": "current",
        "meta": "@sys.ignore",
        "userDefined": true
      },
      {
        "text": " location",
        "userDefined": false
      }
    ],
    "isTemplate": false,
    "count": 0,
    "updated": 0
  },
  {
    "id": "769c80ac-fc69-47bd-9abb-ab984a7298b7",
    "data": [
      {
        "text": "do you know where I\u0027m at",
        "userDefined": false
      }
    ],
    "isTemplate": false,
    "count": 0,
    "updated": 0
  },
  {
    "id": "1a84f2dd-2f52-470d-921d-02d545603ca9",
    "data": [
      {
        "text": "find my position",
        "userDefined": false
      }
    ],
    "isTemplate": false,
    "count": 0,
    "updated": 0
  },
  {
    "id": "48204f8d-da82-43c9-ae11-c3aa76bcc3c3",
    "data": [
      {
        "text": "tell my location",
        "userDefined": false
      }
    ],
    "isTemplate": false,
    "count": 0,
    "updated": 0
  },
  {
    "id": "c6aca7ac-77c7-42b1-93bf-99ab6b5a1eb2",
    "data": [
      {
        "text": "can you find my ",
        "userDefined": false
      },
      {
        "text": "current",
        "meta": "@sys.ignore",
        "userDefined": false
      },
      {
        "text": " location",
        "userDefined": false
      }
    ],
    "isTemplate": false,
    "count": 0,
    "updated": 0
  },
  {
    "id": "3231fb6c-498d-4bb6-8b39-3df09daee114",
    "data": [
      {
        "text": "find out my location",
        "userDefined": false
      }
    ],
    "isTemplate": false,
    "count": 0,
    "updated": 0
  },
  {
    "id": "8d062969-08f6-4103-b7aa-de8177c95566",
    "data": [
      {
        "text": "please locate me",
        "userDefined": false
      }
    ],
    "isTemplate": false,
    "count": 0,
    "updated": 0
  },
  {
    "id": "ce958ed6-17d2-4b1e-a13a-19c8c6eda76c",
    "data": [
      {
        "text": "where\u0027s my location now",
        "userDefined": false
      }
    ],
    "isTemplate": false,
    "count": 0,
    "updated": 0
  },
  {
    "id": "0a78811b-ec6d-433b-abc0-d9322a4c4d86",
    "data": [
      {
        "text": "where\u0027s my position",
        "userDefined": false
      }
    ],
    "isTemplate": false,
    "count": 0,
    "updated": 0
  },
  {
    "id": "d3404d05-b41e-459b-b9f2-48930bac0449",
    "data": [
      {
        "text": "﻿what\u0027s my current location",
        "userDefined": false
      }
    ],
    "isTemplate": false,
    "count": 0,
    "updated": 0
  },
  {
    "id": "1b10da69-31ba-408f-a478-510b3b2fa3c0",
    "data": [
      {
        "text": "where I ",
        "userDefined": false
      },
      {
        "text": "am",
        "meta": "@sys.ignore",
        "userDefined": false
      },
      {
        "text": " I got lost help ",
        "userDefined": false
      },
      {
        "text": "me",
        "meta": "@sys.ignore",
        "userDefined": false
      }
    ],
    "isTemplate": false,
    "count": 0,
    "updated": 0
  },
  {
    "id": "facd9067-82a8-48a1-bfd7-c6d0addd6bfd",
    "data": [
      {
        "text": "tell",
        "meta": "@sys.ignore",
        "userDefined": false
      },
      {
        "text": " ",
        "userDefined": false
      },
      {
        "text": "me",
        "meta": "@sys.ignore",
        "userDefined": false
      },
      {
        "text": " ",
        "userDefined": false
      },
      {
        "text": "my current",
        "meta": "@sys.ignore",
        "userDefined": false
      },
      {
        "text": " ",
        "userDefined": false
      },
      {
        "text": "address",
        "meta": "@sys.ignore",
        "userDefined": false
      }
    ],
    "isTemplate": false,
    "count": 0,
    "updated": 0
  },
  {
    "id": "22cb4014-b2bb-44f8-b825-5424445c13f2",
    "data": [
      {
        "text": "my location",
        "userDefined": false
      }
    ],
    "isTemplate": false,
    "count": 0,
    "updated": 0
  },
  {
    "id": "c7eed97c-adb3-4296-a101-eca97d1e05ba",
    "data": [
      {
        "text": "where am I located",
        "userDefined": false
      }
    ],
    "isTemplate": false,
    "count": 0,
    "updated": 0
  },
  {
    "id": "7fbcb7c3-ac25-4f88-945d-4e383d58c5bc",
    "data": [
      {
        "text": "can you show me my location",
        "userDefined": false
      }
    ],
    "isTemplate": false,
    "count": 0,
    "updated": 0
  },
  {
    "id": "addec406-6eaf-4f67-88d9-04a1764f6927",
    "data": [
      {
        "text": "my location please",
        "userDefined": false
      }
    ],
    "isTemplate": false,
    "count": 0,
    "updated": 0
  },
  {
    "id": "2f75e950-b605-4be6-a8e9-805182ad6989",
    "data": [
      {
        "text": "show me ",
        "userDefined": false
      },
      {
        "text": "on",
        "meta": "@sys.ignore",
        "userDefined": true
      },
      {
        "text": " ",
        "userDefined": false
      },
      {
        "text": "map",
        "meta": "@sys.ignore",
        "userDefined": true
      }
    ],
    "isTemplate": false,
    "count": 0,
    "updated": 0
  },
  {
    "id": "aad9e6b1-c418-4ab3-8ed2-4d1451a05a20",
    "data": [
      {
        "text": "where is my location now",
        "userDefined": false
      }
    ],
    "isTemplate": false,
    "count": 0,
    "updated": 0
  },
  {
    "id": "a30f68f9-7136-4456-8358-d9d454e456bc",
    "data": [
      {
        "text": "can you show me where I am",
        "userDefined": false
      }
    ],
    "isTemplate": false,
    "count": 0,
    "updated": 0
  },
  {
    "id": "4089081f-ca41-4590-b6f7-2f718283926a",
    "data": [
      {
        "text": "find ",
        "userDefined": false
      },
      {
        "text": "current",
        "meta": "@sys.ignore",
        "userDefined": false
      },
      {
        "text": " location",
        "userDefined": false
      }
    ],
    "isTemplate": false,
    "count": 0,
    "updated": 0
  },
  {
    "id": "de092a75-1d99-475c-a698-7f96c55267e1",
    "data": [
      {
        "text": "do you have my location",
        "userDefined": false
      }
    ],
    "isTemplate": false,
    "count": 0,
    "updated": 0
  },
  {
    "id": "9d0aa052-3adc-44de-80e2-4b903193d01a",
    "data": [
      {
        "text": "can you locate where am I",
        "userDefined": false
      }
    ],
    "isTemplate": false,
    "count": 0,
    "updated": 0
  },
  {
    "id": "344f5ba8-9773-46e0-945f-5567c32fb7d2",
    "data": [
      {
        "text": "find ",
        "userDefined": false
      },
      {
        "text": "me",
        "meta": "@sys.ignore",
        "userDefined": false
      },
      {
        "text": " ",
        "userDefined": false
      },
      {
        "text": "on",
        "meta": "@sys.ignore",
        "userDefined": false
      },
      {
        "text": " the map",
        "userDefined": false
      }
    ],
    "isTemplate": false,
    "count": 0,
    "updated": 0
  },
  {
    "id": "68bec742-59dc-4b03-b023-3658cb2f9bfd",
    "data": [
      {
        "text": "locate me ",
        "userDefined": false
      },
      {
        "text": "on",
        "meta": "@sys.ignore",
        "userDefined": true
      },
      {
        "text": " the ",
        "userDefined": false
      },
      {
        "text": "map",
        "meta": "@sys.ignore",
        "userDefined": true
      }
    ],
    "isTemplate": false,
    "count": 0,
    "updated": 0
  },
  {
    "id": "71dfdb63-1297-4bf8-9cd7-f20a7e88dae1",
    "data": [
      {
        "text": "do you know where I am now",
        "userDefined": false
      }
    ],
    "isTemplate": false,
    "count": 0,
    "updated": 0
  },
  {
    "id": "53287a77-b509-4eec-ac24-9d02268c41fa",
    "data": [
      {
        "text": "can you tell me my ",
        "userDefined": false
      },
      {
        "text": "current",
        "meta": "@sys.ignore",
        "userDefined": false
      },
      {
        "text": " location",
        "userDefined": false
      }
    ],
    "isTemplate": false,
    "count": 0,
    "updated": 0
  },
  {
    "id": "eac3a686-f329-4515-b1ae-b41594d0cade",
    "data": [
      {
        "text": "where my location now",
        "userDefined": false
      }
    ],
    "isTemplate": false,
    "count": 0,
    "updated": 0
  },
  {
    "id": "68ec4942-dbf8-43f1-8b93-f73a0f607153",
    "data": [
      {
        "text": "what city am I in",
        "userDefined": false
      }
    ],
    "isTemplate": false,
    "count": 0,
    "updated": 0
  },
  {
    "id": "b93ffd5a-6737-43a7-9933-21afd6349828",
    "data": [
      {
        "text": "show me where I am",
        "userDefined": false
      }
    ],
    "isTemplate": false,
    "count": 0,
    "updated": 0
  },
  {
    "id": "1660743d-dec7-4f37-b4fc-3af4c7df997e",
    "data": [
      {
        "text": "where am I located at",
        "userDefined": false
      }
    ],
    "isTemplate": false,
    "count": 0,
    "updated": 0
  },
  {
    "id": "6d7ac56f-d9e3-4702-993e-016d6d98ea11",
    "data": [
      {
        "text": "can you find my location now",
        "userDefined": false
      }
    ],
    "isTemplate": false,
    "count": 0,
    "updated": 0
  },
  {
    "id": "20854c7d-79ca-4444-8b89-1bb1276d2cab",
    "data": [
      {
        "text": "what is my ",
        "userDefined": false
      },
      {
        "text": "current",
        "meta": "@sys.ignore",
        "userDefined": false
      },
      {
        "text": " position",
        "userDefined": false
      }
    ],
    "isTemplate": false,
    "count": 0,
    "updated": 0
  },
  {
    "id": "8ca248b5-7684-4231-a4f0-beba2ea36246",
    "data": [
      {
        "text": "tell me where I am",
        "userDefined": false
      }
    ],
    "isTemplate": false,
    "count": 0,
    "updated": 0
  },
  {
    "id": "ed2ee282-b1e3-490d-bcde-bd922f46bc6f",
    "data": [
      {
        "text": "what\u0027s",
        "meta": "@sys.ignore",
        "userDefined": true
      },
      {
        "text": " my ",
        "userDefined": false
      },
      {
        "text": "current",
        "meta": "@sys.ignore",
        "userDefined": true
      },
      {
        "text": " location",
        "userDefined": false
      }
    ],
    "isTemplate": false,
    "count": 0,
    "updated": 0
  },
  {
    "id": "fb4e92e8-24be-429b-ac18-3b0736f46852",
    "data": [
      {
        "text": "can you locate me",
        "userDefined": false
      }
    ],
    "isTemplate": false,
    "count": 0,
    "updated": 0
  },
  {
    "id": "4d516a93-9f7b-4101-a6e4-bd1ef97fe5a8",
    "data": [
      {
        "text": "what is my location ",
        "userDefined": false
      },
      {
        "text": "right now",
        "meta": "@sys.ignore",
        "userDefined": true
      }
    ],
    "isTemplate": false,
    "count": 0,
    "updated": 0
  },
  {
    "id": "099bdd71-7192-45e6-8f90-b7ca688a599f",
    "data": [
      {
        "text": "I need my location",
        "userDefined": false
      }
    ],
    "isTemplate": false,
    "count": 0,
    "updated": 0
  },
  {
    "id": "a0e8a5dc-1120-43bf-9da6-531a8b69de15",
    "data": [
      {
        "text": "can you find where I am",
        "userDefined": false
      }
    ],
    "isTemplate": false,
    "count": 0,
    "updated": 0
  },
  {
    "id": "18095ac6-0c3d-4906-af69-9e9f94935ce7",
    "data": [
      {
        "text": "show me my location",
        "userDefined": false
      }
    ],
    "isTemplate": false,
    "count": 0,
    "updated": 0
  },
  {
    "id": "2afe703d-9250-4b95-bf6a-aef0057fe458",
    "data": [
      {
        "text": "where I am now",
        "userDefined": false
      }
    ],
    "isTemplate": false,
    "count": 0,
    "updated": 0
  },
  {
    "id": "ee5b5b18-69a8-4052-b7e7-fae1433e0483",
    "data": [
      {
        "text": "search my location",
        "userDefined": false
      }
    ],
    "isTemplate": false,
    "count": 0,
    "updated": 0
  },
  {
    "id": "f0831b2c-6831-44cd-b169-dd7c55f287b6",
    "data": [
      {
        "text": "can you find my location",
        "userDefined": false
      }
    ],
    "isTemplate": false,
    "count": 0,
    "updated": 0
  },
  {
    "id": "9bf22b5d-93f1-42fc-b44f-75b8c7fecf4a",
    "data": [
      {
        "text": "find me ",
        "userDefined": false
      },
      {
        "text": "on",
        "meta": "@sys.ignore",
        "userDefined": true
      },
      {
        "text": " the ",
        "userDefined": false
      },
      {
        "text": "map",
        "meta": "@sys.ignore",
        "userDefined": true
      }
    ],
    "isTemplate": false,
    "count": 0,
    "updated": 0
  },
  {
    "id": "ed3cfb44-d7ed-49cd-b2bd-c62b9e4257e0",
    "data": [
      {
        "text": "where ",
        "userDefined": false
      },
      {
        "text": "are",
        "meta": "@sys.ignore",
        "userDefined": true
      },
      {
        "text": " we now",
        "userDefined": false
      }
    ],
    "isTemplate": false,
    "count": 0,
    "updated": 0
  },
  {
    "id": "989da214-b04f-471f-9a9b-10e0f83b2a80",
    "data": [
      {
        "text": "do you know where am I",
        "userDefined": false
      }
    ],
    "isTemplate": false,
    "count": 0,
    "updated": 0
  },
  {
    "id": "5052465c-a3fc-41b3-9803-76414f3df1bf",
    "data": [
      {
        "text": "what is the location",
        "userDefined": false
      }
    ],
    "isTemplate": false,
    "count": 0,
    "updated": 0
  },
  {
    "id": "974de8f4-b688-460e-b1e2-33c5b1fac6bc",
    "data": [
      {
        "text": "what town am I in",
        "userDefined": false
      }
    ],
    "isTemplate": false,
    "count": 0,
    "updated": 0
  },
  {
    "id": "7719b769-5da6-47ed-b5c2-48873fd7eb0f",
    "data": [
      {
        "text": "find me where I am",
        "userDefined": false
      }
    ],
    "isTemplate": false,
    "count": 0,
    "updated": 0
  },
  {
    "id": "64b35d48-79a4-4920-bd9f-bd4618bf23c8",
    "data": [
      {
        "text": "what the ",
        "userDefined": false
      },
      {
        "text": "current",
        "meta": "@sys.ignore",
        "userDefined": false
      },
      {
        "text": " ",
        "userDefined": false
      },
      {
        "text": "address",
        "meta": "@sys.ignore",
        "userDefined": false
      }
    ],
    "isTemplate": false,
    "count": 0,
    "updated": 0
  },
  {
    "id": "d1b1b0d0-8b21-43b0-831c-85b82b8edfb1",
    "data": [
      {
        "text": "what is my location now",
        "userDefined": false
      }
    ],
    "isTemplate": false,
    "count": 0,
    "updated": 0
  },
  {
    "id": "403bd281-b8d6-464b-9cf4-a2cbb8335fb7",
    "data": [
      {
        "text": "where ",
        "userDefined": false
      },
      {
        "text": "are",
        "meta": "@sys.ignore",
        "userDefined": true
      },
      {
        "text": " we ",
        "userDefined": false
      },
      {
        "text": "right now",
        "meta": "@sys.ignore",
        "userDefined": true
      }
    ],
    "isTemplate": false,
    "count": 0,
    "updated": 0
  },
  {
    "id": "0174b806-71bd-4797-aff5-65a9f16749bc",
    "data": [
      {
        "text": "find my location please",
        "userDefined": false
      }
    ],
    "isTemplate": false,
    "count": 0,
    "updated": 0
  },
  {
    "id": "c53b6df4-806f-4cbc-b06b-096b49ef3f69",
    "data": [
      {
        "text": "did you find my location",
        "userDefined": false
      }
    ],
    "isTemplate": false,
    "count": 0,
    "updated": 0
  },
  {
    "id": "7605f299-2b21-47c1-a65e-8ad19430398f",
    "data": [
      {
        "text": "I want to know where I am",
        "userDefined": false
      }
    ],
    "isTemplate": false,
    "count": 0,
    "updated": 0
  },
  {
    "id": "14c9466f-6b6d-46d8-9ca7-95303fd67c2b",
    "data": [
      {
        "text": "locate me please",
        "userDefined": false
      }
    ],
    "isTemplate": false,
    "count": 0,
    "updated": 0
  },
  {
    "id": "58357b32-e160-41db-b603-4be6247c1923",
    "data": [
      {
        "text": "me",
        "meta": "@sys.ignore",
        "userDefined": false
      },
      {
        "text": " on the map ",
        "userDefined": false
      },
      {
        "text": "right now",
        "meta": "@sys.ignore",
        "userDefined": false
      }
    ],
    "isTemplate": false,
    "count": 1,
    "updated": 0
  },
  {
    "id": "1f23f83e-d182-4dd6-bdc6-81aa54102dd5",
    "data": [
      {
        "text": "locate me",
        "userDefined": false
      }
    ],
    "isTemplate": false,
    "count": 1,
    "updated": 0
  },
  {
    "id": "ae60d291-5784-417b-b026-4f9cff795aca",
    "data": [
      {
        "text": "what is my location",
        "userDefined": false
      }
    ],
    "isTemplate": false,
    "count": 0,
    "updated": 0
  },
  {
    "id": "9bd1e804-e7ee-4154-92e2-571693d68110",
    "data": [
      {
        "text": "can you tell me my location",
        "userDefined": false
      }
    ],
    "isTemplate": false,
    "count": 0,
    "updated": 0
  },
  {
    "id": "4b05aabf-50b2-4c54-896a-e4dbe2086284",
    "data": [
      {
        "text": "can you search my location",
        "userDefined": false
      }
    ],
    "isTemplate": false,
    "count": 0,
    "updated": 0
  },
  {
    "id": "50f03846-ae89-4a00-a3a3-3bd83d3f25ec",
    "data": [
      {
        "text": "do you know where am I now",
        "userDefined": false
      }
    ],
    "isTemplate": false,
    "count": 0,
    "updated": 0
  },
  {
    "id": "ebb51000-5725-4d0b-9c7e-0191a09c9af6",
    "data": [
      {
        "text": "show me in the ",
        "userDefined": false
      },
      {
        "text": "map",
        "meta": "@sys.ignore",
        "userDefined": false
      }
    ],
    "isTemplate": false,
    "count": 0,
    "updated": 0
  },
  {
    "id": "de3a9a0e-191f-4338-ab34-9d4aeb390638",
    "data": [
      {
        "text": "what\u0027s my location",
        "userDefined": false
      }
    ],
    "isTemplate": false,
    "count": 0,
    "updated": 0
  },
  {
    "id": "fbb0bc05-3152-48a0-bcbb-ab34c0b2e7c6",
    "data": [
      {
        "text": "can",
        "meta": "@sys.ignore",
        "userDefined": false
      },
      {
        "text": " you show the map at my ",
        "userDefined": false
      },
      {
        "text": "stay",
        "meta": "@sys.ignore",
        "userDefined": false
      }
    ],
    "isTemplate": false,
    "count": 0,
    "updated": 0
  },
  {
    "id": "7093d430-91d4-4139-b646-b58c4d93d510",
    "data": [
      {
        "text": "where is my location",
        "userDefined": false
      }
    ],
    "isTemplate": false,
    "count": 0,
    "updated": 0
  },
  {
    "id": "92c02c9f-6c39-4cc5-93bf-0d6a2731fd15",
    "data": [
      {
        "text": "search for my location",
        "userDefined": false
      }
    ],
    "isTemplate": false,
    "count": 0,
    "updated": 0
  },
  {
    "id": "92726597-a700-4cfc-bb8b-ea6fc37e85dc",
    "data": [
      {
        "text": "what\u0027s",
        "meta": "@sys.ignore",
        "userDefined": true
      },
      {
        "text": " my location now",
        "userDefined": false
      }
    ],
    "isTemplate": false,
    "count": 0,
    "updated": 0
  },
  {
    "id": "2e20f115-a48c-4c29-b344-94255a375b20",
    "data": [
      {
        "text": "can you tell me where I am now",
        "userDefined": false
      }
    ],
    "isTemplate": false,
    "count": 0,
    "updated": 0
  },
  {
    "id": "5179bf87-68ad-47dd-aa6f-481500d30683",
    "data": [
      {
        "text": "look for my location",
        "userDefined": false
      }
    ],
    "isTemplate": false,
    "count": 0,
    "updated": 0
  },
  {
    "id": "459e2ebd-63f4-4780-a8c6-dbd363c9171e",
    "data": [
      {
        "text": "where am I",
        "userDefined": false
      }
    ],
    "isTemplate": false,
    "count": 1,
    "updated": 0
  },
  {
    "id": "0c4c188a-1259-45c7-b750-69862a09f9c7",
    "data": [
      {
        "text": "find me",
        "userDefined": false
      }
    ],
    "isTemplate": false,
    "count": 0,
    "updated": 0
  },
  {
    "id": "49225d7b-4ad6-4566-993d-f8e20ecb0179",
    "data": [
      {
        "text": "where am I ",
        "userDefined": false
      },
      {
        "text": "right now",
        "meta": "@sys.ignore",
        "userDefined": false
      }
    ],
    "isTemplate": false,
    "count": 0,
    "updated": 0
  },
  {
    "id": "d2dedbdd-09dc-4350-8e7e-81a1b3ae8d59",
    "data": [
      {
        "text": "where I am ",
        "userDefined": false
      },
      {
        "text": "right now",
        "meta": "@sys.ignore",
        "userDefined": true
      }
    ],
    "isTemplate": false,
    "count": 0,
    "updated": 0
  },
  {
    "id": "8d61ce3c-f1c3-41c8-9e83-8723142835bf",
    "data": [
      {
        "text": "where am I at ",
        "userDefined": false
      },
      {
        "text": "right now",
        "meta": "@sys.ignore",
        "userDefined": true
      }
    ],
    "isTemplate": false,
    "count": 0,
    "updated": 0
  },
  {
    "id": "2f42b409-59f1-453c-b6d5-f3ccff5feea8",
    "data": [
      {
        "text": "current",
        "meta": "@sys.ignore",
        "userDefined": true
      },
      {
        "text": " location",
        "userDefined": false
      }
    ],
    "isTemplate": false,
    "count": 0,
    "updated": 0
  },
  {
    "id": "ebb82937-d96b-417e-889c-c5d7c5514d35",
    "data": [
      {
        "text": "tell me my ",
        "userDefined": false
      },
      {
        "text": "current",
        "meta": "@sys.ignore",
        "userDefined": true
      },
      {
        "text": " location",
        "userDefined": false
      }
    ],
    "isTemplate": false,
    "count": 0,
    "updated": 0
  },
  {
    "id": "6501755b-74e0-4c6d-b923-67e0e2e79b80",
    "data": [
      {
        "text": "locate my position",
        "userDefined": false
      }
    ],
    "isTemplate": false,
    "count": 0,
    "updated": 0
  },
  {
    "id": "4ce9a674-2b57-4b37-a14f-8f5e802f8a7f",
    "data": [
      {
        "text": "can you tell me where am I",
        "userDefined": false
      }
    ],
    "isTemplate": false,
    "count": 0,
    "updated": 0
  },
  {
    "id": "259726b1-48f3-412e-812a-c512a8601279",
    "data": [
      {
        "text": "show me ",
        "userDefined": false
      },
      {
        "text": "on",
        "meta": "@sys.ignore",
        "userDefined": false
      },
      {
        "text": " a ",
        "userDefined": false
      },
      {
        "text": "map",
        "meta": "@sys.ignore",
        "userDefined": false
      }
    ],
    "isTemplate": false,
    "count": 0,
    "updated": 0
  },
  {
    "id": "06b33284-c25f-48e1-871d-752d8c51a2cf",
    "data": [
      {
        "text": "can you tell me where I am exactly",
        "userDefined": false
      }
    ],
    "isTemplate": false,
    "count": 0,
    "updated": 0
  },
  {
    "id": "ddc49031-d807-4bef-a4e7-496fa90dcb55",
    "data": [
      {
        "text": "tell me where I am now",
        "userDefined": false
      }
    ],
    "isTemplate": false,
    "count": 0,
    "updated": 0
  },
  {
    "id": "7dbe39d2-0ff0-4c04-81b1-218604e43899",
    "data": [
      {
        "text": "what is our location",
        "userDefined": false
      }
    ],
    "isTemplate": false,
    "count": 0,
    "updated": 0
  },
  {
    "id": "49fb1f4d-b886-45f3-8a00-9d37a2203d90",
    "data": [
      {
        "text": "can you show my location",
        "userDefined": false
      }
    ],
    "isTemplate": false,
    "count": 0,
    "updated": 0
  },
  {
    "id": "39946b8a-d5cf-4b96-8ac1-4e3dd1208666",
    "data": [
      {
        "text": "where is my current location",
        "userDefined": false
      }
    ],
    "isTemplate": false,
    "count": 0,
    "updated": 0
  },
  {
    "id": "8d095115-1f56-4d17-9bc7-b7083a7f2d11",
    "data": [
      {
        "text": "am",
        "meta": "@sys.ignore",
        "userDefined": false
      },
      {
        "text": " I lost",
        "userDefined": false
      }
    ],
    "isTemplate": false,
    "count": 0,
    "updated": 0
  },
  {
    "id": "5025b3d9-be8d-49eb-813b-fac7d4e506e8",
    "data": [
      {
        "text": "can you ",
        "userDefined": false
      },
      {
        "text": "give",
        "meta": "@sys.ignore",
        "userDefined": true
      },
      {
        "text": " me my location",
        "userDefined": false
      }
    ],
    "isTemplate": false,
    "count": 0,
    "updated": 0
  },
  {
    "id": "df30a657-9058-4d4d-a0db-fcb1f8c39e72",
    "data": [
      {
        "text": "my location now",
        "userDefined": false
      }
    ],
    "isTemplate": false,
    "count": 0,
    "updated": 0
  },
  {
    "id": "fdbd702c-7c96-45e9-b1ed-471bfc319e3d",
    "data": [
      {
        "text": "where am I now",
        "userDefined": false
      }
    ],
    "isTemplate": false,
    "count": 0,
    "updated": 0
  },
  {
    "id": "3c4b6a17-692f-4665-9b0e-3ed3e255fc5c",
    "data": [
      {
        "text": "what\u0027s",
        "meta": "@sys.ignore",
        "userDefined": false
      },
      {
        "text": " my location",
        "userDefined": false
      }
    ],
    "isTemplate": false,
    "count": 0,
    "updated": 0
  },
  {
    "id": "fa600af2-cb9a-4899-9aeb-e4802aee30cc",
    "data": [
      {
        "text": "where ",
        "userDefined": false
      },
      {
        "text": "are",
        "meta": "@sys.ignore",
        "userDefined": false
      },
      {
        "text": " we",
        "userDefined": false
      }
    ],
    "isTemplate": false,
    "count": 0,
    "updated": 0
  },
  {
    "id": "9ab4bcf3-03ef-4dd1-8183-b2af1e3f289b",
    "data": [
      {
        "text": "show my location",
        "userDefined": false
      }
    ],
    "isTemplate": false,
    "count": 1,
    "updated": 0
  },
  {
    "id": "5732425b-2869-4507-905a-bb6da6b02744",
    "data": [
      {
        "text": "pinpoint my location",
        "userDefined": false
      }
    ],
    "isTemplate": false,
    "count": 0,
    "updated": 0
  },
  {
    "id": "3ecb582c-c956-4002-813e-533d7ce7f471",
    "data": [
      {
        "text": "can you tell me where I am",
        "userDefined": false
      }
    ],
    "isTemplate": false,
    "count": 0,
    "updated": 0
  },
  {
    "id": "1ff47a70-5a1f-4f2c-bfbc-10c1294a44b5",
    "data": [
      {
        "text": "where am I at now",
        "userDefined": false
      }
    ],
    "isTemplate": false,
    "count": 0,
    "updated": 0
  },
  {
    "id": "a3115a1f-335f-4bc5-9543-88f31d75f38f",
    "data": [
      {
        "text": "where am I located now",
        "userDefined": false
      }
    ],
    "isTemplate": false,
    "count": 0,
    "updated": 0
  },
  {
    "id": "3019f3c6-d2ba-40cf-9819-47d26c4ec8c6",
    "data": [
      {
        "text": "where\u0027s my location",
        "userDefined": false
      }
    ],
    "isTemplate": false,
    "count": 0,
    "updated": 0
  },
  {
    "id": "c0048990-57a4-47a0-a9a8-4ec8658cdaca",
    "data": [
      {
        "text": "do you know where I am",
        "userDefined": false
      }
    ],
    "isTemplate": false,
    "count": 0,
    "updated": 0
  },
  {
    "id": "733eb585-eece-4ccb-9eae-750334299579",
    "data": [
      {
        "text": "find my ",
        "userDefined": false
      },
      {
        "text": "current",
        "meta": "@sys.ignore",
        "userDefined": true
      },
      {
        "text": " location",
        "userDefined": false
      }
    ],
    "isTemplate": false,
    "count": 0,
    "updated": 0
  },
  {
    "id": "c218709b-0f99-4e8d-9f7b-e118caee13cb",
    "data": [
      {
        "text": "where am I located ",
        "userDefined": false
      },
      {
        "text": "right now",
        "meta": "@sys.ignore",
        "userDefined": true
      }
    ],
    "isTemplate": false,
    "count": 0,
    "updated": 0
  },
  {
    "id": "68ab6f77-bc3a-4029-8cb3-186c3096bc62",
    "data": [
      {
        "text": "find my location now",
        "userDefined": false
      }
    ],
    "isTemplate": false,
    "count": 0,
    "updated": 0
  },
  {
    "id": "d16b4b5b-1f2b-46a9-8dfc-dc7b87d4fa92",
    "data": [
      {
        "text": "show me where am I",
        "userDefined": false
      }
    ],
    "isTemplate": false,
    "count": 0,
    "updated": 0
  },
  {
    "id": "b4c48715-c433-4d8e-8ec2-16f892a81549",
    "data": [
      {
        "text": "show my location ",
        "userDefined": false
      },
      {
        "text": "on",
        "meta": "@sys.ignore",
        "userDefined": false
      },
      {
        "text": " the ",
        "userDefined": false
      },
      {
        "text": "map",
        "meta": "@sys.ignore",
        "userDefined": false
      }
    ],
    "isTemplate": false,
    "count": 0,
    "updated": 0
  },
  {
    "id": "5599aa55-fed2-494a-97a2-ddfc3fee8a21",
    "data": [
      {
        "text": "what is my ",
        "userDefined": false
      },
      {
        "text": "current",
        "meta": "@sys.ignore",
        "userDefined": false
      },
      {
        "text": " location",
        "userDefined": false
      }
    ],
    "isTemplate": false,
    "count": 0,
    "updated": 0
  },
  {
    "id": "ef00c0f7-b96d-49a1-b448-30e5e79e12cc",
    "data": [
      {
        "text": "tell me my location",
        "userDefined": false
      }
    ],
    "isTemplate": false,
    "count": 0,
    "updated": 0
  },
  {
    "id": "f3a4ceec-f2cd-46ff-9e43-f221f238bc91",
    "data": [
      {
        "text": "my ",
        "userDefined": false
      },
      {
        "text": "current",
        "meta": "@sys.ignore",
        "userDefined": true
      },
      {
        "text": " location",
        "userDefined": false
      }
    ],
    "isTemplate": false,
    "count": 0,
    "updated": 0
  },
  {
    "id": "7a680602-1b4c-4234-8e8c-711ae1aa0462",
    "data": [
      {
        "text": "locate me now",
        "userDefined": false
      }
    ],
    "isTemplate": false,
    "count": 0,
    "updated": 0
  },
  {
    "id": "07044014-1d4d-4c23-ae36-e4941cde47cd",
    "data": [
      {
        "text": "can you pinpoint my location",
        "userDefined": false
      }
    ],
    "isTemplate": false,
    "count": 0,
    "updated": 0
  },
  {
    "id": "b50fb6d9-9caf-46bd-be2a-64d037db97ae",
    "data": [
      {
        "text": "do you know where I am ",
        "userDefined": false
      },
      {
        "text": "right now",
        "meta": "@sys.ignore",
        "userDefined": true
      }
    ],
    "isTemplate": false,
    "count": 0,
    "updated": 0
  },
  {
    "id": "b2ea394b-a7ea-4640-aa71-362fa6c7c1e9",
    "data": [
      {
        "text": "update my location",
        "userDefined": false
      }
    ],
    "isTemplate": false,
    "count": 0,
    "updated": 0
  },
  {
    "id": "c76a7cbb-c7ed-4d39-a922-0812ef3aa24f",
    "data": [
      {
        "text": "can you tell me where I\u0027m at ",
        "userDefined": false
      },
      {
        "text": "right now",
        "meta": "@sys.ignore",
        "userDefined": false
      }
    ],
    "isTemplate": false,
    "count": 0,
    "updated": 0
  },
  {
    "id": "ecd00618-5859-4b7a-b9d2-3f78c4120b54",
    "data": [
      {
        "text": "please tell my location",
        "userDefined": false
      }
    ],
    "isTemplate": false,
    "count": 0,
    "updated": 0
  },
  {
    "id": "41d19c6a-ea59-438c-a589-e7bd37716f3c",
    "data": [
      {
        "text": "where am I exactly",
        "userDefined": false
      }
    ],
    "isTemplate": false,
    "count": 0,
    "updated": 0
  },
  {
    "id": "307a4f0b-5a7c-4414-8873-3357b8dba8a4",
    "data": [
      {
        "text": "where are we",
        "userDefined": false
      }
    ],
    "isTemplate": false,
    "count": 0,
    "updated": 0
  },
  {
    "id": "a5991c11-c5a8-4de9-921d-078bbde5ac35",
    "data": [
      {
        "text": "where is I am right now",
        "userDefined": false
      }
    ],
    "isTemplate": false,
    "count": 0,
    "updated": 0
  }
]