{
  "id": "a9972b24-7c54-4a7a-b9ee-d6b6e57ca81f",
  "name": "restaurant.book - context:book-restaurant - comment:another one",
  "auto": true,
  "contexts": [
    "book-restaurant"
  ],
  "responses": [
    {
      "resetContexts": false,
      "action": "restaurant.book",
      "affectedContexts": [],
      "parameters": [],
      "messages": [
        {
          "type": 0,
          "lang": "en",
          "condition": "",
          "speech": []
        }
      ],
      "defaultResponsePlatforms": {},
      "speech": []
    }
  ],
  "priority": 500000,
  "webhookUsed": false,
  "webhookForSlotFilling": false,
  "fallbackIntent": false,
  "events": [],
  "conditionalResponses": [],
  "condition": "",
  "conditionalFollowupEvents": []
}