{
  "id": "5b553b51-4756-468e-bc45-55444ab8a794",
  "name": "plan.change",
  "auto": true,
  "contexts": [],
  "responses": [
    {
      "resetContexts": false,
      "action": "plan.change",
      "affectedContexts": [],
      "parameters": [
        {
          "id": "728b843b-bc2f-4e14-a5b7-a7e69cea3b9b",
          "required": true,
          "dataType": "@plan",
          "name": "plan-to",
          "value": "$plan-to",
          "prompts": [
            {
              "lang": "en",
              "value": "What plan do you want to switch to? I have postpaid and prepaid plans."
            }
          ],
          "promptMessages": [],
          "noMatchPromptMessages": [],
          "noInputPromptMessages": [],
          "outputDialogContexts": [],
          "isList": false
        },
        {
          "id": "e2053986-425d-40d2-bb1e-66947aa131b1",
          "required": false,
          "dataType": "@plan",
          "name": "plan-from",
          "value": "$plan-from",
          "promptMessages": [],
          "noMatchPromptMessages": [],
          "noInputPromptMessages": [],
          "outputDialogContexts": [],
          "isList": false
        }
      ],
      "messages": [
        {
          "type": 0,
          "lang": "en",
          "condition": "",
          "speech": "Okay. I have switched your plan to $plan-to."
        }
      ],
      "defaultResponsePlatforms": {},
      "speech": []
    }
  ],
  "priority": 500000,
  "webhookUsed": false,
  "webhookForSlotFilling": false,
  "fallbackIntent": false,
  "events": [],
  "conditionalResponses": [],
  "condition": "",
  "conditionalFollowupEvents": []
}