{
  "id": "b43509ba-e370-48af-adc7-d16afcd6b681",
  "name": "travel",
  "auto": true,
  "contexts": [],
  "responses": [
    {
      "resetContexts": false,
      "action": "travel",
      "affectedContexts": [],
      "parameters": [
        {
          "id": "e49a151b-8e6b-4e01-bc6a-a387fce26299",
          "required": true,
          "dataType": "@sys.location",
          "name": "location",
          "value": "$location",
          "prompts": [
            {
              "lang": "en",
              "value": "What\u0027s you destination?"
            }
          ],
          "promptMessages": [],
          "noMatchPromptMessages": [],
          "noInputPromptMessages": [],
          "outputDialogContexts": [],
          "isList": false
        },
        {
          "id": "f579b846-0591-42ea-8b02-09c3b601ebc6",
          "required": false,
          "dataType": "@sys.date-time",
          "name": "date-time",
          "value": "$date-time",
          "promptMessages": [],
          "noMatchPromptMessages": [],
          "noInputPromptMessages": [],
          "outputDialogContexts": [],
          "isList": false
        }
      ],
      "messages": [
        {
          "type": 0,
          "lang": "en",
          "condition": "",
          "speech": "Some conditions may apply to your plan in $location.original. You can check our international travel section for more details."
        }
      ],
      "defaultResponsePlatforms": {},
      "speech": []
    }
  ],
  "priority": 500000,
  "webhookUsed": false,
  "webhookForSlotFilling": false,
  "fallbackIntent": false,
  "events": [],
  "conditionalResponses": [],
  "condition": "",
  "conditionalFollowupEvents": []
}