{
  "description": "This agent lets your app users ask about the current data, calculate between dates, determine how many days until another date, etc.",
  "language": "en",
  "shortDescription": "Date calculator and holiday lookup",
  "examples": "User: Do you know what day it is?\nUser: What date is next Friday?\nUser: How long until Thanksgiving?\nUser: What is the date of Columbus day in 2015?\nUser: How long until Christmas?\nUser: When is Thanksgiving this year?",
  "linkToDocs": "",
  "disableInteractionLogs": false,
  "disableStackdriverLogs": true,
  "googleAssistant": {
    "googleAssistantCompatible": false,
    "project": "",
    "welcomeIntentSignInRequired": false,
    "startIntents": [],
    "systemIntents": [],
    "endIntentIds": [],
    "oAuthLinking": {
      "required": false,
      "providerId": "",
      "authorizationUrl": "",
      "tokenUrl": "",
      "scopes": "",
      "privacyPolicyUrl": "",
      "grantType": "AUTH_CODE_GRANT"
    },
    "voiceType": "MALE_1",
    "capabilities": [],
    "env": "",
    "protocolVersion": "V1",
    "autoPreviewEnabled": false,
    "isDeviceAgent": false
  },
  "defaultTimezone": "America/New_York",
  "webhook": {
    "url": "",
    "username": "",
    "headers": {},
    "available": false,
    "useForDomains": false,
    "cloudFunctionsEnabled": false,
    "cloudFunctionsInitialized": false
  },
  "isPrivate": false,
  "customClassifierMode": "use.instead",
  "mlMinConfidence": 0.3,
  "supportedLanguages": [],
  "onePlatformApiVersion": "v2",
  "analyzeQueryTextSentiment": false,
  "enabledKnowledgeBaseNames": [],
  "knowledgeServiceConfidenceAdjustment": -0.4,
  "dialogBuilderMode": false,
  "baseActionPackagesUrl": ""
}