[
  {
    "value": "AI",
    "synonyms": [
      "AI",
      "all inclusive"
    ]
  },
  {
    "value": "BB",
    "synonyms": [
      "BB",
      "bed and breakfast"
    ]
  },
  {
    "value": "FB",
    "synonyms": [
      "FB",
      "full board"
    ]
  },
  {
    "value": "HB",
    "synonyms": [
      "HB",
      "breakfast and dinners",
      "half board"
    ]
  },
  {
    "value": "RO",
    "synonyms": [
      "RO",
      "room only"
    ]
  },
  {
    "value": "SC",
    "synonyms": [
      "SC",
      "self catering"
    ]
  }
]