[
  {
    "value": "adjust ignition switch",
    "synonyms": [
      "adjust ignition switch"
    ]
  },
  {
    "value": "adjust seat",
    "synonyms": [
      "adjust seat"
    ]
  },
  {
    "value": "adjust seats manually",
    "synonyms": [
      "adjust seats manually"
    ]
  },
  {
    "value": "adjust the wheel",
    "synonyms": [
      "adjust the wheel"
    ]
  },
  {
    "value": "change car oil",
    "synonyms": [
      "change car oil"
    ]
  },
  {
    "value": "change the steering wheel position",
    "synonyms": [
      "change the steering wheel position"
    ]
  },
  {
    "value": "change the wheel",
    "synonyms": [
      "change the wheel"
    ]
  },
  {
    "value": "drive this car",
    "synonyms": [
      "drive this car"
    ]
  },
  {
    "value": "fasten the seat belt",
    "synonyms": [
      "fasten the seat belt"
    ]
  },
  {
    "value": "fix the engine block",
    "synonyms": [
      "fix the engine block"
    ]
  },
  {
    "value": "program my favorite radio stations",
    "synonyms": [
      "program my favorite radio stations"
    ]
  },
  {
    "value": "repair car speakers",
    "synonyms": [
      "repair car speakers"
    ]
  },
  {
    "value": "set my cruise control",
    "synonyms": [
      "set my cruise control"
    ]
  },
  {
    "value": "set the clock",
    "synonyms": [
      "set the clock"
    ]
  },
  {
    "value": "suggested oil change freequency",
    "synonyms": [
      "often do I need to change oil",
      "suggested oil change freequency"
    ]
  },
  {
    "value": "turn on the navigation system",
    "synonyms": [
      "turn on the navigation system"
    ]
  }
]