{
  "id": "52739390-7b4a-4bfe-bbe1-0ae06fbdb150",
  "name": "heating",
  "isOverridable": true,
  "isEnum": false,
  "isRegexp": false,
  "automatedExpansion": false,
  "allowFuzzyExtraction": false
}