{
  "id": "a73afd75-ecab-448d-ac87-b25dfce16ce5",
  "name": "music-artist",
  "isOverridable": true,
  "isEnum": false,
  "isRegexp": false,
  "automatedExpansion": true,
  "allowFuzzyExtraction": false
}