{
  "id": "0bf99dbd-5231-4e7d-8069-90cb4d7aa4df",
  "name": "name.user.delete",
  "auto": true,
  "contexts": [],
  "responses": [
    {
      "resetContexts": false,
      "action": "name.user.delete",
      "affectedContexts": [],
      "parameters": [
        {
          "id": "9af7e64c-058e-4d99-9f49-71d2c09cf32c",
          "required": false,
          "dataType": "@sys.given-name",
          "name": "given-name",
          "value": "$given-name",
          "promptMessages": [],
          "noMatchPromptMessages": [],
          "noInputPromptMessages": [],
          "outputDialogContexts": [],
          "isList": false
        },
        {
          "id": "11b24106-95b1-490e-9ca8-6c23b77dd0da",
          "required": false,
          "dataType": "@sys.last-name",
          "name": "last-name",
          "value": "$last-name",
          "promptMessages": [],
          "noMatchPromptMessages": [],
          "noInputPromptMessages": [],
          "outputDialogContexts": [],
          "isList": false
        },
        {
          "id": "266ab96c-6ad8-4901-b725-65bee7b28018",
          "required": false,
          "dataType": "@nick-name",
          "name": "nick-name",
          "value": "$nick-name",
          "promptMessages": [],
          "noMatchPromptMessages": [],
          "noInputPromptMessages": [],
          "outputDialogContexts": [],
          "isList": false
        },
        {
          "id": "436b5d61-f2f3-4022-9da7-33fc962e519f",
          "required": false,
          "dataType": "@name-type",
          "name": "type",
          "value": "$type",
          "promptMessages": [],
          "noMatchPromptMessages": [],
          "noInputPromptMessages": [],
          "outputDialogContexts": [],
          "isList": false
        }
      ],
      "messages": [
        {
          "type": 0,
          "lang": "en",
          "condition": "",
          "speech": []
        }
      ],
      "defaultResponsePlatforms": {},
      "speech": []
    }
  ],
  "priority": 500000,
  "webhookUsed": false,
  "webhookForSlotFilling": false,
  "fallbackIntent": false,
  "events": [],
  "conditionalResponses": [],
  "condition": "",
  "conditionalFollowupEvents": []
}