{
  "id": "c45ccd67-339a-4138-bb6e-32deaa6beda4",
  "name": "name.user.feedback.bad",
  "auto": true,
  "contexts": [],
  "responses": [
    {
      "resetContexts": false,
      "action": "name.user.feedback.bad",
      "affectedContexts": [],
      "parameters": [
        {
          "id": "e7a92c21-82f9-4241-bbfc-89e73d5ed1d7",
          "required": false,
          "dataType": "@name-type",
          "name": "type",
          "value": "$type",
          "promptMessages": [],
          "noMatchPromptMessages": [],
          "noInputPromptMessages": [],
          "outputDialogContexts": [],
          "isList": false
        }
      ],
      "messages": [
        {
          "type": 0,
          "lang": "en",
          "condition": "",
          "speech": []
        }
      ],
      "defaultResponsePlatforms": {},
      "speech": []
    }
  ],
  "priority": 500000,
  "webhookUsed": false,
  "webhookForSlotFilling": false,
  "fallbackIntent": false,
  "events": [],
  "conditionalResponses": [],
  "condition": "",
  "conditionalFollowupEvents": []
}