{
  "id": "d5562e63-348e-401b-88fa-2a7a7d884438",
  "name": "faq.complaint",
  "auto": true,
  "contexts": [],
  "responses": [
    {
      "resetContexts": false,
      "action": "faq.complaint",
      "affectedContexts": [],
      "parameters": [
        {
          "id": "632d401e-c93c-4dfb-b312-549bca1cc776",
          "required": false,
          "dataType": "@sys.any",
          "name": "complaint",
          "value": "$complaint",
          "prompts": [
            {
              "lang": "en",
              "value": "Sorry you had some trouble with our process. Please briefly type in your issue."
            }
          ],
          "promptMessages": [],
          "noMatchPromptMessages": [],
          "noInputPromptMessages": [],
          "outputDialogContexts": [],
          "isList": false
        }
      ],
      "messages": [
        {
          "type": "suggestion_chips",
          "platform": "google",
          "lang": "en",
          "condition": "",
          "suggestions": [
            {
              "title": "Flight delayed"
            },
            {
              "title": "Missing luggage"
            }
          ]
        },
        {
          "type": 0,
          "lang": "en",
          "condition": "",
          "speech": "Please check our website to file a complaint."
        }
      ],
      "defaultResponsePlatforms": {
        "google": true
      },
      "speech": []
    }
  ],
  "priority": 500000,
  "webhookUsed": false,
  "webhookForSlotFilling": false,
  "fallbackIntent": false,
  "events": [],
  "conditionalResponses": [],
  "condition": "",
  "conditionalFollowupEvents": []
}