[
  {
    "id": "bc90b739-84f4-40ea-8936-8bff420a60f3",
    "data": [
      {
        "text": "what documents should I bring",
        "userDefined": false
      }
    ],
    "isTemplate": false,
    "count": 0,
    "updated": 0
  },
  {
    "id": "6b522ddd-3154-439c-8fe9-874668d75a5e",
    "data": [
      {
        "text": "is identification needed",
        "userDefined": false
      }
    ],
    "isTemplate": false,
    "count": 0,
    "updated": 0
  },
  {
    "id": "dfe240bf-6a67-49df-a14a-31cc913c320a",
    "data": [
      {
        "text": "what type of id should I take",
        "userDefined": false
      }
    ],
    "isTemplate": false,
    "count": 0,
    "updated": 0
  },
  {
    "id": "eb439a9e-1576-43e4-bbfb-f6d8e931d921",
    "data": [
      {
        "text": "do I need an ID on domestic flights",
        "userDefined": false
      }
    ],
    "isTemplate": false,
    "count": 0,
    "updated": 0
  }
]