[
  {
    "id": "435d12ee-4c58-44c6-a411-da381204a493",
    "data": [
      {
        "text": "how about ",
        "userDefined": false
      },
      {
        "text": "the one",
        "meta": "@sys.ignore",
        "userDefined": true
      },
      {
        "text": " to ",
        "userDefined": false
      },
      {
        "text": "Berlin",
        "alias": "to",
        "meta": "@sys.location",
        "userDefined": true
      }
    ],
    "isTemplate": false,
    "count": 0,
    "updated": 0
  },
  {
    "id": "84ca7925-6de3-442a-921a-c26888dd6cee",
    "data": [
      {
        "text": "change destination to ",
        "userDefined": false
      },
      {
        "text": "Paris",
        "alias": "to",
        "meta": "@sys.location",
        "userDefined": true
      }
    ],
    "isTemplate": false,
    "count": 2,
    "updated": 0
  },
  {
    "id": "559677b8-d7cf-494e-943c-0ba89afb72cf",
    "data": [
      {
        "text": "leaving to ",
        "userDefined": false
      },
      {
        "text": "Kuba",
        "alias": "to",
        "meta": "@sys.location",
        "userDefined": true
      }
    ],
    "isTemplate": false,
    "count": 0,
    "updated": 0
  },
  {
    "id": "4d15256a-4390-45a1-a32a-45860dfd30ee",
    "data": [
      {
        "text": "destination is ",
        "userDefined": false
      },
      {
        "text": "San Francisco",
        "alias": "to",
        "meta": "@sys.location",
        "userDefined": true
      }
    ],
    "isTemplate": false,
    "count": 0,
    "updated": 0
  },
  {
    "id": "01eb6f8e-1152-473b-b791-0692ffc039ce",
    "data": [
      {
        "text": "to ",
        "userDefined": false
      },
      {
        "text": "Denver",
        "alias": "to",
        "meta": "@sys.location",
        "userDefined": true
      }
    ],
    "isTemplate": false,
    "count": 0,
    "updated": 0
  },
  {
    "id": "2e4d68c9-e8cd-47e2-80cf-eb790e0a4be1",
    "data": [
      {
        "text": "what about ",
        "userDefined": false
      },
      {
        "text": "the one",
        "meta": "@sys.ignore",
        "userDefined": true
      },
      {
        "text": " to ",
        "userDefined": false
      },
      {
        "text": "Chicago",
        "alias": "to",
        "meta": "@sys.location",
        "userDefined": true
      }
    ],
    "isTemplate": false,
    "count": 0,
    "updated": 0
  },
  {
    "id": "54797d94-e665-45de-bd2a-d9bba660b44a",
    "data": [
      {
        "text": "new destination is ",
        "userDefined": false
      },
      {
        "text": "Paris",
        "alias": "to",
        "meta": "@sys.location",
        "userDefined": false
      }
    ],
    "isTemplate": false,
    "count": 0,
    "updated": 0
  },
  {
    "id": "2e3304f3-4131-4c09-9ae0-0ebf744e5f26",
    "data": [
      {
        "text": "now to ",
        "userDefined": false
      },
      {
        "text": "Honolulu",
        "alias": "to",
        "meta": "@sys.location",
        "userDefined": true
      }
    ],
    "isTemplate": false,
    "count": 0,
    "updated": 0
  },
  {
    "id": "bbc2ab18-3419-44fe-bbe5-8f561687bfbe",
    "data": [
      {
        "text": "heading to ",
        "userDefined": false
      },
      {
        "text": "Tokyo",
        "alias": "to",
        "meta": "@sys.location",
        "userDefined": true
      }
    ],
    "isTemplate": false,
    "count": 0,
    "updated": 0
  },
  {
    "id": "40075bd3-dbf6-47ee-8fe4-bd35c7a0aded",
    "data": [
      {
        "text": "leaving for ",
        "userDefined": false
      },
      {
        "text": "New York",
        "alias": "to",
        "meta": "@sys.location",
        "userDefined": true
      }
    ],
    "isTemplate": false,
    "count": 0,
    "updated": 0
  }
]