{
  "id": "99201156-3c22-4861-9737-97e5869fbfcc",
  "name": "flight - context:flight - comment:airline",
  "auto": true,
  "contexts": [
    "flight"
  ],
  "responses": [
    {
      "resetContexts": false,
      "action": "#flight.intent_action",
      "affectedContexts": [],
      "parameters": [
        {
          "id": "eff21ba0-f821-47ec-849e-bbd2118cea4a",
          "required": false,
          "dataType": "@airline",
          "name": "airline",
          "value": "$airline",
          "promptMessages": [],
          "noMatchPromptMessages": [],
          "noInputPromptMessages": [],
          "outputDialogContexts": [],
          "isList": false
        }
      ],
      "messages": [
        {
          "type": 0,
          "lang": "en",
          "condition": "",
          "speech": []
        }
      ],
      "defaultResponsePlatforms": {},
      "speech": []
    }
  ],
  "priority": 500000,
  "webhookUsed": false,
  "webhookForSlotFilling": false,
  "fallbackIntent": false,
  "events": [],
  "conditionalResponses": [],
  "condition": "",
  "conditionalFollowupEvents": []
}