[
  {
    "id": "0a22d5e5-08ef-4620-8219-df95524a2de0",
    "data": [
      {
        "text": "show me the flight status",
        "userDefined": false
      }
    ],
    "isTemplate": false,
    "count": 1,
    "updated": 0
  },
  {
    "id": "3358c5ef-afa3-4eb2-85d2-9481d1de5532",
    "data": [
      {
        "text": "Lufthansa",
        "alias": "airline",
        "meta": "@airline",
        "userDefined": true
      },
      {
        "text": " flight to ",
        "userDefined": false
      },
      {
        "text": "Berlin",
        "alias": "to",
        "meta": "@sys.location",
        "userDefined": true
      }
    ],
    "isTemplate": false,
    "count": 0,
    "updated": 0
  },
  {
    "id": "1eca60cf-ea12-4dce-9f35-21e630d15f6d",
    "data": [
      {
        "text": "check flight status for ",
        "userDefined": false
      },
      {
        "text": "su 21",
        "alias": "flight-number",
        "meta": "@sys.flight-number",
        "userDefined": true
      }
    ],
    "isTemplate": false,
    "count": 1,
    "updated": 0
  },
  {
    "id": "dd84f092-db82-4292-a4ba-2ed28794cb69",
    "data": [
      {
        "text": "what\u0027s the status of flight ",
        "userDefined": false
      },
      {
        "text": "ba767",
        "alias": "flight-number",
        "meta": "@sys.flight-number",
        "userDefined": true
      }
    ],
    "isTemplate": false,
    "count": 0,
    "updated": 0
  },
  {
    "id": "85a08d58-8887-4a67-bb47-5126b013f371",
    "data": [
      {
        "text": "flight status",
        "userDefined": false
      }
    ],
    "isTemplate": false,
    "count": 1,
    "updated": 0
  },
  {
    "id": "e028f859-8895-4b73-be18-0dcc4a7695d7",
    "data": [
      {
        "text": "status for flight number ",
        "userDefined": false
      },
      {
        "text": "DE130",
        "alias": "flight-number",
        "meta": "@sys.flight-number",
        "userDefined": true
      }
    ],
    "isTemplate": false,
    "count": 0,
    "updated": 0
  },
  {
    "id": "2885eede-53cf-4f9f-8902-3e4572d89cba",
    "data": [
      {
        "text": "flight status of ",
        "userDefined": false
      },
      {
        "text": "AA125",
        "alias": "flight-number",
        "meta": "@sys.flight-number",
        "userDefined": true
      }
    ],
    "isTemplate": false,
    "count": 0,
    "updated": 0
  },
  {
    "id": "94238f5f-78a2-436e-a669-23fb687e8ad2",
    "data": [
      {
        "text": "what\u0027s the status of flight ",
        "userDefined": false
      },
      {
        "text": "ba279",
        "alias": "flight-number",
        "meta": "@sys.flight-number",
        "userDefined": true
      }
    ],
    "isTemplate": false,
    "count": 0,
    "updated": 0
  },
  {
    "id": "75265875-7fd6-449d-a6dd-d4248fc5dcd5",
    "data": [
      {
        "text": "I want to check schedule for flight ",
        "userDefined": false
      },
      {
        "text": "aa222",
        "alias": "flight-number",
        "meta": "@sys.flight-number",
        "userDefined": true
      }
    ],
    "isTemplate": false,
    "count": 2,
    "updated": 0
  },
  {
    "id": "89806a3f-5085-4662-a49c-2c222d147766",
    "data": [
      {
        "text": "has flight from ",
        "userDefined": false
      },
      {
        "text": "New York",
        "alias": "from",
        "meta": "@sys.location",
        "userDefined": true
      },
      {
        "text": " landed",
        "userDefined": false
      }
    ],
    "isTemplate": false,
    "count": 0,
    "updated": 0
  },
  {
    "id": "b339cec9-a65a-41aa-8900-b6999c3424d5",
    "data": [
      {
        "text": "did flight ",
        "userDefined": false
      },
      {
        "text": "US airlines",
        "alias": "airline",
        "meta": "@airline",
        "userDefined": true
      },
      {
        "text": " ",
        "userDefined": false
      },
      {
        "text": "HA700",
        "alias": "flight-number",
        "meta": "@sys.flight-number",
        "userDefined": true
      },
      {
        "text": " arrive ",
        "userDefined": false
      },
      {
        "text": "on",
        "meta": "@sys.ignore",
        "userDefined": true
      },
      {
        "text": " time",
        "userDefined": false
      }
    ],
    "isTemplate": false,
    "count": 0,
    "updated": 0
  },
  {
    "id": "a8e03c88-d819-449f-a978-1f1341ae1adf",
    "data": [
      {
        "text": "what is the status of ",
        "userDefined": false
      },
      {
        "text": "Lufthansa",
        "alias": "airline",
        "meta": "@airline",
        "userDefined": true
      },
      {
        "text": " flight ",
        "userDefined": false
      },
      {
        "text": "LH130",
        "alias": "flight-number",
        "meta": "@sys.flight-number",
        "userDefined": true
      }
    ],
    "isTemplate": false,
    "count": 0,
    "updated": 0
  },
  {
    "id": "7247dbdc-60a2-4ff7-8418-ad8fac4f7e90",
    "data": [
      {
        "text": "check ",
        "userDefined": false
      },
      {
        "text": "today",
        "alias": "date-time",
        "meta": "@sys.date-time",
        "userDefined": true
      },
      {
        "text": "\u0027s flight to ",
        "userDefined": false
      },
      {
        "text": "Delhi",
        "alias": "to",
        "meta": "@sys.location",
        "userDefined": true
      }
    ],
    "isTemplate": false,
    "count": 0,
    "updated": 0
  },
  {
    "id": "3124438a-c27d-47ae-8d96-e867032cbfc0",
    "data": [
      {
        "text": "check ",
        "userDefined": false
      },
      {
        "text": "Lufthansa",
        "alias": "airline",
        "meta": "@airline",
        "userDefined": true
      },
      {
        "text": " flights",
        "userDefined": false
      }
    ],
    "isTemplate": false,
    "count": 0,
    "updated": 0
  },
  {
    "id": "ee3f056c-7f25-4f08-9af4-891ce40e7ec7",
    "data": [
      {
        "text": "is ",
        "userDefined": false
      },
      {
        "text": "ba 112",
        "alias": "flight-number",
        "meta": "@sys.flight-number",
        "userDefined": true
      },
      {
        "text": " delayed",
        "userDefined": false
      }
    ],
    "isTemplate": false,
    "count": 1,
    "updated": 0
  },
  {
    "id": "2a0133df-2206-4ec5-a2d2-fd442feeb6ad",
    "data": [
      {
        "text": "show status of the ",
        "userDefined": false
      },
      {
        "text": "yesterday",
        "alias": "date-time",
        "meta": "@sys.date-time",
        "userDefined": true
      },
      {
        "text": "\u0027s flight from ",
        "userDefined": false
      },
      {
        "text": "Tartu",
        "alias": "from",
        "meta": "@sys.location",
        "userDefined": true
      }
    ],
    "isTemplate": false,
    "count": 0,
    "updated": 0
  },
  {
    "id": "72f08778-c5a1-4830-95b5-e24cd819676b",
    "data": [
      {
        "text": "has ",
        "userDefined": false
      },
      {
        "text": "lh 210",
        "alias": "flight-number",
        "meta": "@sys.flight-number",
        "userDefined": true
      },
      {
        "text": " landed",
        "userDefined": false
      }
    ],
    "isTemplate": false,
    "count": 1,
    "updated": 0
  },
  {
    "id": "81837137-768a-46f3-8a76-44c29bb7220d",
    "data": [
      {
        "text": "show me departures to ",
        "userDefined": false
      },
      {
        "text": "New York",
        "alias": "to",
        "meta": "@sys.location",
        "userDefined": true
      }
    ],
    "isTemplate": false,
    "count": 0,
    "updated": 0
  },
  {
    "id": "ba601c58-8ba4-4636-b82f-34a330499a91",
    "data": [
      {
        "text": "my flight status",
        "userDefined": false
      }
    ],
    "isTemplate": false,
    "count": 0,
    "updated": 0
  },
  {
    "id": "015db650-139a-493d-be99-23554ddab9b5",
    "data": [
      {
        "text": "when ",
        "userDefined": false
      },
      {
        "text": "will",
        "meta": "@sys.ignore",
        "userDefined": true
      },
      {
        "text": " the flight to ",
        "userDefined": false
      },
      {
        "text": "Rome",
        "alias": "to",
        "meta": "@sys.location",
        "userDefined": true
      },
      {
        "text": " arrive",
        "userDefined": false
      }
    ],
    "isTemplate": false,
    "count": 0,
    "updated": 0
  },
  {
    "id": "c37bab2b-eeca-4502-b08d-bc4508b94f9a",
    "data": [
      {
        "text": "when will the flight from ",
        "userDefined": false
      },
      {
        "text": "Rome",
        "alias": "from",
        "meta": "@sys.location",
        "userDefined": true
      },
      {
        "text": " depart",
        "userDefined": false
      }
    ],
    "isTemplate": false,
    "count": 0,
    "updated": 0
  },
  {
    "id": "fe83350d-a389-4af8-82d3-e75a287c2edf",
    "data": [
      {
        "text": "flight number ",
        "userDefined": false
      },
      {
        "text": "LH413",
        "alias": "flight-number",
        "meta": "@sys.flight-number",
        "userDefined": true
      }
    ],
    "isTemplate": false,
    "count": 0,
    "updated": 0
  },
  {
    "id": "7e9c0aa2-3106-4e4b-8a31-69f5f4839a56",
    "data": [
      {
        "text": "when ",
        "userDefined": false
      },
      {
        "text": "will",
        "meta": "@sys.ignore",
        "userDefined": true
      },
      {
        "text": " the flight from ",
        "userDefined": false
      },
      {
        "text": "Rome",
        "alias": "from",
        "meta": "@sys.location",
        "userDefined": true
      },
      {
        "text": " arrive",
        "userDefined": false
      }
    ],
    "isTemplate": false,
    "count": 0,
    "updated": 0
  },
  {
    "id": "ff2c91b2-7caf-47c1-a261-408cf8ddfd6d",
    "data": [
      {
        "text": "is ",
        "userDefined": false
      },
      {
        "text": "British Airways",
        "alias": "airline",
        "meta": "@airline",
        "userDefined": true
      },
      {
        "text": " from ",
        "userDefined": false
      },
      {
        "text": "Gatwick",
        "alias": "from",
        "meta": "@sys.location",
        "userDefined": true
      },
      {
        "text": " to ",
        "userDefined": false
      },
      {
        "text": "Berlin",
        "alias": "to",
        "meta": "@sys.location",
        "userDefined": true
      },
      {
        "text": " arriving on time",
        "userDefined": false
      }
    ],
    "isTemplate": false,
    "count": 0,
    "updated": 0
  },
  {
    "id": "c28262a0-f6b3-4dcc-ab37-60589f9391a3",
    "data": [
      {
        "text": "check flights",
        "userDefined": false
      }
    ],
    "isTemplate": false,
    "count": 0,
    "updated": 0
  },
  {
    "id": "658711d3-4991-4a46-b8e6-84fda31ed763",
    "data": [
      {
        "text": "when is",
        "meta": "@sys.ignore",
        "userDefined": false
      },
      {
        "text": " the plane from ",
        "userDefined": false
      },
      {
        "text": "Rome",
        "alias": "from",
        "meta": "@sys.location",
        "userDefined": false
      },
      {
        "text": " arriving",
        "userDefined": false
      }
    ],
    "isTemplate": false,
    "count": 0,
    "updated": 0
  },
  {
    "id": "1a624fde-18a9-4457-aff5-eb00d0b6aa3f",
    "data": [
      {
        "text": "Japan airlines",
        "alias": "airline",
        "meta": "@airline",
        "userDefined": true
      },
      {
        "text": " flights to ",
        "userDefined": false
      },
      {
        "text": "Tokyo",
        "alias": "to",
        "meta": "@sys.location",
        "userDefined": true
      }
    ],
    "isTemplate": false,
    "count": 0,
    "updated": 0
  },
  {
    "id": "96ede137-6af2-4980-a2fe-178927bcdee5",
    "data": [
      {
        "text": "has flight to ",
        "userDefined": false
      },
      {
        "text": "New York",
        "alias": "to",
        "meta": "@sys.location",
        "userDefined": true
      },
      {
        "text": " landed",
        "userDefined": false
      }
    ],
    "isTemplate": false,
    "count": 0,
    "updated": 0
  },
  {
    "id": "7c026069-6a14-47d8-8bf4-5c46fd69a99f",
    "data": [
      {
        "text": "show me departures from ",
        "userDefined": false
      },
      {
        "text": "New York",
        "alias": "from",
        "meta": "@sys.location",
        "userDefined": true
      }
    ],
    "isTemplate": false,
    "count": 0,
    "updated": 0
  },
  {
    "id": "55b395d6-60b6-487d-abd2-153496af2120",
    "data": [
      {
        "text": "AA325",
        "alias": "flight-number",
        "meta": "@sys.flight-number",
        "userDefined": true
      },
      {
        "text": " flight from ",
        "userDefined": false
      },
      {
        "text": "Rome",
        "alias": "from",
        "meta": "@sys.location",
        "userDefined": true
      }
    ],
    "isTemplate": false,
    "count": 0,
    "updated": 0
  },
  {
    "id": "2b7266c1-957e-4b81-825d-88f40302f941",
    "data": [
      {
        "text": "check flight ",
        "userDefined": false
      },
      {
        "text": "BA413",
        "alias": "flight-number",
        "meta": "@sys.flight-number",
        "userDefined": true
      }
    ],
    "isTemplate": false,
    "count": 0,
    "updated": 0
  },
  {
    "id": "5aa938be-19ad-4a9e-b325-a7abd4bc5104",
    "data": [
      {
        "text": "check flight status",
        "userDefined": false
      }
    ],
    "isTemplate": false,
    "count": 0,
    "updated": 0
  },
  {
    "id": "0296cf8e-6253-4dce-913d-a0fba095bd7c",
    "data": [
      {
        "text": "when ",
        "userDefined": false
      },
      {
        "text": "will",
        "meta": "@sys.ignore",
        "userDefined": true
      },
      {
        "text": " ",
        "userDefined": false
      },
      {
        "text": "aa 120",
        "alias": "flight-number",
        "meta": "@sys.flight-number",
        "userDefined": true
      },
      {
        "text": " land or depart",
        "userDefined": false
      }
    ],
    "isTemplate": false,
    "count": 0,
    "updated": 0
  },
  {
    "id": "0adb86dc-cccf-42f8-b171-bb43fdb1e7c2",
    "data": [
      {
        "text": "check ",
        "userDefined": false
      },
      {
        "text": "lh 0457",
        "alias": "flight-number",
        "meta": "@sys.flight-number",
        "userDefined": true
      }
    ],
    "isTemplate": false,
    "count": 0,
    "updated": 0
  },
  {
    "id": "75f0928d-5ce8-469f-ab7a-44af40f4dca1",
    "data": [
      {
        "text": "what is the flight status of ",
        "userDefined": false
      },
      {
        "text": "American Airlines",
        "alias": "airline",
        "meta": "@airline",
        "userDefined": true
      },
      {
        "text": " flight ",
        "userDefined": false
      },
      {
        "text": "AA273",
        "alias": "flight-number",
        "meta": "@sys.flight-number",
        "userDefined": true
      }
    ],
    "isTemplate": false,
    "count": 1,
    "updated": 0
  },
  {
    "id": "56b12aad-212e-4473-aa73-2cedc5dd526a",
    "data": [
      {
        "text": "check status of ",
        "userDefined": false
      },
      {
        "text": "aa100",
        "alias": "flight-number",
        "meta": "@sys.flight-number",
        "userDefined": true
      }
    ],
    "isTemplate": false,
    "count": 0,
    "updated": 0
  },
  {
    "id": "5c464c01-4759-434b-ac1d-a9b8bd19d536",
    "data": [
      {
        "text": "flight number ",
        "userDefined": false
      },
      {
        "text": "UA413",
        "alias": "flight-number",
        "meta": "@sys.flight-number",
        "userDefined": true
      },
      {
        "text": " to ",
        "userDefined": false
      },
      {
        "text": "Tokyo",
        "alias": "to",
        "meta": "@sys.location",
        "userDefined": true
      }
    ],
    "isTemplate": false,
    "count": 0,
    "updated": 0
  },
  {
    "id": "11bd0074-314b-4a7b-8a66-867f4e0c7446",
    "data": [
      {
        "text": "check ",
        "userDefined": false
      },
      {
        "text": "Lufthansa",
        "alias": "airline",
        "meta": "@airline",
        "userDefined": false
      },
      {
        "text": " flight number ",
        "userDefined": false
      },
      {
        "text": "CA130",
        "alias": "flight-number",
        "meta": "@sys.flight-number",
        "userDefined": false
      }
    ],
    "isTemplate": false,
    "count": 0,
    "updated": 0
  }
]