{
  "id": "6046e8f1-02e8-4048-891d-d50dc9d07829",
  "name": "music-album",
  "isOverridable": true,
  "isEnum": false,
  "isRegexp": false,
  "automatedExpansion": true,
  "allowFuzzyExtraction": false
}