{
  "id": "8de270b6-fac0-4f14-b5b6-cce3995436a6",
  "name": "radio-station",
  "isOverridable": true,
  "isEnum": false,
  "isRegexp": false,
  "automatedExpansion": true,
  "allowFuzzyExtraction": false
}