[
  {
    "id": "0f2f0228-0e86-4b2f-b4b0-47b5e2dcbc09",
    "data": [
      {
        "text": "r\u0026b",
        "alias": "genre",
        "meta": "@sys.music-genre",
        "userDefined": true
      },
      {
        "text": " station",
        "userDefined": false
      }
    ],
    "isTemplate": false,
    "count": 0,
    "updated": 0
  },
  {
    "id": "78960230-a023-4094-901a-65bc98f4b7eb",
    "data": [
      {
        "text": "is there ",
        "userDefined": false
      },
      {
        "text": "Maroon 5",
        "alias": "artist",
        "meta": "@sys.music-artist",
        "userDefined": true
      },
      {
        "text": " playing",
        "userDefined": false
      }
    ],
    "isTemplate": false,
    "count": 0,
    "updated": 0
  },
  {
    "id": "c40ec794-6bfb-4256-9bbc-07b496ea06bc",
    "data": [
      {
        "text": "change to ",
        "userDefined": false
      },
      {
        "text": "Orange",
        "alias": "station",
        "meta": "@radio-station",
        "userDefined": false
      }
    ],
    "isTemplate": false,
    "count": 0,
    "updated": 0
  },
  {
    "id": "cdf87bcb-702e-477f-bda0-34bdb059a6f6",
    "data": [
      {
        "text": "change to ",
        "userDefined": false
      },
      {
        "text": "Kiss FM",
        "alias": "station",
        "meta": "@radio-station",
        "userDefined": false
      }
    ],
    "isTemplate": false,
    "count": 0,
    "updated": 0
  },
  {
    "id": "de593612-235a-4bba-889f-1631f8ddf67b",
    "data": [
      {
        "text": "now the ",
        "userDefined": false
      },
      {
        "text": "BBC radio",
        "alias": "station",
        "meta": "@radio-station",
        "userDefined": false
      }
    ],
    "isTemplate": false,
    "count": 0,
    "updated": 0
  },
  {
    "id": "1faedb85-ed7a-4c67-8432-bcf2589854bb",
    "data": [
      {
        "text": "play ",
        "userDefined": false
      },
      {
        "text": "Adele",
        "alias": "artist",
        "meta": "@sys.music-artist",
        "userDefined": false
      }
    ],
    "isTemplate": false,
    "count": 0,
    "updated": 0
  },
  {
    "id": "2f42cfea-f190-4787-9ebf-df20d2dfaf98",
    "data": [
      {
        "text": "now ",
        "userDefined": false
      },
      {
        "text": "rock",
        "alias": "genre",
        "meta": "@sys.music-genre",
        "userDefined": true
      },
      {
        "text": " station",
        "userDefined": false
      }
    ],
    "isTemplate": false,
    "count": 0,
    "updated": 0
  },
  {
    "id": "b93ab517-d033-43a5-ad16-a96211355a08",
    "data": [
      {
        "text": "find ",
        "userDefined": false
      },
      {
        "text": "Diamonds",
        "alias": "song",
        "meta": "@song",
        "userDefined": true
      }
    ],
    "isTemplate": false,
    "count": 0,
    "updated": 0
  },
  {
    "id": "25626821-f81e-48b4-890e-5092c5610f86",
    "data": [
      {
        "text": "The Beatles",
        "alias": "artist",
        "meta": "@sys.music-artist",
        "userDefined": false
      },
      {
        "text": " now",
        "userDefined": false
      }
    ],
    "isTemplate": false,
    "count": 0,
    "updated": 0
  },
  {
    "id": "5fc1d03d-7539-462c-83d1-06b392900616",
    "data": [
      {
        "text": "now ",
        "userDefined": false
      },
      {
        "text": "radio",
        "meta": "@sys.ignore",
        "userDefined": false
      },
      {
        "text": " playing ",
        "userDefined": false
      },
      {
        "text": "jazz",
        "alias": "genre",
        "meta": "@sys.music-genre",
        "userDefined": true
      }
    ],
    "isTemplate": false,
    "count": 0,
    "updated": 0
  },
  {
    "id": "b2830b10-fb4e-4687-ad39-f9e94ea713c4",
    "data": [
      {
        "text": "is there ",
        "userDefined": false
      },
      {
        "text": "Hello",
        "alias": "song",
        "meta": "@song",
        "userDefined": true
      },
      {
        "text": " playing",
        "userDefined": false
      }
    ],
    "isTemplate": false,
    "count": 0,
    "updated": 0
  },
  {
    "id": "b163cc40-27f2-49e3-aa50-2bd2d6881c95",
    "data": [
      {
        "text": "now the ",
        "userDefined": false
      },
      {
        "text": "Love Radio",
        "alias": "station",
        "meta": "@radio-station",
        "userDefined": false
      },
      {
        "text": " station",
        "userDefined": false
      }
    ],
    "isTemplate": false,
    "count": 0,
    "updated": 0
  },
  {
    "id": "efc2d443-826f-45fa-b608-8cd429ade195",
    "data": [
      {
        "text": "find ",
        "userDefined": false
      },
      {
        "text": "Awolnation",
        "alias": "artist",
        "meta": "@sys.music-artist",
        "userDefined": false
      }
    ],
    "isTemplate": false,
    "count": 0,
    "updated": 0
  },
  {
    "id": "0a1c938c-6575-49f6-af0e-23e875a95c7c",
    "data": [
      {
        "text": "now ",
        "userDefined": false
      },
      {
        "text": "Michael Jackson",
        "alias": "artist",
        "meta": "@sys.music-artist",
        "userDefined": false
      }
    ],
    "isTemplate": false,
    "count": 0,
    "updated": 0
  },
  {
    "id": "88faddc4-854f-4912-81cf-79fd373448f6",
    "data": [
      {
        "text": "now ",
        "userDefined": false
      },
      {
        "text": "pop",
        "alias": "genre",
        "meta": "@sys.music-genre",
        "userDefined": true
      }
    ],
    "isTemplate": false,
    "count": 0,
    "updated": 0
  },
  {
    "id": "e3680246-aee9-41b6-b6c2-0a6dfea28f5c",
    "data": [
      {
        "text": "now play ",
        "userDefined": false
      },
      {
        "text": "Energy",
        "alias": "station",
        "meta": "@radio-station",
        "userDefined": false
      }
    ],
    "isTemplate": false,
    "count": 0,
    "updated": 0
  },
  {
    "id": "500fc469-fb12-47c4-aaa0-3131a18b7a1c",
    "data": [
      {
        "text": "now play ",
        "userDefined": false
      },
      {
        "text": "Madonna",
        "alias": "artist",
        "meta": "@sys.music-artist",
        "userDefined": true
      }
    ],
    "isTemplate": false,
    "count": 0,
    "updated": 0
  }
]