{
  "id": "3162e8fd-99c1-4558-904e-e822226ac599",
  "name": "radio.play - context:play-radio",
  "auto": true,
  "contexts": [
    "play-radio"
  ],
  "responses": [
    {
      "resetContexts": false,
      "action": "radio.play",
      "affectedContexts": [],
      "parameters": [
        {
          "id": "bac3e132-938e-423f-aa62-01469d12835f",
          "required": false,
          "dataType": "@radio-station",
          "name": "station",
          "value": "$station",
          "promptMessages": [],
          "noMatchPromptMessages": [],
          "noInputPromptMessages": [],
          "outputDialogContexts": [],
          "isList": false
        },
        {
          "id": "7ec6ea5a-c424-4cf1-a7f1-c149ad4755ad",
          "required": false,
          "dataType": "@song",
          "name": "song",
          "value": "$song",
          "promptMessages": [],
          "noMatchPromptMessages": [],
          "noInputPromptMessages": [],
          "outputDialogContexts": [],
          "isList": false
        },
        {
          "id": "e4245cb2-4db5-4e57-bc61-c585f142dc18",
          "required": false,
          "dataType": "@sys.music-artist",
          "name": "artist",
          "value": "$artist",
          "promptMessages": [],
          "noMatchPromptMessages": [],
          "noInputPromptMessages": [],
          "outputDialogContexts": [],
          "isList": false
        },
        {
          "id": "2055da3a-ef6c-4dc0-9b09-b5ed49fe1b76",
          "required": false,
          "dataType": "@sys.music-genre",
          "name": "genre",
          "value": "$genre",
          "promptMessages": [],
          "noMatchPromptMessages": [],
          "noInputPromptMessages": [],
          "outputDialogContexts": [],
          "isList": false
        }
      ],
      "messages": [
        {
          "type": 0,
          "lang": "en",
          "condition": "",
          "speech": []
        }
      ],
      "defaultResponsePlatforms": {},
      "speech": []
    }
  ],
  "priority": 500000,
  "webhookUsed": false,
  "webhookForSlotFilling": false,
  "fallbackIntent": false,
  "events": [],
  "conditionalResponses": [],
  "condition": "",
  "conditionalFollowupEvents": []
}