[
  {
    "id": "2ee77882-0b73-4d10-a131-0fba1b44c8cb",
    "data": [
      {
        "text": "how about ",
        "userDefined": false
      },
      {
        "text": "Maroon 5",
        "alias": "artist",
        "meta": "@sys.music-artist",
        "userDefined": true
      }
    ],
    "isTemplate": false,
    "count": 0,
    "updated": 0
  },
  {
    "id": "ac527d3f-1ef3-4f3d-a333-15ada601f6d7",
    "data": [
      {
        "text": "how about ",
        "userDefined": false
      },
      {
        "text": "Hit FM",
        "alias": "station",
        "meta": "@radio-station",
        "userDefined": true
      }
    ],
    "isTemplate": false,
    "count": 0,
    "updated": 0
  },
  {
    "id": "7fc4cd50-9a96-4fe5-97ba-5d9d8091430b",
    "data": [
      {
        "text": "find ",
        "userDefined": false
      },
      {
        "text": "The Beatles",
        "alias": "artist",
        "meta": "@sys.music-artist",
        "userDefined": true
      },
      {
        "text": " there",
        "userDefined": false
      }
    ],
    "isTemplate": false,
    "count": 0,
    "updated": 0
  },
  {
    "id": "3887cbbb-7eb5-4b24-a35c-b4654bce9290",
    "data": [
      {
        "text": "find ",
        "userDefined": false
      },
      {
        "text": "rock",
        "alias": "genre",
        "meta": "@sys.music-genre",
        "userDefined": true
      },
      {
        "text": " genre",
        "userDefined": false
      }
    ],
    "isTemplate": false,
    "count": 0,
    "updated": 0
  },
  {
    "id": "8c93b2ad-cd46-4f89-b67e-bbacffd291b4",
    "data": [
      {
        "text": "find ",
        "userDefined": false
      },
      {
        "text": "r\u0026b",
        "alias": "genre",
        "meta": "@sys.music-genre",
        "userDefined": true
      },
      {
        "text": " ",
        "userDefined": false
      },
      {
        "text": "radio",
        "meta": "@sys.ignore",
        "userDefined": true
      }
    ],
    "isTemplate": false,
    "count": 0,
    "updated": 0
  },
  {
    "id": "84813577-855b-4845-bab8-8ca97c0b9c35",
    "data": [
      {
        "text": "find ",
        "userDefined": false
      },
      {
        "text": "Let it snow",
        "alias": "song",
        "meta": "@song",
        "userDefined": true
      },
      {
        "text": " song",
        "userDefined": false
      }
    ],
    "isTemplate": false,
    "count": 0,
    "updated": 0
  },
  {
    "id": "5cddc343-21bb-48a4-904c-257a8ebbab25",
    "data": [
      {
        "text": "now find radio ",
        "userDefined": false
      },
      {
        "text": "Orange",
        "alias": "station",
        "meta": "@radio-station",
        "userDefined": true
      }
    ],
    "isTemplate": false,
    "count": 0,
    "updated": 0
  },
  {
    "id": "bed5d849-dfd5-4d24-be7c-65e30c2956d0",
    "data": [
      {
        "text": "what about ",
        "userDefined": false
      },
      {
        "text": "Hotel California",
        "alias": "album",
        "meta": "@music-album",
        "userDefined": true
      },
      {
        "text": " album",
        "userDefined": false
      }
    ],
    "isTemplate": false,
    "count": 0,
    "updated": 0
  },
  {
    "id": "9c62c548-297c-456d-8ad3-5d6556c1a92e",
    "data": [
      {
        "text": "now find ",
        "userDefined": false
      },
      {
        "text": "Summer",
        "alias": "album",
        "meta": "@music-album",
        "userDefined": true
      },
      {
        "text": " album",
        "userDefined": false
      }
    ],
    "isTemplate": false,
    "count": 0,
    "updated": 0
  },
  {
    "id": "9cedbb69-3c25-4627-ab36-f76330deba4b",
    "data": [
      {
        "text": "what about ",
        "userDefined": false
      },
      {
        "text": "Love Radio",
        "alias": "station",
        "meta": "@radio-station",
        "userDefined": true
      }
    ],
    "isTemplate": false,
    "count": 0,
    "updated": 0
  },
  {
    "id": "96bfa53c-4bd0-490d-bf93-cfc0b1295d2c",
    "data": [
      {
        "text": "now find ",
        "userDefined": false
      },
      {
        "text": "Madonna",
        "alias": "artist",
        "meta": "@sys.music-artist",
        "userDefined": true
      }
    ],
    "isTemplate": false,
    "count": 0,
    "updated": 0
  },
  {
    "id": "d8032e5b-9e5d-4ea0-bff6-73d83f367181",
    "data": [
      {
        "text": "now find ",
        "userDefined": false
      },
      {
        "text": "jazz",
        "alias": "genre",
        "meta": "@sys.music-genre",
        "userDefined": true
      },
      {
        "text": " there",
        "userDefined": false
      }
    ],
    "isTemplate": false,
    "count": 0,
    "updated": 0
  },
  {
    "id": "415cc3c8-a53f-414f-945c-6f336a61beea",
    "data": [
      {
        "text": "now find ",
        "userDefined": false
      },
      {
        "text": "Let it be",
        "alias": "song",
        "meta": "@song",
        "userDefined": true
      },
      {
        "text": " song",
        "userDefined": false
      }
    ],
    "isTemplate": false,
    "count": 0,
    "updated": 0
  },
  {
    "id": "2a2a2e06-1046-4858-b97b-bf54a57d1f48",
    "data": [
      {
        "text": "now ",
        "userDefined": false
      },
      {
        "text": "Energy",
        "alias": "station",
        "meta": "@radio-station",
        "userDefined": true
      },
      {
        "text": " radio",
        "userDefined": false
      }
    ],
    "isTemplate": false,
    "count": 0,
    "updated": 0
  },
  {
    "id": "b92b3c07-0926-4665-aab1-912625dd0bbb",
    "data": [
      {
        "text": "find ",
        "userDefined": false
      },
      {
        "text": "A Love Supreme",
        "alias": "album",
        "meta": "@music-album",
        "userDefined": true
      },
      {
        "text": " album",
        "userDefined": false
      }
    ],
    "isTemplate": false,
    "count": 0,
    "updated": 0
  },
  {
    "id": "eccab93f-a92b-4b69-9b6b-d33019c31d79",
    "data": [
      {
        "text": "find ",
        "userDefined": false
      },
      {
        "text": "Green River",
        "alias": "album",
        "meta": "@music-album",
        "userDefined": true
      },
      {
        "text": " album there",
        "userDefined": false
      }
    ],
    "isTemplate": false,
    "count": 0,
    "updated": 0
  },
  {
    "id": "b61b27db-a83b-4031-958d-95fc3a017a29",
    "data": [
      {
        "text": "how about ",
        "userDefined": false
      },
      {
        "text": "Send my love",
        "alias": "song",
        "meta": "@song",
        "userDefined": true
      },
      {
        "text": " song",
        "userDefined": false
      }
    ],
    "isTemplate": false,
    "count": 0,
    "updated": 0
  },
  {
    "id": "fbdf9be2-8e7e-4738-ac63-3a314f5cce96",
    "data": [
      {
        "text": "now ",
        "userDefined": false
      },
      {
        "text": "Adele",
        "alias": "artist",
        "meta": "@sys.music-artist",
        "userDefined": true
      }
    ],
    "isTemplate": false,
    "count": 0,
    "updated": 0
  },
  {
    "id": "35d47f38-ccf3-4a73-9736-1ec3c5cfd27e",
    "data": [
      {
        "text": "search for ",
        "userDefined": false
      },
      {
        "text": "Hello",
        "alias": "song",
        "meta": "@song",
        "userDefined": true
      },
      {
        "text": " song",
        "userDefined": false
      }
    ],
    "isTemplate": false,
    "count": 0,
    "updated": 0
  },
  {
    "id": "c2a6c27a-f5a7-4fa6-a687-a8932c61b6cc",
    "data": [
      {
        "text": "how about ",
        "userDefined": false
      },
      {
        "text": "rock",
        "alias": "genre",
        "meta": "@sys.music-genre",
        "userDefined": true
      }
    ],
    "isTemplate": false,
    "count": 0,
    "updated": 0
  }
]