{
  "id": "97df5768-4135-46bf-9b63-6371d987bae3",
  "name": "venues.search - sort",
  "auto": true,
  "contexts": [
    "venues"
  ],
  "responses": [
    {
      "resetContexts": false,
      "action": "#venues.intent_action",
      "affectedContexts": [],
      "parameters": [
        {
          "id": "8e711857-2e5a-42a0-b26a-149d7295f663",
          "required": false,
          "dataType": "@map-sort",
          "name": "sort",
          "value": "$sort",
          "promptMessages": [],
          "noMatchPromptMessages": [],
          "noInputPromptMessages": [],
          "outputDialogContexts": [],
          "isList": true
        },
        {
          "id": "80211216-f3c4-4f5e-8f5d-329775158f8c",
          "required": false,
          "dataType": "",
          "name": "location",
          "value": "#venues.location",
          "promptMessages": [],
          "noMatchPromptMessages": [],
          "noInputPromptMessages": [],
          "outputDialogContexts": [],
          "isList": false
        },
        {
          "id": "045963d2-2e01-4bee-a3ee-61a63531af19",
          "required": false,
          "dataType": "",
          "name": "venue-type",
          "value": "#venues.venue-type",
          "promptMessages": [],
          "noMatchPromptMessages": [],
          "noInputPromptMessages": [],
          "outputDialogContexts": [],
          "isList": false
        },
        {
          "id": "c21ad054-0866-4240-9937-4d049948b523",
          "required": false,
          "dataType": "",
          "name": "venue-title",
          "value": "#venues.venue-title",
          "promptMessages": [],
          "noMatchPromptMessages": [],
          "noInputPromptMessages": [],
          "outputDialogContexts": [],
          "isList": false
        },
        {
          "id": "f733bc3c-09a9-4b03-a702-e09f2c9ea381",
          "required": false,
          "dataType": "",
          "name": "venue-chain",
          "value": "#venues.venue-chain",
          "promptMessages": [],
          "noMatchPromptMessages": [],
          "noInputPromptMessages": [],
          "outputDialogContexts": [],
          "isList": false
        },
        {
          "id": "2c687961-8a9a-48a7-85bd-251daaeb89c3",
          "required": false,
          "dataType": "",
          "name": "venue-facility",
          "value": "#venues.venue-facility",
          "promptMessages": [],
          "noMatchPromptMessages": [],
          "noInputPromptMessages": [],
          "outputDialogContexts": [],
          "isList": true
        },
        {
          "id": "ce4112c5-5911-4f5b-adcd-d7b41d625275",
          "required": false,
          "dataType": "",
          "name": "rating",
          "value": "#venues.rating",
          "promptMessages": [],
          "noMatchPromptMessages": [],
          "noInputPromptMessages": [],
          "outputDialogContexts": [],
          "isList": false
        },
        {
          "id": "710bd0a7-ffeb-4096-92b7-14c142967119",
          "required": false,
          "dataType": "",
          "name": "open",
          "value": "#venues.open",
          "promptMessages": [],
          "noMatchPromptMessages": [],
          "noInputPromptMessages": [],
          "outputDialogContexts": [],
          "isList": false
        }
      ],
      "messages": [
        {
          "type": 0,
          "lang": "en",
          "condition": "",
          "speech": []
        }
      ],
      "defaultResponsePlatforms": {},
      "speech": []
    }
  ],
  "priority": 500000,
  "webhookUsed": false,
  "webhookForSlotFilling": false,
  "fallbackIntent": false,
  "events": [],
  "conditionalResponses": [],
  "condition": "",
  "conditionalFollowupEvents": []
}