{
  "id": "f8238109-b657-43f9-b019-9db414c52994",
  "name": "venues.search - location",
  "auto": true,
  "contexts": [
    "venues"
  ],
  "responses": [
    {
      "resetContexts": false,
      "action": "#venues.intent_action",
      "affectedContexts": [],
      "parameters": [
        {
          "id": "91b3dad3-6de4-41ca-bf0d-31c36dc32a82",
          "required": false,
          "dataType": "@sys.location",
          "name": "location",
          "value": "$location",
          "promptMessages": [],
          "noMatchPromptMessages": [],
          "noInputPromptMessages": [],
          "outputDialogContexts": [],
          "isList": false
        },
        {
          "id": "ea20175b-b2cd-4d21-bb40-3dacd05abc82",
          "required": false,
          "dataType": "",
          "name": "venue-type",
          "value": "#venues.venue-type",
          "promptMessages": [],
          "noMatchPromptMessages": [],
          "noInputPromptMessages": [],
          "outputDialogContexts": [],
          "isList": false
        },
        {
          "id": "f0863f10-a710-4b60-a78b-191c5653801f",
          "required": false,
          "dataType": "",
          "name": "venue-title",
          "value": "#venues.venue-title",
          "promptMessages": [],
          "noMatchPromptMessages": [],
          "noInputPromptMessages": [],
          "outputDialogContexts": [],
          "isList": false
        },
        {
          "id": "525978ee-fcd7-4f80-83ec-fbb2c799dd1c",
          "required": false,
          "dataType": "",
          "name": "venue-chain",
          "value": "#venues.venue-chain",
          "promptMessages": [],
          "noMatchPromptMessages": [],
          "noInputPromptMessages": [],
          "outputDialogContexts": [],
          "isList": false
        },
        {
          "id": "c42ac847-2222-47c8-8c92-b5c513c1584f",
          "required": false,
          "dataType": "",
          "name": "sort",
          "value": "#venues.sort",
          "promptMessages": [],
          "noMatchPromptMessages": [],
          "noInputPromptMessages": [],
          "outputDialogContexts": [],
          "isList": true
        },
        {
          "id": "e732927c-cef8-407b-a4ce-402211bb37b2",
          "required": false,
          "dataType": "",
          "name": "venue-facility",
          "value": "#venues.venue-facility",
          "promptMessages": [],
          "noMatchPromptMessages": [],
          "noInputPromptMessages": [],
          "outputDialogContexts": [],
          "isList": true
        },
        {
          "id": "0119ed8c-2117-49a8-becb-d0f0ddf1dcbf",
          "required": false,
          "dataType": "",
          "name": "open",
          "value": "#venues.open",
          "promptMessages": [],
          "noMatchPromptMessages": [],
          "noInputPromptMessages": [],
          "outputDialogContexts": [],
          "isList": false
        },
        {
          "id": "e1416e46-d420-475d-9ef8-568eed15809b",
          "required": false,
          "dataType": "",
          "name": "rating",
          "value": "#venues.rating",
          "promptMessages": [],
          "noMatchPromptMessages": [],
          "noInputPromptMessages": [],
          "outputDialogContexts": [],
          "isList": false
        }
      ],
      "messages": [
        {
          "type": 0,
          "lang": "en",
          "condition": "",
          "speech": []
        }
      ],
      "defaultResponsePlatforms": {},
      "speech": []
    }
  ],
  "priority": 500000,
  "webhookUsed": false,
  "webhookForSlotFilling": false,
  "fallbackIntent": false,
  "events": [],
  "conditionalResponses": [],
  "condition": "",
  "conditionalFollowupEvents": []
}