[
  {
    "id": "9138cb58-5381-4d02-957e-9eb83f3e26b2",
    "data": [
      {
        "text": "find a ",
        "userDefined": false
      },
      {
        "text": "diesel station",
        "alias": "venue-type",
        "meta": "@venue-automotive-type",
        "userDefined": false
      },
      {
        "text": " ",
        "userDefined": false
      },
      {
        "text": "nearby",
        "alias": "sort",
        "meta": "@map-sort",
        "userDefined": false
      }
    ],
    "isTemplate": false,
    "count": 0,
    "updated": 0
  },
  {
    "id": "89dedd4b-dbee-40ff-9087-bd287887a0d3",
    "data": [
      {
        "text": "Jeep",
        "alias": "venue-title",
        "meta": "@venue-automotive-title",
        "userDefined": false
      },
      {
        "text": " services",
        "userDefined": false
      }
    ],
    "isTemplate": false,
    "count": 0,
    "updated": 0
  },
  {
    "id": "8810322d-fcf1-4586-8e8a-0fb041b4fc0b",
    "data": [
      {
        "text": "where can I ",
        "userDefined": false
      },
      {
        "text": "get gas",
        "alias": "venue-type",
        "meta": "@venue-automotive-type",
        "userDefined": true
      },
      {
        "text": " ",
        "userDefined": false
      },
      {
        "text": "in my area",
        "alias": "sort",
        "meta": "@map-sort",
        "userDefined": true
      }
    ],
    "isTemplate": false,
    "count": 0,
    "updated": 0
  },
  {
    "id": "00e63b30-9333-405d-82c5-08a6ad598cee",
    "data": [
      {
        "text": "I ",
        "userDefined": false
      },
      {
        "text": "run",
        "meta": "@sys.ignore",
        "userDefined": false
      },
      {
        "text": " ",
        "userDefined": false
      },
      {
        "text": "out of gas",
        "alias": "venue-type",
        "meta": "@venue-automotive-type",
        "userDefined": true
      }
    ],
    "isTemplate": false,
    "count": 0,
    "updated": 0
  },
  {
    "id": "90896f13-3b8e-42a2-a836-d743ca844d8d",
    "data": [
      {
        "text": "which is the ",
        "userDefined": false
      },
      {
        "text": "cheapest",
        "alias": "sort",
        "meta": "@map-sort",
        "userDefined": false
      },
      {
        "text": " ",
        "userDefined": false
      },
      {
        "text": "gas station",
        "alias": "venue-type",
        "meta": "@venue-automotive-type",
        "userDefined": false
      },
      {
        "text": " ",
        "userDefined": false
      },
      {
        "text": "at my destination",
        "alias": "sort",
        "meta": "@map-sort",
        "userDefined": true
      }
    ],
    "isTemplate": false,
    "count": 0,
    "updated": 0
  },
  {
    "id": "32813252-d267-42ff-a7bf-12a087a1dbfd",
    "data": [
      {
        "text": "find ",
        "userDefined": false
      },
      {
        "text": "Gas",
        "alias": "venue-type",
        "meta": "@venue-automotive-type",
        "userDefined": false
      }
    ],
    "isTemplate": false,
    "count": 1,
    "updated": 0
  },
  {
    "id": "6cabab40-3542-44bf-91b3-ee0c6a43f804",
    "data": [
      {
        "text": "show a ",
        "userDefined": false
      },
      {
        "text": "gas station",
        "alias": "venue-type",
        "meta": "@venue-automotive-type",
        "userDefined": true
      },
      {
        "text": " that is ",
        "userDefined": false
      },
      {
        "text": "open",
        "alias": "open",
        "meta": "@open",
        "userDefined": true
      },
      {
        "text": " ",
        "userDefined": false
      },
      {
        "text": "right now",
        "meta": "@sys.ignore",
        "userDefined": true
      }
    ],
    "isTemplate": false,
    "count": 0,
    "updated": 0
  },
  {
    "id": "06335a9c-a1e6-4378-a8df-976aa20e5b82",
    "data": [
      {
        "text": "I have a ",
        "userDefined": false
      },
      {
        "text": "flat tire",
        "alias": "venue-type",
        "meta": "@venue-automotive-type",
        "userDefined": true
      }
    ],
    "isTemplate": false,
    "count": 0,
    "updated": 0
  },
  {
    "id": "600c645b-7f2c-49f1-957e-baa3552b5648",
    "data": [
      {
        "text": "I need ",
        "userDefined": false
      },
      {
        "text": "gas station",
        "alias": "venue-type",
        "meta": "@venue-automotive-type",
        "userDefined": false
      },
      {
        "text": " ",
        "userDefined": false
      },
      {
        "text": "on my way",
        "alias": "sort",
        "meta": "@map-sort",
        "userDefined": true
      }
    ],
    "isTemplate": false,
    "count": 0,
    "updated": 0
  },
  {
    "id": "a744425a-4dda-4ce4-aff7-308e4e3be245",
    "data": [
      {
        "text": "find ",
        "userDefined": false
      },
      {
        "text": "car mechanic",
        "alias": "venue-type",
        "meta": "@venue-automotive-type",
        "userDefined": false
      }
    ],
    "isTemplate": false,
    "count": 0,
    "updated": 0
  },
  {
    "id": "d120fd50-2d62-4735-b96d-fc2bd77ebc25",
    "data": [
      {
        "text": "gas stations",
        "alias": "venue-type",
        "meta": "@venue-automotive-type",
        "userDefined": false
      },
      {
        "text": " ",
        "userDefined": false
      },
      {
        "text": "nearby",
        "alias": "sort",
        "meta": "@map-sort",
        "userDefined": false
      }
    ],
    "isTemplate": false,
    "count": 0,
    "updated": 0
  },
  {
    "id": "a669e912-7240-48a7-a7c9-3442a7c50fda",
    "data": [
      {
        "text": "cars for sale",
        "alias": "venue-type",
        "meta": "@venue-automotive-type",
        "userDefined": true
      },
      {
        "text": " in ",
        "userDefined": false
      },
      {
        "text": "Michigan",
        "alias": "location",
        "meta": "@sys.location",
        "userDefined": false
      }
    ],
    "isTemplate": false,
    "count": 0,
    "updated": 0
  },
  {
    "id": "1d9f51ed-7d23-4668-a173-1c738dbd1709",
    "data": [
      {
        "text": "car dealers",
        "alias": "venue-type",
        "meta": "@venue-automotive-type",
        "userDefined": false
      }
    ],
    "isTemplate": false,
    "count": 0,
    "updated": 0
  },
  {
    "id": "6c9bea43-7a14-4173-b23f-2bd65e6902a0",
    "data": [
      {
        "text": "find me the ",
        "userDefined": false
      },
      {
        "text": "cheapest",
        "alias": "sort",
        "meta": "@map-sort",
        "userDefined": false
      },
      {
        "text": " ",
        "userDefined": false
      },
      {
        "text": "gas station",
        "alias": "venue-type",
        "meta": "@venue-automotive-type",
        "userDefined": false
      }
    ],
    "isTemplate": false,
    "count": 0,
    "updated": 0
  },
  {
    "id": "d9814804-12ee-4b87-8c47-21eb4478851f",
    "data": [
      {
        "text": "motorcycle repair",
        "alias": "venue-type",
        "meta": "@venue-automotive-type",
        "userDefined": false
      }
    ],
    "isTemplate": false,
    "count": 0,
    "updated": 0
  },
  {
    "id": "57c39ab9-a1ad-46db-bc52-c25d0b635bfd",
    "data": [
      {
        "text": "find ",
        "userDefined": false
      },
      {
        "text": "Nissan",
        "alias": "venue-title",
        "meta": "@venue-automotive-title",
        "userDefined": false
      }
    ],
    "isTemplate": false,
    "count": 0,
    "updated": 0
  },
  {
    "id": "323e6d54-76d0-461d-9432-c492ce547426",
    "data": [
      {
        "text": " I have a ",
        "userDefined": false
      },
      {
        "text": "flat tire",
        "alias": "venue-type",
        "meta": "@venue-automotive-type",
        "userDefined": false
      }
    ],
    "isTemplate": false,
    "count": 0,
    "updated": 0
  },
  {
    "id": "2ff8bab0-bc6f-4f1b-91fb-b2fb59f4d29c",
    "data": [
      {
        "text": "find ",
        "userDefined": false
      },
      {
        "text": "the",
        "meta": "@sys.ignore",
        "userDefined": false
      },
      {
        "text": " ",
        "userDefined": false
      },
      {
        "text": "best",
        "alias": "sort",
        "meta": "@map-sort",
        "userDefined": false
      },
      {
        "text": " ",
        "userDefined": false
      },
      {
        "text": "place to park",
        "alias": "venue-type",
        "meta": "@venue-automotive-type",
        "userDefined": false
      }
    ],
    "isTemplate": false,
    "count": 0,
    "updated": 0
  },
  {
    "id": "ae74bf1b-e43d-4122-aab6-968ba6db4865",
    "data": [
      {
        "text": "I need a ",
        "userDefined": false
      },
      {
        "text": "parking",
        "alias": "venue-type",
        "meta": "@venue-automotive-type",
        "userDefined": true
      },
      {
        "text": " here with ",
        "userDefined": false
      },
      {
        "text": "Wi-Fi",
        "alias": "venue-facility",
        "meta": "@venue-facility",
        "userDefined": true
      }
    ],
    "isTemplate": false,
    "count": 0,
    "updated": 0
  },
  {
    "id": "917373d7-2473-43fa-8e99-89a2613a97b3",
    "data": [
      {
        "text": "nearest",
        "alias": "sort",
        "meta": "@map-sort",
        "userDefined": true
      },
      {
        "text": " ",
        "userDefined": false
      },
      {
        "text": "gas station",
        "alias": "venue-type",
        "meta": "@venue-automotive-type",
        "userDefined": true
      }
    ],
    "isTemplate": false,
    "count": 0,
    "updated": 0
  },
  {
    "id": "e63288e4-8158-46bb-b32b-1c86c68cc25b",
    "data": [
      {
        "text": "search ",
        "userDefined": false
      },
      {
        "text": "gas stations",
        "alias": "venue-type",
        "meta": "@venue-automotive-type",
        "userDefined": false
      },
      {
        "text": " that ",
        "userDefined": false
      },
      {
        "text": "are",
        "meta": "@sys.ignore",
        "userDefined": true
      },
      {
        "text": " ",
        "userDefined": false
      },
      {
        "text": "opened",
        "alias": "open",
        "meta": "@open",
        "userDefined": true
      }
    ],
    "isTemplate": false,
    "count": 0,
    "updated": 0
  },
  {
    "id": "32055760-9315-48ce-a37d-663b9ea272ef",
    "data": [
      {
        "text": "where can I ",
        "userDefined": false
      },
      {
        "text": "repair my car",
        "alias": "venue-type",
        "meta": "@venue-automotive-type",
        "userDefined": false
      }
    ],
    "isTemplate": false,
    "count": 0,
    "updated": 0
  },
  {
    "id": "b8df07af-e5f3-4050-9aa9-aad73124b9c8",
    "data": [
      {
        "text": "Dodge",
        "alias": "venue-title",
        "meta": "@venue-automotive-title",
        "userDefined": false
      },
      {
        "text": " dealers",
        "userDefined": false
      }
    ],
    "isTemplate": false,
    "count": 0,
    "updated": 0
  },
  {
    "id": "31681e75-c09c-4ba4-a8da-9e62e1a6ed4e",
    "data": [
      {
        "text": "auto repair",
        "alias": "venue-type",
        "meta": "@venue-automotive-type",
        "userDefined": false
      }
    ],
    "isTemplate": false,
    "count": 0,
    "updated": 0
  },
  {
    "id": "ad72f5c6-1013-4b82-9adf-f50affad66b8",
    "data": [
      {
        "text": "Dodge",
        "alias": "venue-title",
        "meta": "@venue-automotive-title",
        "userDefined": false
      },
      {
        "text": " services",
        "userDefined": false
      }
    ],
    "isTemplate": false,
    "count": 0,
    "updated": 0
  },
  {
    "id": "27057e12-833a-4d18-9e64-5cb46ad30174",
    "data": [
      {
        "text": "gas and service stations",
        "alias": "venue-type",
        "meta": "@venue-automotive-type",
        "userDefined": true
      }
    ],
    "isTemplate": false,
    "count": 0,
    "updated": 0
  },
  {
    "id": "a87c544d-3bf4-4c08-81dd-8d72fc8cdcda",
    "data": [
      {
        "text": "find ",
        "userDefined": false
      },
      {
        "text": "Asda",
        "alias": "venue-chain",
        "meta": "@venue-automotive-chain",
        "userDefined": false
      },
      {
        "text": " ",
        "userDefined": false
      },
      {
        "text": "petrol station",
        "alias": "venue-type",
        "meta": "@venue-automotive-type",
        "userDefined": false
      }
    ],
    "isTemplate": false,
    "count": 0,
    "updated": 0
  },
  {
    "id": "a502d3f6-d361-481f-b111-013c0324bd8a",
    "data": [
      {
        "text": "gas station",
        "alias": "venue-type",
        "meta": "@venue-automotive-type",
        "userDefined": true
      },
      {
        "text": " ",
        "userDefined": false
      },
      {
        "text": "nearby",
        "alias": "sort",
        "meta": "@map-sort",
        "userDefined": true
      }
    ],
    "isTemplate": false,
    "count": 0,
    "updated": 0
  },
  {
    "id": "7a319b3c-b4d8-40ad-ba77-641de8140692",
    "data": [
      {
        "text": "where can I ",
        "userDefined": false
      },
      {
        "text": "park my car",
        "alias": "venue-type",
        "meta": "@venue-automotive-type",
        "userDefined": true
      }
    ],
    "isTemplate": false,
    "count": 0,
    "updated": 0
  },
  {
    "id": "ad447c7e-40a8-4202-9f61-d7d430dc324c",
    "data": [
      {
        "text": "Chrysler",
        "alias": "venue-title",
        "meta": "@venue-automotive-title",
        "userDefined": false
      },
      {
        "text": " services",
        "userDefined": false
      }
    ],
    "isTemplate": false,
    "count": 0,
    "updated": 0
  },
  {
    "id": "6c3e58aa-5260-46ff-9eb4-041a12709f60",
    "data": [
      {
        "text": "find ",
        "userDefined": false
      },
      {
        "text": "Car dealer",
        "alias": "venue-type",
        "meta": "@venue-automotive-type",
        "userDefined": false
      }
    ],
    "isTemplate": false,
    "count": 1,
    "updated": 0
  },
  {
    "id": "40c9804b-a2f0-464e-878a-ac517e26bd3a",
    "data": [
      {
        "text": "parking",
        "alias": "venue-type",
        "meta": "@venue-automotive-type",
        "userDefined": false
      }
    ],
    "isTemplate": false,
    "count": 0,
    "updated": 0
  },
  {
    "id": "59570681-fc4b-4e2f-bd2e-e23ab8fd1403",
    "data": [
      {
        "text": "nearest",
        "alias": "sort",
        "meta": "@map-sort",
        "userDefined": true
      },
      {
        "text": " ",
        "userDefined": false
      },
      {
        "text": "parking",
        "alias": "venue-type",
        "meta": "@venue-automotive-type",
        "userDefined": true
      },
      {
        "text": " in ",
        "userDefined": false
      },
      {
        "text": "Berlin",
        "alias": "location",
        "meta": "@sys.location",
        "userDefined": true
      }
    ],
    "isTemplate": false,
    "count": 0,
    "updated": 0
  },
  {
    "id": "3335e0ea-def3-4f0a-bd16-e399d56dfb4f",
    "data": [
      {
        "text": "search for ",
        "userDefined": false
      },
      {
        "text": "gas stations",
        "alias": "venue-type",
        "meta": "@venue-automotive-type",
        "userDefined": false
      }
    ],
    "isTemplate": false,
    "count": 0,
    "updated": 0
  },
  {
    "id": "0024c829-246e-43e8-8170-5732c09f9c43",
    "data": [
      {
        "text": "where s the ",
        "userDefined": false
      },
      {
        "text": "nearest",
        "alias": "sort",
        "meta": "@map-sort",
        "userDefined": false
      },
      {
        "text": " classic ",
        "userDefined": false
      },
      {
        "text": "car dealer",
        "alias": "venue-type",
        "meta": "@venue-automotive-type",
        "userDefined": true
      }
    ],
    "isTemplate": false,
    "count": 0,
    "updated": 0
  },
  {
    "id": "d6bf80d9-aeda-4d53-98fd-31d145f2f9eb",
    "data": [
      {
        "text": "where is ",
        "userDefined": false
      },
      {
        "text": "BP",
        "alias": "venue-chain",
        "meta": "@venue-automotive-chain",
        "userDefined": false
      },
      {
        "text": " ",
        "userDefined": false
      },
      {
        "text": "gas station",
        "alias": "venue-type",
        "meta": "@venue-automotive-type",
        "userDefined": false
      },
      {
        "text": " located",
        "userDefined": false
      }
    ],
    "isTemplate": false,
    "count": 0,
    "updated": 0
  },
  {
    "id": "7fa513a9-73ae-40e8-b446-61ec4e42f0b1",
    "data": [
      {
        "text": "look for ",
        "userDefined": false
      },
      {
        "text": "parking",
        "alias": "venue-type",
        "meta": "@venue-automotive-type",
        "userDefined": true
      },
      {
        "text": " ",
        "userDefined": false
      },
      {
        "text": "around me",
        "alias": "sort",
        "meta": "@map-sort",
        "userDefined": true
      }
    ],
    "isTemplate": false,
    "count": 0,
    "updated": 0
  },
  {
    "id": "0de60a9c-cba2-4cb1-880f-9a4369ba1fa2",
    "data": [
      {
        "text": "find ",
        "userDefined": false
      },
      {
        "text": "gas station",
        "alias": "venue-type",
        "meta": "@venue-automotive-type",
        "userDefined": true
      },
      {
        "text": " ",
        "userDefined": false
      },
      {
        "text": "nearby",
        "alias": "sort",
        "meta": "@map-sort",
        "userDefined": true
      }
    ],
    "isTemplate": false,
    "count": 0,
    "updated": 0
  },
  {
    "id": "e562858a-7678-4aef-8993-9e47e40e84cf",
    "data": [
      {
        "text": "find ",
        "userDefined": false
      },
      {
        "text": "Bp",
        "alias": "venue-chain",
        "meta": "@venue-automotive-chain",
        "userDefined": true
      },
      {
        "text": " ",
        "userDefined": false
      },
      {
        "text": "gas station",
        "alias": "venue-type",
        "meta": "@venue-automotive-type",
        "userDefined": true
      }
    ],
    "isTemplate": false,
    "count": 0,
    "updated": 0
  },
  {
    "id": "b75f1635-d671-4186-afaf-846d11f4c8e2",
    "data": [
      {
        "text": "auto parts",
        "alias": "venue-type",
        "meta": "@venue-automotive-type",
        "userDefined": true
      },
      {
        "text": " and supplies",
        "userDefined": false
      }
    ],
    "isTemplate": false,
    "count": 0,
    "updated": 0
  },
  {
    "id": "5b552f19-e383-48f8-88e0-8053c3a83ac2",
    "data": [
      {
        "text": "where is the ",
        "userDefined": false
      },
      {
        "text": "gas station",
        "alias": "venue-type",
        "meta": "@venue-automotive-type",
        "userDefined": false
      },
      {
        "text": " here in ",
        "userDefined": false
      },
      {
        "text": "New Carlisle",
        "alias": "location",
        "meta": "@sys.location",
        "userDefined": false
      }
    ],
    "isTemplate": false,
    "count": 0,
    "updated": 0
  },
  {
    "id": "df4cf1b7-b51a-411a-b212-ee2904f5e491",
    "data": [
      {
        "text": "find ",
        "userDefined": false
      },
      {
        "text": "Gas Stations",
        "alias": "venue-type",
        "meta": "@venue-automotive-type",
        "userDefined": false
      }
    ],
    "isTemplate": false,
    "count": 0,
    "updated": 0
  },
  {
    "id": "418d3c8c-bff9-4224-af9a-50eb082be551",
    "data": [
      {
        "text": "find ",
        "userDefined": false
      },
      {
        "text": "Autovino",
        "alias": "venue-chain",
        "meta": "@venue-automotive-chain",
        "userDefined": true
      }
    ],
    "isTemplate": false,
    "count": 0,
    "updated": 0
  },
  {
    "id": "e627a1fa-7947-4a55-b573-2458eb6510ae",
    "data": [
      {
        "text": "gas station",
        "alias": "venue-type",
        "meta": "@venue-automotive-type",
        "userDefined": true
      }
    ],
    "isTemplate": false,
    "count": 0,
    "updated": 0
  },
  {
    "id": "1b09c5aa-328a-4009-afaf-101a31e1bb89",
    "data": [
      {
        "text": "show ",
        "userDefined": false
      },
      {
        "text": "nearest",
        "alias": "sort",
        "meta": "@map-sort",
        "userDefined": true
      },
      {
        "text": " ",
        "userDefined": false
      },
      {
        "text": "gas stations",
        "alias": "venue-type",
        "meta": "@venue-automotive-type",
        "userDefined": true
      },
      {
        "text": " in ",
        "userDefined": false
      },
      {
        "text": "Dublin",
        "alias": "location",
        "meta": "@sys.location",
        "userDefined": true
      }
    ],
    "isTemplate": false,
    "count": 0,
    "updated": 0
  },
  {
    "id": "159c8128-d506-40fc-b5ea-47d762da3f15",
    "data": [
      {
        "text": "show ",
        "userDefined": false
      },
      {
        "text": "gas station",
        "alias": "venue-type",
        "meta": "@venue-automotive-type",
        "userDefined": true
      },
      {
        "text": " that is ",
        "userDefined": false
      },
      {
        "text": "opened",
        "alias": "open",
        "meta": "@open",
        "userDefined": true
      }
    ],
    "isTemplate": false,
    "count": 0,
    "updated": 0
  },
  {
    "id": "cf825658-abae-4261-9835-4a351cbe73ec",
    "data": [
      {
        "text": "tires",
        "alias": "venue-type",
        "meta": "@venue-automotive-type",
        "userDefined": false
      }
    ],
    "isTemplate": false,
    "count": 0,
    "updated": 0
  },
  {
    "id": "7bb485ea-85af-499c-8730-153fedfceb3c",
    "data": [
      {
        "text": "where\u0027s ",
        "userDefined": false
      },
      {
        "text": "BP",
        "alias": "venue-chain",
        "meta": "@venue-automotive-chain",
        "userDefined": false
      },
      {
        "text": " ",
        "userDefined": false
      },
      {
        "text": "gas station",
        "alias": "venue-type",
        "meta": "@venue-automotive-type",
        "userDefined": false
      },
      {
        "text": " located",
        "userDefined": false
      }
    ],
    "isTemplate": false,
    "count": 0,
    "updated": 0
  },
  {
    "id": "69ead200-68c4-4bcf-a0f2-40c57f6e6373",
    "data": [
      {
        "text": "find ",
        "userDefined": false
      },
      {
        "text": "nearby",
        "alias": "sort",
        "meta": "@map-sort",
        "userDefined": false
      },
      {
        "text": " ",
        "userDefined": false
      },
      {
        "text": "gas station",
        "alias": "venue-type",
        "meta": "@venue-automotive-type",
        "userDefined": false
      }
    ],
    "isTemplate": false,
    "count": 0,
    "updated": 0
  },
  {
    "id": "a46792ab-741a-46cd-85b6-00c3637da8c0",
    "data": [
      {
        "text": "where is the ",
        "userDefined": false
      },
      {
        "text": "nearest",
        "alias": "sort",
        "meta": "@map-sort",
        "userDefined": false
      },
      {
        "text": " ",
        "userDefined": false
      },
      {
        "text": "gas station",
        "alias": "venue-type",
        "meta": "@venue-automotive-type",
        "userDefined": false
      }
    ],
    "isTemplate": false,
    "count": 0,
    "updated": 0
  },
  {
    "id": "9898cbdf-e5b3-4131-986d-b6e7836f08e5",
    "data": [
      {
        "text": "where is ",
        "userDefined": false
      },
      {
        "text": "nearest",
        "alias": "sort",
        "meta": "@map-sort",
        "userDefined": true
      },
      {
        "text": " ",
        "userDefined": false
      },
      {
        "text": "Dodge",
        "alias": "venue-title",
        "meta": "@venue-automotive-title",
        "userDefined": true
      },
      {
        "text": " service",
        "userDefined": false
      }
    ],
    "isTemplate": false,
    "count": 0,
    "updated": 0
  },
  {
    "id": "4105fdd0-5c3d-47b5-85ab-eb2753d8e177",
    "data": [
      {
        "text": "Renault",
        "alias": "venue-title",
        "meta": "@venue-automotive-title",
        "userDefined": true
      },
      {
        "text": " ",
        "userDefined": false
      },
      {
        "text": "auto repair",
        "alias": "venue-type",
        "meta": "@venue-automotive-type",
        "userDefined": true
      }
    ],
    "isTemplate": false,
    "count": 0,
    "updated": 0
  },
  {
    "id": "f1ee5614-0960-4927-a52c-25b7f6a9186a",
    "data": [
      {
        "text": "can you search for ",
        "userDefined": false
      },
      {
        "text": "car wash",
        "alias": "venue-type",
        "meta": "@venue-automotive-type",
        "userDefined": false
      },
      {
        "text": " in ",
        "userDefined": false
      },
      {
        "text": "Cincinnati",
        "alias": "location",
        "meta": "@sys.location",
        "userDefined": false
      }
    ],
    "isTemplate": false,
    "count": 0,
    "updated": 0
  },
  {
    "id": "0506671d-c3f1-4fe8-8985-52370a8954f6",
    "data": [
      {
        "text": "Bp",
        "alias": "venue-chain",
        "meta": "@venue-automotive-chain",
        "userDefined": true
      },
      {
        "text": " ",
        "userDefined": false
      },
      {
        "text": "gas station",
        "alias": "venue-type",
        "meta": "@venue-automotive-type",
        "userDefined": true
      }
    ],
    "isTemplate": false,
    "count": 0,
    "updated": 0
  },
  {
    "id": "3ce5425b-a310-4e4d-a584-56b65e2fc52b",
    "data": [
      {
        "text": "find ",
        "userDefined": false
      },
      {
        "text": "Mercedes Benz",
        "alias": "venue-title",
        "meta": "@venue-automotive-title",
        "userDefined": false
      }
    ],
    "isTemplate": false,
    "count": 1,
    "updated": 0
  },
  {
    "id": "812a868a-c534-44b6-b81e-5294e6b5ff0a",
    "data": [
      {
        "text": "gas station",
        "alias": "venue-type",
        "meta": "@venue-automotive-type",
        "userDefined": true
      },
      {
        "text": " in ",
        "userDefined": false
      },
      {
        "text": "London",
        "alias": "location",
        "meta": "@sys.location",
        "userDefined": true
      }
    ],
    "isTemplate": false,
    "count": 0,
    "updated": 0
  },
  {
    "id": "6e8acbfe-f7a6-4fd2-a2de-a092c0763262",
    "data": [
      {
        "text": "find ",
        "userDefined": false
      },
      {
        "text": "Tesco Filling",
        "alias": "venue-chain",
        "meta": "@venue-automotive-chain",
        "userDefined": true
      }
    ],
    "isTemplate": false,
    "count": 0,
    "updated": 0
  },
  {
    "id": "3618a5dc-dc0d-4b99-9ae1-e8355194d5a7",
    "data": [
      {
        "text": "car wash",
        "alias": "venue-type",
        "meta": "@venue-automotive-type",
        "userDefined": false
      }
    ],
    "isTemplate": false,
    "count": 0,
    "updated": 0
  },
  {
    "id": "488b5a6b-c2cd-41ad-842e-f8726c2e53db",
    "data": [
      {
        "text": "Jeep",
        "alias": "venue-title",
        "meta": "@venue-automotive-title",
        "userDefined": false
      },
      {
        "text": " dealers",
        "userDefined": false
      }
    ],
    "isTemplate": false,
    "count": 0,
    "updated": 0
  },
  {
    "id": "7e97ef7f-82e5-49c2-9df3-11b5205a9f2e",
    "data": [
      {
        "text": "find ",
        "userDefined": false
      },
      {
        "text": "parking",
        "alias": "venue-type",
        "meta": "@venue-automotive-type",
        "userDefined": true
      },
      {
        "text": " by ",
        "userDefined": false
      },
      {
        "text": "SFO",
        "alias": "location",
        "meta": "@sys.location",
        "userDefined": true
      }
    ],
    "isTemplate": false,
    "count": 0,
    "updated": 0
  },
  {
    "id": "9c26e0c4-891c-42f3-ba15-245467f71e51",
    "data": [
      {
        "text": "oil change stations",
        "alias": "venue-type",
        "meta": "@venue-automotive-type",
        "userDefined": false
      }
    ],
    "isTemplate": false,
    "count": 0,
    "updated": 0
  },
  {
    "id": "bada3b80-fe44-4fdc-9df1-2701e3193211",
    "data": [
      {
        "text": "I need a ",
        "userDefined": false
      },
      {
        "text": "gas station",
        "alias": "venue-type",
        "meta": "@venue-automotive-type",
        "userDefined": false
      }
    ],
    "isTemplate": false,
    "count": 0,
    "updated": 0
  },
  {
    "id": "2fbc2661-73ca-4d3d-a1d6-9de76f4ced86",
    "data": [
      {
        "text": "find ",
        "userDefined": false
      },
      {
        "text": "gas station",
        "alias": "venue-type",
        "meta": "@venue-automotive-type",
        "userDefined": true
      },
      {
        "text": " ",
        "userDefined": false
      },
      {
        "text": "Phillips 66",
        "alias": "venue-chain",
        "meta": "@venue-automotive-chain",
        "userDefined": true
      }
    ],
    "isTemplate": false,
    "count": 0,
    "updated": 0
  },
  {
    "id": "58d57cc4-00e3-40e3-9da4-34e67eae8c1d",
    "data": [
      {
        "text": "tire shop",
        "alias": "venue-type",
        "meta": "@venue-automotive-type",
        "userDefined": false
      },
      {
        "text": " rated with ",
        "userDefined": false
      },
      {
        "text": "3",
        "alias": "stars",
        "meta": "@sys.number",
        "userDefined": true
      },
      {
        "text": " stars",
        "userDefined": false
      }
    ],
    "isTemplate": false,
    "count": 0,
    "updated": 0
  },
  {
    "id": "e7f73667-5e91-4f15-81db-60378eaa5200",
    "data": [
      {
        "text": "find ",
        "userDefined": false
      },
      {
        "text": "tire shop",
        "alias": "venue-type",
        "meta": "@venue-automotive-type",
        "userDefined": false
      },
      {
        "text": " with ",
        "userDefined": false
      },
      {
        "text": "3",
        "alias": "stars",
        "meta": "@sys.number",
        "userDefined": true
      },
      {
        "text": " stars",
        "userDefined": false
      }
    ],
    "isTemplate": false,
    "count": 0,
    "updated": 0
  },
  {
    "id": "9df9d08b-a98a-42f5-be28-9b55f54c81f2",
    "data": [
      {
        "text": "where\u0027s some ",
        "userDefined": false
      },
      {
        "text": "gas station",
        "alias": "venue-type",
        "meta": "@venue-automotive-type",
        "userDefined": false
      },
      {
        "text": " near ",
        "userDefined": false
      },
      {
        "text": "Bronx",
        "alias": "location",
        "meta": "@sys.location",
        "userDefined": false
      }
    ],
    "isTemplate": false,
    "count": 0,
    "updated": 0
  },
  {
    "id": "6f44d135-37a7-40b1-b41f-4002409df7d9",
    "data": [
      {
        "text": "find me ",
        "userDefined": false
      },
      {
        "text": "closest",
        "alias": "sort",
        "meta": "@map-sort",
        "userDefined": false
      },
      {
        "text": " ",
        "userDefined": false
      },
      {
        "text": "gas station",
        "alias": "venue-type",
        "meta": "@venue-automotive-type",
        "userDefined": false
      }
    ],
    "isTemplate": false,
    "count": 0,
    "updated": 0
  },
  {
    "id": "b970c7a2-eb0a-4fc7-8caf-8b83ae04119f",
    "data": [
      {
        "text": "where is ",
        "userDefined": false
      },
      {
        "text": "the",
        "meta": "@sys.ignore",
        "userDefined": false
      },
      {
        "text": " ",
        "userDefined": false
      },
      {
        "text": "best",
        "alias": "sort",
        "meta": "@map-sort",
        "userDefined": false
      },
      {
        "text": " place to ",
        "userDefined": false
      },
      {
        "text": "park my car",
        "alias": "venue-type",
        "meta": "@venue-automotive-type",
        "userDefined": false
      }
    ],
    "isTemplate": false,
    "count": 0,
    "updated": 0
  },
  {
    "id": "2ac84fc7-0046-43f6-b983-21d7e5ea86e9",
    "data": [
      {
        "text": "Leesburg Auto",
        "alias": "venue-chain",
        "meta": "@venue-automotive-chain",
        "userDefined": true
      },
      {
        "text": " ",
        "userDefined": false
      },
      {
        "text": "parking",
        "alias": "venue-type",
        "meta": "@venue-automotive-type",
        "userDefined": true
      }
    ],
    "isTemplate": false,
    "count": 0,
    "updated": 0
  },
  {
    "id": "2c0c8ce7-ef7f-42ec-b7c7-4c3d15f9f150",
    "data": [
      {
        "text": "Shell",
        "alias": "venue-chain",
        "meta": "@venue-automotive-chain",
        "userDefined": false
      },
      {
        "text": " ",
        "userDefined": false
      },
      {
        "text": "gas station",
        "alias": "venue-type",
        "meta": "@venue-automotive-type",
        "userDefined": false
      }
    ],
    "isTemplate": false,
    "count": 0,
    "updated": 0
  },
  {
    "id": "008383f2-a708-497e-9109-150da49c803c",
    "data": [
      {
        "text": "best",
        "alias": "sort",
        "meta": "@map-sort",
        "userDefined": false
      },
      {
        "text": " ",
        "userDefined": false
      },
      {
        "text": "place to park",
        "alias": "venue-type",
        "meta": "@venue-automotive-type",
        "userDefined": true
      }
    ],
    "isTemplate": false,
    "count": 0,
    "updated": 0
  },
  {
    "id": "34a01367-b896-40b9-94c6-6d3a3fb8ffc1",
    "data": [
      {
        "text": "find ",
        "userDefined": false
      },
      {
        "text": "Total",
        "alias": "venue-chain",
        "meta": "@venue-automotive-chain",
        "userDefined": false
      },
      {
        "text": " ",
        "userDefined": false
      },
      {
        "text": "Service Station",
        "alias": "venue-type",
        "meta": "@venue-automotive-type",
        "userDefined": false
      }
    ],
    "isTemplate": false,
    "count": 0,
    "updated": 0
  },
  {
    "id": "95d3b160-543d-4798-a5cd-48bc219327da",
    "data": [
      {
        "text": "find ",
        "userDefined": false
      },
      {
        "text": "Sainsburys",
        "alias": "venue-chain",
        "meta": "@venue-automotive-chain",
        "userDefined": false
      },
      {
        "text": " ",
        "userDefined": false
      },
      {
        "text": "petrol station",
        "alias": "venue-type",
        "meta": "@venue-automotive-type",
        "userDefined": false
      }
    ],
    "isTemplate": false,
    "count": 0,
    "updated": 0
  },
  {
    "id": "a850c97d-7eee-43c9-b90b-ff9c46e0d3af",
    "data": [
      {
        "text": "I need a ",
        "userDefined": false
      },
      {
        "text": "car dealership",
        "alias": "venue-type",
        "meta": "@venue-automotive-type",
        "userDefined": false
      },
      {
        "text": " with ",
        "userDefined": false
      },
      {
        "text": "good reviews",
        "alias": "rating",
        "meta": "@rating",
        "userDefined": false
      }
    ],
    "isTemplate": false,
    "count": 0,
    "updated": 0
  },
  {
    "id": "f86128da-1555-4dd8-944b-ac930049a2ec",
    "data": [
      {
        "text": "search ",
        "userDefined": false
      },
      {
        "text": "opened",
        "alias": "open",
        "meta": "@open",
        "userDefined": true
      },
      {
        "text": " ",
        "userDefined": false
      },
      {
        "text": "gas stations",
        "alias": "venue-type",
        "meta": "@venue-automotive-type",
        "userDefined": true
      }
    ],
    "isTemplate": false,
    "count": 0,
    "updated": 0
  },
  {
    "id": "a8765b85-ba42-4168-b770-f3a339622263",
    "data": [
      {
        "text": "Shell",
        "alias": "venue-chain",
        "meta": "@venue-automotive-chain",
        "userDefined": false
      },
      {
        "text": " ",
        "userDefined": false
      },
      {
        "text": "gas stations",
        "alias": "venue-type",
        "meta": "@venue-automotive-type",
        "userDefined": false
      },
      {
        "text": " ",
        "userDefined": false
      },
      {
        "text": "nearby",
        "alias": "sort",
        "meta": "@map-sort",
        "userDefined": false
      }
    ],
    "isTemplate": false,
    "count": 0,
    "updated": 0
  },
  {
    "id": "64e51060-e4c3-4c47-a768-34669a442c8a",
    "data": [
      {
        "text": "find ",
        "userDefined": false
      },
      {
        "text": "parking",
        "alias": "venue-type",
        "meta": "@venue-automotive-type",
        "userDefined": true
      }
    ],
    "isTemplate": false,
    "count": 1,
    "updated": 0
  },
  {
    "id": "73a99106-ad92-4f1c-b5e8-d99e4bc5cc64",
    "data": [
      {
        "text": "find ",
        "userDefined": false
      },
      {
        "text": "parking",
        "alias": "venue-type",
        "meta": "@venue-automotive-type",
        "userDefined": false
      },
      {
        "text": " in",
        "userDefined": false
      }
    ],
    "isTemplate": false,
    "count": 0,
    "updated": 0
  },
  {
    "id": "e1fb7a86-a933-4026-b411-440b22dcd1f7",
    "data": [
      {
        "text": "truck rental",
        "alias": "venue-type",
        "meta": "@venue-automotive-type",
        "userDefined": false
      }
    ],
    "isTemplate": false,
    "count": 0,
    "updated": 0
  },
  {
    "id": "703c4d20-7da1-4ac7-b8fd-8d6cb105ee7c",
    "data": [
      {
        "text": "find ",
        "userDefined": false
      },
      {
        "text": "car dealer",
        "alias": "venue-type",
        "meta": "@venue-automotive-type",
        "userDefined": false
      }
    ],
    "isTemplate": false,
    "count": 0,
    "updated": 0
  },
  {
    "id": "4681f9ee-a729-4ec8-9922-e68e52f23253",
    "data": [
      {
        "text": "find ",
        "userDefined": false
      },
      {
        "text": "Volvo",
        "alias": "venue-title",
        "meta": "@venue-automotive-title",
        "userDefined": false
      }
    ],
    "isTemplate": false,
    "count": 0,
    "updated": 0
  },
  {
    "id": "36040691-914f-4e95-8cfd-cb11609f31e5",
    "data": [
      {
        "text": "I",
        "meta": "@sys.ignore",
        "userDefined": true
      },
      {
        "text": " need a ",
        "userDefined": false
      },
      {
        "text": "parking",
        "alias": "venue-type",
        "meta": "@venue-automotive-type",
        "userDefined": true
      },
      {
        "text": " ",
        "userDefined": false
      },
      {
        "text": "here",
        "alias": "sort",
        "meta": "@map-sort",
        "userDefined": true
      }
    ],
    "isTemplate": false,
    "count": 0,
    "updated": 0
  },
  {
    "id": "932a308d-ebb2-474f-b4be-3550ecae56bc",
    "data": [
      {
        "text": "where is ",
        "userDefined": false
      },
      {
        "text": "nearest",
        "alias": "sort",
        "meta": "@map-sort",
        "userDefined": true
      },
      {
        "text": " ",
        "userDefined": false
      },
      {
        "text": "petrol station",
        "alias": "venue-type",
        "meta": "@venue-automotive-type",
        "userDefined": true
      }
    ],
    "isTemplate": false,
    "count": 0,
    "updated": 0
  },
  {
    "id": "037545db-2a74-4895-875a-b85a8667d5d4",
    "data": [
      {
        "text": "where is the ",
        "userDefined": false
      },
      {
        "text": "cheapest",
        "alias": "sort",
        "meta": "@map-sort",
        "userDefined": false
      },
      {
        "text": " ",
        "userDefined": false
      },
      {
        "text": "gas",
        "alias": "venue-type",
        "meta": "@venue-automotive-type",
        "userDefined": true
      },
      {
        "text": " in ",
        "userDefined": false
      },
      {
        "text": "Santa Monica",
        "alias": "location",
        "meta": "@sys.location",
        "userDefined": false
      }
    ],
    "isTemplate": false,
    "count": 0,
    "updated": 0
  },
  {
    "id": "ded538b5-943b-40d0-bbd6-bd0ae195d020",
    "data": [
      {
        "text": "find ",
        "userDefined": false
      },
      {
        "text": "Car wash",
        "alias": "venue-type",
        "meta": "@venue-automotive-type",
        "userDefined": false
      }
    ],
    "isTemplate": false,
    "count": 0,
    "updated": 0
  },
  {
    "id": "4dbf5cfe-a7f9-4125-8aef-293bae52b22d",
    "data": [
      {
        "text": "where is ",
        "userDefined": false
      },
      {
        "text": "Renault",
        "alias": "venue-title",
        "meta": "@venue-automotive-title",
        "userDefined": true
      },
      {
        "text": " ",
        "userDefined": false
      },
      {
        "text": "auto repair",
        "alias": "venue-type",
        "meta": "@venue-automotive-type",
        "userDefined": true
      }
    ],
    "isTemplate": false,
    "count": 0,
    "updated": 0
  },
  {
    "id": "4e30f3af-be94-4910-b2ec-47f22e287014",
    "data": [
      {
        "text": "search for ",
        "userDefined": false
      },
      {
        "text": "car rentals",
        "alias": "venue-type",
        "meta": "@venue-automotive-type",
        "userDefined": false
      }
    ],
    "isTemplate": false,
    "count": 0,
    "updated": 0
  },
  {
    "id": "45817c55-80b6-4dc3-afbd-8c6503b0c6ad",
    "data": [
      {
        "text": "nearby",
        "alias": "sort",
        "meta": "@map-sort",
        "userDefined": false
      },
      {
        "text": " ",
        "userDefined": false
      },
      {
        "text": "car dealership",
        "alias": "venue-type",
        "meta": "@venue-automotive-type",
        "userDefined": true
      }
    ],
    "isTemplate": false,
    "count": 0,
    "updated": 0
  },
  {
    "id": "21f5f4eb-879e-4938-85a5-1e286c08ca0e",
    "data": [
      {
        "text": "where can I ",
        "userDefined": false
      },
      {
        "text": "repair my car",
        "alias": "venue-type",
        "meta": "@venue-automotive-type",
        "userDefined": false
      },
      {
        "text": " in ",
        "userDefined": false
      },
      {
        "text": "Moscow",
        "alias": "location",
        "meta": "@sys.location",
        "userDefined": false
      }
    ],
    "isTemplate": false,
    "count": 0,
    "updated": 0
  },
  {
    "id": "c8f838be-42cf-4490-aabf-29b269b69b5e",
    "data": [
      {
        "text": "Nissan",
        "alias": "venue-title",
        "meta": "@venue-automotive-title",
        "userDefined": false
      },
      {
        "text": " ",
        "userDefined": false
      },
      {
        "text": "car company",
        "alias": "venue-type",
        "meta": "@venue-automotive-type",
        "userDefined": false
      },
      {
        "text": " in ",
        "userDefined": false
      },
      {
        "text": "Goa",
        "alias": "location",
        "meta": "@sys.location",
        "userDefined": false
      }
    ],
    "isTemplate": false,
    "count": 0,
    "updated": 0
  },
  {
    "id": "21d4e03c-0181-4cc8-81be-a9b0837e0eb9",
    "data": [
      {
        "text": "show me the ",
        "userDefined": false
      },
      {
        "text": "Shell",
        "alias": "venue-chain",
        "meta": "@venue-automotive-chain",
        "userDefined": false
      },
      {
        "text": " stations",
        "userDefined": false
      }
    ],
    "isTemplate": false,
    "count": 0,
    "updated": 0
  },
  {
    "id": "464557b4-12d5-444b-ab70-2dd6331d2f1a",
    "data": [
      {
        "text": "please find me a ",
        "userDefined": false
      },
      {
        "text": "gas station",
        "alias": "venue-type",
        "meta": "@venue-automotive-type",
        "userDefined": true
      }
    ],
    "isTemplate": false,
    "count": 0,
    "updated": 0
  },
  {
    "id": "de9d69fd-29d8-4b47-bd40-7fd409324158",
    "data": [
      {
        "text": "find ",
        "userDefined": false
      },
      {
        "text": "Mitsubishi",
        "alias": "venue-title",
        "meta": "@venue-automotive-title",
        "userDefined": false
      }
    ],
    "isTemplate": false,
    "count": 0,
    "updated": 0
  },
  {
    "id": "03576e26-dc91-4704-94f2-ac4ff009ac50",
    "data": [
      {
        "text": "find ",
        "userDefined": false
      },
      {
        "text": "BMW",
        "alias": "venue-title",
        "meta": "@venue-automotive-title",
        "userDefined": false
      }
    ],
    "isTemplate": false,
    "count": 0,
    "updated": 0
  },
  {
    "id": "b2042b2e-dbeb-457d-899c-3ead6927db44",
    "data": [
      {
        "text": "find ",
        "userDefined": false
      },
      {
        "text": "gas station",
        "alias": "venue-type",
        "meta": "@venue-automotive-type",
        "userDefined": true
      }
    ],
    "isTemplate": false,
    "count": 0,
    "updated": 0
  },
  {
    "id": "0ec9496c-eaea-45f6-bd24-89caa49acf52",
    "data": [
      {
        "text": "is there ",
        "userDefined": false
      },
      {
        "text": "parking",
        "alias": "venue-type",
        "meta": "@venue-automotive-type",
        "userDefined": true
      },
      {
        "text": " within walking distance",
        "userDefined": false
      }
    ],
    "isTemplate": false,
    "count": 0,
    "updated": 0
  },
  {
    "id": "1d06346c-bfb6-45d5-b043-fe5a0df78460",
    "data": [
      {
        "text": "find ",
        "userDefined": false
      },
      {
        "text": "car wash",
        "alias": "venue-type",
        "meta": "@venue-automotive-type",
        "userDefined": false
      }
    ],
    "isTemplate": false,
    "count": 0,
    "updated": 0
  },
  {
    "id": "a5feb39d-6057-4a82-a0df-ddb568733acc",
    "data": [
      {
        "text": "closest",
        "alias": "sort",
        "meta": "@map-sort",
        "userDefined": false
      },
      {
        "text": " ",
        "userDefined": false
      },
      {
        "text": "car wash",
        "alias": "venue-type",
        "meta": "@venue-automotive-type",
        "userDefined": false
      },
      {
        "text": " to my location",
        "userDefined": false
      }
    ],
    "isTemplate": false,
    "count": 0,
    "updated": 0
  },
  {
    "id": "252f1d28-1e90-44b9-8bf9-123b80f1b1bf",
    "data": [
      {
        "text": "I ",
        "userDefined": false
      },
      {
        "text": "run",
        "meta": "@sys.ignore",
        "userDefined": false
      },
      {
        "text": " ",
        "userDefined": false
      },
      {
        "text": "out of petrol",
        "alias": "venue-type",
        "meta": "@venue-automotive-type",
        "userDefined": true
      }
    ],
    "isTemplate": false,
    "count": 0,
    "updated": 0
  },
  {
    "id": "66d739c3-d16c-4c44-9514-0a27ba2bd035",
    "data": [
      {
        "text": "motorcycle dealers",
        "alias": "venue-type",
        "meta": "@venue-automotive-type",
        "userDefined": false
      }
    ],
    "isTemplate": false,
    "count": 0,
    "updated": 0
  },
  {
    "id": "88452510-adc8-4cec-9d6b-a9ec8446e5ff",
    "data": [
      {
        "text": "find ",
        "userDefined": false
      },
      {
        "text": "Gas Station",
        "alias": "venue-type",
        "meta": "@venue-automotive-type",
        "userDefined": true
      }
    ],
    "isTemplate": false,
    "count": 0,
    "updated": 0
  },
  {
    "id": "e206d15d-2672-4c41-bff7-3276568cbba3",
    "data": [
      {
        "text": "parking lot",
        "alias": "venue-type",
        "meta": "@venue-automotive-type",
        "userDefined": true
      }
    ],
    "isTemplate": false,
    "count": 0,
    "updated": 0
  },
  {
    "id": "5532da50-8b57-4c8e-ae04-b729a36248c3",
    "data": [
      {
        "text": "I need to fill ",
        "userDefined": false
      },
      {
        "text": "gas",
        "alias": "venue-type",
        "meta": "@venue-automotive-type",
        "userDefined": true
      }
    ],
    "isTemplate": false,
    "count": 0,
    "updated": 0
  },
  {
    "id": "c91baf06-9239-43bb-bc24-d65b0a4fb9b6",
    "data": [
      {
        "text": "find ",
        "userDefined": false
      },
      {
        "text": "parking",
        "alias": "venue-type",
        "meta": "@venue-automotive-type",
        "userDefined": false
      },
      {
        "text": " in ",
        "userDefined": false
      },
      {
        "text": "Stanford shopping center",
        "alias": "location",
        "meta": "@sys.location",
        "userDefined": false
      }
    ],
    "isTemplate": false,
    "count": 0,
    "updated": 0
  }
]