[
  {
    "id": "c0e77ec5-95eb-46ad-9813-8de873b73a76",
    "data": [
      {
        "text": "manicure",
        "alias": "venue-type",
        "meta": "@venue-beauty-type",
        "userDefined": true
      }
    ],
    "isTemplate": false,
    "count": 0,
    "updated": 0
  },
  {
    "id": "5ae74635-b448-4939-b839-36c5d5c7b29a",
    "data": [
      {
        "text": "spa salon",
        "alias": "venue-type",
        "meta": "@venue-beauty-type",
        "userDefined": true
      },
      {
        "text": " with ",
        "userDefined": false
      },
      {
        "text": "free Wi-Fi",
        "alias": "venue-facility",
        "meta": "@venue-facility",
        "userDefined": true
      }
    ],
    "isTemplate": false,
    "count": 0,
    "updated": 0
  },
  {
    "id": "2cc81e97-384d-434b-abdc-313a5a8fb6a2",
    "data": [
      {
        "text": "spa salon",
        "alias": "venue-type",
        "meta": "@venue-beauty-type",
        "userDefined": false
      },
      {
        "text": " that is ",
        "userDefined": false
      },
      {
        "text": "opened",
        "alias": "open",
        "meta": "@open",
        "userDefined": false
      },
      {
        "text": " now",
        "userDefined": false
      }
    ],
    "isTemplate": false,
    "count": 0,
    "updated": 0
  },
  {
    "id": "4246ed6e-2e1e-412f-b670-14b1e4724f64",
    "data": [
      {
        "text": "show ",
        "userDefined": false
      },
      {
        "text": "spa",
        "alias": "venue-type",
        "meta": "@venue-beauty-type",
        "userDefined": false
      },
      {
        "text": " rated with ",
        "userDefined": false
      },
      {
        "text": "5",
        "alias": "stars",
        "meta": "@sys.number",
        "userDefined": false
      },
      {
        "text": " stars",
        "userDefined": false
      }
    ],
    "isTemplate": false,
    "count": 0,
    "updated": 0
  },
  {
    "id": "8f3c0d0f-b324-42ce-8097-10aad41a1709",
    "data": [
      {
        "text": "hair salon",
        "alias": "venue-type",
        "meta": "@venue-beauty-type",
        "userDefined": false
      }
    ],
    "isTemplate": false,
    "count": 0,
    "updated": 0
  },
  {
    "id": "ce353991-1913-4d07-bd58-f246f412f7a2",
    "data": [
      {
        "text": "where can I ",
        "userDefined": false
      },
      {
        "text": "get",
        "meta": "@sys.ignore",
        "userDefined": true
      },
      {
        "text": " ",
        "userDefined": false
      },
      {
        "text": "new haircut",
        "alias": "venue-type",
        "meta": "@venue-beauty-type",
        "userDefined": true
      }
    ],
    "isTemplate": false,
    "count": 0,
    "updated": 0
  },
  {
    "id": "7b975d6a-4ebd-4d75-8f4f-48e4e06c6190",
    "data": [
      {
        "text": "find ",
        "userDefined": false
      },
      {
        "text": "nearest",
        "alias": "sort",
        "meta": "@map-sort",
        "userDefined": false
      },
      {
        "text": " ",
        "userDefined": false
      },
      {
        "text": "beauty salon",
        "alias": "venue-type",
        "meta": "@venue-beauty-type",
        "userDefined": false
      }
    ],
    "isTemplate": false,
    "count": 0,
    "updated": 0
  },
  {
    "id": "b24beff9-037a-45cb-a37b-2bb858dbabc1",
    "data": [
      {
        "text": "detox wrap",
        "alias": "venue-type",
        "meta": "@venue-beauty-type",
        "userDefined": false
      }
    ],
    "isTemplate": false,
    "count": 0,
    "updated": 0
  },
  {
    "id": "273b66d4-3341-43a9-82a7-2120f9ce222c",
    "data": [
      {
        "text": "find ",
        "userDefined": false
      },
      {
        "text": "beauty salon",
        "alias": "venue-type",
        "meta": "@venue-beauty-type",
        "userDefined": true
      }
    ],
    "isTemplate": false,
    "count": 0,
    "updated": 0
  },
  {
    "id": "f653c6c0-90ef-4f07-91ac-d2d59ee39006",
    "data": [
      {
        "text": "nail stations",
        "alias": "venue-type",
        "meta": "@venue-beauty-type",
        "userDefined": false
      }
    ],
    "isTemplate": false,
    "count": 0,
    "updated": 0
  },
  {
    "id": "fe6491f3-0ddf-4721-9876-73e4021ab96d",
    "data": [
      {
        "text": "search for ",
        "userDefined": false
      },
      {
        "text": "best",
        "alias": "sort",
        "meta": "@map-sort",
        "userDefined": false
      },
      {
        "text": " ",
        "userDefined": false
      },
      {
        "text": "beauty salon",
        "alias": "venue-type",
        "meta": "@venue-beauty-type",
        "userDefined": false
      },
      {
        "text": " in ",
        "userDefined": false
      },
      {
        "text": "London",
        "alias": "location",
        "meta": "@sys.location",
        "userDefined": false
      }
    ],
    "isTemplate": false,
    "count": 0,
    "updated": 0
  },
  {
    "id": "71a0db1a-f507-4151-841e-2e953837097a",
    "data": [
      {
        "text": "eyebrow wax",
        "alias": "venue-type",
        "meta": "@venue-beauty-type",
        "userDefined": false
      }
    ],
    "isTemplate": false,
    "count": 0,
    "updated": 0
  },
  {
    "id": "8d7116bf-4fcd-45f0-b53f-5f5fe6fa9568",
    "data": [
      {
        "text": "spa salon",
        "alias": "venue-type",
        "meta": "@venue-beauty-type",
        "userDefined": false
      }
    ],
    "isTemplate": false,
    "count": 0,
    "updated": 0
  },
  {
    "id": "6636c469-53e9-4f6e-ab61-c4b1c83f57c2",
    "data": [
      {
        "text": "beauty salon",
        "alias": "venue-type",
        "meta": "@venue-beauty-type",
        "userDefined": true
      },
      {
        "text": " in ",
        "userDefined": false
      },
      {
        "text": "Moscow",
        "alias": "location",
        "meta": "@sys.location",
        "userDefined": true
      }
    ],
    "isTemplate": false,
    "count": 0,
    "updated": 0
  },
  {
    "id": "1fcfa617-f6b4-45ea-b8a8-edb3b1ced614",
    "data": [
      {
        "text": "spa salon",
        "alias": "venue-type",
        "meta": "@venue-beauty-type",
        "userDefined": true
      },
      {
        "text": " with ",
        "userDefined": false
      },
      {
        "text": "5",
        "alias": "stars",
        "meta": "@sys.number",
        "userDefined": true
      },
      {
        "text": " stars",
        "userDefined": false
      }
    ],
    "isTemplate": false,
    "count": 0,
    "updated": 0
  },
  {
    "id": "2f90fbe3-e114-48ca-82c5-0b6b6a642ce4",
    "data": [
      {
        "text": "show me ",
        "userDefined": false
      },
      {
        "text": "spa",
        "alias": "venue-type",
        "meta": "@venue-beauty-type",
        "userDefined": false
      },
      {
        "text": " that is ",
        "userDefined": false
      },
      {
        "text": "opened",
        "alias": "open",
        "meta": "@open",
        "userDefined": false
      },
      {
        "text": " now",
        "userDefined": false
      }
    ],
    "isTemplate": false,
    "count": 0,
    "updated": 0
  },
  {
    "id": "3df3635c-a14b-4534-b8dc-c2fcf9671de6",
    "data": [
      {
        "text": "where can I get my ",
        "userDefined": false
      },
      {
        "text": "hair styled",
        "alias": "venue-type",
        "meta": "@venue-beauty-type",
        "userDefined": false
      }
    ],
    "isTemplate": false,
    "count": 0,
    "updated": 0
  },
  {
    "id": "1cb17952-4768-43ad-9edd-198ca9baf9de",
    "data": [
      {
        "text": "I need ",
        "userDefined": false
      },
      {
        "text": "hair stylist",
        "alias": "venue-type",
        "meta": "@venue-beauty-type",
        "userDefined": false
      }
    ],
    "isTemplate": false,
    "count": 0,
    "updated": 0
  },
  {
    "id": "73f35213-f0f0-402c-b59d-7843676ce76e",
    "data": [
      {
        "text": "haircut",
        "alias": "venue-type",
        "meta": "@venue-beauty-type",
        "userDefined": false
      },
      {
        "text": " ",
        "userDefined": false
      },
      {
        "text": "near me",
        "alias": "sort",
        "meta": "@map-sort",
        "userDefined": false
      }
    ],
    "isTemplate": false,
    "count": 0,
    "updated": 0
  },
  {
    "id": "3be8510d-b54e-4500-843b-3c446fd90d3e",
    "data": [
      {
        "text": "hairdresser",
        "alias": "venue-type",
        "meta": "@venue-beauty-type",
        "userDefined": false
      }
    ],
    "isTemplate": false,
    "count": 0,
    "updated": 0
  },
  {
    "id": "456f031d-548d-463d-ae4a-45ff51c7ea01",
    "data": [
      {
        "text": "where can I get ",
        "userDefined": false
      },
      {
        "text": "manicure",
        "alias": "venue-type",
        "meta": "@venue-beauty-type",
        "userDefined": false
      }
    ],
    "isTemplate": false,
    "count": 0,
    "updated": 0
  },
  {
    "id": "37f1313e-18d1-4de6-801f-e1deb462a28b",
    "data": [
      {
        "text": "search for ",
        "userDefined": false
      },
      {
        "text": "opened",
        "alias": "open",
        "meta": "@open",
        "userDefined": false
      },
      {
        "text": " ",
        "userDefined": false
      },
      {
        "text": "spa",
        "alias": "venue-type",
        "meta": "@venue-beauty-type",
        "userDefined": false
      }
    ],
    "isTemplate": false,
    "count": 0,
    "updated": 0
  },
  {
    "id": "0267ab18-b7df-400c-b39e-ce6610e7b499",
    "data": [
      {
        "text": "where is ",
        "userDefined": false
      },
      {
        "text": "New York",
        "alias": "location",
        "meta": "@sys.location",
        "userDefined": true
      },
      {
        "text": " ",
        "userDefined": false
      },
      {
        "text": "beauty salon",
        "alias": "venue-type",
        "meta": "@venue-beauty-type",
        "userDefined": true
      }
    ],
    "isTemplate": false,
    "count": 0,
    "updated": 0
  },
  {
    "id": "35c1114d-58c4-4f81-878b-9102a5d390b4",
    "data": [
      {
        "text": "show ",
        "userDefined": false
      },
      {
        "text": "spa",
        "alias": "venue-type",
        "meta": "@venue-beauty-type",
        "userDefined": true
      },
      {
        "text": " ",
        "userDefined": false
      },
      {
        "text": "near me",
        "alias": "sort",
        "meta": "@map-sort",
        "userDefined": true
      }
    ],
    "isTemplate": false,
    "count": 0,
    "updated": 0
  },
  {
    "id": "0759b70d-7a03-49bf-93ba-0454f1ad58c2",
    "data": [
      {
        "text": "I need a ",
        "userDefined": false
      },
      {
        "text": "haircut",
        "alias": "venue-type",
        "meta": "@venue-beauty-type",
        "userDefined": true
      }
    ],
    "isTemplate": false,
    "count": 0,
    "updated": 0
  },
  {
    "id": "241b9298-2867-42a4-ae96-7262a245efe2",
    "data": [
      {
        "text": "nails studio",
        "alias": "venue-type",
        "meta": "@venue-beauty-type",
        "userDefined": false
      }
    ],
    "isTemplate": false,
    "count": 0,
    "updated": 0
  },
  {
    "id": "4ce65b73-af5a-4573-a4ed-7027f6a62847",
    "data": [
      {
        "text": "I need ",
        "userDefined": false
      },
      {
        "text": "pedicure",
        "alias": "venue-type",
        "meta": "@venue-beauty-type",
        "userDefined": false
      }
    ],
    "isTemplate": false,
    "count": 0,
    "updated": 0
  },
  {
    "id": "cb96ff65-8b77-4326-961e-d1a390eecbec",
    "data": [
      {
        "text": "I\u0027m looking for a ",
        "userDefined": false
      },
      {
        "text": "beauty salon",
        "alias": "venue-type",
        "meta": "@venue-beauty-type",
        "userDefined": true
      },
      {
        "text": " with ",
        "userDefined": false
      },
      {
        "text": "Wi-Fi",
        "alias": "venue-facility",
        "meta": "@venue-facility",
        "userDefined": true
      },
      {
        "text": " and ",
        "userDefined": false
      },
      {
        "text": "parking",
        "alias": "venue-facility",
        "meta": "@venue-facility",
        "userDefined": true
      }
    ],
    "isTemplate": false,
    "count": 0,
    "updated": 0
  },
  {
    "id": "32833200-d4ab-405b-a436-53fc8904c32e",
    "data": [
      {
        "text": "best",
        "alias": "sort",
        "meta": "@map-sort",
        "userDefined": false
      },
      {
        "text": " ",
        "userDefined": false
      },
      {
        "text": "spa",
        "alias": "venue-type",
        "meta": "@venue-beauty-type",
        "userDefined": false
      },
      {
        "text": " in ",
        "userDefined": false
      },
      {
        "text": "New York",
        "alias": "location",
        "meta": "@sys.location",
        "userDefined": false
      }
    ],
    "isTemplate": false,
    "count": 0,
    "updated": 0
  },
  {
    "id": "c2b7b45e-2c05-4930-beb1-3c006d22d4b8",
    "data": [
      {
        "text": "spa",
        "alias": "venue-type",
        "meta": "@venue-beauty-type",
        "userDefined": true
      },
      {
        "text": " ",
        "userDefined": false
      },
      {
        "text": "nearby",
        "alias": "sort",
        "meta": "@map-sort",
        "userDefined": true
      }
    ],
    "isTemplate": false,
    "count": 0,
    "updated": 0
  },
  {
    "id": "2653426c-0334-494f-b0f8-f92413622423",
    "data": [
      {
        "text": "beauty salon",
        "alias": "venue-type",
        "meta": "@venue-beauty-type",
        "userDefined": false
      }
    ],
    "isTemplate": false,
    "count": 0,
    "updated": 0
  },
  {
    "id": "10c54551-e9ca-4adc-84fe-74abda4150ec",
    "data": [
      {
        "text": "I need ",
        "userDefined": false
      },
      {
        "text": "to get waxed",
        "alias": "venue-type",
        "meta": "@venue-beauty-type",
        "userDefined": false
      }
    ],
    "isTemplate": false,
    "count": 0,
    "updated": 0
  },
  {
    "id": "9b141e62-3ed4-49d9-86c5-887bbe28e38e",
    "data": [
      {
        "text": "search ",
        "userDefined": false
      },
      {
        "text": "spa",
        "alias": "venue-type",
        "meta": "@venue-beauty-type",
        "userDefined": true
      },
      {
        "text": " in ",
        "userDefined": false
      },
      {
        "text": "Sochi",
        "alias": "location",
        "meta": "@sys.location",
        "userDefined": true
      }
    ],
    "isTemplate": false,
    "count": 0,
    "updated": 0
  },
  {
    "id": "c5274094-3604-430d-9ea1-3f96734fb0a1",
    "data": [
      {
        "text": "cheap",
        "alias": "sort",
        "meta": "@map-sort",
        "userDefined": false
      },
      {
        "text": " ",
        "userDefined": false
      },
      {
        "text": "haircuts",
        "alias": "venue-type",
        "meta": "@venue-beauty-type",
        "userDefined": true
      },
      {
        "text": " ",
        "userDefined": false
      },
      {
        "text": "near me",
        "alias": "sort",
        "meta": "@map-sort",
        "userDefined": false
      }
    ],
    "isTemplate": false,
    "count": 0,
    "updated": 0
  },
  {
    "id": "312d6a8a-afc6-467e-9ab1-9ec6fa60ad35",
    "data": [
      {
        "text": "where is ",
        "userDefined": false
      },
      {
        "text": "nearest",
        "alias": "sort",
        "meta": "@map-sort",
        "userDefined": false
      },
      {
        "text": " ",
        "userDefined": false
      },
      {
        "text": "Salon Loba",
        "alias": "venue-chain",
        "meta": "@venue-beauty-chain",
        "userDefined": false
      }
    ],
    "isTemplate": false,
    "count": 0,
    "updated": 0
  },
  {
    "id": "c2498db9-265f-41e2-b0fa-1d2de61717b7",
    "data": [
      {
        "text": "find ",
        "userDefined": false
      },
      {
        "text": "Kinetix Spa",
        "alias": "venue-chain",
        "meta": "@venue-beauty-chain",
        "userDefined": false
      }
    ],
    "isTemplate": false,
    "count": 0,
    "updated": 0
  },
  {
    "id": "94458bae-6513-44b2-b87b-c05c84795b30",
    "data": [
      {
        "text": "nail services",
        "alias": "venue-type",
        "meta": "@venue-beauty-type",
        "userDefined": false
      }
    ],
    "isTemplate": false,
    "count": 0,
    "updated": 0
  }
]