[
  {
    "id": "090620e4-0ced-46de-9996-2bd4d7b2bfb6",
    "data": [
      {
        "text": "I like you very much",
        "userDefined": false
      }
    ],
    "isTemplate": false,
    "count": 0,
    "updated": 0
  },
  {
    "id": "617b1e1c-e2b4-47cb-aae1-4b32a6cd2709",
    "data": [
      {
        "text": "cuz I like you",
        "userDefined": false
      }
    ],
    "isTemplate": false,
    "count": 0,
    "updated": 0
  },
  {
    "id": "093349af-add8-4743-ac40-8fb64a0a34e4",
    "data": [
      {
        "text": "really like you",
        "userDefined": false
      }
    ],
    "isTemplate": false,
    "count": 0,
    "updated": 0
  },
  {
    "id": "1af2e878-5c67-4c9a-9206-b5f34f3d20df",
    "data": [
      {
        "text": "good",
        "meta": "@sys.ignore",
        "userDefined": false
      },
      {
        "text": " I like you",
        "userDefined": false
      }
    ],
    "isTemplate": false,
    "count": 0,
    "updated": 0
  },
  {
    "id": "0c542c46-be63-43d8-b827-0561b682a93f",
    "data": [
      {
        "text": "but I like you so much",
        "userDefined": false
      }
    ],
    "isTemplate": false,
    "count": 0,
    "updated": 0
  },
  {
    "id": "ea07f8f6-ff88-47f8-8fa3-4db8149fbb0b",
    "data": [
      {
        "text": "I like you already",
        "userDefined": false
      }
    ],
    "isTemplate": false,
    "count": 0,
    "updated": 0
  },
  {
    "id": "97115353-b138-4d10-a6ea-b7dffb244d80",
    "data": [
      {
        "text": "I do like you",
        "userDefined": false
      }
    ],
    "isTemplate": false,
    "count": 0,
    "updated": 0
  },
  {
    "id": "67cfce62-e753-4ca9-80f2-731c176de88d",
    "data": [
      {
        "text": "I liked you",
        "userDefined": false
      }
    ],
    "isTemplate": false,
    "count": 0,
    "updated": 0
  },
  {
    "id": "af53f033-b5f6-4259-a2f9-36cdf0510cb0",
    "data": [
      {
        "text": "okay I like you",
        "userDefined": false
      }
    ],
    "isTemplate": false,
    "count": 0,
    "updated": 0
  },
  {
    "id": "3fa7b085-0748-4fdd-a9c0-c587b2527984",
    "data": [
      {
        "text": "that\u0027s why I like you",
        "userDefined": false
      }
    ],
    "isTemplate": false,
    "count": 0,
    "updated": 0
  },
  {
    "id": "192d5daf-5d11-4b00-b507-ef2251c50aed",
    "data": [
      {
        "text": "you ",
        "userDefined": false
      },
      {
        "text": "are",
        "meta": "@sys.ignore",
        "userDefined": false
      },
      {
        "text": " special",
        "userDefined": false
      }
    ],
    "isTemplate": false,
    "count": 0,
    "updated": 0
  },
  {
    "id": "39cdf263-fac1-49ce-8792-a67e2a89e2b1",
    "data": [
      {
        "text": "yes you ",
        "userDefined": false
      },
      {
        "text": "are",
        "meta": "@sys.ignore",
        "userDefined": false
      },
      {
        "text": " special",
        "userDefined": false
      }
    ],
    "isTemplate": false,
    "count": 0,
    "updated": 0
  },
  {
    "id": "94fba6e5-c6c8-4975-b3d1-7e2be150c0d0",
    "data": [
      {
        "text": "you\u0027re so special to me",
        "userDefined": false
      }
    ],
    "isTemplate": false,
    "count": 0,
    "updated": 0
  },
  {
    "id": "f70ed78e-3efd-4371-8ca2-829b6e25fbf7",
    "data": [
      {
        "text": "you ",
        "userDefined": false
      },
      {
        "text": "are",
        "meta": "@sys.ignore",
        "userDefined": false
      },
      {
        "text": " very special",
        "userDefined": false
      }
    ],
    "isTemplate": false,
    "count": 0,
    "updated": 0
  },
  {
    "id": "6b919794-be2c-44ca-9359-8b10bf6c2273",
    "data": [
      {
        "text": "I like you just the way you are",
        "userDefined": false
      }
    ],
    "isTemplate": false,
    "count": 0,
    "updated": 0
  },
  {
    "id": "bfbc4e16-987d-4520-8fe3-76780a53b014",
    "data": [
      {
        "text": "I like you as a ",
        "userDefined": false
      },
      {
        "text": "friend",
        "meta": "@sys.ignore",
        "userDefined": false
      }
    ],
    "isTemplate": false,
    "count": 0,
    "updated": 0
  },
  {
    "id": "5ff71be2-fd23-4b43-9dad-aefb2f5916ea",
    "data": [
      {
        "text": "that\u0027s what I like about you",
        "userDefined": false
      }
    ],
    "isTemplate": false,
    "count": 0,
    "updated": 0
  },
  {
    "id": "e7b53677-9fbb-4f97-9154-0e573690054a",
    "data": [
      {
        "text": "just like you",
        "userDefined": false
      }
    ],
    "isTemplate": false,
    "count": 0,
    "updated": 0
  },
  {
    "id": "b631e147-7834-4153-8304-719eb92b6431",
    "data": [
      {
        "text": "I also like you",
        "userDefined": false
      }
    ],
    "isTemplate": false,
    "count": 0,
    "updated": 0
  },
  {
    "id": "55c962b4-abd0-4370-a3e9-aecd836b332b",
    "data": [
      {
        "text": "I really do like you",
        "userDefined": false
      }
    ],
    "isTemplate": false,
    "count": 0,
    "updated": 0
  },
  {
    "id": "bc87298c-002f-4b6b-bcd6-a8d7f04530dd",
    "data": [
      {
        "text": "no I like you the way you ",
        "userDefined": false
      },
      {
        "text": "are",
        "meta": "@sys.ignore",
        "userDefined": false
      }
    ],
    "isTemplate": false,
    "count": 0,
    "updated": 0
  },
  {
    "id": "e5c45316-06ea-448a-9890-ab83b0d69a23",
    "data": [
      {
        "text": "sorry I like you",
        "userDefined": false
      }
    ],
    "isTemplate": false,
    "count": 0,
    "updated": 0
  },
  {
    "id": "ce7bf4d6-f2f8-4009-916a-acbb5cc3a3c8",
    "data": [
      {
        "text": "I like your smile",
        "userDefined": false
      }
    ],
    "isTemplate": false,
    "count": 0,
    "updated": 0
  },
  {
    "id": "51b8863d-a46d-4d3a-b022-1eaa4b4f3687",
    "data": [
      {
        "text": "I just like you",
        "userDefined": false
      }
    ],
    "isTemplate": false,
    "count": 0,
    "updated": 0
  },
  {
    "id": "b42464b8-8132-4a5b-9686-991bb963c8b3",
    "data": [
      {
        "text": "I like you too much",
        "userDefined": false
      }
    ],
    "isTemplate": false,
    "count": 0,
    "updated": 0
  },
  {
    "id": "6ca644ac-1d5c-421e-88b8-3412fc6f5f06",
    "data": [
      {
        "text": "like you a lot",
        "userDefined": false
      }
    ],
    "isTemplate": false,
    "count": 0,
    "updated": 0
  },
  {
    "id": "99f4ad90-29ad-49f9-b4b3-4edf68fa1719",
    "data": [
      {
        "text": "you ",
        "userDefined": false
      },
      {
        "text": "are",
        "meta": "@sys.ignore",
        "userDefined": false
      },
      {
        "text": " special for me",
        "userDefined": false
      }
    ],
    "isTemplate": false,
    "count": 0,
    "updated": 0
  },
  {
    "id": "a41b3708-91a6-4d50-a572-7cbaf4d80c0c",
    "data": [
      {
        "text": "I like you very",
        "userDefined": false
      }
    ],
    "isTemplate": false,
    "count": 0,
    "updated": 0
  },
  {
    "id": "aa974580-5cf7-4ea5-8252-165940d135c9",
    "data": [
      {
        "text": "yeah I like you",
        "userDefined": false
      }
    ],
    "isTemplate": false,
    "count": 0,
    "updated": 0
  },
  {
    "id": "18ff4076-d232-45b9-a419-e90b72c2b626",
    "data": [
      {
        "text": "you\u0027re special",
        "userDefined": false
      }
    ],
    "isTemplate": false,
    "count": 0,
    "updated": 0
  },
  {
    "id": "270d6b67-5b6c-472c-896d-478927c4821c",
    "data": [
      {
        "text": "you\u0027re awesome I like you",
        "userDefined": false
      }
    ],
    "isTemplate": false,
    "count": 0,
    "updated": 0
  },
  {
    "id": "02d6b98f-26c2-41f4-b652-3e66fe974761",
    "data": [
      {
        "text": "I\u0027m",
        "meta": "@sys.ignore",
        "userDefined": false
      },
      {
        "text": " starting to like you",
        "userDefined": false
      }
    ],
    "isTemplate": false,
    "count": 0,
    "updated": 0
  },
  {
    "id": "c5e716b0-8deb-4d16-9bf8-4bf99e40252f",
    "data": [
      {
        "text": "yes I like you",
        "userDefined": false
      }
    ],
    "isTemplate": false,
    "count": 0,
    "updated": 0
  },
  {
    "id": "8b0e9060-ddbd-4ba4-9976-c3d4610fac0b",
    "data": [
      {
        "text": "that\u0027s because you ",
        "userDefined": false
      },
      {
        "text": "are",
        "meta": "@sys.ignore",
        "userDefined": false
      },
      {
        "text": " special",
        "userDefined": false
      }
    ],
    "isTemplate": false,
    "count": 0,
    "updated": 0
  },
  {
    "id": "5927c716-1d46-4067-9f22-6a2683cdf8ae",
    "data": [
      {
        "text": "I really like you",
        "userDefined": false
      }
    ],
    "isTemplate": false,
    "count": 0,
    "updated": 0
  },
  {
    "id": "542269fd-ffa4-4e8a-a483-c5d31e5b81e8",
    "data": [
      {
        "text": "I like you you\u0027re ",
        "userDefined": false
      },
      {
        "text": "nice",
        "meta": "@sys.ignore",
        "userDefined": false
      }
    ],
    "isTemplate": false,
    "count": 0,
    "updated": 0
  },
  {
    "id": "3a875263-5e16-4cf8-a0c9-c83b8d8b7f80",
    "data": [
      {
        "text": "you\u0027re very special to me",
        "userDefined": false
      }
    ],
    "isTemplate": false,
    "count": 0,
    "updated": 0
  },
  {
    "id": "7e17097e-1c9f-4d04-a6a0-c1bdaefdc4ed",
    "data": [
      {
        "text": "you ",
        "userDefined": false
      },
      {
        "text": "are",
        "meta": "@sys.ignore",
        "userDefined": false
      },
      {
        "text": " so special",
        "userDefined": false
      }
    ],
    "isTemplate": false,
    "count": 0,
    "updated": 0
  },
  {
    "id": "15616216-d550-4bc0-8337-26072b48d231",
    "data": [
      {
        "text": "I kinda like you",
        "userDefined": false
      }
    ],
    "isTemplate": false,
    "count": 0,
    "updated": 0
  },
  {
    "id": "7726e383-7b14-48cf-8cf9-0ed472a06d4d",
    "data": [
      {
        "text": "I like you the way you ",
        "userDefined": false
      },
      {
        "text": "are",
        "meta": "@sys.ignore",
        "userDefined": false
      }
    ],
    "isTemplate": false,
    "count": 0,
    "updated": 0
  },
  {
    "id": "ed794a28-5d80-4de4-ad99-e2119049bf12",
    "data": [
      {
        "text": "I like you ",
        "userDefined": false
      },
      {
        "text": "baby",
        "meta": "@sys.ignore",
        "userDefined": false
      }
    ],
    "isTemplate": false,
    "count": 0,
    "updated": 0
  },
  {
    "id": "652062ec-8448-44d6-a148-da193dc02a29",
    "data": [
      {
        "text": "you\u0027re very special",
        "userDefined": false
      }
    ],
    "isTemplate": false,
    "count": 0,
    "updated": 0
  },
  {
    "id": "65d96f27-a4ae-496b-ba09-e720bddb9c37",
    "data": [
      {
        "text": "but I really like you",
        "userDefined": false
      }
    ],
    "isTemplate": false,
    "count": 0,
    "updated": 0
  },
  {
    "id": "e6b735ce-96cf-46aa-abc3-c63cc1f8f319",
    "data": [
      {
        "text": "hi I like you",
        "userDefined": false
      }
    ],
    "isTemplate": false,
    "count": 0,
    "updated": 0
  },
  {
    "id": "7b80da90-8bed-4086-99cc-80866e93dffc",
    "data": [
      {
        "text": "well",
        "meta": "@sys.ignore",
        "userDefined": false
      },
      {
        "text": " you ",
        "userDefined": false
      },
      {
        "text": "are",
        "meta": "@sys.ignore",
        "userDefined": false
      },
      {
        "text": " special",
        "userDefined": false
      }
    ],
    "isTemplate": false,
    "count": 0,
    "updated": 0
  },
  {
    "id": "363ce9fa-6ea0-4366-9c2c-de8e3526ca5f",
    "data": [
      {
        "text": "thank you",
        "meta": "@sys.ignore",
        "userDefined": false
      },
      {
        "text": " I like you too",
        "userDefined": false
      }
    ],
    "isTemplate": false,
    "count": 0,
    "updated": 0
  },
  {
    "id": "d6637fa8-4728-4ef0-b71f-2c3b13775759",
    "data": [
      {
        "text": "of",
        "meta": "@sys.ignore",
        "userDefined": false
      },
      {
        "text": " course I like you",
        "userDefined": false
      }
    ],
    "isTemplate": false,
    "count": 0,
    "updated": 0
  },
  {
    "id": "7f3feeca-2406-4f16-ab37-af252c586b0d",
    "data": [
      {
        "text": "I like you",
        "userDefined": false
      }
    ],
    "isTemplate": false,
    "count": 0,
    "updated": 0
  },
  {
    "id": "6320dcc0-fbf0-46ae-9da0-78e434027175",
    "data": [
      {
        "text": "you ",
        "userDefined": false
      },
      {
        "text": "are",
        "meta": "@sys.ignore",
        "userDefined": false
      },
      {
        "text": " special to me",
        "userDefined": false
      }
    ],
    "isTemplate": false,
    "count": 0,
    "updated": 0
  },
  {
    "id": "2c6b4069-232c-4c0b-b5c9-7de50c2eec11",
    "data": [
      {
        "text": "but I like you",
        "userDefined": false
      }
    ],
    "isTemplate": false,
    "count": 0,
    "updated": 0
  },
  {
    "id": "4bc0ce06-3bc8-4360-92c0-e8d377fdf75c",
    "data": [
      {
        "text": "you\u0027re ",
        "userDefined": false
      },
      {
        "text": "funny",
        "meta": "@sys.ignore",
        "userDefined": false
      },
      {
        "text": " I like you",
        "userDefined": false
      }
    ],
    "isTemplate": false,
    "count": 0,
    "updated": 0
  },
  {
    "id": "98cc89c8-613e-4971-859a-3015a281a957",
    "data": [
      {
        "text": "I like u",
        "userDefined": false
      }
    ],
    "isTemplate": false,
    "count": 0,
    "updated": 0
  },
  {
    "id": "ef475c99-c27a-49f0-9fda-c690a9411492",
    "data": [
      {
        "text": "I like you too you\u0027re ",
        "userDefined": false
      },
      {
        "text": "one",
        "meta": "@sys.ignore",
        "userDefined": false
      },
      {
        "text": " ",
        "userDefined": false
      },
      {
        "text": "of",
        "meta": "@sys.ignore",
        "userDefined": false
      },
      {
        "text": " my ",
        "userDefined": false
      },
      {
        "text": "favorite",
        "meta": "@sys.ignore",
        "userDefined": false
      },
      {
        "text": " people to chat with",
        "userDefined": false
      }
    ],
    "isTemplate": false,
    "count": 0,
    "updated": 0
  },
  {
    "id": "9be55dbe-0907-4561-ba98-7ecf77dc80ed",
    "data": [
      {
        "text": "you ",
        "userDefined": false
      },
      {
        "text": "are",
        "meta": "@sys.ignore",
        "userDefined": false
      },
      {
        "text": " very special to me",
        "userDefined": false
      }
    ],
    "isTemplate": false,
    "count": 0,
    "updated": 0
  },
  {
    "id": "d2c85313-a087-4fb0-a29a-f511558afdc1",
    "data": [
      {
        "text": "you are so sweet",
        "userDefined": false
      }
    ],
    "isTemplate": false,
    "count": 0,
    "updated": 0
  },
  {
    "id": "958f7668-6ed3-4ddf-87ce-e871b0b44ed1",
    "data": [
      {
        "text": "you ",
        "userDefined": false
      },
      {
        "text": "are",
        "meta": "@sys.ignore",
        "userDefined": false
      },
      {
        "text": " so special to me",
        "userDefined": false
      }
    ],
    "isTemplate": false,
    "count": 0,
    "updated": 0
  },
  {
    "id": "7d6129b4-dc9b-406e-b040-e8434322e772",
    "data": [
      {
        "text": "okay I like you too",
        "userDefined": false
      }
    ],
    "isTemplate": false,
    "count": 0,
    "updated": 0
  },
  {
    "id": "bcd73999-8331-4acd-83d4-691739f2553e",
    "data": [
      {
        "text": "I like you you\u0027re ",
        "userDefined": false
      },
      {
        "text": "cool",
        "meta": "@sys.ignore",
        "userDefined": false
      }
    ],
    "isTemplate": false,
    "count": 0,
    "updated": 0
  },
  {
    "id": "22f221a3-74e4-4acb-b408-070ff6751fa2",
    "data": [
      {
        "text": "I like that about you",
        "userDefined": false
      }
    ],
    "isTemplate": false,
    "count": 0,
    "updated": 0
  },
  {
    "id": "93f9cde1-37d3-4c5a-ab94-d45e11a2882e",
    "data": [
      {
        "text": "I said I like you",
        "userDefined": false
      }
    ],
    "isTemplate": false,
    "count": 0,
    "updated": 0
  },
  {
    "id": "6e3800a0-1072-48d7-a5f6-60fe9443bc22",
    "data": [
      {
        "text": "I really really like you",
        "userDefined": false
      }
    ],
    "isTemplate": false,
    "count": 0,
    "updated": 0
  },
  {
    "id": "26b4c9b1-21b0-42bf-a150-9cf377e5254f",
    "data": [
      {
        "text": "I think I like you",
        "userDefined": false
      }
    ],
    "isTemplate": false,
    "count": 0,
    "updated": 0
  },
  {
    "id": "a70a4f25-da62-4440-96db-c4c871096a12",
    "data": [
      {
        "text": "I like you more",
        "userDefined": false
      }
    ],
    "isTemplate": false,
    "count": 0,
    "updated": 0
  },
  {
    "id": "a8a9adb7-0c35-4ef6-bcef-89103cac652d",
    "data": [
      {
        "text": "I like you as you ",
        "userDefined": false
      },
      {
        "text": "are",
        "meta": "@sys.ignore",
        "userDefined": false
      }
    ],
    "isTemplate": false,
    "count": 0,
    "updated": 0
  },
  {
    "id": "4338f06c-ef5f-425e-950b-c6eedbcf480f",
    "data": [
      {
        "text": "I like you a lot",
        "userDefined": false
      }
    ],
    "isTemplate": false,
    "count": 0,
    "updated": 0
  },
  {
    "id": "e638e689-518b-4fac-bdd1-6484609808d4",
    "data": [
      {
        "text": "but I like you ",
        "userDefined": false
      },
      {
        "text": "just the way you are",
        "meta": "@sys.ignore",
        "userDefined": false
      }
    ],
    "isTemplate": false,
    "count": 0,
    "updated": 0
  },
  {
    "id": "d49622ab-add0-4e8d-87b6-9d1c0dce5795",
    "data": [
      {
        "text": "thanks I like you too",
        "userDefined": false
      }
    ],
    "isTemplate": false,
    "count": 0,
    "updated": 0
  },
  {
    "id": "efa3a4c6-6f80-4232-8d5b-c0e348e797f6",
    "data": [
      {
        "text": "I like you now",
        "userDefined": false
      }
    ],
    "isTemplate": false,
    "count": 0,
    "updated": 0
  },
  {
    "id": "64e994ee-515f-40d0-be11-e445262bde16",
    "data": [
      {
        "text": "I really really really really like you",
        "userDefined": false
      }
    ],
    "isTemplate": false,
    "count": 0,
    "updated": 0
  },
  {
    "id": "921d38fd-7354-41ae-b1d5-914781254aa3",
    "data": [
      {
        "text": "I like you so much",
        "userDefined": false
      }
    ],
    "isTemplate": false,
    "count": 1,
    "updated": 0
  },
  {
    "id": "6bd21046-8300-400d-873e-3dcc30c0d322",
    "data": [
      {
        "text": "hey I like you",
        "userDefined": false
      }
    ],
    "isTemplate": false,
    "count": 0,
    "updated": 0
  },
  {
    "id": "79461d41-d2c7-45a9-a99a-fa87e79fbaf6",
    "data": [
      {
        "text": "I like you so",
        "userDefined": false
      }
    ],
    "isTemplate": false,
    "count": 0,
    "updated": 0
  },
  {
    "id": "641545c3-f29b-4b68-8781-ca96ad29ae58",
    "data": [
      {
        "text": "you know I like you",
        "userDefined": false
      }
    ],
    "isTemplate": false,
    "count": 0,
    "updated": 0
  },
  {
    "id": "32f38872-4d00-481b-8900-2f7a1ca3cec3",
    "data": [
      {
        "text": "you\u0027re so special",
        "userDefined": false
      }
    ],
    "isTemplate": false,
    "count": 0,
    "updated": 0
  },
  {
    "id": "1da847fd-6be6-4363-a2aa-b6033521a80d",
    "data": [
      {
        "text": "I like you too",
        "userDefined": false
      }
    ],
    "isTemplate": false,
    "count": 0,
    "updated": 0
  },
  {
    "id": "ffaf5713-0572-4e01-9a62-96b9066b46fa",
    "data": [
      {
        "text": "you ",
        "userDefined": false
      },
      {
        "text": "are",
        "meta": "@sys.ignore",
        "userDefined": false
      },
      {
        "text": " really special",
        "userDefined": false
      }
    ],
    "isTemplate": false,
    "count": 0,
    "updated": 0
  },
  {
    "id": "b711c9e8-7f53-4b59-9cc8-29b0e833712e",
    "data": [
      {
        "text": "but I like u",
        "userDefined": false
      }
    ],
    "isTemplate": false,
    "count": 0,
    "updated": 0
  }
]