[
  {
    "id": "1a6b82e4-3efd-43f6-9e92-09819f421ab9",
    "data": [
      {
        "text": "how old ",
        "userDefined": false
      },
      {
        "text": "are",
        "meta": "@sys.ignore",
        "userDefined": false
      },
      {
        "text": " you",
        "userDefined": false
      }
    ],
    "isTemplate": false,
    "count": 0,
    "updated": 0
  },
  {
    "id": "98ff7ad3-b151-420b-9ac6-61b1dec18eb4",
    "data": [
      {
        "text": "how old is your platform",
        "userDefined": false
      }
    ],
    "isTemplate": false,
    "count": 0,
    "updated": 0
  },
  {
    "id": "4093fa3a-b8fe-478d-9184-b8c8bfa2ab15",
    "data": [
      {
        "text": "what\u0027s your age",
        "userDefined": false
      }
    ],
    "isTemplate": false,
    "count": 0,
    "updated": 0
  },
  {
    "id": "bb2ead79-f533-4dbc-baf8-34a577bd37da",
    "data": [
      {
        "text": "age of yours",
        "userDefined": false
      }
    ],
    "isTemplate": false,
    "count": 0,
    "updated": 0
  },
  {
    "id": "e469a528-9bba-47b4-ab1a-371f6719dc05",
    "data": [
      {
        "text": "I\u0027d like to know your age",
        "userDefined": false
      }
    ],
    "isTemplate": false,
    "count": 0,
    "updated": 0
  },
  {
    "id": "86dcf6ca-8769-4a44-a6a3-809ad84840e5",
    "data": [
      {
        "text": "tell me your age",
        "userDefined": false
      }
    ],
    "isTemplate": false,
    "count": 0,
    "updated": 0
  },
  {
    "id": "277f82ac-bbea-4e17-8803-b9f6e2243d6e",
    "data": [
      {
        "text": "your",
        "meta": "@sys.ignore",
        "userDefined": false
      },
      {
        "text": " age",
        "userDefined": false
      }
    ],
    "isTemplate": false,
    "count": 0,
    "updated": 0
  },
  {
    "id": "e62b76c0-b43f-4615-9dfa-8d27611732d2",
    "data": [
      {
        "text": "are you ",
        "userDefined": false
      },
      {
        "text": "21",
        "alias": "age",
        "meta": "@sys.number",
        "userDefined": true
      },
      {
        "text": " years old",
        "userDefined": false
      }
    ],
    "isTemplate": false,
    "count": 0,
    "updated": 0
  }
]