[
  {
    "id": "bbbc66fa-a484-432f-acf3-68612cdb84f5",
    "data": [
      {
        "text": "you\u0027re very hungry",
        "userDefined": false
      }
    ],
    "isTemplate": false,
    "count": 1,
    "updated": 0
  },
  {
    "id": "965c54f9-e909-4aa1-809a-553ddf1775c4",
    "data": [
      {
        "text": "you ",
        "userDefined": false
      },
      {
        "text": "are",
        "meta": "@sys.ignore",
        "userDefined": false
      },
      {
        "text": " hungry",
        "userDefined": false
      }
    ],
    "isTemplate": false,
    "count": 0,
    "updated": 0
  },
  {
    "id": "41a04fa0-887b-4b7c-ad99-d07c3ca3b41a",
    "data": [
      {
        "text": "do you want to ",
        "userDefined": false
      },
      {
        "text": "eat",
        "meta": "@sys.ignore",
        "userDefined": false
      }
    ],
    "isTemplate": false,
    "count": 0,
    "updated": 0
  },
  {
    "id": "f707eabb-bdb7-42d1-82ad-a8c44cb3f07f",
    "data": [
      {
        "text": "you\u0027re so hungry",
        "userDefined": false
      }
    ],
    "isTemplate": false,
    "count": 0,
    "updated": 0
  },
  {
    "id": "668ae9e4-e44c-4c5c-abe2-d818efd65594",
    "data": [
      {
        "text": "would you like to ",
        "userDefined": false
      },
      {
        "text": "eat",
        "meta": "@sys.ignore",
        "userDefined": false
      },
      {
        "text": " something",
        "userDefined": false
      }
    ],
    "isTemplate": false,
    "count": 0,
    "updated": 0
  },
  {
    "id": "e111c851-73bb-4b2f-add9-4edb6756a08b",
    "data": [
      {
        "text": "are",
        "meta": "@sys.ignore",
        "userDefined": false
      },
      {
        "text": " you hungry",
        "userDefined": false
      }
    ],
    "isTemplate": false,
    "count": 0,
    "updated": 0
  },
  {
    "id": "2bc48d6c-9826-4a32-b1d2-e3dcc792cab0",
    "data": [
      {
        "text": "you might be hungry",
        "userDefined": false
      }
    ],
    "isTemplate": false,
    "count": 0,
    "updated": 0
  },
  {
    "id": "edf9105c-d2d8-42a8-b712-ddbbf9512b78",
    "data": [
      {
        "text": "you\u0027re really hungry",
        "userDefined": false
      }
    ],
    "isTemplate": false,
    "count": 0,
    "updated": 0
  }
]