[
  {
    "id": "3e5b8ee2-a80a-414d-bb4b-10d92be60221",
    "data": [
      {
        "text": "already ",
        "userDefined": false
      },
      {
        "text": "miss",
        "meta": "@sys.ignore",
        "userDefined": false
      },
      {
        "text": " you",
        "userDefined": false
      }
    ],
    "isTemplate": false,
    "count": 0,
    "updated": 0
  },
  {
    "id": "07963600-18fe-401f-aa29-78625ac2e6f0",
    "data": [
      {
        "text": "I ",
        "userDefined": false
      },
      {
        "text": "miss",
        "meta": "@sys.ignore",
        "userDefined": false
      },
      {
        "text": " you much",
        "userDefined": false
      }
    ],
    "isTemplate": false,
    "count": 0,
    "updated": 0
  },
  {
    "id": "fb7a32bd-bb70-4b5a-846b-7e8a3bce3020",
    "data": [
      {
        "text": "I ",
        "userDefined": false
      },
      {
        "text": "missed",
        "meta": "@sys.ignore",
        "userDefined": false
      },
      {
        "text": " you",
        "userDefined": false
      }
    ],
    "isTemplate": false,
    "count": 0,
    "updated": 0
  },
  {
    "id": "6e5ad3f7-c392-4c09-8d16-42c9ee611298",
    "data": [
      {
        "text": "I ",
        "userDefined": false
      },
      {
        "text": "miss",
        "meta": "@sys.ignore",
        "userDefined": false
      },
      {
        "text": " you",
        "userDefined": false
      }
    ],
    "isTemplate": false,
    "count": 0,
    "updated": 0
  },
  {
    "id": "6fec6572-44f8-44e8-9443-30c55cfbfad8",
    "data": [
      {
        "text": "I\u0027ve ",
        "userDefined": false
      },
      {
        "text": "missed",
        "meta": "@sys.ignore",
        "userDefined": false
      },
      {
        "text": " you",
        "userDefined": false
      }
    ],
    "isTemplate": false,
    "count": 0,
    "updated": 0
  },
  {
    "id": "411e27ed-0cd8-451f-ae75-f285ab936484",
    "data": [
      {
        "text": "missing you",
        "userDefined": false
      }
    ],
    "isTemplate": false,
    "count": 0,
    "updated": 0
  },
  {
    "id": "caab338e-ea20-4e26-af1d-0b6dcc07bbc3",
    "data": [
      {
        "text": "miss",
        "meta": "@sys.ignore",
        "userDefined": false
      },
      {
        "text": " you",
        "userDefined": false
      }
    ],
    "isTemplate": false,
    "count": 0,
    "updated": 0
  }
]