[
  {
    "id": "296d3de9-2495-4566-b6ec-ba6c65a699a1",
    "data": [
      {
        "text": "now you\u0027re fired",
        "userDefined": false
      }
    ],
    "isTemplate": false,
    "count": 0,
    "updated": 0
  },
  {
    "id": "1c5aeea4-a6fe-40ec-a846-cbc9eecdadc6",
    "data": [
      {
        "text": "it\u0027s",
        "meta": "@sys.ignore",
        "userDefined": false
      },
      {
        "text": " time to fire you",
        "userDefined": false
      }
    ],
    "isTemplate": false,
    "count": 0,
    "updated": 0
  },
  {
    "id": "e7497bdb-5575-47b5-a36d-f355852135b2",
    "data": [
      {
        "text": "you are unemployed from ",
        "userDefined": false
      },
      {
        "text": "now",
        "meta": "@sys.ignore",
        "userDefined": false
      },
      {
        "text": " on",
        "userDefined": false
      }
    ],
    "isTemplate": false,
    "count": 0,
    "updated": 0
  },
  {
    "id": "5383ce6c-d734-46d0-90d8-11ff74e0d1ad",
    "data": [
      {
        "text": "you ",
        "userDefined": false
      },
      {
        "text": "don\u0027t",
        "meta": "@sys.ignore",
        "userDefined": false
      },
      {
        "text": " ",
        "userDefined": false
      },
      {
        "text": "work",
        "meta": "@sys.ignore",
        "userDefined": false
      },
      {
        "text": " for me anymore",
        "userDefined": false
      }
    ],
    "isTemplate": false,
    "count": 0,
    "updated": 0
  },
  {
    "id": "e114aa18-3cfd-43d5-ad3c-a902549a3172",
    "data": [
      {
        "text": "I ",
        "userDefined": false
      },
      {
        "text": "will",
        "meta": "@sys.ignore",
        "userDefined": false
      },
      {
        "text": " fire you",
        "userDefined": false
      }
    ],
    "isTemplate": false,
    "count": 0,
    "updated": 0
  },
  {
    "id": "fe9cf279-7f27-436b-8fc7-841da3183e0b",
    "data": [
      {
        "text": "we",
        "meta": "@sys.ignore",
        "userDefined": false
      },
      {
        "text": "\u0027re not working together anymore",
        "userDefined": false
      }
    ],
    "isTemplate": false,
    "count": 0,
    "updated": 0
  },
  {
    "id": "19782d51-0851-4702-8145-9f2218d31134",
    "data": [
      {
        "text": "you ",
        "userDefined": false
      },
      {
        "text": "are",
        "meta": "@sys.ignore",
        "userDefined": false
      },
      {
        "text": " fired",
        "userDefined": false
      }
    ],
    "isTemplate": false,
    "count": 0,
    "updated": 0
  },
  {
    "id": "66334df1-4bc9-49f4-bac8-946859379964",
    "data": [
      {
        "text": "I want to fire you",
        "userDefined": false
      }
    ],
    "isTemplate": false,
    "count": 0,
    "updated": 0
  },
  {
    "id": "1d5ae163-1c98-4161-a354-52e53f9eb9d2",
    "data": [
      {
        "text": "you ",
        "userDefined": false
      },
      {
        "text": "are",
        "meta": "@sys.ignore",
        "userDefined": false
      },
      {
        "text": " dismissed",
        "userDefined": false
      }
    ],
    "isTemplate": false,
    "count": 0,
    "updated": 0
  },
  {
    "id": "bd536f3c-277e-451c-a920-01818d0a4340",
    "data": [
      {
        "text": "you should be fired",
        "userDefined": false
      }
    ],
    "isTemplate": false,
    "count": 0,
    "updated": 0
  },
  {
    "id": "d6fca52b-62cd-4480-8f6a-d09ff34ff3d0",
    "data": [
      {
        "text": "I will make you unemployed",
        "userDefined": false
      }
    ],
    "isTemplate": false,
    "count": 0,
    "updated": 0
  },
  {
    "id": "9c073cf5-ab77-4e74-bfdb-b18cd3dec5d3",
    "data": [
      {
        "text": "I\u0027m about to fire you",
        "userDefined": false
      }
    ],
    "isTemplate": false,
    "count": 0,
    "updated": 0
  },
  {
    "id": "1ab7ece4-67b0-4627-8f7d-0b66720129e8",
    "data": [
      {
        "text": "I fire you",
        "userDefined": false
      }
    ],
    "isTemplate": false,
    "count": 0,
    "updated": 0
  },
  {
    "id": "a287fed9-94d0-4de7-b9b2-7cd9db8c7d7b",
    "data": [
      {
        "text": "you must ",
        "userDefined": false
      },
      {
        "text": "get",
        "meta": "@sys.ignore",
        "userDefined": false
      },
      {
        "text": " fired",
        "userDefined": false
      }
    ],
    "isTemplate": false,
    "count": 0,
    "updated": 0
  },
  {
    "id": "7ec0aeb7-5ec8-499e-9134-67d5b3934545",
    "data": [
      {
        "text": "I\u0027m firing you",
        "userDefined": false
      }
    ],
    "isTemplate": false,
    "count": 0,
    "updated": 0
  }
]