[
  {
    "id": "0ceabed9-fbdf-4f83-bb76-e7d05324a0db",
    "data": [
      {
        "text": "where is your ",
        "userDefined": false
      },
      {
        "text": "work",
        "meta": "@sys.ignore",
        "userDefined": false
      }
    ],
    "isTemplate": false,
    "count": 0,
    "updated": 0
  },
  {
    "id": "14b29ea8-77dc-41f6-a6ac-1777516ddd26",
    "data": [
      {
        "text": "do you work",
        "userDefined": false
      }
    ],
    "isTemplate": false,
    "count": 0,
    "updated": 0
  },
  {
    "id": "2af820ee-1f87-4298-969a-320f9df4ca0b",
    "data": [
      {
        "text": "where you ",
        "userDefined": false
      },
      {
        "text": "work",
        "meta": "@sys.ignore",
        "userDefined": false
      }
    ],
    "isTemplate": false,
    "count": 0,
    "updated": 0
  },
  {
    "id": "7883de70-c2b5-4d4d-942a-3f44c9df06c1",
    "data": [
      {
        "text": "where do you ",
        "userDefined": false
      },
      {
        "text": "work",
        "meta": "@sys.ignore",
        "userDefined": false
      }
    ],
    "isTemplate": false,
    "count": 0,
    "updated": 0
  },
  {
    "id": "57c21bcc-ba95-4952-a085-17224918899c",
    "data": [
      {
        "text": "where is ",
        "userDefined": false
      },
      {
        "text": "your",
        "meta": "@sys.ignore",
        "userDefined": false
      },
      {
        "text": " ",
        "userDefined": false
      },
      {
        "text": "office",
        "meta": "@sys.ignore",
        "userDefined": false
      },
      {
        "text": " located",
        "userDefined": false
      }
    ],
    "isTemplate": false,
    "count": 0,
    "updated": 0
  },
  {
    "id": "6d5e3e21-02e5-49f3-9a13-93491e845dd2",
    "data": [
      {
        "text": "where is your ",
        "userDefined": false
      },
      {
        "text": "office",
        "meta": "@sys.ignore",
        "userDefined": false
      }
    ],
    "isTemplate": false,
    "count": 0,
    "updated": 0
  },
  {
    "id": "95e6a65e-a3e0-48be-b414-182132fd06fc",
    "data": [
      {
        "text": "where is ",
        "userDefined": false
      },
      {
        "text": "your",
        "meta": "@sys.ignore",
        "userDefined": false
      },
      {
        "text": " ",
        "userDefined": false
      },
      {
        "text": "office",
        "meta": "@sys.ignore",
        "userDefined": false
      },
      {
        "text": " location",
        "userDefined": false
      }
    ],
    "isTemplate": false,
    "count": 0,
    "updated": 0
  },
  {
    "id": "f94adc15-47ea-4d65-981b-b44d44255137",
    "data": [
      {
        "text": "your",
        "meta": "@sys.ignore",
        "userDefined": false
      },
      {
        "text": " ",
        "userDefined": false
      },
      {
        "text": "office",
        "meta": "@sys.ignore",
        "userDefined": false
      },
      {
        "text": " location",
        "userDefined": false
      }
    ],
    "isTemplate": false,
    "count": 0,
    "updated": 0
  },
  {
    "id": "2bb9110f-8a2f-42bd-9d4a-31c650b1b5dc",
    "data": [
      {
        "text": "what is your work",
        "userDefined": false
      }
    ],
    "isTemplate": false,
    "count": 0,
    "updated": 0
  }
]