[
  {
    "value": "attraction park",
    "synonyms": [
      "attraction park"
    ]
  },
  {
    "value": "bike trail",
    "synonyms": [
      "bike trail",
      "biking"
    ]
  },
  {
    "value": "camping",
    "synonyms": [
      "campground",
      "camping",
      "camping pitch",
      "camping site",
      "campsite"
    ]
  },
  {
    "value": "dog park",
    "synonyms": [
      "dog park",
      "dog parks"
    ]
  },
  {
    "value": "dominos",
    "synonyms": [
      "domino",
      "dominos"
    ]
  },
  {
    "value": "park",
    "synonyms": [
      "national park",
      "national parks",
      "park",
      "parks"
    ]
  },
  {
    "value": "playground",
    "synonyms": [
      "playground"
    ]
  },
  {
    "value": "skate park",
    "synonyms": [
      "skate park",
      "skate parks"
    ]
  },
  {
    "value": "trampoline",
    "synonyms": [
      "trampoline",
      "trampoline park"
    ]
  },
  {
    "value": "water park",
    "synonyms": [
      "water park"
    ]
  },
  {
    "value": "zoos",
    "synonyms": [
      "zoo",
      "zoos"
    ]
  }
]