[
  {
    "value": "Burger shop",
    "synonyms": [
      "Burger shop"
    ]
  },
  {
    "value": "Tattoo Shops",
    "synonyms": [
      "Tattoo Shops"
    ]
  },
  {
    "value": "bookstore",
    "synonyms": [
      "book store",
      "book stores",
      "bookstore",
      "bookstores",
      "comic books"
    ]
  },
  {
    "value": "candy store",
    "synonyms": [
      "candy shop",
      "candy shops",
      "candy store",
      "candy stores",
      "chocolatiers shop",
      "chocolatiers shops"
    ]
  },
  {
    "value": "convenience store",
    "synonyms": [
      "convenience store",
      "convenience stores"
    ]
  },
  {
    "value": "cosmetics store",
    "synonyms": [
      "cosmetics beauty supply",
      "cosmetics shop",
      "cosmetics shops",
      "cosmetics store",
      "cosmetics stores"
    ]
  },
  {
    "value": "department store",
    "synonyms": [
      "department store",
      "department stores"
    ]
  },
  {
    "value": "discount store",
    "synonyms": [
      "discount store",
      "discount stores"
    ]
  },
  {
    "value": "electronics",
    "synonyms": [
      "electronics"
    ]
  },
  {
    "value": "furniture store",
    "synonyms": [
      "furniture store",
      "furniture stores"
    ]
  },
  {
    "value": "gift shop",
    "synonyms": [
      "gift shop",
      "gift shops"
    ]
  },
  {
    "value": "grocery store",
    "synonyms": [
      "grocery",
      "grocery shop",
      "grocery shops",
      "grocery store",
      "grocery stores"
    ]
  },
  {
    "value": "mall",
    "synonyms": [
      "mall",
      "malls"
    ]
  },
  {
    "value": "market",
    "synonyms": [
      "market",
      "markets"
    ]
  },
  {
    "value": "mattress discounters",
    "synonyms": [
      "mattress discounters"
    ]
  },
  {
    "value": "pet shop",
    "synonyms": [
      "pet shop",
      "pet shops"
    ]
  },
  {
    "value": "shop",
    "synonyms": [
      "shop",
      "shops"
    ]
  },
  {
    "value": "shopping center",
    "synonyms": [
      "shopping center",
      "shopping centers",
      "shopping store",
      "shopping stores"
    ]
  },
  {
    "value": "shopping malls",
    "synonyms": [
      "shopping malls"
    ]
  },
  {
    "value": "store",
    "synonyms": [
      "store",
      "stores"
    ]
  },
  {
    "value": "supermarket",
    "synonyms": [
      "supermarket",
      "supermarkets"
    ]
  },
  {
    "value": "tobacco shop",
    "synonyms": [
      "tobacco shop",
      "tobacco shops"
    ]
  },
  {
    "value": "toy store",
    "synonyms": [
      "toy store",
      "toy stores"
    ]
  }
]