[
  {
    "value": "billiards",
    "synonyms": [
      "billiards",
      "pool",
      "shoot pool"
    ]
  },
  {
    "value": "bowling",
    "synonyms": [
      "bowling"
    ]
  },
  {
    "value": "boxing",
    "synonyms": [
      "boxing",
      "boxing center",
      "boxing club"
    ]
  },
  {
    "value": "dance studio",
    "synonyms": [
      "dance",
      "dance club",
      "dance clubs",
      "dance studio",
      "dancing"
    ]
  },
  {
    "value": "fitness",
    "synonyms": [
      "fitness",
      "fitness center",
      "fitness club",
      "fitness clubs",
      "make sports"
    ]
  },
  {
    "value": "football stadium",
    "synonyms": [
      "football stadium",
      "football stadiums"
    ]
  },
  {
    "value": "gyms",
    "synonyms": [
      "gym",
      "gym center",
      "gym club",
      "gymnastics",
      "gyms"
    ]
  },
  {
    "value": "hip hop club",
    "synonyms": [
      "Hip Hop Club",
      "Hip Hop Clubs"
    ]
  },
  {
    "value": "paintball",
    "synonyms": [
      "paintball"
    ]
  },
  {
    "value": "pilates",
    "synonyms": [
      "pilates"
    ]
  },
  {
    "value": "salsa club",
    "synonyms": [
      "salsa club",
      "salsa clubs"
    ]
  },
  {
    "value": "stadium",
    "synonyms": [
      "stadium",
      "stadiums"
    ]
  },
  {
    "value": "swimming pool",
    "synonyms": [
      "swim",
      "swimming pool"
    ]
  },
  {
    "value": "yoga",
    "synonyms": [
      "do yoga",
      "yoga",
      "yoga center",
      "yoga club"
    ]
  }
]