{
  "id": "a1bd7c1e-eca7-45fd-b2f4-6e2dd9b3a34f",
  "name": "name.agent.spelling",
  "auto": true,
  "contexts": [],
  "responses": [
    {
      "resetContexts": false,
      "action": "name.agent.spelling",
      "affectedContexts": [],
      "parameters": [
        {
          "id": "757a3e1a-3706-4fe4-b04c-2738f0661aec",
          "required": false,
          "dataType": "@name-type",
          "name": "name-type",
          "value": "$name-type",
          "promptMessages": [],
          "noMatchPromptMessages": [],
          "noInputPromptMessages": [],
          "outputDialogContexts": [],
          "isList": false
        }
      ],
      "messages": [
        {
          "type": 0,
          "lang": "en",
          "condition": "",
          "speech": []
        }
      ],
      "defaultResponsePlatforms": {},
      "speech": []
    }
  ],
  "priority": 500000,
  "webhookUsed": false,
  "webhookForSlotFilling": false,
  "fallbackIntent": false,
  "events": [],
  "conditionalResponses": [],
  "condition": "",
  "conditionalFollowupEvents": []
}