[
  {
    "id": "03373afd-9d25-4101-9502-2f80cdde8b77",
    "data": [
      {
        "text": "how can I rename you",
        "userDefined": false
      }
    ],
    "isTemplate": false,
    "count": 0,
    "updated": 0
  },
  {
    "id": "7de64876-4292-4576-ac02-0c8d67550730",
    "data": [
      {
        "text": "I\u0027ll change your ",
        "userDefined": false
      },
      {
        "text": "first name",
        "alias": "type",
        "meta": "@name-type",
        "userDefined": true
      },
      {
        "text": " to ",
        "userDefined": false
      },
      {
        "text": "John",
        "alias": "given-name",
        "meta": "@sys.given-name",
        "userDefined": true
      }
    ],
    "isTemplate": false,
    "count": 0,
    "updated": 0
  },
  {
    "id": "7d88973c-ce28-4f2c-ad63-739728e23ada",
    "data": [
      {
        "text": "do you mind if I rename you",
        "userDefined": false
      }
    ],
    "isTemplate": false,
    "count": 1,
    "updated": 0
  },
  {
    "id": "2f1cf799-06f0-4542-84a9-1df31af23e72",
    "data": [
      {
        "text": "I\u0027d like to ",
        "userDefined": false
      },
      {
        "text": "give",
        "meta": "@sys.ignore",
        "userDefined": false
      },
      {
        "text": " you another name",
        "userDefined": false
      }
    ],
    "isTemplate": false,
    "count": 0,
    "updated": 0
  },
  {
    "id": "caa3369f-0ef3-42a9-9564-ef44d927bdbc",
    "data": [
      {
        "text": "change your name",
        "userDefined": false
      }
    ],
    "isTemplate": false,
    "count": 0,
    "updated": 0
  },
  {
    "id": "75848278-6f51-436b-8afe-0357f499a1c7",
    "data": [
      {
        "text": "would you like to change your name",
        "userDefined": false
      }
    ],
    "isTemplate": false,
    "count": 0,
    "updated": 0
  },
  {
    "id": "8a89c0d5-68c1-48e3-b1a4-4996ba92e4de",
    "data": [
      {
        "text": "do you mind if I change your name to ",
        "userDefined": false
      },
      {
        "text": "Peter",
        "alias": "given-name",
        "meta": "@sys.given-name",
        "userDefined": true
      }
    ],
    "isTemplate": false,
    "count": 0,
    "updated": 0
  },
  {
    "id": "7392f1c7-29af-4873-99d2-d2b607667460",
    "data": [
      {
        "text": "I\u0027d like to change your ",
        "userDefined": false
      },
      {
        "text": "first name",
        "alias": "type",
        "meta": "@name-type",
        "userDefined": true
      }
    ],
    "isTemplate": false,
    "count": 0,
    "updated": 0
  },
  {
    "id": "cf354eff-f5e8-4018-ac0c-21291cbb5d70",
    "data": [
      {
        "text": "I\u0027ll ",
        "userDefined": false
      },
      {
        "text": "give",
        "meta": "@sys.ignore",
        "userDefined": false
      },
      {
        "text": " you a different name",
        "userDefined": false
      }
    ],
    "isTemplate": false,
    "count": 0,
    "updated": 0
  },
  {
    "id": "076d553b-833c-4d24-9b4a-7516b9af12e1",
    "data": [
      {
        "text": "let\u0027s rename you",
        "userDefined": false
      }
    ],
    "isTemplate": false,
    "count": 1,
    "updated": 0
  },
  {
    "id": "35a69fca-f948-4761-b61c-58848e31bc4f",
    "data": [
      {
        "text": "let\u0027s give you a different name",
        "userDefined": false
      }
    ],
    "isTemplate": false,
    "count": 0,
    "updated": 0
  },
  {
    "id": "106b80ba-7360-41d6-9480-8797405175eb",
    "data": [
      {
        "text": "can I rename you",
        "userDefined": false
      }
    ],
    "isTemplate": false,
    "count": 0,
    "updated": 0
  },
  {
    "id": "9edef848-ab93-44b6-83a2-5be514937806",
    "data": [
      {
        "text": "I\u0027d like to change your name",
        "userDefined": false
      }
    ],
    "isTemplate": false,
    "count": 0,
    "updated": 0
  },
  {
    "id": "a4beb453-41b1-4598-a19d-f37abccef5ee",
    "data": [
      {
        "text": "I think you should change your ",
        "userDefined": false
      },
      {
        "text": "nickname",
        "alias": "type",
        "meta": "@name-type",
        "userDefined": true
      },
      {
        "text": " to ",
        "userDefined": false
      },
      {
        "text": "Wild",
        "alias": "nick-name",
        "meta": "@nick-name",
        "userDefined": true
      }
    ],
    "isTemplate": false,
    "count": 0,
    "updated": 0
  },
  {
    "id": "6d36fd2c-5d7b-4645-a87a-4e5a39f69810",
    "data": [
      {
        "text": "I want like to call you ",
        "userDefined": false
      },
      {
        "text": "Mike",
        "alias": "given-name",
        "meta": "@sys.given-name",
        "userDefined": true
      },
      {
        "text": " from now on",
        "userDefined": false
      }
    ],
    "isTemplate": false,
    "count": 0,
    "updated": 0
  },
  {
    "id": "ec45598a-2604-4aaf-8c19-0a9d9b0612ad",
    "data": [
      {
        "text": "how can I change your name to ",
        "userDefined": false
      },
      {
        "text": "Anna",
        "alias": "given-name",
        "meta": "@sys.given-name",
        "userDefined": true
      }
    ],
    "isTemplate": false,
    "count": 0,
    "updated": 0
  },
  {
    "id": "5b404292-81f9-42d3-8ce5-ab1b1dcb64b2",
    "data": [
      {
        "text": "change your name to ",
        "userDefined": false
      },
      {
        "text": "Sam",
        "alias": "given-name",
        "meta": "@sys.given-name",
        "userDefined": true
      }
    ],
    "isTemplate": false,
    "count": 0,
    "updated": 0
  },
  {
    "id": "4d4d8739-13a2-47a0-bea1-b63093dac792",
    "data": [
      {
        "text": "do you mind if I change your ",
        "userDefined": false
      },
      {
        "text": "surname",
        "alias": "type",
        "meta": "@name-type",
        "userDefined": true
      },
      {
        "text": " to ",
        "userDefined": false
      },
      {
        "text": "Johnson",
        "alias": "last-name",
        "meta": "@sys.last-name",
        "userDefined": true
      }
    ],
    "isTemplate": false,
    "count": 0,
    "updated": 0
  },
  {
    "id": "c4f6c1ea-009c-459c-b1f1-920acee8ed13",
    "data": [
      {
        "text": "can I change your ",
        "userDefined": false
      },
      {
        "text": "surname",
        "alias": "type",
        "meta": "@name-type",
        "userDefined": true
      },
      {
        "text": " to ",
        "userDefined": false
      },
      {
        "text": "Smith",
        "alias": "last-name",
        "meta": "@sys.last-name",
        "userDefined": true
      }
    ],
    "isTemplate": false,
    "count": 1,
    "updated": 0
  },
  {
    "id": "c6569f2b-c52f-4d00-aa76-2ff2b6a1becf",
    "data": [
      {
        "text": "I\u0027d like to change your ",
        "userDefined": false
      },
      {
        "text": "nickname",
        "alias": "type",
        "meta": "@name-type",
        "userDefined": true
      },
      {
        "text": " to ",
        "userDefined": false
      },
      {
        "text": "Bob",
        "alias": "nick-name",
        "meta": "@nick-name",
        "userDefined": true
      }
    ],
    "isTemplate": false,
    "count": 0,
    "updated": 0
  },
  {
    "id": "e5517d6f-cfd2-4637-aae3-12a0f67fdc6a",
    "data": [
      {
        "text": "I think you should change your ",
        "userDefined": false
      },
      {
        "text": "surname",
        "alias": "type",
        "meta": "@name-type",
        "userDefined": true
      }
    ],
    "isTemplate": false,
    "count": 0,
    "updated": 0
  },
  {
    "id": "d6937d42-a6d5-49c6-a70b-bceeafc9178d",
    "data": [
      {
        "text": "I\u0027ll change your name",
        "userDefined": false
      }
    ],
    "isTemplate": false,
    "count": 0,
    "updated": 0
  },
  {
    "id": "a1b101d1-432d-4b6d-82e5-a528951e0ff1",
    "data": [
      {
        "text": "how can I change your ",
        "userDefined": false
      },
      {
        "text": "nickname",
        "alias": "type",
        "meta": "@name-type",
        "userDefined": true
      }
    ],
    "isTemplate": false,
    "count": 1,
    "updated": 0
  },
  {
    "id": "00f25193-3fe3-4f3e-a90d-3e45b8b2cf0c",
    "data": [
      {
        "text": "how can I change your name",
        "userDefined": false
      }
    ],
    "isTemplate": false,
    "count": 0,
    "updated": 0
  },
  {
    "id": "4b04f7db-ab8c-4385-b72b-4d1fc3c83d48",
    "data": [
      {
        "text": "do you mind if I change your ",
        "userDefined": false
      },
      {
        "text": "last name",
        "alias": "type",
        "meta": "@name-type",
        "userDefined": true
      }
    ],
    "isTemplate": false,
    "count": 0,
    "updated": 0
  },
  {
    "id": "f4421f46-d2b0-4be5-84ad-c601e43108e5",
    "data": [
      {
        "text": "change your ",
        "userDefined": false
      },
      {
        "text": "last name",
        "alias": "type",
        "meta": "@name-type",
        "userDefined": true
      }
    ],
    "isTemplate": false,
    "count": 0,
    "updated": 0
  },
  {
    "id": "98c3c4dd-10ea-433e-9d41-7dae8fdda833",
    "data": [
      {
        "text": "can I change your ",
        "userDefined": false
      },
      {
        "text": "middle name",
        "alias": "type",
        "meta": "@name-type",
        "userDefined": true
      },
      {
        "text": " to ",
        "userDefined": false
      },
      {
        "text": "Maria",
        "alias": "given-name",
        "meta": "@sys.given-name",
        "userDefined": true
      }
    ],
    "isTemplate": false,
    "count": 0,
    "updated": 0
  },
  {
    "id": "5f5cbb6d-eb71-404d-b640-0f5ce4f2f8e0",
    "data": [
      {
        "text": "let\u0027s change your ",
        "userDefined": false
      },
      {
        "text": "last name",
        "alias": "type",
        "meta": "@name-type",
        "userDefined": true
      },
      {
        "text": " to ",
        "userDefined": false
      },
      {
        "text": "Green",
        "alias": "last-name",
        "meta": "@sys.last-name",
        "userDefined": true
      }
    ],
    "isTemplate": false,
    "count": 0,
    "updated": 0
  },
  {
    "id": "3d072f0e-b921-4ada-8658-55bad844619e",
    "data": [
      {
        "text": "where can I change your ",
        "userDefined": false
      },
      {
        "text": "middle name",
        "alias": "type",
        "meta": "@name-type",
        "userDefined": true
      },
      {
        "text": " to ",
        "userDefined": false
      },
      {
        "text": "Bee",
        "alias": "nick-name",
        "meta": "@nick-name",
        "userDefined": true
      }
    ],
    "isTemplate": false,
    "count": 1,
    "updated": 0
  },
  {
    "id": "7d5ea61c-b8e5-4907-8ff3-11372fc71bf2",
    "data": [
      {
        "text": "I\u0027ll rename you",
        "userDefined": false
      }
    ],
    "isTemplate": false,
    "count": 0,
    "updated": 0
  },
  {
    "id": "8839e901-856f-42d1-bd22-35fbd29fa3a3",
    "data": [
      {
        "text": "can I change your name",
        "userDefined": false
      }
    ],
    "isTemplate": false,
    "count": 0,
    "updated": 0
  },
  {
    "id": "e30e5675-ba62-4f86-a941-600fb48c0f35",
    "data": [
      {
        "text": "let\u0027s change your ",
        "userDefined": false
      },
      {
        "text": "nickname",
        "alias": "type",
        "meta": "@name-type",
        "userDefined": true
      }
    ],
    "isTemplate": false,
    "count": 0,
    "updated": 0
  },
  {
    "id": "73697add-1b44-443d-9ffa-33d603500a3b",
    "data": [
      {
        "text": "I think you should change your ",
        "userDefined": false
      },
      {
        "text": "nickname",
        "alias": "type",
        "meta": "@name-type",
        "userDefined": true
      },
      {
        "text": " to ",
        "userDefined": false
      },
      {
        "text": "Woo Woo",
        "alias": "nick-name",
        "meta": "@nick-name",
        "userDefined": true
      }
    ],
    "isTemplate": false,
    "count": 0,
    "updated": 0
  },
  {
    "id": "ecd0c482-53e5-42a2-b26d-fd0f1305c17a",
    "data": [
      {
        "text": "where can I change your name",
        "userDefined": false
      }
    ],
    "isTemplate": false,
    "count": 0,
    "updated": 0
  },
  {
    "id": "b8e9fc5e-51f4-4cfc-9dc3-9eee27f89029",
    "data": [
      {
        "text": "I\u0027ll change your ",
        "userDefined": false
      },
      {
        "text": "middle name",
        "alias": "type",
        "meta": "@name-type",
        "userDefined": true
      }
    ],
    "isTemplate": false,
    "count": 1,
    "updated": 0
  },
  {
    "id": "b56c544e-2ce9-4535-8858-8df11af61806",
    "data": [
      {
        "text": "I\u0027d like to rename you",
        "userDefined": false
      }
    ],
    "isTemplate": false,
    "count": 0,
    "updated": 0
  },
  {
    "id": "aa158d23-53da-4626-a141-33fdd242828d",
    "data": [
      {
        "text": "let\u0027s change your name",
        "userDefined": false
      }
    ],
    "isTemplate": false,
    "count": 0,
    "updated": 0
  },
  {
    "id": "d6521be1-2a34-4cb4-a3b7-eef53e291d3e",
    "data": [
      {
        "text": "do you mind if I ",
        "userDefined": false
      },
      {
        "text": "give",
        "meta": "@sys.ignore",
        "userDefined": false
      },
      {
        "text": " you a different name",
        "userDefined": false
      }
    ],
    "isTemplate": false,
    "count": 0,
    "updated": 0
  }
]