[
  {
    "value": "2 chainz",
    "synonyms": [
      "2 chainz"
    ]
  },
  {
    "value": "2NE1",
    "synonyms": [
      "2NE1"
    ]
  },
  {
    "value": "2PM",
    "synonyms": [
      "2PM"
    ]
  },
  {
    "value": "2Pacs",
    "synonyms": [
      "2Pacs"
    ]
  },
  {
    "value": "3 Doors Down",
    "synonyms": [
      "3 doors down"
    ]
  },
  {
    "value": "3OH!3",
    "synonyms": [
      " 3OH!3",
      "3OH 3"
    ]
  },
  {
    "value": "4Minute",
    "synonyms": [
      "4Minute"
    ]
  },
  {
    "value": "5dolls",
    "synonyms": [
      "5dolls"
    ]
  },
  {
    "value": "A Great Big World",
    "synonyms": [
      "A Great Big World"
    ]
  },
  {
    "value": "A Pink",
    "synonyms": [
      "A Pink"
    ]
  },
  {
    "value": "A-Jax",
    "synonyms": [
      " AJax",
      "A Jax"
    ]
  },
  {
    "value": "ABBA",
    "synonyms": [
      "a b b a",
      "abba"
    ]
  },
  {
    "value": "AC/DC",
    "synonyms": [
      " ac dc",
      "acdc"
    ]
  },
  {
    "value": "ACDC",
    "synonyms": [
      "ACDC"
    ]
  },
  {
    "value": "AWOLNATION",
    "synonyms": [
      "AWOLNATION"
    ]
  },
  {
    "value": "Aaron Carter",
    "synonyms": [
      "Aaron Carter"
    ]
  },
  {
    "value": "Ace of Base",
    "synonyms": [
      "Ace of Base"
    ]
  },
  {
    "value": "Adam Lambert",
    "synonyms": [
      "Adam Lambert"
    ]
  },
  {
    "value": "Aerosmith",
    "synonyms": [
      "Aerosmith"
    ]
  },
  {
    "value": "After School",
    "synonyms": [
      "After School"
    ]
  },
  {
    "value": "Agnes Carlson",
    "synonyms": [
      "Agnes Carlson"
    ]
  },
  {
    "value": "Akon",
    "synonyms": [
      "Akon"
    ]
  },
  {
    "value": "Alabama",
    "synonyms": [
      "Alabama"
    ]
  },
  {
    "value": "Alan Jackson",
    "synonyms": [
      "Alan Jackson"
    ]
  },
  {
    "value": "Alanis Morissette",
    "synonyms": [
      "Alanis Morissette"
    ]
  },
  {
    "value": "Alesso",
    "synonyms": [
      "Alesso"
    ]
  },
  {
    "value": "Alfons",
    "synonyms": [
      "Alfons"
    ]
  },
  {
    "value": "Alison Limerick",
    "synonyms": [
      "Alison Limerick"
    ]
  },
  {
    "value": "All Saints",
    "synonyms": [
      "All Saints"
    ]
  },
  {
    "value": "Almighty",
    "synonyms": [
      "Almighty"
    ]
  },
  {
    "value": "American analog set",
    "synonyms": [
      "American analog set"
    ]
  },
  {
    "value": "Anastacia",
    "synonyms": [
      "Anastacia"
    ]
  },
  {
    "value": "Andania Suri",
    "synonyms": [
      "Andania Suri"
    ]
  },
  {
    "value": "Aqua",
    "synonyms": [
      "Aqua"
    ]
  },
  {
    "value": "Arctic Monkeys",
    "synonyms": [
      "Arctic Monkeys"
    ]
  },
  {
    "value": "Ariana Grande",
    "synonyms": [
      "Ariana Grande"
    ]
  },
  {
    "value": "AronChupa",
    "synonyms": [
      "AronChupa"
    ]
  },
  {
    "value": "Ashley Tisdale",
    "synonyms": [
      "Ashley Tisdale"
    ]
  },
  {
    "value": "Avicii",
    "synonyms": [
      "Avicii"
    ]
  },
  {
    "value": "Avril Lavigne",
    "synonyms": [
      "Avril Lavigne"
    ]
  },
  {
    "value": "Axis of Awesome",
    "synonyms": [
      "Axis of Awesome"
    ]
  },
  {
    "value": "Ayushita",
    "synonyms": [
      "Ayushita"
    ]
  },
  {
    "value": "B.A.P",
    "synonyms": [
      " B A P",
      "BAP"
    ]
  },
  {
    "value": "B1A4",
    "synonyms": [
      "B1A4"
    ]
  },
  {
    "value": "BEAST",
    "synonyms": [
      "BEAST"
    ]
  },
  {
    "value": "Backstreet Boys",
    "synonyms": [
      "Backstreet Boys"
    ]
  },
  {
    "value": "Bananarama",
    "synonyms": [
      "Bananarama"
    ]
  },
  {
    "value": "Barbara Streisand",
    "synonyms": [
      "Barbara Streisand",
      "Barbra Streisand"
    ]
  },
  {
    "value": "Barry Manilow",
    "synonyms": [
      "Barry Manilow"
    ]
  },
  {
    "value": "Bart Baker",
    "synonyms": [
      " bartbaker",
      "bart baker"
    ]
  },
  {
    "value": "Bastille",
    "synonyms": [
      "Bastille"
    ]
  },
  {
    "value": "Bea Binene",
    "synonyms": [
      "Bea Binene"
    ]
  },
  {
    "value": "Beatles",
    "synonyms": [
      "Beatles"
    ]
  },
  {
    "value": "Bebe Rexha",
    "synonyms": [
      "Bebe Rexha"
    ]
  },
  {
    "value": "Becky G",
    "synonyms": [
      "Becky G"
    ]
  },
  {
    "value": "Bee Gees",
    "synonyms": [
      "Bee Gees"
    ]
  },
  {
    "value": "Bel Amour",
    "synonyms": [
      "Bel Amour"
    ]
  },
  {
    "value": "Beyonce",
    "synonyms": [
      "Beyonce",
      "Beyoncé"
    ]
  },
  {
    "value": "Biagio Antonacci",
    "synonyms": [
      "Biagio Antonacci"
    ]
  },
  {
    "value": "Big Sean",
    "synonyms": [
      "Big Sean"
    ]
  },
  {
    "value": "Big Time Rush",
    "synonyms": [
      "Big Time Rush"
    ]
  },
  {
    "value": "Billy Joel",
    "synonyms": [
      "Billy Joel"
    ]
  },
  {
    "value": "Billy Ocean",
    "synonyms": [
      "Billy Ocean"
    ]
  },
  {
    "value": "Bjork",
    "synonyms": [
      "Bjork"
    ]
  },
  {
    "value": "Black Veil Brides",
    "synonyms": [
      "Black Veil Brides"
    ]
  },
  {
    "value": "Block B",
    "synonyms": [
      "Block B"
    ]
  },
  {
    "value": "BoA",
    "synonyms": [
      "BoA"
    ]
  },
  {
    "value": "Bob Dylan",
    "synonyms": [
      "Bob Dylan"
    ]
  },
  {
    "value": "Bob Seger",
    "synonyms": [
      "Bob Seger"
    ]
  },
  {
    "value": "Bon Jovi",
    "synonyms": [
      "Bon Jovi"
    ]
  },
  {
    "value": "Booker T. \u0026 the M.G.\u0027s",
    "synonyms": [
      "Booker T. \u0026 the M.G.\u0027s"
    ]
  },
  {
    "value": "Booker T. \u0026 the M.G.’s",
    "synonyms": [
      "Booker T. \u0026 the M.G.’s"
    ]
  },
  {
    "value": "Boston",
    "synonyms": [
      "Boston"
    ]
  },
  {
    "value": "Boyz II Men",
    "synonyms": [
      "Boyz II Men"
    ]
  },
  {
    "value": "Brave Girls",
    "synonyms": [
      "Brave Girls"
    ]
  },
  {
    "value": "Britney Spears",
    "synonyms": [
      "Britney Spears"
    ]
  },
  {
    "value": "Brooks and Dunn",
    "synonyms": [
      "Brooks and Dunn"
    ]
  },
  {
    "value": "Brown Eyed Girls",
    "synonyms": [
      "Brown Eyed Girls"
    ]
  },
  {
    "value": "Bruce Springsteen",
    "synonyms": [
      "Bruce Springsteen"
    ]
  },
  {
    "value": "Bruno Mars",
    "synonyms": [
      "Bruno Mars"
    ]
  },
  {
    "value": "BtoB",
    "synonyms": [
      "BtoB"
    ]
  },
  {
    "value": "CHI CHI",
    "synonyms": [
      "CHI CHI"
    ]
  },
  {
    "value": "Callalily",
    "synonyms": [
      "Callalily"
    ]
  },
  {
    "value": "Calvin Harris",
    "synonyms": [
      "Calvin Harris"
    ]
  },
  {
    "value": "Capital Cities",
    "synonyms": [
      "Capital Cities"
    ]
  },
  {
    "value": "Carlos Santana",
    "synonyms": [
      " Santana",
      "Carlos Santana"
    ]
  },
  {
    "value": "Carly Rae Jepsen",
    "synonyms": [
      "Carly Rae Jepsen"
    ]
  },
  {
    "value": "Cascada",
    "synonyms": [
      "Cascada"
    ]
  },
  {
    "value": "CeCe",
    "synonyms": [
      "CeCe"
    ]
  },
  {
    "value": "Celine Dion",
    "synonyms": [
      "Celine Dion"
    ]
  },
  {
    "value": "Changing Faces",
    "synonyms": [
      "Changing Faces"
    ]
  },
  {
    "value": "Charli XCX",
    "synonyms": [
      "Charli XCX"
    ]
  },
  {
    "value": "Chayanne",
    "synonyms": [
      "Chayanne"
    ]
  },
  {
    "value": "Cher",
    "synonyms": [
      "Cher"
    ]
  },
  {
    "value": "Cher Lloyd",
    "synonyms": [
      "Cher Lloyd"
    ]
  },
  {
    "value": "Cheryl Cole",
    "synonyms": [
      "Cheryl Cole"
    ]
  },
  {
    "value": "Chicago",
    "synonyms": [
      "Chicago"
    ]
  },
  {
    "value": "Children Of Empire. See ZE.A",
    "synonyms": [
      " Children Of Empire See ZEA",
      "Children Of Empire See ZE A"
    ]
  },
  {
    "value": "Chocolat",
    "synonyms": [
      "Chocolat"
    ]
  },
  {
    "value": "Chris Brown",
    "synonyms": [
      "Chris Brown"
    ]
  },
  {
    "value": "Chris Brown and Rihanna",
    "synonyms": [
      "Chris Brown and Rihanna"
    ]
  },
  {
    "value": "Christina Aguilera",
    "synonyms": [
      "Christina Aguilera"
    ]
  },
  {
    "value": "Clean Bandit",
    "synonyms": [
      "Clean Bandit"
    ]
  },
  {
    "value": "Co-Ed School",
    "synonyms": [
      " CoEd School",
      "Co Ed School"
    ]
  },
  {
    "value": "Cobra Starship",
    "synonyms": [
      "Cobra Starship"
    ]
  },
  {
    "value": "Colby O\u0027Donis",
    "synonyms": [
      " Colby O Donis",
      "Colby ODonis"
    ]
  },
  {
    "value": "Coldplay",
    "synonyms": [
      "coldplay"
    ]
  },
  {
    "value": "Coleman Hell",
    "synonyms": [
      "Coleman Hell"
    ]
  },
  {
    "value": "Cool Kids",
    "synonyms": [
      "Cool Kids"
    ]
  },
  {
    "value": "CreedPost",
    "synonyms": [
      "CreedPost"
    ]
  },
  {
    "value": "Creedence Clearwater Revival",
    "synonyms": [
      "Creedence Clearwater Revival"
    ]
  },
  {
    "value": "DJ Sammy",
    "synonyms": [
      "DJ Sammy"
    ]
  },
  {
    "value": "DJ Snake",
    "synonyms": [
      "DJ Snake"
    ]
  },
  {
    "value": "Daft Punk",
    "synonyms": [
      "Daft Punk"
    ]
  },
  {
    "value": "Dal Shabet",
    "synonyms": [
      "Dal Shabet"
    ]
  },
  {
    "value": "Dannii Minogue",
    "synonyms": [
      "Dannii Minogue"
    ]
  },
  {
    "value": "Dave Matthews Band",
    "synonyms": [
      "Dave Matthews Band"
    ]
  },
  {
    "value": "David Bowie",
    "synonyms": [
      "Bowie",
      "David Bowie"
    ]
  },
  {
    "value": "David Guetta",
    "synonyms": [
      "David Guetta"
    ]
  },
  {
    "value": "Debbie Gibson",
    "synonyms": [
      "Debbie Gibson"
    ]
  },
  {
    "value": "Dee-Lite",
    "synonyms": [
      "Dee-Lite"
    ]
  },
  {
    "value": "Def Leppard",
    "synonyms": [
      "Def Leppard"
    ]
  },
  {
    "value": "Demi Lavato",
    "synonyms": [
      "Demi Lavato"
    ]
  },
  {
    "value": "Deorro",
    "synonyms": [
      "Deorro"
    ]
  },
  {
    "value": "Depeche Mode",
    "synonyms": [
      "Depeche Mode"
    ]
  },
  {
    "value": "Dev",
    "synonyms": [
      "Dev"
    ]
  },
  {
    "value": "Diamonds",
    "synonyms": [
      "Diamonds"
    ]
  },
  {
    "value": "Diana Vickers",
    "synonyms": [
      "Diana Vickers"
    ]
  },
  {
    "value": "Dima Bilan",
    "synonyms": [
      "Dima Bilan"
    ]
  },
  {
    "value": "Dire Straits",
    "synonyms": [
      "Dire Straits"
    ]
  },
  {
    "value": "Disclosure",
    "synonyms": [
      "Disclosure"
    ]
  },
  {
    "value": "Dixie Chicks",
    "synonyms": [
      "Dixie Chicks"
    ]
  },
  {
    "value": "Dr Dre",
    "synonyms": [
      "Dr Dre"
    ]
  },
  {
    "value": "Drake",
    "synonyms": [
      "Drake"
    ]
  },
  {
    "value": "Dream Street",
    "synonyms": [
      "Dream Street"
    ]
  },
  {
    "value": "Duran Duran",
    "synonyms": [
      "Duran Duran"
    ]
  },
  {
    "value": "EXID ",
    "synonyms": [
      "EXID"
    ]
  },
  {
    "value": "EXO-K",
    "synonyms": [
      "EXO-K"
    ]
  },
  {
    "value": "Eagles",
    "synonyms": [
      "Eagles"
    ]
  },
  {
    "value": "Earth Wind and Fire",
    "synonyms": [
      "Earth Wind and Fire"
    ]
  },
  {
    "value": "Echosmith",
    "synonyms": [
      "Echosmith"
    ]
  },
  {
    "value": "Ed Sheeran",
    "synonyms": [
      "Ed Sheeran"
    ]
  },
  {
    "value": "Eliza Pineda",
    "synonyms": [
      "Eliza Pineda"
    ]
  },
  {
    "value": "Ella Fitzgerald",
    "synonyms": [
      "Ella Fitzgerald"
    ]
  },
  {
    "value": "Ella Henderson",
    "synonyms": [
      "Ella Henderson"
    ]
  },
  {
    "value": "Ellie Goulding",
    "synonyms": [
      "Ellie Goulding"
    ]
  },
  {
    "value": "Elton John",
    "synonyms": [
      "Elton John"
    ]
  },
  {
    "value": "Elvis Presley",
    "synonyms": [
      "Elvis",
      "Elvis Presley"
    ]
  },
  {
    "value": "Emily Osment",
    "synonyms": [
      "Emily Osment"
    ]
  },
  {
    "value": "Eminem",
    "synonyms": [
      "Eminem"
    ]
  },
  {
    "value": "Empire of the Sun",
    "synonyms": [
      "Empire of the Sun"
    ]
  },
  {
    "value": "Enrique Iglesias",
    "synonyms": [
      "Enrique Iglesias"
    ]
  },
  {
    "value": "Enur",
    "synonyms": [
      "Enur"
    ]
  },
  {
    "value": "Enya",
    "synonyms": [
      "Enya"
    ]
  },
  {
    "value": "Erasure",
    "synonyms": [
      "Erasure"
    ]
  },
  {
    "value": "Eric Clapton",
    "synonyms": [
      "Eric Clapton"
    ]
  },
  {
    "value": "Eric Saade",
    "synonyms": [
      "Eric Saade"
    ]
  },
  {
    "value": "Etta James",
    "synonyms": [
      "Etta James"
    ]
  },
  {
    "value": "Eva Cassidy",
    "synonyms": [
      "Eva Cassidy"
    ]
  },
  {
    "value": "Eva Simons",
    "synonyms": [
      "Eva Simons"
    ]
  },
  {
    "value": "Faith Hill",
    "synonyms": [
      "Faith Hill"
    ]
  },
  {
    "value": "Fall Out Boy",
    "synonyms": [
      "Fall Out Boy"
    ]
  },
  {
    "value": "Family of the Year",
    "synonyms": [
      "Family of the Year"
    ]
  },
  {
    "value": "Fans of Jimmy Century",
    "synonyms": [
      "Fans of Jimmy Century"
    ]
  },
  {
    "value": "Fedez",
    "synonyms": [
      "Fedez"
    ]
  },
  {
    "value": "Fergie",
    "synonyms": [
      "Fergie"
    ]
  },
  {
    "value": "Fetty Wap",
    "synonyms": [
      "Fetty Wap"
    ]
  },
  {
    "value": "Fifth Harmony",
    "synonyms": [
      "Fifth Harmony"
    ]
  },
  {
    "value": "Five Finger Death Punch",
    "synonyms": [
      "Five Finger Death Punch"
    ]
  },
  {
    "value": "Fleetwood Mac",
    "synonyms": [
      "Fleetwood Mac"
    ]
  },
  {
    "value": "Flo Rida",
    "synonyms": [
      "Flo Rida"
    ]
  },
  {
    "value": "Florrie",
    "synonyms": [
      "Florrie"
    ]
  },
  {
    "value": "Foo Fighters",
    "synonyms": [
      "Foo Fighters"
    ]
  },
  {
    "value": "Foreigner",
    "synonyms": [
      "Foreigner"
    ]
  },
  {
    "value": "Foster the People",
    "synonyms": [
      "Foster the People"
    ]
  },
  {
    "value": "Frank Sinatra",
    "synonyms": [
      "Frank Sinatra"
    ]
  },
  {
    "value": "Françoise Hardy",
    "synonyms": [
      "Françoise Hardy"
    ]
  },
  {
    "value": "Futurecop!",
    "synonyms": [
      "Futurecop"
    ]
  },
  {
    "value": "G.NA",
    "synonyms": [
      " GNA",
      "G NA"
    ]
  },
  {
    "value": "G.R.L",
    "synonyms": [
      "G.R.L",
      "GRL"
    ]
  },
  {
    "value": "GP Basic",
    "synonyms": [
      "GP Basic"
    ]
  },
  {
    "value": "Galantis",
    "synonyms": [
      "Galantis"
    ]
  },
  {
    "value": "Garth Brooks",
    "synonyms": [
      "Garth Brooks"
    ]
  },
  {
    "value": "George Ezra",
    "synonyms": [
      "George Ezra"
    ]
  },
  {
    "value": "George Michael",
    "synonyms": [
      "George Michael"
    ]
  },
  {
    "value": "George Strait",
    "synonyms": [
      "George Strait"
    ]
  },
  {
    "value": "Girl\u0027s Day",
    "synonyms": [
      " Girls Day",
      "Girl s Day"
    ]
  },
  {
    "value": "Girls\u0027 Generation",
    "synonyms": [
      "Girls Generation"
    ]
  },
  {
    "value": "Gloria Gaynor",
    "synonyms": [
      "Gaynor",
      "Gloria Gaynor"
    ]
  },
  {
    "value": "Goldfrapp",
    "synonyms": [
      "Goldfrapp"
    ]
  },
  {
    "value": "Green Day",
    "synonyms": [
      "Green Day"
    ]
  },
  {
    "value": "Guns N Roses",
    "synonyms": [
      "Guns N Roses"
    ]
  },
  {
    "value": "Guns N\u0027 Roses",
    "synonyms": [
      " Guns N Roses",
      "Guns and Roses"
    ]
  },
  {
    "value": "Gwen Stefani",
    "synonyms": [
      "Gwen Stefani"
    ]
  },
  {
    "value": "Hans Zimmer",
    "synonyms": [
      "Hans Zimmer"
    ]
  },
  {
    "value": "Hanson and Davis",
    "synonyms": [
      "Hanson and Davis"
    ]
  },
  {
    "value": "Hasse Andersson",
    "synonyms": [
      "Hasse Andersson"
    ]
  },
  {
    "value": "Havana Brown",
    "synonyms": [
      "Havana Brown"
    ]
  },
  {
    "value": "Heart",
    "synonyms": [
      "Heart"
    ]
  },
  {
    "value": "Hilary Duff",
    "synonyms": [
      "Hilary Duff"
    ]
  },
  {
    "value": "Hiromi",
    "synonyms": [
      "Hiromi"
    ]
  },
  {
    "value": "Holly Valance",
    "synonyms": [
      "Holly Valance"
    ]
  },
  {
    "value": "Hozier",
    "synonyms": [
      "Hozier"
    ]
  },
  {
    "value": "I LOVE MAKONNEN",
    "synonyms": [
      "I LOVE MAKONNEN"
    ]
  },
  {
    "value": "Icona Pop",
    "synonyms": [
      "Icona Pop"
    ]
  },
  {
    "value": "Iggy Azalea",
    "synonyms": [
      "Iggy Azalea"
    ]
  },
  {
    "value": "Iggy Pop",
    "synonyms": [
      "Iggy Pop"
    ]
  },
  {
    "value": "Imagine Dragons",
    "synonyms": [
      "Imagine Dragons"
    ]
  },
  {
    "value": "Infinite",
    "synonyms": [
      "Infinite"
    ]
  },
  {
    "value": "Inna",
    "synonyms": [
      "Inna"
    ]
  },
  {
    "value": "J Balvin",
    "synonyms": [
      "J Balvin"
    ]
  },
  {
    "value": "J Balvin",
    "synonyms": [
      "J Balvin"
    ]
  },
  {
    "value": "JAY Z",
    "synonyms": [
      "JAY Z"
    ]
  },
  {
    "value": "JC Chasez",
    "synonyms": [
      "JC Chasez"
    ]
  },
  {
    "value": "JLS",
    "synonyms": [
      "JLS"
    ]
  },
  {
    "value": "JYJ",
    "synonyms": [
      "JYJ"
    ]
  },
  {
    "value": "Jack Johnson",
    "synonyms": [
      "Jack Johnson"
    ]
  },
  {
    "value": "Jack and Jack",
    "synonyms": [
      "Jack and Jack"
    ]
  },
  {
    "value": "Jack Ü",
    "synonyms": [
      "Jack Ü"
    ]
  },
  {
    "value": "Jackie Wilson",
    "synonyms": [
      "Jackie Wilson"
    ]
  },
  {
    "value": "Jaco Pastorius",
    "synonyms": [
      "Jaco Pastorius",
      "Jaco Pistorius"
    ]
  },
  {
    "value": "James Arthur",
    "synonyms": [
      "James Arthur"
    ]
  },
  {
    "value": "James Bay",
    "synonyms": [
      "James Bay"
    ]
  },
  {
    "value": "James Taylor",
    "synonyms": [
      "James Taylor"
    ]
  },
  {
    "value": "Jane Oineza",
    "synonyms": [
      "Jane Oineza"
    ]
  },
  {
    "value": "Janet Jackson",
    "synonyms": [
      "Janet Jackson"
    ]
  },
  {
    "value": "Jasmine V",
    "synonyms": [
      "Jasmine V"
    ]
  },
  {
    "value": "Jason Derulo",
    "synonyms": [
      "Jason Derulo"
    ]
  },
  {
    "value": "Jason Mraz",
    "synonyms": [
      "Jason Mraz"
    ]
  },
  {
    "value": "Jay Sean",
    "synonyms": [
      "Jay Sean"
    ]
  },
  {
    "value": "Jay-Z",
    "synonyms": [
      " Jay Z",
      " JayZ",
      "Jay-Z"
    ]
  },
  {
    "value": "Jennifer Lopez",
    "synonyms": [
      "Jennifer Lopez"
    ]
  },
  {
    "value": "Jeremih",
    "synonyms": [
      "Jeremih"
    ]
  },
  {
    "value": "Jesse McCartney",
    "synonyms": [
      "Jesse McCartney"
    ]
  },
  {
    "value": "Jessica Sutta",
    "synonyms": [
      "Jessica Sutta"
    ]
  },
  {
    "value": "Jessie J",
    "synonyms": [
      "Jessie J"
    ]
  },
  {
    "value": "Jewelry",
    "synonyms": [
      "Jewelry"
    ]
  },
  {
    "value": "Jim Carrey",
    "synonyms": [
      "Jim Carrey"
    ]
  },
  {
    "value": "Jimi Hendrix",
    "synonyms": [
      "Jimi Hendrix"
    ]
  },
  {
    "value": "Jimmy Buffett",
    "synonyms": [
      "Jimmy Buffett"
    ]
  },
  {
    "value": "Jody Watley",
    "synonyms": [
      "Jody Watley"
    ]
  },
  {
    "value": "Joe Satriani",
    "synonyms": [
      "Joe Satriani"
    ]
  },
  {
    "value": "John Denver",
    "synonyms": [
      "John Denver"
    ]
  },
  {
    "value": "John Legend",
    "synonyms": [
      "John Legend"
    ]
  },
  {
    "value": "John Lennon",
    "synonyms": [
      "John Lennon",
      "Lennon"
    ]
  },
  {
    "value": "John Mayer",
    "synonyms": [
      "John Mayer"
    ]
  },
  {
    "value": "John Mellencamp",
    "synonyms": [
      "John Mellencamp"
    ]
  },
  {
    "value": "Jon Henrik Fjällgren",
    "synonyms": [
      "Jon Henrik Fjällgren"
    ]
  },
  {
    "value": "Jordin Sparks",
    "synonyms": [
      "Jordin Sparks"
    ]
  },
  {
    "value": "Journey",
    "synonyms": [
      "Journey"
    ]
  },
  {
    "value": "Joy Division",
    "synonyms": [
      "Joy Division"
    ]
  },
  {
    "value": "Julia Barretto",
    "synonyms": [
      "Julia Barretto"
    ]
  },
  {
    "value": "Julia Montes",
    "synonyms": [
      "Julia Montes"
    ]
  },
  {
    "value": "Julia Othmer",
    "synonyms": [
      "Julia Othmer"
    ]
  },
  {
    "value": "Julio Iglesias",
    "synonyms": [
      "Julio Iglesias"
    ]
  },
  {
    "value": "Justin Bieber",
    "synonyms": [
      " Justin Bieber",
      "Bieber"
    ]
  },
  {
    "value": "Justin Timberlake",
    "synonyms": [
      "Justin Timberlake"
    ]
  },
  {
    "value": "KARA",
    "synonyms": [
      "KARA"
    ]
  },
  {
    "value": "Kanye West",
    "synonyms": [
      "Kanye West"
    ]
  },
  {
    "value": "Karmin",
    "synonyms": [
      "Karmin"
    ]
  },
  {
    "value": "Kat Dahlia",
    "synonyms": [
      "Kat Dahlia"
    ]
  },
  {
    "value": "Kat Graham",
    "synonyms": [
      "Kat Graham"
    ]
  },
  {
    "value": "Kate Ryan",
    "synonyms": [
      "Kate Ryan"
    ]
  },
  {
    "value": "Kathryn Bernardo",
    "synonyms": [
      "Kathryn Bernardo"
    ]
  },
  {
    "value": "Katy B",
    "synonyms": [
      "Katy B"
    ]
  },
  {
    "value": "Katy Perry",
    "synonyms": [
      "Katy Perry"
    ]
  },
  {
    "value": "Keith Sweat",
    "synonyms": [
      "Keith Sweat"
    ]
  },
  {
    "value": "Kelly Clarkson",
    "synonyms": [
      "Kelly Clarkson"
    ]
  },
  {
    "value": "Kenny Chesney",
    "synonyms": [
      "Kenny Chesney"
    ]
  },
  {
    "value": "Kenny G",
    "synonyms": [
      "Kenny G"
    ]
  },
  {
    "value": "Kenny Rogers",
    "synonyms": [
      "Kenny Rogers"
    ]
  },
  {
    "value": "Kesha",
    "synonyms": [
      "Kesha"
    ]
  },
  {
    "value": "Kid",
    "synonyms": [
      "Kid"
    ]
  },
  {
    "value": "Kids United",
    "synonyms": [
      "Kids United"
    ]
  },
  {
    "value": "Kleerup",
    "synonyms": [
      "Kleerup"
    ]
  },
  {
    "value": "Kristel Fulgar",
    "synonyms": [
      "Kristel Fulgar"
    ]
  },
  {
    "value": "Kwabs",
    "synonyms": [
      "Kwabs"
    ]
  },
  {
    "value": "Kwanza Jones",
    "synonyms": [
      "Kwanza Jones"
    ]
  },
  {
    "value": "Kygo",
    "synonyms": [
      "Kygo"
    ]
  },
  {
    "value": "Kygo",
    "synonyms": [
      "Kygo"
    ]
  },
  {
    "value": "Kylie Minogue",
    "synonyms": [
      "Kylie Minogue"
    ]
  },
  {
    "value": "Lady Gaga",
    "synonyms": [
      "Gaga",
      "Lady Gaga"
    ]
  },
  {
    "value": "Laura Pausini",
    "synonyms": [
      "Laura Pausini"
    ]
  },
  {
    "value": "Led Apple",
    "synonyms": [
      "Led Apple"
    ]
  },
  {
    "value": "Led Zeppelin",
    "synonyms": [
      "Led Zeppelin"
    ]
  },
  {
    "value": "Lil Mama",
    "synonyms": [
      "Lil Mama"
    ]
  },
  {
    "value": "Lilly Wood and The Prick",
    "synonyms": [
      "Lilly Wood and The Prick"
    ]
  },
  {
    "value": "Linda Ronstadt",
    "synonyms": [
      "Linda Ronstadt"
    ]
  },
  {
    "value": "Lionel Richie",
    "synonyms": [
      "Lionel Richie"
    ]
  },
  {
    "value": "Lisa Stansfield",
    "synonyms": [
      "Lisa Stansfield"
    ]
  },
  {
    "value": "Little Mix",
    "synonyms": [
      "Little Mix"
    ]
  },
  {
    "value": "Lorde",
    "synonyms": [
      "Lorde"
    ]
  },
  {
    "value": "Lost Frequencies",
    "synonyms": [
      "Lost Frequencies"
    ]
  },
  {
    "value": "Louis Armstrong",
    "synonyms": [
      "Louis Armstrong"
    ]
  },
  {
    "value": "Luther Vandross",
    "synonyms": [
      "Luther Vandross"
    ]
  },
  {
    "value": "Lynyrd SkynyrdSouthern",
    "synonyms": [
      "Lynyrd SkynyrdSouthern"
    ]
  },
  {
    "value": "MAGIC!",
    "synonyms": [
      "MAGIC!"
    ]
  },
  {
    "value": "MBLAQ",
    "synonyms": [
      "MBLAQ"
    ]
  },
  {
    "value": "MKTO",
    "synonyms": [
      "MKTO"
    ]
  },
  {
    "value": "MYNAME",
    "synonyms": [
      "MYNAME"
    ]
  },
  {
    "value": "Macklemore",
    "synonyms": [
      "Macklemore"
    ]
  },
  {
    "value": "Macklemore and Ryan Lewis",
    "synonyms": [
      "Macklemore and Ryan Lewis"
    ]
  },
  {
    "value": "Madonna",
    "synonyms": [
      "Madonna"
    ]
  },
  {
    "value": "Maitre Gims",
    "synonyms": [
      "Maitre Gims"
    ]
  },
  {
    "value": "Major Lazer",
    "synonyms": [
      "Major Lazer"
    ]
  },
  {
    "value": "Mamas Gun",
    "synonyms": [
      "Mamas Gun"
    ]
  },
  {
    "value": "Mannheim Steamroller",
    "synonyms": [
      "Mannheim Steamroller"
    ]
  },
  {
    "value": "Manolo García",
    "synonyms": [
      "Manolo García"
    ]
  },
  {
    "value": "Manuel Carrasco",
    "synonyms": [
      "Manuel Carrasco"
    ]
  },
  {
    "value": "Marc Anthony",
    "synonyms": [
      "Marc Anthony"
    ]
  },
  {
    "value": "Marco Mengoni",
    "synonyms": [
      "Marco Mengoni"
    ]
  },
  {
    "value": "Mariah Carey",
    "synonyms": [
      "Mariah Carey"
    ]
  },
  {
    "value": "Mark Ronson",
    "synonyms": [
      "Mark Ronson"
    ]
  },
  {
    "value": "Marlon Roudette",
    "synonyms": [
      "Marlon Roudette"
    ]
  },
  {
    "value": "Maroon 5",
    "synonyms": [
      " Maroon 5",
      " Maroon Five",
      "Maroon V"
    ]
  },
  {
    "value": "Maroon 5",
    "synonyms": [
      "Maroon 5"
    ]
  },
  {
    "value": "Martin Garrix",
    "synonyms": [
      "Martin Garrix"
    ]
  },
  {
    "value": "Matoma",
    "synonyms": [
      "Matoma"
    ]
  },
  {
    "value": "McClain",
    "synonyms": [
      "McClain"
    ]
  },
  {
    "value": "Meghan Trainor",
    "synonyms": [
      "Megan trainer",
      "Meghan Trainor"
    ]
  },
  {
    "value": "Metallica",
    "synonyms": [
      "Metallica"
    ]
  },
  {
    "value": "Michael Bolton",
    "synonyms": [
      "Michael Bolton"
    ]
  },
  {
    "value": "Michael Jackson",
    "synonyms": [
      " Michael Jackson",
      "MJ"
    ]
  },
  {
    "value": "Mika",
    "synonyms": [
      "Mika"
    ]
  },
  {
    "value": "Mike Posner",
    "synonyms": [
      "Mike Posner"
    ]
  },
  {
    "value": "Miles Ocampo",
    "synonyms": [
      "Miles Ocampo"
    ]
  },
  {
    "value": "Miley Cyrus",
    "synonyms": [
      "Miley Cyrus"
    ]
  },
  {
    "value": "Milky Chance",
    "synonyms": [
      "Milky Chance"
    ]
  },
  {
    "value": "Mindless Behavior",
    "synonyms": [
      "Mindless Behavior"
    ]
  },
  {
    "value": "Mindless Self Indulgence",
    "synonyms": [
      " Mindless Self Indulgence",
      "MSI"
    ]
  },
  {
    "value": "Miranda Cosgrove",
    "synonyms": [
      "Miranda Cosgrove"
    ]
  },
  {
    "value": "Moby",
    "synonyms": [
      "Moby"
    ]
  },
  {
    "value": "Modern Talking",
    "synonyms": [
      "Modern Talking"
    ]
  },
  {
    "value": "Momoiro Clover Z",
    "synonyms": [
      "Momoiro Clover Z"
    ]
  },
  {
    "value": "Mr Probz",
    "synonyms": [
      "Mr Probz"
    ]
  },
  {
    "value": "Mr Probz",
    "synonyms": [
      "Mr Probz"
    ]
  },
  {
    "value": "Mumford and Sons",
    "synonyms": [
      "Mumford and Sons"
    ]
  },
  {
    "value": "Muse",
    "synonyms": [
      "Muse"
    ]
  },
  {
    "value": "Måns Zelmerlöw",
    "synonyms": [
      "Måns Zelmerlöw"
    ]
  },
  {
    "value": "Mötley Crüe",
    "synonyms": [
      "Mötley Crüe"
    ]
  },
  {
    "value": "N Sync",
    "synonyms": [
      "N Sync"
    ]
  },
  {
    "value": "NSYNC",
    "synonyms": [
      "NSYNC"
    ]
  },
  {
    "value": "NU’EST",
    "synonyms": [
      "NU’EST"
    ]
  },
  {
    "value": "Namika",
    "synonyms": [
      "Namika"
    ]
  },
  {
    "value": "Natalie La Rose",
    "synonyms": [
      "Natalie La Rose"
    ]
  },
  {
    "value": "Ne-Yo",
    "synonyms": [
      " NeYo",
      "Ne Yo"
    ]
  },
  {
    "value": "Ne-Yo",
    "synonyms": [
      "Ne-Yo"
    ]
  },
  {
    "value": "Neil Diamond",
    "synonyms": [
      "Neil Diamond"
    ]
  },
  {
    "value": "Nelly Furtado",
    "synonyms": [
      "Nelly Furtado"
    ]
  },
  {
    "value": "Neon Hitch",
    "synonyms": [
      "Neon Hitch"
    ]
  },
  {
    "value": "New kids on the block",
    "synonyms": [
      "New kids on the block"
    ]
  },
  {
    "value": "Nick Carter",
    "synonyms": [
      "Nick Carter"
    ]
  },
  {
    "value": "Nick Jonas",
    "synonyms": [
      "Nick Jonas"
    ]
  },
  {
    "value": "Nicki Minaj",
    "synonyms": [
      "Nicki Minaj"
    ]
  },
  {
    "value": "Nicky Jam",
    "synonyms": [
      "Nicky Jam"
    ]
  },
  {
    "value": "Nicky Jam and Enrique Iglesias",
    "synonyms": [
      "Nicky Jam and Enrique Iglesias"
    ]
  },
  {
    "value": "Nico \u0026 Vinz",
    "synonyms": [
      "Nico \u0026 Vinz",
      "Nico Vinz",
      "Nico and Vinz"
    ]
  },
  {
    "value": "Nico and Vinz",
    "synonyms": [
      "Nico and Vinz"
    ]
  },
  {
    "value": "Nicole Scherzinger",
    "synonyms": [
      "Nicole Scherzinger"
    ]
  },
  {
    "value": "Nine Muses",
    "synonyms": [
      "Nine Muses"
    ]
  },
  {
    "value": "Nirvana",
    "synonyms": [
      "Nirvana"
    ]
  },
  {
    "value": "Nu Shooz",
    "synonyms": [
      "Nu Shooz"
    ]
  },
  {
    "value": "OMI",
    "synonyms": [
      "OMI"
    ]
  },
  {
    "value": "OT Genasis",
    "synonyms": [
      "OT Genasis"
    ]
  },
  {
    "value": "Oasis",
    "synonyms": [
      "Oasis"
    ]
  },
  {
    "value": "Olly Murs",
    "synonyms": [
      "Olly Murs"
    ]
  },
  {
    "value": "Olly Murs",
    "synonyms": [
      "Olly Murs"
    ]
  },
  {
    "value": "Omarion",
    "synonyms": [
      "Omarion"
    ]
  },
  {
    "value": "One Direction",
    "synonyms": [
      "One Direction"
    ]
  },
  {
    "value": "OneRepublic",
    "synonyms": [
      "OneRepublic"
    ]
  },
  {
    "value": "Orange Caramel",
    "synonyms": [
      "Orange Caramel"
    ]
  },
  {
    "value": "OutKast",
    "synonyms": [
      "OutKast"
    ]
  },
  {
    "value": "Outasight",
    "synonyms": [
      "Outasight"
    ]
  },
  {
    "value": "Ozzy Osbourne",
    "synonyms": [
      "Ozzy",
      "Ozzy Osbourne"
    ]
  },
  {
    "value": "P!nk",
    "synonyms": [
      "P!nk"
    ]
  },
  {
    "value": "Paris Hilton",
    "synonyms": [
      "Paris Hilton"
    ]
  },
  {
    "value": "Passenger",
    "synonyms": [
      "Passenger"
    ]
  },
  {
    "value": "Paul McCartney",
    "synonyms": [
      "Paul McCartney"
    ]
  },
  {
    "value": "Paula Abdul",
    "synonyms": [
      "Paula Abdul"
    ]
  },
  {
    "value": "Pearl Jam",
    "synonyms": [
      "Pearl Jam"
    ]
  },
  {
    "value": "Pet Shop Boys",
    "synonyms": [
      "Pet Shop Boys"
    ]
  },
  {
    "value": "Peter Andre",
    "synonyms": [
      "Peter Andre"
    ]
  },
  {
    "value": "Pharrell Williams",
    "synonyms": [
      "Pharrell Williams"
    ]
  },
  {
    "value": "Phil Collins",
    "synonyms": [
      "Phil Collins"
    ]
  },
  {
    "value": "Philip George",
    "synonyms": [
      "Philip George"
    ]
  },
  {
    "value": "Pink",
    "synonyms": [
      "Pink"
    ]
  },
  {
    "value": "Pink Floyd",
    "synonyms": [
      "Pink Floyd"
    ]
  },
  {
    "value": "Pitbull",
    "synonyms": [
      "Pitbull"
    ]
  },
  {
    "value": "Prince",
    "synonyms": [
      "Prince"
    ]
  },
  {
    "value": "Queen",
    "synonyms": [
      "Queen"
    ]
  },
  {
    "value": "Queensberry",
    "synonyms": [
      "Queensberry"
    ]
  },
  {
    "value": "R Kelly",
    "synonyms": [
      "R Kelly"
    ]
  },
  {
    "value": "R.E.M.",
    "synonyms": [
      "R.E.M.",
      "REM",
      "rem"
    ]
  },
  {
    "value": "Rae Sremmurd",
    "synonyms": [
      "Rae Sremmurd"
    ]
  },
  {
    "value": "Randy Jackson",
    "synonyms": [
      "Randy Jackson"
    ]
  },
  {
    "value": "Reba McEntire",
    "synonyms": [
      "Reba McEntire"
    ]
  },
  {
    "value": "Red Hot Chili Peppers",
    "synonyms": [
      "Red Hot Chili Peppers"
    ]
  },
  {
    "value": "Regina Spektor",
    "synonyms": [
      "Regina Spektor"
    ]
  },
  {
    "value": "Rick Astley",
    "synonyms": [
      "Rick Astley"
    ]
  },
  {
    "value": "Ricky Martin",
    "synonyms": [
      "Ricky Martin"
    ]
  },
  {
    "value": "Rihanna",
    "synonyms": [
      "Rihanna"
    ]
  },
  {
    "value": "Rita Ora",
    "synonyms": [
      "Rita Ora"
    ]
  },
  {
    "value": "Robbie Williams",
    "synonyms": [
      "Robbie Williams"
    ]
  },
  {
    "value": "Robin Schulz",
    "synonyms": [
      "Robin Schulz"
    ]
  },
  {
    "value": "Robin Thicke",
    "synonyms": [
      "Robin Thicke"
    ]
  },
  {
    "value": "Rod Stewart",
    "synonyms": [
      "Rod Stewart"
    ]
  },
  {
    "value": "Rolling Stones",
    "synonyms": [
      " Rolling Stone",
      " Rolling Stones",
      "Rolling Stone s"
    ]
  },
  {
    "value": "Ronnie Dunn",
    "synonyms": [
      "Ronnie Dunn"
    ]
  },
  {
    "value": "Roxette",
    "synonyms": [
      "Roxette"
    ]
  },
  {
    "value": "Rush",
    "synonyms": [
      "Rush"
    ]
  },
  {
    "value": "Ryan Lewis",
    "synonyms": [
      "Ryan Lewis"
    ]
  },
  {
    "value": "S Club 7",
    "synonyms": [
      "S Club 7"
    ]
  },
  {
    "value": "S Club 8",
    "synonyms": [
      "S Club 8"
    ]
  },
  {
    "value": "SHINee",
    "synonyms": [
      "SHINee"
    ]
  },
  {
    "value": "SNBRN",
    "synonyms": [
      "SNBRN"
    ]
  },
  {
    "value": "SS501",
    "synonyms": [
      "SS501"
    ]
  },
  {
    "value": "Sade",
    "synonyms": [
      "Sade"
    ]
  },
  {
    "value": "Sam Smith",
    "synonyms": [
      "Sam Smith"
    ]
  },
  {
    "value": "Samantha Cole",
    "synonyms": [
      "Samantha Cole"
    ]
  },
  {
    "value": "Samir and Viktor",
    "synonyms": [
      "Samir and Viktor"
    ]
  },
  {
    "value": "SantanaMexico",
    "synonyms": [
      "SantanaMexico"
    ]
  },
  {
    "value": "Sean Paul",
    "synonyms": [
      "Sean Paul"
    ]
  },
  {
    "value": "Selena",
    "synonyms": [
      "Selena"
    ]
  },
  {
    "value": "Selena Gomez",
    "synonyms": [
      "Selena Gomez",
      "Selena Gomeze"
    ]
  },
  {
    "value": "Shakira",
    "synonyms": [
      "Shakira"
    ]
  },
  {
    "value": "Shania Twain",
    "synonyms": [
      "Shania Twain"
    ]
  },
  {
    "value": "Sheppard",
    "synonyms": [
      "Sheppard"
    ]
  },
  {
    "value": "Sher",
    "synonyms": [
      "Sher"
    ]
  },
  {
    "value": "Shinhwa",
    "synonyms": [
      "Shinhwa"
    ]
  },
  {
    "value": "Sia",
    "synonyms": [
      "Sia"
    ]
  },
  {
    "value": "Sido",
    "synonyms": [
      "Sido"
    ]
  },
  {
    "value": "Simon Curtis",
    "synonyms": [
      "Simon Curtis"
    ]
  },
  {
    "value": "Simon and Garel",
    "synonyms": [
      "Simon and Garel"
    ]
  },
  {
    "value": "Sistar",
    "synonyms": [
      "Sistar"
    ]
  },
  {
    "value": "Skrillex",
    "synonyms": [
      "Skrillex"
    ]
  },
  {
    "value": "Sofia Karlberg",
    "synonyms": [
      "Sofia Karlberg"
    ]
  },
  {
    "value": "Sophie Ellis-Bextor",
    "synonyms": [
      "Sophie Ellis-Bextor"
    ]
  },
  {
    "value": "Speed",
    "synonyms": [
      "Speed"
    ]
  },
  {
    "value": "Spica",
    "synonyms": [
      "Spica"
    ]
  },
  {
    "value": "Spice Girls",
    "synonyms": [
      "Spice Girls"
    ]
  },
  {
    "value": "St Germain",
    "synonyms": [
      "St Germain"
    ]
  },
  {
    "value": "Stacey Q",
    "synonyms": [
      "Stacey Q"
    ]
  },
  {
    "value": "Steps",
    "synonyms": [
      "Steps"
    ]
  },
  {
    "value": "Steve Miller Band",
    "synonyms": [
      "Steve Miller Band"
    ]
  },
  {
    "value": "Stevie Wonder",
    "synonyms": [
      "Stevie Wonder"
    ]
  },
  {
    "value": "Sunny Hill",
    "synonyms": [
      "Sunny Hill"
    ]
  },
  {
    "value": "Super Junior",
    "synonyms": [
      "Super Junior"
    ]
  },
  {
    "value": "Supernova",
    "synonyms": [
      "Supernova"
    ]
  },
  {
    "value": "T-ara",
    "synonyms": [
      "T ara"
    ]
  },
  {
    "value": "TLC",
    "synonyms": [
      "TLC"
    ]
  },
  {
    "value": "TVXQ",
    "synonyms": [
      "TVXQ"
    ]
  },
  {
    "value": "Taio Cruz",
    "synonyms": [
      "Taio Cruz"
    ]
  },
  {
    "value": "Taylor Dayne",
    "synonyms": [
      "Taylor Dayne"
    ]
  },
  {
    "value": "Taylor Swift",
    "synonyms": [
      "Taylor Swift"
    ]
  },
  {
    "value": "Teen Top",
    "synonyms": [
      "Teen Top"
    ]
  },
  {
    "value": "Tegan and Sara",
    "synonyms": [
      "Tegan and Sara"
    ]
  },
  {
    "value": "Thalia",
    "synonyms": [
      "Thalia"
    ]
  },
  {
    "value": "The Antlers",
    "synonyms": [
      "Antlers",
      "The Antlers"
    ]
  },
  {
    "value": "The Beach Boys",
    "synonyms": [
      "The Beach Boys"
    ]
  },
  {
    "value": "The Beastie Boys",
    "synonyms": [
      "The Beastie Boys"
    ]
  },
  {
    "value": "The Beatles",
    "synonyms": [
      " Beatles",
      "The Beatles"
    ]
  },
  {
    "value": "The Black Eyed Peas",
    "synonyms": [
      "The Black Eyed Peas"
    ]
  },
  {
    "value": "The Black Keys",
    "synonyms": [
      "The Black Keys"
    ]
  },
  {
    "value": "The Carpenters",
    "synonyms": [
      "The Carpenters"
    ]
  },
  {
    "value": "The Cars",
    "synonyms": [
      "The Cars"
    ]
  },
  {
    "value": "The Funkadelics",
    "synonyms": [
      "The Funkadelics"
    ]
  },
  {
    "value": "The Human League",
    "synonyms": [
      "The Human League"
    ]
  },
  {
    "value": "The Isley Brothers",
    "synonyms": [
      "The Isley Brothers"
    ]
  },
  {
    "value": "The Police",
    "synonyms": [
      "The Police"
    ]
  },
  {
    "value": "The Pussycat Dolls",
    "synonyms": [
      "The Pussycat Dolls"
    ]
  },
  {
    "value": "The Rolling Stones",
    "synonyms": [
      "The Rolling Stones"
    ]
  },
  {
    "value": "The Saturdays",
    "synonyms": [
      "The Saturdays"
    ]
  },
  {
    "value": "The Script",
    "synonyms": [
      "The Script"
    ]
  },
  {
    "value": "The Ting Tings",
    "synonyms": [
      "The Ting Tings"
    ]
  },
  {
    "value": "The Wanted",
    "synonyms": [
      "The Wanted"
    ]
  },
  {
    "value": "The Weeknd",
    "synonyms": [
      "The Weeknd"
    ]
  },
  {
    "value": "Tim McGraw",
    "synonyms": [
      "Tim McGraw"
    ]
  },
  {
    "value": "Timmy Trumpet",
    "synonyms": [
      "Timmy Trumpet"
    ]
  },
  {
    "value": "Tina Cousins",
    "synonyms": [
      "Tina Cousins"
    ]
  },
  {
    "value": "Tiësto",
    "synonyms": [
      "Tiësto"
    ]
  },
  {
    "value": "Toby Keith",
    "synonyms": [
      "Toby Keith"
    ]
  },
  {
    "value": "Tocadisco",
    "synonyms": [
      " Tocadisco",
      "Toca disco"
    ]
  },
  {
    "value": "Tom Petty",
    "synonyms": [
      "Tom Petty"
    ]
  },
  {
    "value": "Tom Petty and the Heartbreakers",
    "synonyms": [
      "Tom Petty and the Heartbreakers"
    ]
  },
  {
    "value": "Tom Waits",
    "synonyms": [
      "Tom Waits"
    ]
  },
  {
    "value": "Tove Lo",
    "synonyms": [
      "Tove Lo"
    ]
  },
  {
    "value": "Tracy Lawrence",
    "synonyms": [
      "Tracy Lawrence"
    ]
  },
  {
    "value": "Tungevaag and Raaban",
    "synonyms": [
      "Tungevaag and Raaban"
    ]
  },
  {
    "value": "U-Kiss",
    "synonyms": [
      "U-Kiss"
    ]
  },
  {
    "value": "U2",
    "synonyms": [
      "U2"
    ]
  },
  {
    "value": "US5",
    "synonyms": [
      "US5"
    ]
  },
  {
    "value": "Usher",
    "synonyms": [
      "Usher"
    ]
  },
  {
    "value": "Usher",
    "synonyms": [
      "Usher"
    ]
  },
  {
    "value": "Van Halen",
    "synonyms": [
      "Van Halen"
    ]
  },
  {
    "value": "Vance Joy",
    "synonyms": [
      "Vance Joy"
    ]
  },
  {
    "value": "Vanessa Hudgens",
    "synonyms": [
      "Vanessa Hudgens"
    ]
  },
  {
    "value": "Vanessa Paradis",
    "synonyms": [
      "Vanessa Paradis"
    ]
  },
  {
    "value": "Various Artists",
    "synonyms": [
      "Various Artists"
    ]
  },
  {
    "value": "Vengaboys",
    "synonyms": [
      "Vengaboys"
    ]
  },
  {
    "value": "Victoria Justice",
    "synonyms": [
      "Victoria Justice"
    ]
  },
  {
    "value": "Vigiland",
    "synonyms": [
      "Vigiland"
    ]
  },
  {
    "value": "Vince Gill",
    "synonyms": [
      "Vince Gill"
    ]
  },
  {
    "value": "WALK THE MOON",
    "synonyms": [
      "WALK THE MOON"
    ]
  },
  {
    "value": "Wanessa",
    "synonyms": [
      "Wanessa"
    ]
  },
  {
    "value": "Whitney Hoton",
    "synonyms": [
      "Whitney Hoton"
    ]
  },
  {
    "value": "Whitney Houston",
    "synonyms": [
      "Whitney Houston"
    ]
  },
  {
    "value": "Will.i.am",
    "synonyms": [
      "Will i am"
    ]
  },
  {
    "value": "Willie Nelson",
    "synonyms": [
      "Willie Nelson"
    ]
  },
  {
    "value": "Willie Revillame",
    "synonyms": [
      "Willie Revillame"
    ]
  },
  {
    "value": "Wonder Girls",
    "synonyms": [
      "Wonder Girls"
    ]
  },
  {
    "value": "Wretch 32",
    "synonyms": [
      "Wretch 32"
    ]
  },
  {
    "value": "Years \u0026 Years",
    "synonyms": [
      "Years \u0026 Years",
      "Years and Years"
    ]
  },
  {
    "value": "Years and Years",
    "synonyms": [
      "Years and Years"
    ]
  },
  {
    "value": "ZHU",
    "synonyms": [
      "ZHU"
    ]
  },
  {
    "value": "ZZ Top",
    "synonyms": [
      "ZZ Top"
    ]
  },
  {
    "value": "Zedd",
    "synonyms": [
      "Zedd"
    ]
  },
  {
    "value": "abhi mujhme kahi",
    "synonyms": [
      "abhi mujhme kahi"
    ]
  },
  {
    "value": "adele",
    "synonyms": [
      "adele"
    ]
  },
  {
    "value": "amy winehouse",
    "synonyms": [
      "amy winehouse"
    ]
  },
  {
    "value": "angela Dons",
    "synonyms": [
      "angela Dons"
    ]
  },
  {
    "value": "august alsina",
    "synonyms": [
      "august alsina"
    ]
  },
  {
    "value": "aventura",
    "synonyms": [
      "aventura"
    ]
  },
  {
    "value": "babbu maan",
    "synonyms": [
      "babbu maan"
    ]
  },
  {
    "value": "bob marley",
    "synonyms": [
      "bob marley"
    ]
  },
  {
    "value": "brantley gilbert",
    "synonyms": [
      "brantley gilbert"
    ]
  },
  {
    "value": "capitol steps",
    "synonyms": [
      "capitol steps"
    ]
  },
  {
    "value": "david newman",
    "synonyms": [
      "david newman"
    ]
  },
  {
    "value": "dido",
    "synonyms": [
      "dido"
    ]
  },
  {
    "value": "five seconds of summer",
    "synonyms": [
      "five seconds of summer"
    ]
  },
  {
    "value": "foreign beggars",
    "synonyms": [
      "foreign beggars"
    ]
  },
  {
    "value": "gondola B",
    "synonyms": [
      "gondola B"
    ]
  },
  {
    "value": "gotye",
    "synonyms": [
      "gotye"
    ]
  },
  {
    "value": "hieroglyphics",
    "synonyms": [
      "hieroglyphics"
    ]
  },
  {
    "value": "honey singh",
    "synonyms": [
      "honey singh"
    ]
  },
  {
    "value": "hustle gang",
    "synonyms": [
      "hustle gang"
    ]
  },
  {
    "value": "iffi",
    "synonyms": [
      "iffi"
    ]
  },
  {
    "value": "j cole",
    "synonyms": [
      "j cole"
    ]
  },
  {
    "value": "jay Reatard",
    "synonyms": [
      "jay Reatard"
    ]
  },
  {
    "value": "johnny cash",
    "synonyms": [
      "johnny cash"
    ]
  },
  {
    "value": "judas priest",
    "synonyms": [
      "judas priest"
    ]
  },
  {
    "value": "kid rock",
    "synonyms": [
      "kid rock"
    ]
  },
  {
    "value": "led zeppelin",
    "synonyms": [
      "led zeppelin"
    ]
  },
  {
    "value": "lil wayne",
    "synonyms": [
      "lil wayne"
    ]
  },
  {
    "value": "lorde",
    "synonyms": [
      "lorde"
    ]
  },
  {
    "value": "mahi mahi",
    "synonyms": [
      "mahi mahi"
    ]
  },
  {
    "value": "marvin gaye",
    "synonyms": [
      "marvin gaye"
    ]
  },
  {
    "value": "miss A",
    "synonyms": [
      "miss A"
    ]
  },
  {
    "value": "motorhead",
    "synonyms": [
      "motorhead"
    ]
  },
  {
    "value": "mozart",
    "synonyms": [
      "mozart"
    ]
  },
  {
    "value": "nirvana",
    "synonyms": [
      "nirvana"
    ]
  },
  {
    "value": "npr",
    "synonyms": [
      "npr"
    ]
  },
  {
    "value": "nwa",
    "synonyms": [
      "nwa"
    ]
  },
  {
    "value": "paramore",
    "synonyms": [
      "paramore"
    ]
  },
  {
    "value": "paul simon",
    "synonyms": [
      "paul simon"
    ]
  },
  {
    "value": "primadonna",
    "synonyms": [
      "primadonna"
    ]
  },
  {
    "value": "qari ahmed ali",
    "synonyms": [
      "qari ahmed ali"
    ]
  },
  {
    "value": "radiohead",
    "synonyms": [
      "radiohead"
    ]
  },
  {
    "value": "rahat fateh ali khan",
    "synonyms": [
      "rahat fateh ali khan"
    ]
  },
  {
    "value": "red hot chili peppers",
    "synonyms": [
      " chili peppers",
      " red hot chili peppers",
      "rhcp"
    ]
  },
  {
    "value": "sam",
    "synonyms": [
      "sam"
    ]
  },
  {
    "value": "sammy",
    "synonyms": [
      "sammy"
    ]
  },
  {
    "value": "scorpions",
    "synonyms": [
      "scorpions"
    ]
  },
  {
    "value": "shaggy",
    "synonyms": [
      "shaggy"
    ]
  },
  {
    "value": "t.A.T.u.",
    "synonyms": [
      " tATu",
      "t A T u"
    ]
  },
  {
    "value": "the Bee Gees",
    "synonyms": [
      "the Bee Gees"
    ]
  },
  {
    "value": "the Doors",
    "synonyms": [
      " doors",
      "the doors"
    ]
  },
  {
    "value": "the Who",
    "synonyms": [
      "the who"
    ]
  },
  {
    "value": "the clash",
    "synonyms": [
      "the clash"
    ]
  },
  {
    "value": "the cure",
    "synonyms": [
      "the cure"
    ]
  },
  {
    "value": "the living end",
    "synonyms": [
      "the living end"
    ]
  },
  {
    "value": "wilco",
    "synonyms": [
      "wilco"
    ]
  },
  {
    "value": "will smith",
    "synonyms": [
      "will smith"
    ]
  },
  {
    "value": "willow smith",
    "synonyms": [
      "willow smith"
    ]
  },
  {
    "value": "wiz khalifa",
    "synonyms": [
      "wiz khalifa"
    ]
  }
]