[
  {
    "id": "120d6c0b-ac1c-43d7-94c1-973d72ae7745",
    "data": [
      {
        "text": "now",
        "meta": "@sys.ignore",
        "userDefined": false
      },
      {
        "text": " ",
        "userDefined": false
      },
      {
        "text": "Bruce Willis",
        "alias": "person",
        "meta": "@person",
        "userDefined": false
      }
    ],
    "isTemplate": false,
    "count": 1,
    "updated": 0
  },
  {
    "id": "54063f9e-ebc7-4a78-a0a2-0aa0f99ab68d",
    "data": [
      {
        "text": "what about ",
        "userDefined": false
      },
      {
        "text": "Michael Fassbender",
        "alias": "person",
        "meta": "@person",
        "userDefined": false
      }
    ],
    "isTemplate": false,
    "count": 0,
    "updated": 0
  },
  {
    "id": "984356e0-653e-48fa-94d2-6e2018e52bd0",
    "data": [
      {
        "text": "Bruce Willis",
        "alias": "person",
        "meta": "@person",
        "userDefined": false
      },
      {
        "text": " also",
        "userDefined": false
      }
    ],
    "isTemplate": false,
    "count": 0,
    "updated": 0
  },
  {
    "id": "da9a580e-e134-49ab-a70b-7816c42c5527",
    "data": [
      {
        "text": "Lucy Liu",
        "alias": "person",
        "meta": "@person",
        "userDefined": false
      },
      {
        "text": " as ",
        "userDefined": false
      },
      {
        "text": "well",
        "meta": "@sys.ignore",
        "userDefined": false
      }
    ],
    "isTemplate": false,
    "count": 0,
    "updated": 0
  },
  {
    "id": "48bfc879-6b44-4162-9b37-ee346cb57478",
    "data": [
      {
        "text": "now",
        "meta": "@sys.ignore",
        "userDefined": false
      },
      {
        "text": " ",
        "userDefined": false
      },
      {
        "text": "Audrey Hepburn",
        "alias": "person",
        "meta": "@person",
        "userDefined": false
      },
      {
        "text": " please",
        "userDefined": false
      }
    ],
    "isTemplate": false,
    "count": 0,
    "updated": 0
  },
  {
    "id": "a1d57162-6158-42ea-93f8-eed550294f84",
    "data": [
      {
        "text": "and ",
        "userDefined": false
      },
      {
        "text": "how",
        "meta": "@sys.ignore",
        "userDefined": false
      },
      {
        "text": " ",
        "userDefined": false
      },
      {
        "text": "about",
        "meta": "@sys.ignore",
        "userDefined": false
      },
      {
        "text": " ",
        "userDefined": false
      },
      {
        "text": "Tom Hanks",
        "alias": "person",
        "meta": "@person",
        "userDefined": true
      }
    ],
    "isTemplate": false,
    "count": 0,
    "updated": 0
  },
  {
    "id": "496a7063-b9a6-40b9-b787-bc04ea531f49",
    "data": [
      {
        "text": "and ",
        "userDefined": false
      },
      {
        "text": "Bruce Lee",
        "alias": "person",
        "meta": "@person",
        "userDefined": false
      }
    ],
    "isTemplate": false,
    "count": 0,
    "updated": 0
  },
  {
    "id": "9914604a-f56c-4c11-b141-8420eab038a5",
    "data": [
      {
        "text": "Bruce Willis",
        "alias": "person",
        "meta": "@person",
        "userDefined": false
      },
      {
        "text": " too",
        "userDefined": false
      }
    ],
    "isTemplate": false,
    "count": 0,
    "updated": 0
  },
  {
    "id": "8480002f-ff7c-461c-a7a9-ef39096b28e6",
    "data": [
      {
        "text": "also ",
        "userDefined": false
      },
      {
        "text": "Leonardo DiCaprio",
        "alias": "person",
        "meta": "@person",
        "userDefined": true
      }
    ],
    "isTemplate": false,
    "count": 0,
    "updated": 0
  }
]