[
  {
    "id": "59371d3c-0236-43b5-a2d6-d8cefaeb130e",
    "data": [
      {
        "text": "when does ",
        "userDefined": false
      },
      {
        "text": "Big Bang Theory",
        "alias": "show",
        "meta": "@tv-show",
        "userDefined": true
      },
      {
        "text": " start on ",
        "userDefined": false
      },
      {
        "text": "CBS",
        "alias": "channel",
        "meta": "@tv-channel",
        "userDefined": true
      }
    ],
    "isTemplate": false,
    "count": 0,
    "updated": 0
  },
  {
    "id": "9d1fc6b3-6524-45d4-a49f-f2b7f8ce546b",
    "data": [
      {
        "text": "can you show me the TV listings for ",
        "userDefined": false
      },
      {
        "text": "The Simpsons",
        "alias": "show",
        "meta": "@tv-show",
        "userDefined": false
      }
    ],
    "isTemplate": false,
    "count": 0,
    "updated": 0
  },
  {
    "id": "53fb60eb-bfe9-4cf5-b6b1-dc4d4d3e5f88",
    "data": [
      {
        "text": "is ",
        "userDefined": false
      },
      {
        "text": "Bruce Willis",
        "alias": "person",
        "meta": "@person",
        "userDefined": true
      },
      {
        "text": " ",
        "userDefined": false
      },
      {
        "text": "on",
        "meta": "@sys.ignore",
        "userDefined": false
      },
      {
        "text": " TV ",
        "userDefined": false
      },
      {
        "text": "today",
        "alias": "date-time",
        "meta": "@sys.date-time",
        "userDefined": false
      }
    ],
    "isTemplate": false,
    "count": 0,
    "updated": 0
  },
  {
    "id": "af24a2b6-eaf4-4f5c-9c74-dbc09b84c791",
    "data": [
      {
        "text": "does ",
        "userDefined": false
      },
      {
        "text": "Сolombo",
        "alias": "show",
        "meta": "@tv-show",
        "userDefined": true
      },
      {
        "text": " begin ",
        "userDefined": false
      },
      {
        "text": "in three days",
        "alias": "date-time",
        "meta": "@sys.date-time",
        "userDefined": false
      }
    ],
    "isTemplate": false,
    "count": 0,
    "updated": 0
  },
  {
    "id": "a937e5fd-a118-4796-bc10-dc1a70b53b4f",
    "data": [
      {
        "text": "are the ",
        "userDefined": false
      },
      {
        "text": "Cincinnati Bengals",
        "alias": "team",
        "meta": "@sport-team",
        "userDefined": false
      },
      {
        "text": " on television ",
        "userDefined": false
      },
      {
        "text": "this week",
        "alias": "date-time",
        "meta": "@sys.date-time",
        "userDefined": false
      }
    ],
    "isTemplate": false,
    "count": 0,
    "updated": 0
  },
  {
    "id": "071741e8-5cb2-43b9-8008-595d9f2604f6",
    "data": [
      {
        "text": "when does the next season ",
        "userDefined": false
      },
      {
        "text": "of",
        "meta": "@sys.ignore",
        "userDefined": false
      },
      {
        "text": " ",
        "userDefined": false
      },
      {
        "text": "The Walking Dead",
        "alias": "show",
        "meta": "@tv-show",
        "userDefined": false
      },
      {
        "text": " start",
        "userDefined": false
      }
    ],
    "isTemplate": false,
    "count": 0,
    "updated": 0
  },
  {
    "id": "b0211708-e3e9-4d49-afe9-c33242555244",
    "data": [
      {
        "text": "is there a ",
        "userDefined": false
      },
      {
        "text": "horror",
        "alias": "movie-genre",
        "meta": "@movie-genre",
        "userDefined": true
      },
      {
        "text": " with ",
        "userDefined": false
      },
      {
        "text": "Bruce Willis",
        "alias": "person",
        "meta": "@person",
        "userDefined": true
      },
      {
        "text": " in TV ",
        "userDefined": false
      },
      {
        "text": "tomorrow",
        "alias": "date-time",
        "meta": "@sys.date-time",
        "userDefined": true
      }
    ],
    "isTemplate": false,
    "count": 0,
    "updated": 0
  },
  {
    "id": "bc7852ec-200e-4ab3-a185-8b25466b6854",
    "data": [
      {
        "text": "is there anything ",
        "userDefined": false
      },
      {
        "text": "good",
        "meta": "@sys.ignore",
        "userDefined": false
      },
      {
        "text": " ",
        "userDefined": false
      },
      {
        "text": "on",
        "meta": "@sys.ignore",
        "userDefined": false
      },
      {
        "text": " TV now",
        "userDefined": false
      }
    ],
    "isTemplate": false,
    "count": 0,
    "updated": 0
  },
  {
    "id": "724b7724-eec2-48c8-b4d9-14621f8fd434",
    "data": [
      {
        "text": "what time ",
        "userDefined": false
      },
      {
        "text": "will",
        "meta": "@sys.ignore",
        "userDefined": false
      },
      {
        "text": " be ",
        "userDefined": false
      },
      {
        "text": "The Simpsons",
        "alias": "show",
        "meta": "@tv-show",
        "userDefined": false
      },
      {
        "text": " ",
        "userDefined": false
      },
      {
        "text": "on",
        "meta": "@sys.ignore",
        "userDefined": false
      },
      {
        "text": " TV",
        "userDefined": false
      }
    ],
    "isTemplate": false,
    "count": 0,
    "updated": 0
  },
  {
    "id": "a8fd6142-3b7f-49c7-bf84-c1d4db56a156",
    "data": [
      {
        "text": "are ",
        "userDefined": false
      },
      {
        "text": "Chicago Bulls",
        "alias": "team",
        "meta": "@sport-team",
        "userDefined": true
      },
      {
        "text": " ",
        "userDefined": false
      },
      {
        "text": "on",
        "meta": "@sys.ignore",
        "userDefined": false
      },
      {
        "text": " ",
        "userDefined": false
      },
      {
        "text": "television",
        "meta": "@sys.ignore",
        "userDefined": false
      },
      {
        "text": " ",
        "userDefined": false
      },
      {
        "text": "today",
        "alias": "date-time",
        "meta": "@sys.date-time",
        "userDefined": false
      }
    ],
    "isTemplate": false,
    "count": 0,
    "updated": 0
  },
  {
    "id": "01a50651-5eec-4b82-a4ec-334bc7774c04",
    "data": [
      {
        "text": "I\u0027d like to see what is ",
        "userDefined": false
      },
      {
        "text": "on",
        "meta": "@sys.ignore",
        "userDefined": false
      },
      {
        "text": " TV",
        "userDefined": false
      }
    ],
    "isTemplate": false,
    "count": 0,
    "updated": 0
  },
  {
    "id": "e4bd6df3-dec8-49a6-afa1-d4883eed0fe2",
    "data": [
      {
        "text": "is there a ",
        "userDefined": false
      },
      {
        "text": "romantic comedy",
        "alias": "movie-genre",
        "meta": "@movie-genre",
        "userDefined": true
      },
      {
        "text": " on ",
        "userDefined": false
      },
      {
        "text": "Discovery",
        "alias": "channel",
        "meta": "@tv-channel",
        "userDefined": true
      }
    ],
    "isTemplate": false,
    "count": 1,
    "updated": 0
  },
  {
    "id": "8e0d5212-2a16-462d-a2f5-f96ffbc8681c",
    "data": [
      {
        "text": "what ",
        "userDefined": false
      },
      {
        "text": "will",
        "meta": "@sys.ignore",
        "userDefined": false
      },
      {
        "text": " be ",
        "userDefined": false
      },
      {
        "text": "on",
        "meta": "@sys.ignore",
        "userDefined": false
      },
      {
        "text": " ",
        "userDefined": false
      },
      {
        "text": "Fox",
        "alias": "channel",
        "meta": "@tv-channel",
        "userDefined": false
      },
      {
        "text": " channel",
        "userDefined": false
      }
    ],
    "isTemplate": false,
    "count": 0,
    "updated": 0
  },
  {
    "id": "0f850aea-1246-4336-99ab-2269c9acb619",
    "data": [
      {
        "text": "will",
        "meta": "@sys.ignore",
        "userDefined": false
      },
      {
        "text": " be ",
        "userDefined": false
      },
      {
        "text": "Bruce Willis",
        "alias": "person",
        "meta": "@person",
        "userDefined": true
      },
      {
        "text": " ",
        "userDefined": false
      },
      {
        "text": "on",
        "meta": "@sys.ignore",
        "userDefined": false
      },
      {
        "text": " TV ",
        "userDefined": false
      },
      {
        "text": "in the evening",
        "alias": "date-time",
        "meta": "@sys.date-time",
        "userDefined": false
      }
    ],
    "isTemplate": false,
    "count": 0,
    "updated": 0
  },
  {
    "id": "d60d5cfc-02bc-4931-ab74-8ee28827f4f4",
    "data": [
      {
        "text": "what\u0027s on ",
        "userDefined": false
      },
      {
        "text": "BBC",
        "alias": "channel",
        "meta": "@tv-channel",
        "userDefined": true
      },
      {
        "text": " ",
        "userDefined": false
      },
      {
        "text": "today",
        "alias": "date-time",
        "meta": "@sys.date-time",
        "userDefined": true
      }
    ],
    "isTemplate": false,
    "count": 0,
    "updated": 0
  },
  {
    "id": "e5bcb698-1762-4351-af84-befed0ca0929",
    "data": [
      {
        "text": "when ",
        "userDefined": false
      },
      {
        "text": "will",
        "meta": "@sys.ignore",
        "userDefined": false
      },
      {
        "text": " be ",
        "userDefined": false
      },
      {
        "text": "The Sopranos",
        "alias": "show",
        "meta": "@tv-show",
        "userDefined": false
      },
      {
        "text": " ",
        "userDefined": false
      },
      {
        "text": "on",
        "meta": "@sys.ignore",
        "userDefined": false
      },
      {
        "text": " TV",
        "userDefined": false
      }
    ],
    "isTemplate": false,
    "count": 0,
    "updated": 0
  },
  {
    "id": "6e6a993c-6912-4aa5-beb2-67bfa411e146",
    "data": [
      {
        "text": "when does ",
        "userDefined": false
      },
      {
        "text": "Jurassic Park",
        "alias": "movie",
        "meta": "@movie",
        "userDefined": false
      },
      {
        "text": " start",
        "userDefined": false
      }
    ],
    "isTemplate": false,
    "count": 0,
    "updated": 0
  },
  {
    "id": "30e8773d-91f9-404b-9599-3dec21b40946",
    "data": [
      {
        "text": "it\u0027d be great to watch some ",
        "userDefined": false
      },
      {
        "text": "documentary",
        "alias": "movie-genre",
        "meta": "@movie-genre",
        "userDefined": true
      },
      {
        "text": " ",
        "userDefined": false
      },
      {
        "text": "tomorrow night",
        "alias": "date-time",
        "meta": "@sys.date-time",
        "userDefined": true
      }
    ],
    "isTemplate": false,
    "count": 0,
    "updated": 0
  },
  {
    "id": "f607135e-6214-4f0e-b1e4-53ab3c66cd4c",
    "data": [
      {
        "text": "are there some ",
        "userDefined": false
      },
      {
        "text": "romantic",
        "alias": "movie-genre",
        "meta": "@movie-genre",
        "userDefined": true
      },
      {
        "text": " movies ",
        "userDefined": false
      },
      {
        "text": "today",
        "alias": "date-time",
        "meta": "@sys.date-time",
        "userDefined": true
      }
    ],
    "isTemplate": false,
    "count": 0,
    "updated": 0
  },
  {
    "id": "1d97bab4-e283-4aca-8f07-59a5b705be5f",
    "data": [
      {
        "text": "can you look up the TV show ",
        "userDefined": false
      },
      {
        "text": "Jessie",
        "alias": "show",
        "meta": "@tv-show",
        "userDefined": false
      }
    ],
    "isTemplate": false,
    "count": 0,
    "updated": 0
  },
  {
    "id": "5ab5b33a-ba59-43b0-8a2b-905825a527da",
    "data": [
      {
        "text": "are there any ",
        "userDefined": false
      },
      {
        "text": "comedies",
        "alias": "movie-genre",
        "meta": "@movie-genre",
        "userDefined": true
      }
    ],
    "isTemplate": false,
    "count": 0,
    "updated": 0
  },
  {
    "id": "27f8dec9-c64c-4991-9cbc-c4ae3b3832ae",
    "data": [
      {
        "text": "show me ",
        "userDefined": false
      },
      {
        "text": "TV schedule",
        "meta": "@sys.ignore",
        "userDefined": false
      },
      {
        "text": " for ",
        "userDefined": false
      },
      {
        "text": "today",
        "alias": "date-time",
        "meta": "@sys.date-time",
        "userDefined": false
      }
    ],
    "isTemplate": false,
    "count": 1,
    "updated": 0
  },
  {
    "id": "a711d4e9-604d-4913-b78a-80f85b348f9a",
    "data": [
      {
        "text": "find me something to watch with ",
        "userDefined": false
      },
      {
        "text": "Peter Dinklage",
        "alias": "person",
        "meta": "@person",
        "userDefined": true
      }
    ],
    "isTemplate": false,
    "count": 0,
    "updated": 0
  },
  {
    "id": "e5e1f910-8aa5-4791-a0d3-d18cbc051b27",
    "data": [
      {
        "text": "when does ",
        "userDefined": false
      },
      {
        "text": "Big Bang Theory",
        "alias": "show",
        "meta": "@tv-show",
        "userDefined": false
      },
      {
        "text": " start",
        "userDefined": false
      }
    ],
    "isTemplate": false,
    "count": 0,
    "updated": 0
  },
  {
    "id": "a620ae41-5258-4737-9de2-54f1b77051ac",
    "data": [
      {
        "text": "I need to know TV listings for ",
        "userDefined": false
      },
      {
        "text": "CNN",
        "alias": "channel",
        "meta": "@tv-channel",
        "userDefined": false
      }
    ],
    "isTemplate": false,
    "count": 0,
    "updated": 0
  },
  {
    "id": "810bdc75-02af-4131-90c8-96327f722c84",
    "data": [
      {
        "text": "what\u0027s on the TV ",
        "userDefined": false
      },
      {
        "text": "today",
        "alias": "date-time",
        "meta": "@sys.date-time",
        "userDefined": true
      }
    ],
    "isTemplate": false,
    "count": 0,
    "updated": 0
  },
  {
    "id": "b85db751-5849-4b11-bddf-097d9c374c12",
    "data": [
      {
        "text": "I need to know TV listings for ",
        "userDefined": false
      },
      {
        "text": "Animal Planet",
        "alias": "channel",
        "meta": "@tv-channel",
        "userDefined": false
      },
      {
        "text": " for ",
        "userDefined": false
      },
      {
        "text": "tomorrow",
        "alias": "date-time",
        "meta": "@sys.date-time",
        "userDefined": false
      }
    ],
    "isTemplate": false,
    "count": 7,
    "updated": 0
  },
  {
    "id": "4552049e-67b1-43df-a2a0-152523f07a44",
    "data": [
      {
        "text": "will",
        "meta": "@sys.ignore",
        "userDefined": false
      },
      {
        "text": " be ",
        "userDefined": false
      },
      {
        "text": "Al Pacino",
        "alias": "person",
        "meta": "@person",
        "userDefined": true
      },
      {
        "text": " ",
        "userDefined": false
      },
      {
        "text": "on",
        "meta": "@sys.ignore",
        "userDefined": false
      },
      {
        "text": " TV ",
        "userDefined": false
      },
      {
        "text": "tomorrow",
        "alias": "date-time",
        "meta": "@sys.date-time",
        "userDefined": false
      }
    ],
    "isTemplate": false,
    "count": 0,
    "updated": 0
  },
  {
    "id": "4348fee7-8d90-4a1b-988e-d57bf62f736e",
    "data": [
      {
        "text": "what\u0027s ",
        "userDefined": false
      },
      {
        "text": "on",
        "meta": "@sys.ignore",
        "userDefined": false
      },
      {
        "text": " TV ",
        "userDefined": false
      },
      {
        "text": "right now",
        "alias": "date-time",
        "meta": "@sys.date-time",
        "userDefined": false
      }
    ],
    "isTemplate": false,
    "count": 0,
    "updated": 0
  },
  {
    "id": "c1e61a0c-6451-4b03-afa1-303b8e628e70",
    "data": [
      {
        "text": "what\u0027s ",
        "userDefined": false
      },
      {
        "text": "on",
        "meta": "@sys.ignore",
        "userDefined": false
      },
      {
        "text": " TV ",
        "userDefined": false
      },
      {
        "text": "today",
        "alias": "date-time",
        "meta": "@sys.date-time",
        "userDefined": false
      }
    ],
    "isTemplate": false,
    "count": 0,
    "updated": 0
  },
  {
    "id": "93cb3390-7bd9-49e3-a0d6-861f33061887",
    "data": [
      {
        "text": "what\u0027s ",
        "userDefined": false
      },
      {
        "text": "on",
        "meta": "@sys.ignore",
        "userDefined": false
      },
      {
        "text": " TV ",
        "userDefined": false
      },
      {
        "text": "tonight",
        "alias": "date-time",
        "meta": "@sys.date-time",
        "userDefined": false
      }
    ],
    "isTemplate": false,
    "count": 0,
    "updated": 0
  },
  {
    "id": "c644309e-898e-4191-a982-b9f9aac6f65a",
    "data": [
      {
        "text": "is ",
        "userDefined": false
      },
      {
        "text": "Cincinnati Bengals",
        "alias": "team",
        "meta": "@sport-team",
        "userDefined": true
      },
      {
        "text": " ",
        "userDefined": false
      },
      {
        "text": "on",
        "meta": "@sys.ignore",
        "userDefined": false
      },
      {
        "text": " TV",
        "userDefined": false
      }
    ],
    "isTemplate": false,
    "count": 0,
    "updated": 0
  },
  {
    "id": "e4d48b64-2deb-4ff2-bd8e-047b2b11772f",
    "data": [
      {
        "text": "can you tell me what\u0027s ",
        "userDefined": false
      },
      {
        "text": "on",
        "meta": "@sys.ignore",
        "userDefined": false
      },
      {
        "text": " TV",
        "userDefined": false
      }
    ],
    "isTemplate": false,
    "count": 0,
    "updated": 0
  },
  {
    "id": "5685426c-8d19-41de-ad7f-a623f027215a",
    "data": [
      {
        "text": "will",
        "meta": "@sys.ignore",
        "userDefined": false
      },
      {
        "text": " be ",
        "userDefined": false
      },
      {
        "text": "Ava Gardner",
        "alias": "person",
        "meta": "@person",
        "userDefined": false
      },
      {
        "text": " ",
        "userDefined": false
      },
      {
        "text": "on",
        "meta": "@sys.ignore",
        "userDefined": false
      },
      {
        "text": " TV ",
        "userDefined": false
      },
      {
        "text": "this afternoon",
        "alias": "date-time",
        "meta": "@sys.date-time",
        "userDefined": false
      }
    ],
    "isTemplate": false,
    "count": 0,
    "updated": 0
  },
  {
    "id": "f09c699e-36e2-4308-9ace-97363033b994",
    "data": [
      {
        "text": "what\u0027s ",
        "userDefined": false
      },
      {
        "text": "on",
        "meta": "@sys.ignore",
        "userDefined": false
      },
      {
        "text": " channel ",
        "userDefined": false
      },
      {
        "text": "10",
        "alias": "number",
        "meta": "@sys.number",
        "userDefined": true
      },
      {
        "text": " ",
        "userDefined": false
      },
      {
        "text": "today",
        "alias": "date-time",
        "meta": "@sys.date-time",
        "userDefined": false
      }
    ],
    "isTemplate": false,
    "count": 0,
    "updated": 0
  },
  {
    "id": "22ebf166-629e-4fa8-a56b-b964bda3c780",
    "data": [
      {
        "text": "what\u0027s ",
        "userDefined": false
      },
      {
        "text": "on",
        "meta": "@sys.ignore",
        "userDefined": false
      },
      {
        "text": " TV",
        "userDefined": false
      }
    ],
    "isTemplate": false,
    "count": 0,
    "updated": 0
  },
  {
    "id": "e4a4d88a-6d19-416a-b0ae-4d659055b6f5",
    "data": [
      {
        "text": "do you know what programs ",
        "userDefined": false
      },
      {
        "text": "are",
        "meta": "@sys.ignore",
        "userDefined": false
      },
      {
        "text": " ",
        "userDefined": false
      },
      {
        "text": "on",
        "meta": "@sys.ignore",
        "userDefined": false
      },
      {
        "text": " TV ",
        "userDefined": false
      },
      {
        "text": "tonight",
        "alias": "date-time",
        "meta": "@sys.date-time",
        "userDefined": false
      }
    ],
    "isTemplate": false,
    "count": 0,
    "updated": 0
  },
  {
    "id": "b4ab2cc9-8cc8-4bd1-9466-92ff40968333",
    "data": [
      {
        "text": "are there any ",
        "userDefined": false
      },
      {
        "text": "comedies",
        "alias": "movie-genre",
        "meta": "@movie-genre",
        "userDefined": true
      },
      {
        "text": " on TV ",
        "userDefined": false
      },
      {
        "text": "today",
        "alias": "date-time",
        "meta": "@sys.date-time",
        "userDefined": true
      }
    ],
    "isTemplate": false,
    "count": 1,
    "updated": 0
  },
  {
    "id": "4ff4cad7-5af2-4e76-a162-c74a023e21f4",
    "data": [
      {
        "text": "TV programming",
        "userDefined": false
      }
    ],
    "isTemplate": false,
    "count": 0,
    "updated": 0
  },
  {
    "id": "47d22fcc-a066-40ee-8701-dde705d07997",
    "data": [
      {
        "text": "are ",
        "userDefined": false
      },
      {
        "text": "Chicago Bulls",
        "alias": "team",
        "meta": "@sport-team",
        "userDefined": true
      },
      {
        "text": " ",
        "userDefined": false
      },
      {
        "text": "on",
        "meta": "@sys.ignore",
        "userDefined": false
      },
      {
        "text": " ",
        "userDefined": false
      },
      {
        "text": "television",
        "meta": "@sys.ignore",
        "userDefined": false
      }
    ],
    "isTemplate": false,
    "count": 0,
    "updated": 0
  },
  {
    "id": "3d25a25d-2637-4c48-8092-f2e4bb694e85",
    "data": [
      {
        "text": "check out what\u0027s ",
        "userDefined": false
      },
      {
        "text": "on",
        "meta": "@sys.ignore",
        "userDefined": false
      },
      {
        "text": " TV ",
        "userDefined": false
      },
      {
        "text": "right now",
        "alias": "date-time",
        "meta": "@sys.date-time",
        "userDefined": false
      }
    ],
    "isTemplate": false,
    "count": 0,
    "updated": 0
  },
  {
    "id": "d15f9d51-72ca-4dc7-b0d5-9e22270f51bd",
    "data": [
      {
        "text": "TV listings",
        "userDefined": false
      }
    ],
    "isTemplate": false,
    "count": 0,
    "updated": 0
  },
  {
    "id": "90c505b6-e17e-4575-99a5-db06de436449",
    "data": [
      {
        "text": "any ",
        "userDefined": false
      },
      {
        "text": "good",
        "meta": "@sys.ignore",
        "userDefined": false
      },
      {
        "text": " movies ",
        "userDefined": false
      },
      {
        "text": "on",
        "meta": "@sys.ignore",
        "userDefined": false
      },
      {
        "text": " TV ",
        "userDefined": false
      },
      {
        "text": "tonight",
        "alias": "date-time",
        "meta": "@sys.date-time",
        "userDefined": false
      }
    ],
    "isTemplate": false,
    "count": 0,
    "updated": 0
  },
  {
    "id": "4e3cdbc3-3370-49c0-97e4-d5eec3e0eab6",
    "data": [
      {
        "text": "when does ",
        "userDefined": false
      },
      {
        "text": "Seinfeld",
        "alias": "show",
        "meta": "@tv-show",
        "userDefined": false
      },
      {
        "text": " begin",
        "userDefined": false
      }
    ],
    "isTemplate": false,
    "count": 0,
    "updated": 0
  },
  {
    "id": "d6dc6442-3408-4ee8-b1c4-032e77eeb58c",
    "data": [
      {
        "text": "show ",
        "userDefined": false
      },
      {
        "text": "Sesame Street",
        "alias": "show",
        "meta": "@tv-show",
        "userDefined": false
      },
      {
        "text": " ",
        "userDefined": false
      },
      {
        "text": "on",
        "meta": "@sys.ignore",
        "userDefined": false
      },
      {
        "text": " TV",
        "userDefined": false
      }
    ],
    "isTemplate": false,
    "count": 0,
    "updated": 0
  },
  {
    "id": "3d65497f-5044-46ad-b8a4-5dc0f7a0cbb2",
    "data": [
      {
        "text": "what\u0027s ",
        "userDefined": false
      },
      {
        "text": "on",
        "meta": "@sys.ignore",
        "userDefined": false
      },
      {
        "text": " channel ",
        "userDefined": false
      },
      {
        "text": "5",
        "alias": "number",
        "meta": "@sys.number",
        "userDefined": false
      }
    ],
    "isTemplate": false,
    "count": 0,
    "updated": 0
  },
  {
    "id": "cde4b122-e06a-4747-b727-60e5f6a870b1",
    "data": [
      {
        "text": "TV guide",
        "userDefined": false
      }
    ],
    "isTemplate": false,
    "count": 0,
    "updated": 0
  },
  {
    "id": "ed2b7ad5-c9a9-4202-8e97-e78a702ee60f",
    "data": [
      {
        "text": "when can I watch the ",
        "userDefined": false
      },
      {
        "text": "Mary Tyler Moore show",
        "alias": "show",
        "meta": "@tv-show",
        "userDefined": true
      }
    ],
    "isTemplate": false,
    "count": 0,
    "updated": 0
  },
  {
    "id": "d3e11fbe-cb13-4863-8d00-cd87fc719765",
    "data": [
      {
        "text": "what is ",
        "userDefined": false
      },
      {
        "text": "on",
        "meta": "@sys.ignore",
        "userDefined": false
      },
      {
        "text": " ",
        "userDefined": false
      },
      {
        "text": "television",
        "meta": "@sys.ignore",
        "userDefined": false
      }
    ],
    "isTemplate": false,
    "count": 0,
    "updated": 0
  },
  {
    "id": "319ce090-4ac8-4bfb-8917-a29d69dcc9a3",
    "data": [
      {
        "text": "will",
        "meta": "@sys.ignore",
        "userDefined": false
      },
      {
        "text": " be ",
        "userDefined": false
      },
      {
        "text": "Buster Keaton",
        "alias": "person",
        "meta": "@person",
        "userDefined": true
      },
      {
        "text": " ",
        "userDefined": false
      },
      {
        "text": "on",
        "meta": "@sys.ignore",
        "userDefined": false
      },
      {
        "text": " TV ",
        "userDefined": false
      },
      {
        "text": "tomorrow",
        "alias": "date-time",
        "meta": "@sys.date-time",
        "userDefined": false
      }
    ],
    "isTemplate": false,
    "count": 0,
    "updated": 0
  },
  {
    "id": "0bc34f30-1b35-4019-8595-f625a5097332",
    "data": [
      {
        "text": "will",
        "meta": "@sys.ignore",
        "userDefined": false
      },
      {
        "text": " be ",
        "userDefined": false
      },
      {
        "text": "Ben Kingsley",
        "alias": "person",
        "meta": "@person",
        "userDefined": true
      },
      {
        "text": " ",
        "userDefined": false
      },
      {
        "text": "on",
        "meta": "@sys.ignore",
        "userDefined": false
      },
      {
        "text": " TV ",
        "userDefined": false
      },
      {
        "text": "tomorrow at 7 a.m.",
        "alias": "date-time",
        "meta": "@sys.date-time",
        "userDefined": false
      }
    ],
    "isTemplate": false,
    "count": 0,
    "updated": 0
  },
  {
    "id": "5f616c61-d044-4ff9-ab30-d0a63d6b256f",
    "data": [
      {
        "text": "will",
        "meta": "@sys.ignore",
        "userDefined": false
      },
      {
        "text": " be ",
        "userDefined": false
      },
      {
        "text": "Bill Murray",
        "alias": "person",
        "meta": "@person",
        "userDefined": false
      },
      {
        "text": " ",
        "userDefined": false
      },
      {
        "text": "on",
        "meta": "@sys.ignore",
        "userDefined": false
      },
      {
        "text": " TV ",
        "userDefined": false
      },
      {
        "text": "next week",
        "alias": "date-time",
        "meta": "@sys.date-time",
        "userDefined": false
      }
    ],
    "isTemplate": false,
    "count": 0,
    "updated": 0
  },
  {
    "id": "a09ab752-639a-4f1a-ac2f-3a758fc01c1c",
    "data": [
      {
        "text": "what ",
        "userDefined": false
      },
      {
        "text": "will",
        "meta": "@sys.ignore",
        "userDefined": false
      },
      {
        "text": " be ",
        "userDefined": false
      },
      {
        "text": "on",
        "meta": "@sys.ignore",
        "userDefined": false
      },
      {
        "text": " ",
        "userDefined": false
      },
      {
        "text": "Cartoon Network",
        "alias": "channel",
        "meta": "@tv-channel",
        "userDefined": true
      },
      {
        "text": " ",
        "userDefined": false
      },
      {
        "text": "tomorrow",
        "alias": "date-time",
        "meta": "@sys.date-time",
        "userDefined": false
      }
    ],
    "isTemplate": false,
    "count": 0,
    "updated": 0
  },
  {
    "id": "b065f42d-0044-4738-b9c7-d1f6975820fb",
    "data": [
      {
        "text": "information for TV program for ",
        "userDefined": false
      },
      {
        "text": "today",
        "alias": "date-time",
        "meta": "@sys.date-time",
        "userDefined": false
      }
    ],
    "isTemplate": false,
    "count": 7,
    "updated": 0
  },
  {
    "id": "0390e595-6a0c-44a0-90f6-58cf8c2a9bae",
    "data": [
      {
        "text": "will",
        "meta": "@sys.ignore",
        "userDefined": false
      },
      {
        "text": " be ",
        "userDefined": false
      },
      {
        "text": "Bette Davis",
        "alias": "person",
        "meta": "@person",
        "userDefined": true
      },
      {
        "text": " ",
        "userDefined": false
      },
      {
        "text": "on",
        "meta": "@sys.ignore",
        "userDefined": false
      },
      {
        "text": " TV at ",
        "userDefined": false
      },
      {
        "text": "nine p.m.",
        "alias": "date-time",
        "meta": "@sys.date-time",
        "userDefined": false
      }
    ],
    "isTemplate": false,
    "count": 7,
    "updated": 0
  },
  {
    "id": "82c28d83-8f0e-44e1-ae73-cb2267060a41",
    "data": [
      {
        "text": "TV programms",
        "userDefined": false
      }
    ],
    "isTemplate": false,
    "count": 0,
    "updated": 0
  },
  {
    "id": "afa72bef-7857-404f-9ca7-7d8d4368559f",
    "data": [
      {
        "text": "what\u0027s ",
        "userDefined": false
      },
      {
        "text": "on",
        "meta": "@sys.ignore",
        "userDefined": false
      },
      {
        "text": " channel ",
        "userDefined": false
      },
      {
        "text": "Discovery",
        "alias": "channel",
        "meta": "@tv-channel",
        "userDefined": false
      },
      {
        "text": " ",
        "userDefined": false
      },
      {
        "text": "tomorrow",
        "alias": "date-time",
        "meta": "@sys.date-time",
        "userDefined": false
      }
    ],
    "isTemplate": false,
    "count": 0,
    "updated": 0
  },
  {
    "id": "29c54cf8-a9c3-423b-9cf0-578c3f2a580e",
    "data": [
      {
        "text": "is ",
        "userDefined": false
      },
      {
        "text": "Cincinnati Bengals",
        "alias": "team",
        "meta": "@sport-team",
        "userDefined": true
      },
      {
        "text": " ",
        "userDefined": false
      },
      {
        "text": "on",
        "meta": "@sys.ignore",
        "userDefined": false
      },
      {
        "text": " TV ",
        "userDefined": false
      },
      {
        "text": "this week",
        "alias": "date-time",
        "meta": "@sys.date-time",
        "userDefined": false
      }
    ],
    "isTemplate": false,
    "count": 0,
    "updated": 0
  },
  {
    "id": "862a6968-50b3-4328-bc20-a5df7b2321b9",
    "data": [
      {
        "text": "will",
        "meta": "@sys.ignore",
        "userDefined": false
      },
      {
        "text": " be ",
        "userDefined": false
      },
      {
        "text": "Barbara Stanwyck",
        "alias": "person",
        "meta": "@person",
        "userDefined": true
      },
      {
        "text": " ",
        "userDefined": false
      },
      {
        "text": "on",
        "meta": "@sys.ignore",
        "userDefined": false
      },
      {
        "text": " TV ",
        "userDefined": false
      },
      {
        "text": "at night",
        "alias": "date-time",
        "meta": "@sys.date-time",
        "userDefined": false
      }
    ],
    "isTemplate": false,
    "count": 0,
    "updated": 0
  }
]