[
  {
    "id": "3cbc1d85-dd0e-4d06-8e8c-2e7b16e18714",
    "data": [
      {
        "text": "which version of ",
        "userDefined": false
      },
      {
        "text": "Angry Birds",
        "alias": "app-name",
        "meta": "@app-name",
        "userDefined": true
      },
      {
        "text": " do I use",
        "userDefined": false
      }
    ],
    "isTemplate": false,
    "count": 0,
    "updated": 0
  },
  {
    "id": "af7b93bd-0502-4cab-ba7e-6b32afa30a13",
    "data": [
      {
        "text": "which version of the ",
        "userDefined": false
      },
      {
        "text": "Skype",
        "alias": "app-name",
        "meta": "@app-name",
        "userDefined": true
      },
      {
        "text": " am I using ",
        "userDefined": false
      },
      {
        "text": "now",
        "meta": "@sys.ignore",
        "userDefined": false
      }
    ],
    "isTemplate": false,
    "count": 0,
    "updated": 0
  },
  {
    "id": "e17ae8a7-0b58-4f03-a0ea-651d97e11ab4",
    "data": [
      {
        "text": "what\u0027s the number of the ",
        "userDefined": false
      },
      {
        "text": "Skype",
        "alias": "app-name",
        "meta": "@app-name",
        "userDefined": true
      },
      {
        "text": " version that I\u0027m using",
        "userDefined": false
      }
    ],
    "isTemplate": false,
    "count": 0,
    "updated": 0
  },
  {
    "id": "e7f6bb35-40b9-4374-926e-77b8ee4efae6",
    "data": [
      {
        "text": "what version of ",
        "userDefined": false
      },
      {
        "text": "Angry Birds",
        "alias": "app-name",
        "meta": "@app-name",
        "userDefined": true
      },
      {
        "text": " is installed in my device",
        "userDefined": false
      }
    ],
    "isTemplate": false,
    "count": 0,
    "updated": 0
  },
  {
    "id": "78dd7cdd-236c-4fae-9367-f30a895af1cf",
    "data": [
      {
        "text": "show me the current version of my ",
        "userDefined": false
      },
      {
        "text": "VK",
        "alias": "app-name",
        "meta": "@app-name",
        "userDefined": true
      },
      {
        "text": " app",
        "userDefined": false
      }
    ],
    "isTemplate": false,
    "count": 0,
    "updated": 0
  },
  {
    "id": "51ca6deb-f238-4c72-9d93-9ddc97a27898",
    "data": [
      {
        "text": "tell me the version of ",
        "userDefined": false
      },
      {
        "text": "Kik messenger",
        "alias": "app-name",
        "meta": "@app-name",
        "userDefined": true
      },
      {
        "text": " that I use",
        "userDefined": false
      }
    ],
    "isTemplate": false,
    "count": 0,
    "updated": 0
  },
  {
    "id": "e64948eb-a472-4329-97da-ef04039c71d9",
    "data": [
      {
        "text": "WhatsApp",
        "alias": "app-name",
        "meta": "@app-name",
        "userDefined": true
      },
      {
        "text": " version",
        "userDefined": false
      }
    ],
    "isTemplate": false,
    "count": 0,
    "updated": 0
  },
  {
    "id": "77d522df-055f-4c99-bcb9-3989b5780d7a",
    "data": [
      {
        "text": "show me the version number of the ",
        "userDefined": false
      },
      {
        "text": "Slack",
        "alias": "app-name",
        "meta": "@app-name",
        "userDefined": true
      },
      {
        "text": " app",
        "userDefined": false
      }
    ],
    "isTemplate": false,
    "count": 0,
    "updated": 0
  },
  {
    "id": "0e6a1ff8-cee5-4996-9219-488e263e94fe",
    "data": [
      {
        "text": "find out which version of ",
        "userDefined": false
      },
      {
        "text": "Gmail",
        "alias": "app-name",
        "meta": "@app-name",
        "userDefined": true
      },
      {
        "text": " is installed on this device",
        "userDefined": false
      }
    ],
    "isTemplate": false,
    "count": 0,
    "updated": 0
  },
  {
    "id": "3293b699-937c-4793-b480-cad070072617",
    "data": [
      {
        "text": "I need to know the version number of the ",
        "userDefined": false
      },
      {
        "text": "Twitter",
        "alias": "app-name",
        "meta": "@app-name",
        "userDefined": true
      },
      {
        "text": " app",
        "userDefined": false
      }
    ],
    "isTemplate": false,
    "count": 0,
    "updated": 0
  },
  {
    "id": "b464ddce-e219-4422-b98e-e0d27a278ba6",
    "data": [
      {
        "text": "what ",
        "userDefined": false
      },
      {
        "text": "Skype",
        "alias": "app-name",
        "meta": "@app-name",
        "userDefined": true
      },
      {
        "text": " version ",
        "userDefined": false
      },
      {
        "text": "do",
        "meta": "@sys.ignore",
        "userDefined": true
      },
      {
        "text": " ",
        "userDefined": false
      },
      {
        "text": "I",
        "meta": "@sys.ignore",
        "userDefined": true
      },
      {
        "text": " use",
        "userDefined": false
      }
    ],
    "isTemplate": false,
    "count": 0,
    "updated": 0
  }
]