{
  "id": "ba0364c3-4a5e-4d54-a64a-a714d57780e6",
  "name": "app.open",
  "auto": true,
  "contexts": [],
  "responses": [
    {
      "resetContexts": false,
      "action": "app.open",
      "affectedContexts": [],
      "parameters": [
        {
          "id": "f64be48a-15cd-41fb-9f84-1ba50f004120",
          "required": false,
          "dataType": "@app-name",
          "name": "app-name",
          "value": "$app-name",
          "promptMessages": [],
          "noMatchPromptMessages": [],
          "noInputPromptMessages": [],
          "outputDialogContexts": [],
          "isList": false
        },
        {
          "id": "5ee5244b-46fe-47ce-a5a5-8b6e977a9db8",
          "required": false,
          "dataType": "@app-store-name",
          "name": "store-name",
          "value": "$store-name",
          "promptMessages": [],
          "noMatchPromptMessages": [],
          "noInputPromptMessages": [],
          "outputDialogContexts": [],
          "isList": false
        }
      ],
      "messages": [
        {
          "type": 0,
          "lang": "en",
          "condition": "",
          "speech": []
        }
      ],
      "defaultResponsePlatforms": {},
      "speech": []
    }
  ],
  "priority": 500000,
  "webhookUsed": false,
  "webhookForSlotFilling": false,
  "fallbackIntent": false,
  "events": [],
  "conditionalResponses": [],
  "condition": "",
  "conditionalFollowupEvents": []
}