[
  {
    "id": "9c9ef593-3fbe-4bfc-9f4a-0e176137e93a",
    "data": [
      {
        "text": "how can I update ",
        "userDefined": false
      },
      {
        "text": "Slack",
        "alias": "app-name",
        "meta": "@app-name",
        "userDefined": true
      }
    ],
    "isTemplate": false,
    "count": 0,
    "updated": 0
  },
  {
    "id": "a7f7e820-94f8-4a78-9046-330b1ad7f81e",
    "data": [
      {
        "text": "I\u0027d like to update ",
        "userDefined": false
      },
      {
        "text": "all of",
        "alias": "all",
        "meta": "@all",
        "userDefined": true
      },
      {
        "text": " my apps",
        "userDefined": false
      }
    ],
    "isTemplate": false,
    "count": 0,
    "updated": 0
  },
  {
    "id": "926320a1-367e-4ffb-9bd8-41cefc4ce77b",
    "data": [
      {
        "text": "Kik",
        "alias": "app-name",
        "meta": "@app-name",
        "userDefined": false
      },
      {
        "text": " app updates",
        "userDefined": false
      }
    ],
    "isTemplate": false,
    "count": 0,
    "updated": 0
  },
  {
    "id": "26eb3549-7d0f-414f-b66e-743ae8456eb9",
    "data": [
      {
        "text": "where can I update apps",
        "userDefined": false
      }
    ],
    "isTemplate": false,
    "count": 0,
    "updated": 0
  },
  {
    "id": "9feddc17-449e-46c9-9160-be3efd11fee5",
    "data": [
      {
        "text": "update ",
        "userDefined": false
      },
      {
        "text": "Instagram",
        "alias": "app-name",
        "meta": "@app-name",
        "userDefined": true
      }
    ],
    "isTemplate": false,
    "count": 0,
    "updated": 0
  },
  {
    "id": "58439741-685f-45df-bcb5-ce1d2cb13087",
    "data": [
      {
        "text": "Google Chrome",
        "alias": "app-name",
        "meta": "@app-name",
        "userDefined": true
      },
      {
        "text": " update",
        "userDefined": false
      }
    ],
    "isTemplate": false,
    "count": 0,
    "updated": 0
  },
  {
    "id": "12fe2512-f6e9-4fcd-9903-c1286c986984",
    "data": [
      {
        "text": "I\u0027d like to update an app",
        "userDefined": false
      }
    ],
    "isTemplate": false,
    "count": 0,
    "updated": 0
  },
  {
    "id": "ad8b12b0-58be-4db4-b5b6-2613e7fb4f3b",
    "data": [
      {
        "text": "update ",
        "userDefined": false
      },
      {
        "text": "every",
        "alias": "all",
        "meta": "@all",
        "userDefined": true
      },
      {
        "text": " app",
        "userDefined": false
      }
    ],
    "isTemplate": false,
    "count": 0,
    "updated": 0
  },
  {
    "id": "4d0f87ff-f114-4bc8-b608-07f300e197b2",
    "data": [
      {
        "text": "could you update ",
        "userDefined": false
      },
      {
        "text": "Twitter",
        "alias": "app-name",
        "meta": "@app-name",
        "userDefined": false
      },
      {
        "text": " app",
        "userDefined": false
      }
    ],
    "isTemplate": false,
    "count": 0,
    "updated": 0
  },
  {
    "id": "2052067e-0d35-4f9f-b6e7-449d44571684",
    "data": [
      {
        "text": "update ",
        "userDefined": false
      },
      {
        "text": "Facebook",
        "alias": "app-name",
        "meta": "@app-name",
        "userDefined": true
      },
      {
        "text": " to the latest version",
        "userDefined": false
      }
    ],
    "isTemplate": false,
    "count": 0,
    "updated": 0
  },
  {
    "id": "2e5fcc10-f4e8-4efc-adfb-6a3a2840bbf4",
    "data": [
      {
        "text": "update ",
        "userDefined": false
      },
      {
        "text": "Skype",
        "alias": "app-name",
        "meta": "@app-name",
        "userDefined": false
      },
      {
        "text": " for me",
        "userDefined": false
      }
    ],
    "isTemplate": false,
    "count": 0,
    "updated": 0
  },
  {
    "id": "f160d4c2-09af-4141-a7cd-bfde0044e1f0",
    "data": [
      {
        "text": "can you update apps",
        "userDefined": false
      }
    ],
    "isTemplate": false,
    "count": 0,
    "updated": 0
  }
]