[
  {
    "id": "56e21751-6724-4f8d-871e-290be9693938",
    "data": [
      {
        "text": "close ",
        "userDefined": false
      },
      {
        "text": "Fruit Ninja",
        "alias": "app-name",
        "meta": "@app-name",
        "userDefined": true
      },
      {
        "text": " settings",
        "userDefined": false
      }
    ],
    "isTemplate": false,
    "count": 0,
    "updated": 0
  },
  {
    "id": "1342ab3a-f45c-414d-8b51-3733d074b932",
    "data": [
      {
        "text": "could you close ",
        "userDefined": false
      },
      {
        "text": "Facebook",
        "alias": "app-name",
        "meta": "@app-name",
        "userDefined": true
      },
      {
        "text": " settings",
        "userDefined": false
      }
    ],
    "isTemplate": false,
    "count": 0,
    "updated": 0
  },
  {
    "id": "f9afaec7-0c1c-4d5d-b26e-719ad8db9fcd",
    "data": [
      {
        "text": "close ",
        "userDefined": false
      },
      {
        "text": "Twitter",
        "alias": "app-name",
        "meta": "@app-name",
        "userDefined": true
      },
      {
        "text": " settings",
        "userDefined": false
      }
    ],
    "isTemplate": false,
    "count": 0,
    "updated": 0
  },
  {
    "id": "3085ed95-946e-4798-af44-a6838c6e56d5",
    "data": [
      {
        "text": "I\u0027d like to close ",
        "userDefined": false
      },
      {
        "text": "Slack",
        "alias": "app-name",
        "meta": "@app-name",
        "userDefined": true
      },
      {
        "text": " app settings",
        "userDefined": false
      }
    ],
    "isTemplate": false,
    "count": 0,
    "updated": 0
  },
  {
    "id": "fd195370-e973-499b-be46-e80ca30aa992",
    "data": [
      {
        "text": "could you close ",
        "userDefined": false
      },
      {
        "text": "Instagram",
        "alias": "app-name",
        "meta": "@app-name",
        "userDefined": true
      },
      {
        "text": " settings",
        "userDefined": false
      }
    ],
    "isTemplate": false,
    "count": 0,
    "updated": 0
  },
  {
    "id": "164329c1-57d9-4824-8ed1-d480eb33f09d",
    "data": [
      {
        "text": "can you close ",
        "userDefined": false
      },
      {
        "text": "Chrome",
        "alias": "app-name",
        "meta": "@app-name",
        "userDefined": true
      },
      {
        "text": " settings",
        "userDefined": false
      }
    ],
    "isTemplate": false,
    "count": 0,
    "updated": 0
  },
  {
    "id": "5d2e46be-7802-413e-a286-609d8b432d0a",
    "data": [
      {
        "text": "how can I close the settings of the ",
        "userDefined": false
      },
      {
        "text": "Angry Birds",
        "alias": "app-name",
        "meta": "@app-name",
        "userDefined": true
      },
      {
        "text": " app",
        "userDefined": false
      }
    ],
    "isTemplate": false,
    "count": 0,
    "updated": 0
  },
  {
    "id": "f171c0b6-2826-4ac8-8792-3bc76dcf6bf0",
    "data": [
      {
        "text": "close up ",
        "userDefined": false
      },
      {
        "text": "Skype",
        "alias": "app-name",
        "meta": "@app-name",
        "userDefined": true
      },
      {
        "text": " settings menu",
        "userDefined": false
      }
    ],
    "isTemplate": false,
    "count": 0,
    "updated": 0
  },
  {
    "id": "66071949-600d-4b95-8196-b77e7f1b98de",
    "data": [
      {
        "text": "I\u0027d like to close ",
        "userDefined": false
      },
      {
        "text": "Twitter",
        "alias": "app-name",
        "meta": "@app-name",
        "userDefined": true
      },
      {
        "text": " app settings",
        "userDefined": false
      }
    ],
    "isTemplate": false,
    "count": 0,
    "updated": 0
  }
]