[
  {
    "id": "fb4606fc-299e-4d66-952d-4e15caca58f5",
    "data": [
      {
        "text": "I would like to ",
        "userDefined": false
      },
      {
        "text": "open",
        "meta": "@sys.ignore",
        "userDefined": true
      },
      {
        "text": " the ",
        "userDefined": false
      },
      {
        "text": "Task Manager",
        "alias": "app-name",
        "meta": "@app-name",
        "userDefined": true
      }
    ],
    "isTemplate": false,
    "count": 0,
    "updated": 0
  },
  {
    "id": "bed90659-d4ea-4573-9eba-0854650e33ed",
    "data": [
      {
        "text": "open",
        "meta": "@sys.ignore",
        "userDefined": true
      },
      {
        "text": " ",
        "userDefined": false
      },
      {
        "text": "Play Store",
        "alias": "store-name",
        "meta": "@app-store-name",
        "userDefined": true
      }
    ],
    "isTemplate": false,
    "count": 0,
    "updated": 0
  },
  {
    "id": "1dee7947-cddb-456e-b2dd-7839169fd23f",
    "data": [
      {
        "text": "access ",
        "userDefined": false
      },
      {
        "text": "Gallery",
        "alias": "app-name",
        "meta": "@app-name",
        "userDefined": true
      }
    ],
    "isTemplate": false,
    "count": 0,
    "updated": 0
  },
  {
    "id": "5dfd2d00-951a-47b6-bc2a-b5a7f15248a9",
    "data": [
      {
        "text": "open",
        "meta": "@sys.ignore",
        "userDefined": true
      },
      {
        "text": " application ",
        "userDefined": false
      },
      {
        "text": "Instagram",
        "alias": "app-name",
        "meta": "@app-name",
        "userDefined": true
      }
    ],
    "isTemplate": false,
    "count": 0,
    "updated": 0
  },
  {
    "id": "e0c2a40a-a050-424d-8319-d1097f6d3c91",
    "data": [
      {
        "text": "go to ",
        "userDefined": false
      },
      {
        "text": "my photos",
        "alias": "app-name",
        "meta": "@app-name",
        "userDefined": true
      }
    ],
    "isTemplate": false,
    "count": 0,
    "updated": 0
  },
  {
    "id": "2b74881a-233b-43bf-bb95-1ecaa1915b13",
    "data": [
      {
        "text": "launch application",
        "userDefined": false
      }
    ],
    "isTemplate": false,
    "count": 0,
    "updated": 0
  },
  {
    "id": "9c438129-7bec-4d25-9ad2-9d2846664197",
    "data": [
      {
        "text": "can",
        "meta": "@sys.ignore",
        "userDefined": true
      },
      {
        "text": " you launch ",
        "userDefined": false
      },
      {
        "text": "Spotify",
        "alias": "app-name",
        "meta": "@app-name",
        "userDefined": true
      }
    ],
    "isTemplate": false,
    "count": 0,
    "updated": 0
  },
  {
    "id": "69a7f47b-f0c2-4855-ab53-e7cd745ec234",
    "data": [
      {
        "text": "app ",
        "userDefined": false
      },
      {
        "text": "Viber",
        "alias": "app-name",
        "meta": "@app-name",
        "userDefined": true
      }
    ],
    "isTemplate": false,
    "count": 0,
    "updated": 0
  },
  {
    "id": "1ccaab98-6a90-4c6f-8cd5-2286a7151fe8",
    "data": [
      {
        "text": "can you ",
        "userDefined": false
      },
      {
        "text": "open",
        "meta": "@sys.ignore",
        "userDefined": true
      },
      {
        "text": " app",
        "userDefined": false
      }
    ],
    "isTemplate": false,
    "count": 0,
    "updated": 0
  },
  {
    "id": "238136b1-f3cb-445a-bb27-3e7553195ea4",
    "data": [
      {
        "text": "turn ",
        "userDefined": false
      },
      {
        "text": "on",
        "meta": "@sys.ignore",
        "userDefined": true
      },
      {
        "text": " ",
        "userDefined": false
      },
      {
        "text": "Flashlight",
        "alias": "app-name",
        "meta": "@app-name",
        "userDefined": true
      }
    ],
    "isTemplate": false,
    "count": 0,
    "updated": 0
  },
  {
    "id": "8e65fc49-9313-4ec1-97f3-90aa26faa4f0",
    "data": [
      {
        "text": "take me to ",
        "userDefined": false
      },
      {
        "text": "Ringtonium",
        "alias": "app-name",
        "meta": "@app-name",
        "userDefined": true
      },
      {
        "text": " app",
        "userDefined": false
      }
    ],
    "isTemplate": false,
    "count": 0,
    "updated": 0
  },
  {
    "id": "5d258549-73e7-464a-9520-eaba61d76545",
    "data": [
      {
        "text": "go to app ",
        "userDefined": false
      },
      {
        "text": "Netflix",
        "alias": "app-name",
        "meta": "@app-name",
        "userDefined": true
      }
    ],
    "isTemplate": false,
    "count": 0,
    "updated": 0
  },
  {
    "id": "c9fac03f-eb2c-4ac4-a028-f2a4408d4d80",
    "data": [
      {
        "text": "take me to my ",
        "userDefined": false
      },
      {
        "text": "music",
        "alias": "app-name",
        "meta": "@app-name",
        "userDefined": true
      },
      {
        "text": " app",
        "userDefined": false
      }
    ],
    "isTemplate": false,
    "count": 0,
    "updated": 0
  },
  {
    "id": "2026ed3c-6b32-407a-b0f7-4b73cb046efd",
    "data": [
      {
        "text": "take me to ",
        "userDefined": false
      },
      {
        "text": "YouTube",
        "alias": "app-name",
        "meta": "@app-name",
        "userDefined": true
      },
      {
        "text": " app",
        "userDefined": false
      }
    ],
    "isTemplate": false,
    "count": 0,
    "updated": 0
  },
  {
    "id": "1857b2c8-9b65-446e-9d6c-3fd0bc3aad77",
    "data": [
      {
        "text": "could you launch ",
        "userDefined": false
      },
      {
        "text": "Twitter",
        "alias": "app-name",
        "meta": "@app-name",
        "userDefined": true
      },
      {
        "text": " please",
        "userDefined": false
      }
    ],
    "isTemplate": false,
    "count": 0,
    "updated": 0
  },
  {
    "id": "d4f25cea-7dff-4845-83fd-927b9d541c75",
    "data": [
      {
        "text": "Viber",
        "alias": "app-name",
        "meta": "@app-name",
        "userDefined": true
      },
      {
        "text": " app",
        "userDefined": false
      }
    ],
    "isTemplate": false,
    "count": 0,
    "updated": 0
  },
  {
    "id": "1661be0a-27a9-408e-874d-6f4c9cd3cfcf",
    "data": [
      {
        "text": "access ",
        "userDefined": false
      },
      {
        "text": "Twitter",
        "alias": "app-name",
        "meta": "@app-name",
        "userDefined": true
      },
      {
        "text": " app",
        "userDefined": false
      }
    ],
    "isTemplate": false,
    "count": 0,
    "updated": 0
  },
  {
    "id": "f305ffe5-9865-43ea-9394-264708b4b611",
    "data": [
      {
        "text": "pull up ",
        "userDefined": false
      },
      {
        "text": "App Store",
        "alias": "store-name",
        "meta": "@app-store-name",
        "userDefined": true
      }
    ],
    "isTemplate": false,
    "count": 0,
    "updated": 0
  },
  {
    "id": "a8e1dd54-a651-40bd-bbe6-3656cb1b9ae0",
    "data": [
      {
        "text": "go to ",
        "userDefined": false
      },
      {
        "text": "App Store",
        "alias": "store-name",
        "meta": "@app-store-name",
        "userDefined": true
      }
    ],
    "isTemplate": false,
    "count": 0,
    "updated": 0
  },
  {
    "id": "ccb7b644-d265-4d9f-b17c-b815370f9d34",
    "data": [
      {
        "text": "go to ",
        "userDefined": false
      },
      {
        "text": "my pictures",
        "alias": "app-name",
        "meta": "@app-name",
        "userDefined": true
      },
      {
        "text": " ",
        "userDefined": false
      },
      {
        "text": "on",
        "meta": "@sys.ignore",
        "userDefined": true
      },
      {
        "text": " my phone",
        "userDefined": false
      }
    ],
    "isTemplate": false,
    "count": 0,
    "updated": 0
  },
  {
    "id": "75dd9972-57b0-4fc8-bb87-67461a9f1116",
    "data": [
      {
        "text": "open application ",
        "userDefined": false
      },
      {
        "text": "Gmail",
        "alias": "app-name",
        "meta": "@app-name",
        "userDefined": true
      }
    ],
    "isTemplate": false,
    "count": 0,
    "updated": 0
  },
  {
    "id": "3003a53e-54b6-46da-9288-10dd426b6965",
    "data": [
      {
        "text": "open",
        "meta": "@sys.ignore",
        "userDefined": true
      },
      {
        "text": " ",
        "userDefined": false
      },
      {
        "text": "Angry Birds",
        "alias": "app-name",
        "meta": "@app-name",
        "userDefined": true
      },
      {
        "text": " application",
        "userDefined": false
      }
    ],
    "isTemplate": false,
    "count": 0,
    "updated": 0
  },
  {
    "id": "09f51593-7a1f-4a6e-8090-7b8ff9cfdae8",
    "data": [
      {
        "text": "go to ",
        "userDefined": false
      },
      {
        "text": "camera",
        "alias": "app-name",
        "meta": "@app-name",
        "userDefined": true
      }
    ],
    "isTemplate": false,
    "count": 1,
    "updated": 0
  },
  {
    "id": "986a86b2-09bf-4d79-a94c-74839c04e739",
    "data": [
      {
        "text": "may",
        "meta": "@sys.ignore",
        "userDefined": true
      },
      {
        "text": " you ",
        "userDefined": false
      },
      {
        "text": "open",
        "meta": "@sys.ignore",
        "userDefined": true
      },
      {
        "text": " apps",
        "userDefined": false
      }
    ],
    "isTemplate": false,
    "count": 1,
    "updated": 0
  },
  {
    "id": "f3f7de5f-0b8d-4714-a0ed-519df29c196d",
    "data": [
      {
        "text": "application",
        "userDefined": false
      }
    ],
    "isTemplate": false,
    "count": 0,
    "updated": 0
  },
  {
    "id": "0fbdf0c4-f893-426e-a5dc-0ace52639c40",
    "data": [
      {
        "text": "open ",
        "userDefined": false
      },
      {
        "text": "Safari",
        "alias": "app-name",
        "meta": "@app-name",
        "userDefined": true
      }
    ],
    "isTemplate": false,
    "count": 0,
    "updated": 0
  },
  {
    "id": "fc3405c6-713e-427d-b9b0-44b7518be934",
    "data": [
      {
        "text": "go to my ",
        "userDefined": false
      },
      {
        "text": "music",
        "alias": "app-name",
        "meta": "@app-name",
        "userDefined": true
      },
      {
        "text": " app",
        "userDefined": false
      }
    ],
    "isTemplate": false,
    "count": 0,
    "updated": 0
  },
  {
    "id": "dd930c47-5475-49a3-8b2c-7c5b50aa9bf0",
    "data": [
      {
        "text": "turn ",
        "userDefined": false
      },
      {
        "text": "on",
        "meta": "@sys.ignore",
        "userDefined": true
      },
      {
        "text": " ",
        "userDefined": false
      },
      {
        "text": "camera",
        "alias": "app-name",
        "meta": "@app-name",
        "userDefined": true
      }
    ],
    "isTemplate": false,
    "count": 0,
    "updated": 0
  },
  {
    "id": "01082649-6260-4b36-bd92-1a724862a39f",
    "data": [
      {
        "text": "open ",
        "userDefined": false
      },
      {
        "text": "browser",
        "alias": "app-name",
        "meta": "@app-name",
        "userDefined": true
      }
    ],
    "isTemplate": false,
    "count": 0,
    "updated": 0
  },
  {
    "id": "09cbd68b-a873-4d7f-8990-9c1d04cec1db",
    "data": [
      {
        "text": "can you ",
        "userDefined": false
      },
      {
        "text": "open",
        "meta": "@sys.ignore",
        "userDefined": true
      },
      {
        "text": " ",
        "userDefined": false
      },
      {
        "text": "Subway Surfer",
        "alias": "app-name",
        "meta": "@app-name",
        "userDefined": true
      }
    ],
    "isTemplate": false,
    "count": 0,
    "updated": 0
  },
  {
    "id": "e9189645-40c6-4f94-ba22-8665e6537424",
    "data": [
      {
        "text": "launch ",
        "userDefined": false
      },
      {
        "text": "Facebook",
        "alias": "app-name",
        "meta": "@app-name",
        "userDefined": true
      },
      {
        "text": " application",
        "userDefined": false
      }
    ],
    "isTemplate": false,
    "count": 0,
    "updated": 0
  },
  {
    "id": "5305e32e-c163-46a6-8df6-28c526e74fcf",
    "data": [
      {
        "text": "play ",
        "userDefined": false
      },
      {
        "text": "Cut the rope",
        "alias": "app-name",
        "meta": "@app-name",
        "userDefined": true
      }
    ],
    "isTemplate": false,
    "count": 0,
    "updated": 0
  },
  {
    "id": "70c200a6-8d63-4129-b296-13198f746f19",
    "data": [
      {
        "text": "can you ",
        "userDefined": false
      },
      {
        "text": "open",
        "meta": "@sys.ignore",
        "userDefined": true
      },
      {
        "text": " my ",
        "userDefined": false
      },
      {
        "text": "Facebook",
        "alias": "app-name",
        "meta": "@app-name",
        "userDefined": true
      },
      {
        "text": " app",
        "userDefined": false
      }
    ],
    "isTemplate": false,
    "count": 0,
    "updated": 0
  }
]