[
  {
    "id": "68f9929f-b1e9-4984-90c9-71f2459fc5f1",
    "data": [
      {
        "text": "is my ",
        "userDefined": false
      },
      {
        "text": "mobile",
        "alias": "module",
        "meta": "@device-module",
        "userDefined": false
      },
      {
        "text": " data ",
        "userDefined": false
      },
      {
        "text": "enabled",
        "alias": "action",
        "meta": "@device-action",
        "userDefined": true
      }
    ],
    "isTemplate": false,
    "count": 0,
    "updated": 0
  },
  {
    "id": "84e5b5e2-a7a1-4b06-bfae-c4e37f7cd881",
    "data": [
      {
        "text": "tell me if the ",
        "userDefined": false
      },
      {
        "text": "flight mode",
        "alias": "module",
        "meta": "@device-module",
        "userDefined": false
      },
      {
        "text": " is ",
        "userDefined": false
      },
      {
        "text": "on",
        "alias": "action",
        "meta": "@device-action",
        "userDefined": true
      }
    ],
    "isTemplate": false,
    "count": 0,
    "updated": 0
  },
  {
    "id": "841ac6fd-f08c-4681-bb40-3d73710efc10",
    "data": [
      {
        "text": "is my ",
        "userDefined": false
      },
      {
        "text": "Bluetooth",
        "alias": "module",
        "meta": "@device-module",
        "userDefined": false
      },
      {
        "text": " ",
        "userDefined": false
      },
      {
        "text": "activated",
        "alias": "action",
        "meta": "@device-action",
        "userDefined": true
      }
    ],
    "isTemplate": false,
    "count": 0,
    "updated": 0
  },
  {
    "id": "e0e12e8f-900a-4735-9357-0da2dcf7035f",
    "data": [
      {
        "text": "check ",
        "userDefined": false
      },
      {
        "text": "Wi-Fi",
        "alias": "module",
        "meta": "@device-module",
        "userDefined": false
      },
      {
        "text": " connection",
        "userDefined": false
      }
    ],
    "isTemplate": false,
    "count": 0,
    "updated": 0
  },
  {
    "id": "38cc6657-6c39-4a23-a304-df9f7f49581c",
    "data": [
      {
        "text": "is ",
        "userDefined": false
      },
      {
        "text": "GPS",
        "alias": "module",
        "meta": "@device-module",
        "userDefined": true
      },
      {
        "text": " ",
        "userDefined": false
      },
      {
        "text": "off",
        "alias": "action",
        "meta": "@device-action",
        "userDefined": true
      }
    ],
    "isTemplate": false,
    "count": 0,
    "updated": 0
  },
  {
    "id": "4573bca0-15c8-4f12-971b-74a542a5e73a",
    "data": [
      {
        "text": "is my ",
        "userDefined": false
      },
      {
        "text": "GPS",
        "alias": "module",
        "meta": "@device-module",
        "userDefined": false
      },
      {
        "text": " ",
        "userDefined": false
      },
      {
        "text": "working",
        "alias": "action",
        "meta": "@device-action",
        "userDefined": true
      }
    ],
    "isTemplate": false,
    "count": 0,
    "updated": 0
  },
  {
    "id": "70c5a8b6-2429-4db1-ac04-7bb6e4554196",
    "data": [
      {
        "text": "is my ",
        "userDefined": false
      },
      {
        "text": "GPS",
        "alias": "module",
        "meta": "@device-module",
        "userDefined": true
      },
      {
        "text": " ",
        "userDefined": false
      },
      {
        "text": "on",
        "alias": "action",
        "meta": "@device-action",
        "userDefined": true
      }
    ],
    "isTemplate": false,
    "count": 1,
    "updated": 0
  },
  {
    "id": "de539665-de5f-44c7-9436-e9a0542ca264",
    "data": [
      {
        "text": "is my phone in ",
        "userDefined": false
      },
      {
        "text": "silent mode",
        "alias": "module",
        "meta": "@device-module",
        "userDefined": false
      }
    ],
    "isTemplate": false,
    "count": 0,
    "updated": 0
  },
  {
    "id": "deba8377-c802-42e2-b001-4254d28dcae3",
    "data": [
      {
        "text": "check if ",
        "userDefined": false
      },
      {
        "text": "Bluetooth",
        "alias": "module",
        "meta": "@device-module",
        "userDefined": false
      },
      {
        "text": " is ",
        "userDefined": false
      },
      {
        "text": "switched on",
        "alias": "action",
        "meta": "@device-action",
        "userDefined": true
      }
    ],
    "isTemplate": false,
    "count": 0,
    "updated": 0
  }
]