[
  {
    "value": "iPad",
    "synonyms": [
      "iPad"
    ]
  },
  {
    "value": "ipod",
    "synonyms": [
      "ipod"
    ]
  },
  {
    "value": "phone",
    "synonyms": [
      "phone"
    ]
  },
  {
    "value": "radio",
    "synonyms": [
      "radio"
    ]
  },
  {
    "value": "speakers",
    "synonyms": [
      "speakers"
    ]
  },
  {
    "value": "tv",
    "synonyms": [
      "television",
      "tv",
      "tv set"
    ]
  }
]