[
  {
    "value": "closed",
    "synonyms": [
      "close",
      "closed"
    ]
  },
  {
    "value": "locked",
    "synonyms": [
      "lock",
      "locked"
    ]
  },
  {
    "value": "opened",
    "synonyms": [
      "open",
      "opened"
    ]
  },
  {
    "value": "unlocked",
    "synonyms": [
      "unlock",
      "unlocked"
    ]
  }
]