[
  {
    "id": "10d37175-e7a4-4251-908f-7b0187d72d03",
    "data": [
      {
        "text": "what are the steps for opening account",
        "userDefined": false
      }
    ],
    "isTemplate": false,
    "count": 0,
    "updated": 0
  },
  {
    "id": "1a8231f5-1290-4de1-9c20-e4b75f3b868d",
    "data": [
      {
        "text": "account opening",
        "userDefined": false
      }
    ],
    "isTemplate": false,
    "count": 0,
    "updated": 0
  },
  {
    "id": "a8ea56b5-66d7-4b0d-91a1-4309fb1e91e3",
    "data": [
      {
        "text": "open an account",
        "userDefined": false
      }
    ],
    "isTemplate": false,
    "count": 0,
    "updated": 0
  },
  {
    "id": "99966ab9-6497-4bb0-9a61-404f6d28d4a4",
    "data": [
      {
        "text": "I want to open an account",
        "userDefined": false
      }
    ],
    "isTemplate": false,
    "count": 0,
    "updated": 0
  },
  {
    "id": "35122614-450e-462e-a3fe-9707ec8a6fc1",
    "data": [
      {
        "text": "how do I open an account",
        "userDefined": false
      }
    ],
    "isTemplate": false,
    "count": 0,
    "updated": 0
  }
]