[
  {
    "id": "f3ad0761-6dfe-4a15-9a03-bf11779b2960",
    "data": [
      {
        "text": "withdrawal",
        "alias": "category",
        "meta": "@category",
        "userDefined": false
      },
      {
        "text": " history",
        "userDefined": false
      }
    ],
    "isTemplate": false,
    "count": 1,
    "updated": 0
  },
  {
    "id": "80938ff7-89c3-4911-acb4-2fd3a2ead6b5",
    "data": [
      {
        "text": "can I see my latest ",
        "userDefined": false
      },
      {
        "text": "withdrawals",
        "alias": "category",
        "meta": "@category",
        "userDefined": false
      }
    ],
    "isTemplate": false,
    "count": 1,
    "updated": 0
  },
  {
    "id": "08424bcf-6f97-43b1-9e77-a4de71597fc8",
    "data": [
      {
        "text": "check",
        "meta": "@sys.ignore",
        "userDefined": false
      },
      {
        "text": " my spendings on ",
        "userDefined": false
      },
      {
        "text": "Marriott",
        "alias": "merchant",
        "meta": "@merchant",
        "userDefined": true
      },
      {
        "text": " for ",
        "userDefined": false
      },
      {
        "text": "this week",
        "alias": "date-time",
        "meta": "@sys.date-time",
        "userDefined": false
      }
    ],
    "isTemplate": false,
    "count": 0,
    "updated": 0
  },
  {
    "id": "6dd111ce-038c-45c3-8b09-205281a0f568",
    "data": [
      {
        "text": "check",
        "meta": "@sys.ignore",
        "userDefined": false
      },
      {
        "text": " yesterday\u0027s ",
        "userDefined": false
      },
      {
        "text": "ATM Withdrawals",
        "alias": "category",
        "meta": "@category",
        "userDefined": false
      }
    ],
    "isTemplate": false,
    "count": 0,
    "updated": 0
  },
  {
    "id": "948a6942-7ca6-42b8-a704-02d4feb0d64a",
    "data": [
      {
        "text": "how much money did I spend on ",
        "userDefined": false
      },
      {
        "text": "shopping",
        "alias": "category",
        "meta": "@category",
        "userDefined": false
      },
      {
        "text": " in ",
        "userDefined": false
      },
      {
        "text": "December",
        "alias": "date-time",
        "meta": "@sys.date-time",
        "userDefined": false
      }
    ],
    "isTemplate": false,
    "count": 0,
    "updated": 0
  },
  {
    "id": "4a925013-cfeb-4cf1-9e79-a5332ec4a90b",
    "data": [
      {
        "text": "have I spent a lot at ",
        "userDefined": false
      },
      {
        "text": "Hyatt London",
        "alias": "merchant",
        "meta": "@merchant",
        "userDefined": false
      },
      {
        "text": "?",
        "userDefined": false
      }
    ],
    "isTemplate": false,
    "count": 0,
    "updated": 0
  },
  {
    "id": "28766edd-af3f-41f1-b39c-91a2c113148c",
    "data": [
      {
        "text": "check",
        "meta": "@sys.ignore",
        "userDefined": false
      },
      {
        "text": " my ",
        "userDefined": false
      },
      {
        "text": "travel",
        "alias": "category",
        "meta": "@category",
        "userDefined": false
      },
      {
        "text": " spendings",
        "userDefined": false
      }
    ],
    "isTemplate": false,
    "count": 0,
    "updated": 0
  },
  {
    "id": "7ef62db1-907f-45fb-b42b-7ad7f25472b6",
    "data": [
      {
        "text": "check",
        "meta": "@sys.ignore",
        "userDefined": false
      },
      {
        "text": " how much money did I spend on ",
        "userDefined": false
      },
      {
        "text": "taxes",
        "alias": "category",
        "meta": "@category",
        "userDefined": false
      },
      {
        "text": " in ",
        "userDefined": false
      },
      {
        "text": "December",
        "alias": "date-time",
        "meta": "@sys.date-time",
        "userDefined": false
      },
      {
        "text": " on my ",
        "userDefined": false
      },
      {
        "text": "checking",
        "alias": "account",
        "meta": "@account",
        "userDefined": false
      },
      {
        "text": " account",
        "userDefined": false
      }
    ],
    "isTemplate": false,
    "count": 0,
    "updated": 0
  },
  {
    "id": "0489c1dd-e1ea-4cdf-b017-d62504a43cb7",
    "data": [
      {
        "text": "How much did I spend on ",
        "userDefined": false
      },
      {
        "text": "Travel",
        "alias": "category",
        "meta": "@category",
        "userDefined": false
      },
      {
        "text": " in ",
        "userDefined": false
      },
      {
        "text": "January",
        "alias": "date-time",
        "meta": "@sys.date-time",
        "userDefined": false
      },
      {
        "text": "?",
        "userDefined": false
      }
    ],
    "isTemplate": false,
    "count": 0,
    "updated": 0
  },
  {
    "id": "631100eb-bed6-40c7-a12e-fa84531a3b0f",
    "data": [
      {
        "text": "how much did i spend on ",
        "userDefined": false
      },
      {
        "text": "Utilities",
        "alias": "category",
        "meta": "@category",
        "userDefined": false
      },
      {
        "text": " at ",
        "userDefined": false
      },
      {
        "text": "PG\u0026E",
        "alias": "merchant",
        "meta": "@merchant",
        "userDefined": false
      }
    ],
    "isTemplate": false,
    "count": 0,
    "updated": 0
  },
  {
    "id": "8ebc34a9-d5e3-476f-9c0c-660c25b09f64",
    "data": [
      {
        "text": "tell me how much did I spend on ",
        "userDefined": false
      },
      {
        "text": "restaurants",
        "alias": "category",
        "meta": "@category",
        "userDefined": false
      },
      {
        "text": " ",
        "userDefined": false
      },
      {
        "text": "this weekend",
        "alias": "date-time",
        "meta": "@sys.date-time",
        "userDefined": false
      }
    ],
    "isTemplate": false,
    "count": 0,
    "updated": 0
  },
  {
    "id": "7454e2cb-7e98-4077-a212-16d09256bf09",
    "data": [
      {
        "text": "Did I pay for something at ",
        "userDefined": false
      },
      {
        "text": "Amazon",
        "alias": "merchant",
        "meta": "@merchant",
        "userDefined": false
      },
      {
        "text": "?",
        "userDefined": false
      }
    ],
    "isTemplate": false,
    "count": 0,
    "updated": 0
  },
  {
    "id": "90278b84-124a-4565-b61c-cfedd2f5ca32",
    "data": [
      {
        "text": "I want to see withdrawals for  ",
        "userDefined": false
      },
      {
        "text": "January 3, 2017",
        "alias": "date-time",
        "meta": "@sys.date-time",
        "userDefined": false
      }
    ],
    "isTemplate": false,
    "count": 0,
    "updated": 0
  },
  {
    "id": "64d46fc4-866f-47a0-863f-ab2386d8569b",
    "data": [
      {
        "text": "How much money did I spend ",
        "userDefined": false
      },
      {
        "text": "yesterday",
        "alias": "date-time",
        "meta": "@sys.date-time",
        "userDefined": false
      },
      {
        "text": "?",
        "userDefined": false
      }
    ],
    "isTemplate": false,
    "count": 0,
    "updated": 0
  },
  {
    "id": "81a60b84-4b44-426d-bea8-91dd7618d234",
    "data": [
      {
        "text": "How much did I spend in ",
        "userDefined": false
      },
      {
        "text": "Starbucks",
        "alias": "merchant",
        "meta": "@merchant",
        "userDefined": false
      },
      {
        "text": "?",
        "userDefined": false
      }
    ],
    "isTemplate": false,
    "count": 0,
    "updated": 0
  }
]