[
  {
    "id": "ca09229a-4393-403d-9238-a21f7fac5dbb",
    "data": [
      {
        "text": "and on ",
        "userDefined": false
      },
      {
        "text": "1/5/2017",
        "alias": "date",
        "meta": "@sys.date",
        "userDefined": false
      }
    ],
    "isTemplate": false,
    "count": 0,
    "updated": 0
  },
  {
    "id": "8c75bb58-baa9-4a3e-aed2-b6c2d60339fd",
    "data": [
      {
        "text": "Check",
        "meta": "@sys.ignore",
        "userDefined": false
      },
      {
        "text": " ",
        "userDefined": false
      },
      {
        "text": "January 1",
        "alias": "date",
        "meta": "@sys.date",
        "userDefined": false
      },
      {
        "text": ".",
        "userDefined": false
      }
    ],
    "isTemplate": false,
    "count": 0,
    "updated": 0
  },
  {
    "id": "896de115-3222-4ce1-a048-b64cd452420d",
    "data": [
      {
        "text": "what about ",
        "userDefined": false
      },
      {
        "text": "January 2, 2017",
        "alias": "date",
        "meta": "@sys.date",
        "userDefined": false
      }
    ],
    "isTemplate": false,
    "count": 0,
    "updated": 0
  }
]