{
  "id": "6888b598-9e26-4745-84e0-0ceeaa7237ee",
  "name": "alarm.set - context:alarm - comment:another one",
  "auto": true,
  "contexts": [
    "alarm"
  ],
  "responses": [
    {
      "resetContexts": true,
      "action": "alarm.set",
      "affectedContexts": [
        {
          "name": "alarm",
          "parameters": {},
          "lifespan": 5
        }
      ],
      "parameters": [
        {
          "id": "901d4323-66fd-432b-a0d2-47a31ec9720f",
          "required": false,
          "dataType": "@sys.date",
          "name": "date",
          "value": "$date",
          "promptMessages": [],
          "noMatchPromptMessages": [],
          "noInputPromptMessages": [],
          "outputDialogContexts": [],
          "isList": false
        },
        {
          "id": "5b770290-df29-4346-85a5-5174b666e4af",
          "required": false,
          "dataType": "@sys.time",
          "name": "time",
          "value": "$time",
          "promptMessages": [],
          "noMatchPromptMessages": [],
          "noInputPromptMessages": [],
          "outputDialogContexts": [],
          "isList": false
        },
        {
          "id": "5130fdcd-bae6-499a-999a-41fe16d50350",
          "required": false,
          "dataType": "@recurrence",
          "name": "recurrence",
          "value": "$recurrence",
          "promptMessages": [],
          "noMatchPromptMessages": [],
          "noInputPromptMessages": [],
          "outputDialogContexts": [],
          "isList": false
        }
      ],
      "messages": [
        {
          "type": 0,
          "lang": "en",
          "condition": "",
          "speech": []
        }
      ],
      "defaultResponsePlatforms": {},
      "speech": []
    }
  ],
  "priority": 500000,
  "webhookUsed": false,
  "webhookForSlotFilling": false,
  "fallbackIntent": false,
  "events": [],
  "conditionalResponses": [],
  "condition": "",
  "conditionalFollowupEvents": []
}