[
  {
    "id": "caa58f85-eb2d-4a47-ab90-43ac0cf9a3da",
    "data": [
      {
        "text": "show me ",
        "userDefined": false
      },
      {
        "text": "all",
        "alias": "all",
        "meta": "@all",
        "userDefined": true
      },
      {
        "text": " my alarms",
        "userDefined": false
      }
    ],
    "isTemplate": false,
    "count": 0,
    "updated": 0
  },
  {
    "id": "e3935427-27a2-43cd-9f17-bebb30a73713",
    "data": [
      {
        "text": "check ",
        "userDefined": false
      },
      {
        "text": "all",
        "alias": "all",
        "meta": "@all",
        "userDefined": true
      },
      {
        "text": " my alarms",
        "userDefined": false
      }
    ],
    "isTemplate": false,
    "count": 0,
    "updated": 0
  },
  {
    "id": "ebbddb50-3ea5-42d1-87ad-8fe533daf9b0",
    "data": [
      {
        "text": "is my ",
        "userDefined": false
      },
      {
        "text": "weekly",
        "alias": "recurrence",
        "meta": "@recurrence",
        "userDefined": true
      },
      {
        "text": " alarm set",
        "userDefined": false
      }
    ],
    "isTemplate": false,
    "count": 0,
    "updated": 0
  },
  {
    "id": "6ed380bb-face-46f1-a9bd-486620b8a09f",
    "data": [
      {
        "text": "my alarms",
        "userDefined": false
      }
    ],
    "isTemplate": false,
    "count": 0,
    "updated": 0
  },
  {
    "id": "3bf10535-35a8-4080-9863-ca1be2865121",
    "data": [
      {
        "text": "show my alarms for ",
        "userDefined": false
      },
      {
        "text": "tomorrow",
        "alias": "date",
        "meta": "@sys.date",
        "userDefined": true
      }
    ],
    "isTemplate": false,
    "count": 0,
    "updated": 0
  },
  {
    "id": "c5e8a35a-db76-4658-9e08-dee0f34d2dc5",
    "data": [
      {
        "text": "is my alarm set",
        "userDefined": false
      }
    ],
    "isTemplate": false,
    "count": 0,
    "updated": 0
  },
  {
    "id": "6c06fb57-9be3-4cdd-8448-d18599416b7c",
    "data": [
      {
        "text": "all",
        "alias": "all",
        "meta": "@all",
        "userDefined": true
      },
      {
        "text": " my alarms",
        "userDefined": false
      }
    ],
    "isTemplate": false,
    "count": 0,
    "updated": 0
  },
  {
    "id": "caad0a39-b441-4eb4-b4fb-97bcb00c3140",
    "data": [
      {
        "text": "is my ",
        "userDefined": false
      },
      {
        "text": "Work",
        "alias": "alarm-name",
        "meta": "@sys.any",
        "userDefined": true
      },
      {
        "text": " alarm on",
        "userDefined": false
      }
    ],
    "isTemplate": false,
    "count": 0,
    "updated": 0
  },
  {
    "id": "80d8b413-f33a-49d6-86c4-5bcfcefb1a14",
    "data": [
      {
        "text": "what time did you set the alarm for",
        "userDefined": false
      }
    ],
    "isTemplate": false,
    "count": 0,
    "updated": 0
  },
  {
    "id": "3eff6c98-f24e-43eb-a68a-85b9effb7807",
    "data": [
      {
        "text": "is my ",
        "userDefined": false
      },
      {
        "text": "daily",
        "alias": "recurrence",
        "meta": "@recurrence",
        "userDefined": true
      },
      {
        "text": " alarm set for ",
        "userDefined": false
      },
      {
        "text": "10 am",
        "alias": "time",
        "meta": "@sys.time",
        "userDefined": true
      }
    ],
    "isTemplate": false,
    "count": 0,
    "updated": 0
  },
  {
    "id": "87e6c248-9e45-4d3e-a159-04694f4db1c6",
    "data": [
      {
        "text": "my alarms set for ",
        "userDefined": false
      },
      {
        "text": "8 am",
        "alias": "time",
        "meta": "@sys.time",
        "userDefined": true
      }
    ],
    "isTemplate": false,
    "count": 0,
    "updated": 0
  },
  {
    "id": "efbd76b7-8f76-4a43-bcb7-80300e0efcb8",
    "data": [
      {
        "text": "did you set that alarm for ",
        "userDefined": false
      },
      {
        "text": "6:30",
        "alias": "time",
        "meta": "@sys.time",
        "userDefined": true
      }
    ],
    "isTemplate": false,
    "count": 0,
    "updated": 0
  },
  {
    "id": "0b608b91-2e45-41c5-90cd-9484e193005c",
    "data": [
      {
        "text": "for what time do I have my alarm set",
        "userDefined": false
      }
    ],
    "isTemplate": false,
    "count": 0,
    "updated": 0
  },
  {
    "id": "7ed9a58a-4021-41f5-9174-5b2d726a9ae6",
    "data": [
      {
        "text": "check alarms at ",
        "userDefined": false
      },
      {
        "text": "9:30 pm",
        "alias": "time",
        "meta": "@sys.time",
        "userDefined": true
      }
    ],
    "isTemplate": false,
    "count": 0,
    "updated": 0
  },
  {
    "id": "3343d692-b35b-42a1-b31d-9560d0c1fcf9",
    "data": [
      {
        "text": "pull up the list of ",
        "userDefined": false
      },
      {
        "text": "all",
        "alias": "all",
        "meta": "@all",
        "userDefined": true
      },
      {
        "text": " my alarms",
        "userDefined": false
      }
    ],
    "isTemplate": false,
    "count": 0,
    "updated": 0
  },
  {
    "id": "5fdce8af-e223-47cd-ada9-857dd9561a51",
    "data": [
      {
        "text": "how many alarms do I have for the ",
        "userDefined": false
      },
      {
        "text": "morning",
        "alias": "time-period",
        "meta": "@sys.time-period",
        "userDefined": true
      }
    ],
    "isTemplate": false,
    "count": 0,
    "updated": 0
  },
  {
    "id": "00695306-f905-4f3a-bb54-71cb07d3dad8",
    "data": [
      {
        "text": "show my alarm called ",
        "userDefined": false
      },
      {
        "text": "Gym",
        "alias": "alarm-name",
        "meta": "@sys.any",
        "userDefined": true
      }
    ],
    "isTemplate": false,
    "count": 0,
    "updated": 0
  },
  {
    "id": "d55652f7-d05c-4ad3-8229-c17cc721438f",
    "data": [
      {
        "text": "do I have any alarms set",
        "userDefined": false
      }
    ],
    "isTemplate": false,
    "count": 0,
    "updated": 0
  },
  {
    "id": "af798492-3798-4079-abde-5c7cb2a57eab",
    "data": [
      {
        "text": "do I have any alarms set for ",
        "userDefined": false
      },
      {
        "text": "June 22",
        "alias": "date",
        "meta": "@sys.date",
        "userDefined": true
      }
    ],
    "isTemplate": false,
    "count": 0,
    "updated": 0
  },
  {
    "id": "8131c538-c0a3-4800-8a8d-52daf070694d",
    "data": [
      {
        "text": "check my alarm for ",
        "userDefined": false
      },
      {
        "text": "6 am",
        "alias": "time",
        "meta": "@sys.time",
        "userDefined": true
      }
    ],
    "isTemplate": false,
    "count": 0,
    "updated": 0
  },
  {
    "id": "0eda03bb-7923-4894-a950-5f2a297449fc",
    "data": [
      {
        "text": "show my alarms",
        "userDefined": false
      }
    ],
    "isTemplate": false,
    "count": 0,
    "updated": 0
  },
  {
    "id": "da4f170b-5f9c-4b70-8fb8-bc6388205069",
    "data": [
      {
        "text": "alarms list",
        "userDefined": false
      }
    ],
    "isTemplate": false,
    "count": 0,
    "updated": 0
  },
  {
    "id": "3855a67f-621a-4ee1-9eee-dc46dd5bb1db",
    "data": [
      {
        "text": "I\u0027d like to see my alarms",
        "userDefined": false
      }
    ],
    "isTemplate": false,
    "count": 0,
    "updated": 0
  },
  {
    "id": "3fbcc1fd-f14b-4e8c-9daa-ab591c064b1a",
    "data": [
      {
        "text": "at what time do you wake me up on ",
        "userDefined": false
      },
      {
        "text": "Mondays",
        "alias": "recurrence",
        "meta": "@recurrence",
        "userDefined": true
      }
    ],
    "isTemplate": false,
    "count": 0,
    "updated": 0
  },
  {
    "id": "2d422c95-f33f-4a0a-8332-95bfa384cb54",
    "data": [
      {
        "text": "alarms list for ",
        "userDefined": false
      },
      {
        "text": "next week",
        "alias": "date-period",
        "meta": "@sys.date-period",
        "userDefined": true
      }
    ],
    "isTemplate": false,
    "count": 0,
    "updated": 0
  },
  {
    "id": "02fbd876-2c3b-4868-8883-13c3cc7f6350",
    "data": [
      {
        "text": "did you set the alarm for ",
        "userDefined": false
      },
      {
        "text": "10 am",
        "alias": "time",
        "meta": "@sys.time",
        "userDefined": true
      }
    ],
    "isTemplate": false,
    "count": 0,
    "updated": 0
  },
  {
    "id": "12b9f572-822d-4de0-a47b-2f4cd2fe5b57",
    "data": [
      {
        "text": "I\u0027d like to see my ",
        "userDefined": false
      },
      {
        "text": "daily",
        "alias": "recurrence",
        "meta": "@recurrence",
        "userDefined": true
      },
      {
        "text": " alarms",
        "userDefined": false
      }
    ],
    "isTemplate": false,
    "count": 0,
    "updated": 0
  },
  {
    "id": "7391437c-b819-480f-bd0c-d30d7ccdad50",
    "data": [
      {
        "text": "what time is my alarm set for",
        "userDefined": false
      }
    ],
    "isTemplate": false,
    "count": 0,
    "updated": 0
  },
  {
    "id": "c18f98f0-bc9b-4653-865a-8b368415d69e",
    "data": [
      {
        "text": "do I have any alarms ",
        "userDefined": false
      },
      {
        "text": "tomorrow",
        "alias": "date",
        "meta": "@sys.date",
        "userDefined": true
      },
      {
        "text": " at ",
        "userDefined": false
      },
      {
        "text": "9",
        "alias": "time",
        "meta": "@sys.time",
        "userDefined": true
      }
    ],
    "isTemplate": false,
    "count": 0,
    "updated": 0
  }
]