{
  "id": "ccb03ac4-6dd3-4ed3-a17d-786b779e63bb",
  "name": "alarm.remove - context:alarm-remove",
  "auto": true,
  "contexts": [
    "alarm-remove"
  ],
  "responses": [
    {
      "resetContexts": false,
      "action": "alarm.remove",
      "affectedContexts": [],
      "parameters": [
        {
          "id": "35f0c6b1-72a2-439f-a798-617157dff248",
          "required": false,
          "dataType": "@sys.time",
          "name": "time",
          "value": "$time",
          "promptMessages": [],
          "noMatchPromptMessages": [],
          "noInputPromptMessages": [],
          "outputDialogContexts": [],
          "isList": false
        },
        {
          "id": "1ad9a7bd-7da2-45bc-a5b2-266ba7408e74",
          "required": false,
          "dataType": "@sys.date",
          "name": "date",
          "value": "$date",
          "promptMessages": [],
          "noMatchPromptMessages": [],
          "noInputPromptMessages": [],
          "outputDialogContexts": [],
          "isList": false
        },
        {
          "id": "3cf6cd6e-4dac-434a-aeec-d5c4ba6a5ced",
          "required": false,
          "dataType": "@recurrence",
          "name": "recurrence",
          "value": "$recurrence",
          "promptMessages": [],
          "noMatchPromptMessages": [],
          "noInputPromptMessages": [],
          "outputDialogContexts": [],
          "isList": false
        },
        {
          "id": "ce013af8-cdf5-48eb-b3ce-d0792150ec5e",
          "required": false,
          "dataType": "@all",
          "name": "all",
          "value": "$all",
          "promptMessages": [],
          "noMatchPromptMessages": [],
          "noInputPromptMessages": [],
          "outputDialogContexts": [],
          "isList": false
        }
      ],
      "messages": [
        {
          "type": 0,
          "lang": "en",
          "condition": "",
          "speech": []
        }
      ],
      "defaultResponsePlatforms": {},
      "speech": []
    }
  ],
  "priority": 500000,
  "webhookUsed": false,
  "webhookForSlotFilling": false,
  "fallbackIntent": false,
  "events": [],
  "conditionalResponses": [],
  "condition": "",
  "conditionalFollowupEvents": []
}