{
  "id": "38c3fc07-e999-43fc-806b-25e790e0f494",
  "name": "app.current.rate",
  "auto": true,
  "contexts": [],
  "responses": [
    {
      "resetContexts": false,
      "action": "app.current.rate",
      "affectedContexts": [],
      "parameters": [
        {
          "id": "897d4d46-53f0-40e6-8cb6-5a06b38ec925",
          "required": false,
          "dataType": "@sys.number",
          "name": "stars",
          "value": "$stars",
          "promptMessages": [],
          "noMatchPromptMessages": [],
          "noInputPromptMessages": [],
          "outputDialogContexts": [],
          "isList": false
        },
        {
          "id": "b0823c0f-3069-4036-9fc8-99afff7b95e2",
          "required": false,
          "dataType": "@app-store-name",
          "name": "store-name",
          "value": "$store-name",
          "promptMessages": [],
          "noMatchPromptMessages": [],
          "noInputPromptMessages": [],
          "outputDialogContexts": [],
          "isList": false
        }
      ],
      "messages": [
        {
          "type": 0,
          "lang": "en",
          "condition": "",
          "speech": []
        }
      ],
      "defaultResponsePlatforms": {},
      "speech": []
    }
  ],
  "priority": 500000,
  "webhookUsed": false,
  "webhookForSlotFilling": false,
  "fallbackIntent": false,
  "events": [],
  "conditionalResponses": [],
  "condition": "",
  "conditionalFollowupEvents": []
}