[
  {
    "id": "5c4890f3-98e8-465a-98a1-6cfc933ddf4f",
    "data": [
      {
        "text": "could you clear our conversations history",
        "userDefined": false
      }
    ],
    "isTemplate": false,
    "count": 0,
    "updated": 0
  },
  {
    "id": "39343f6c-ef34-4512-834a-d8ecaba21ec0",
    "data": [
      {
        "text": "clear history",
        "userDefined": false
      }
    ],
    "isTemplate": false,
    "count": 0,
    "updated": 0
  },
  {
    "id": "7c64b930-b50a-4eeb-89b0-54ad8fbe4433",
    "data": [
      {
        "text": "forget our conversations",
        "userDefined": false
      }
    ],
    "isTemplate": false,
    "count": 0,
    "updated": 0
  },
  {
    "id": "9d49eef9-6f75-4b87-88bb-82c5d9e67ec7",
    "data": [
      {
        "text": "forget what I just said",
        "userDefined": false
      }
    ],
    "isTemplate": false,
    "count": 0,
    "updated": 0
  },
  {
    "id": "45c43950-4c39-401a-aebe-0497b958631c",
    "data": [
      {
        "text": "erase ",
        "userDefined": false
      },
      {
        "text": "all",
        "meta": "@sys.ignore",
        "userDefined": false
      },
      {
        "text": " our conversations",
        "userDefined": false
      }
    ],
    "isTemplate": false,
    "count": 0,
    "updated": 0
  },
  {
    "id": "163bb50f-2932-4395-aa74-10781b559ec2",
    "data": [
      {
        "text": "clear the history of our conversations",
        "userDefined": false
      }
    ],
    "isTemplate": false,
    "count": 0,
    "updated": 0
  }
]