[
  {
    "id": "02ff67a7-0c7f-4671-b4d7-d6bca10f75d5",
    "data": [
      {
        "text": "what can ",
        "userDefined": false
      },
      {
        "text": "Google Assistant",
        "alias": "app-name",
        "meta": "@app-name",
        "userDefined": true
      },
      {
        "text": " do",
        "userDefined": false
      }
    ],
    "isTemplate": false,
    "count": 0,
    "updated": 0
  },
  {
    "id": "52bde5b0-c3c3-40fa-b149-1429269635b1",
    "data": [
      {
        "text": "could you open ",
        "userDefined": false
      },
      {
        "text": "Facebook",
        "alias": "app-name",
        "meta": "@app-name",
        "userDefined": false
      },
      {
        "text": " skills",
        "userDefined": false
      }
    ],
    "isTemplate": false,
    "count": 0,
    "updated": 0
  },
  {
    "id": "48886c90-0fd4-4578-a65f-64842007dc58",
    "data": [
      {
        "text": "what can I do in ",
        "userDefined": false
      },
      {
        "text": "Google Keep",
        "alias": "app-name",
        "meta": "@app-name",
        "userDefined": true
      }
    ],
    "isTemplate": false,
    "count": 0,
    "updated": 0
  },
  {
    "id": "500f2d08-3d0c-4d89-91e4-4ec8c126e3f6",
    "data": [
      {
        "text": "I\u0027d like to see ",
        "userDefined": false
      },
      {
        "text": "Slack",
        "alias": "app-name",
        "meta": "@app-name",
        "userDefined": false
      },
      {
        "text": " skills",
        "userDefined": false
      }
    ],
    "isTemplate": false,
    "count": 0,
    "updated": 0
  },
  {
    "id": "7075fdb8-728a-4d6b-869f-b8c8a55b9c7d",
    "data": [
      {
        "text": "show me ",
        "userDefined": false
      },
      {
        "text": "Skype",
        "alias": "app-name",
        "meta": "@app-name",
        "userDefined": true
      },
      {
        "text": " skills",
        "userDefined": false
      }
    ],
    "isTemplate": false,
    "count": 0,
    "updated": 0
  },
  {
    "id": "054500a2-81ef-4394-a113-9ded6faaba18",
    "data": [
      {
        "text": "pull up ",
        "userDefined": false
      },
      {
        "text": "Allo",
        "alias": "app-name",
        "meta": "@app-name",
        "userDefined": true
      },
      {
        "text": " skills",
        "userDefined": false
      }
    ],
    "isTemplate": false,
    "count": 0,
    "updated": 0
  }
]