{
  "id": "47a8ed66-87b0-4d6a-8864-0efc60072f72",
  "name": "app.rate",
  "auto": true,
  "contexts": [],
  "responses": [
    {
      "resetContexts": false,
      "action": "app.rate",
      "affectedContexts": [],
      "parameters": [
        {
          "id": "29b7eb6d-8e29-418f-be6b-49109a6832c1",
          "required": false,
          "dataType": "@app-name",
          "name": "app-name",
          "value": "$app-name",
          "promptMessages": [],
          "noMatchPromptMessages": [],
          "noInputPromptMessages": [],
          "outputDialogContexts": [],
          "isList": false
        },
        {
          "id": "ac6c8565-fe12-4097-b71c-f9feceedab5a",
          "required": false,
          "dataType": "@app-store-name",
          "name": "store-name",
          "value": "$store-name",
          "promptMessages": [],
          "noMatchPromptMessages": [],
          "noInputPromptMessages": [],
          "outputDialogContexts": [],
          "isList": false
        },
        {
          "id": "6c1ecdc4-5cc6-4315-83d8-462ee5537060",
          "required": false,
          "dataType": "@sys.number",
          "name": "star",
          "value": "$star",
          "promptMessages": [],
          "noMatchPromptMessages": [],
          "noInputPromptMessages": [],
          "outputDialogContexts": [],
          "isList": false
        }
      ],
      "messages": [
        {
          "type": 0,
          "lang": "en",
          "condition": "",
          "speech": []
        }
      ],
      "defaultResponsePlatforms": {},
      "speech": []
    }
  ],
  "priority": 500000,
  "webhookUsed": false,
  "webhookForSlotFilling": false,
  "fallbackIntent": false,
  "events": [],
  "conditionalResponses": [],
  "condition": "",
  "conditionalFollowupEvents": []
}