[
  {
    "id": "d1ee7fff-264a-4866-b378-f17c9d102094",
    "data": [
      {
        "text": "close settings",
        "userDefined": false
      }
    ],
    "isTemplate": false,
    "count": 0,
    "updated": 0
  },
  {
    "id": "0461d888-5fe4-4f35-a33c-06bdb1dca6c1",
    "data": [
      {
        "text": "could you close your settings",
        "userDefined": false
      }
    ],
    "isTemplate": false,
    "count": 0,
    "updated": 0
  },
  {
    "id": "63c93626-e399-43e6-aaa0-922db8f2294b",
    "data": [
      {
        "text": "I\u0027d like to close your settings",
        "userDefined": false
      }
    ],
    "isTemplate": false,
    "count": 0,
    "updated": 0
  },
  {
    "id": "e313c462-c4de-4562-a460-359ae7a30723",
    "data": [
      {
        "text": "how do I close the settings of this app",
        "userDefined": false
      }
    ],
    "isTemplate": false,
    "count": 0,
    "updated": 0
  },
  {
    "id": "b8d075d7-9509-4a4e-8337-c735f340c772",
    "data": [
      {
        "text": "exit settings",
        "userDefined": false
      }
    ],
    "isTemplate": false,
    "count": 0,
    "updated": 0
  },
  {
    "id": "8d00bcca-55dd-4aab-a6bc-26a02021ab9f",
    "data": [
      {
        "text": "leave the settings",
        "userDefined": false
      }
    ],
    "isTemplate": false,
    "count": 0,
    "updated": 0
  },
  {
    "id": "ac7bc4a8-9cb5-4994-a797-75cc4a67fea3",
    "data": [
      {
        "text": "get out of your settings",
        "userDefined": false
      }
    ],
    "isTemplate": false,
    "count": 1,
    "updated": 0
  },
  {
    "id": "1edb4549-7c7f-48d0-bb1f-7d63ef385df9",
    "data": [
      {
        "text": "close your settings",
        "userDefined": false
      }
    ],
    "isTemplate": false,
    "count": 0,
    "updated": 0
  },
  {
    "id": "7c9a9be9-5a11-4844-8834-9f7a5b3003b4",
    "data": [
      {
        "text": "exit this app\u0027s settings",
        "userDefined": false
      }
    ],
    "isTemplate": false,
    "count": 0,
    "updated": 0
  }
]