{
  "id": "eac78767-06e2-46ab-b5e5-3ab390f6dd90",
  "name": "calculator.tips - context:tips",
  "auto": true,
  "contexts": [
    "calculator-tips"
  ],
  "responses": [
    {
      "resetContexts": false,
      "action": "calculator.tips",
      "affectedContexts": [],
      "parameters": [
        {
          "id": "bc40a840-cdad-46fc-8aca-adbc6ffc8421",
          "required": false,
          "dataType": "@sys.percentage",
          "name": "tip-percentage",
          "value": "$tip-percentage",
          "promptMessages": [],
          "noMatchPromptMessages": [],
          "noInputPromptMessages": [],
          "outputDialogContexts": [],
          "isList": false
        },
        {
          "id": "2a607c5b-e3c6-4e4f-91da-39a787c1f2a5",
          "required": false,
          "dataType": "@sys.currency-name",
          "name": "currency",
          "value": "$currency",
          "promptMessages": [],
          "noMatchPromptMessages": [],
          "noInputPromptMessages": [],
          "outputDialogContexts": [],
          "isList": false
        },
        {
          "id": "82169720-a5c0-45d8-a5b3-07c67baa85cc",
          "required": false,
          "dataType": "@sys.number",
          "name": "amount-without-tip",
          "value": "$amount-without-tip",
          "promptMessages": [],
          "noMatchPromptMessages": [],
          "noInputPromptMessages": [],
          "outputDialogContexts": [],
          "isList": false
        },
        {
          "id": "ff28be20-4407-4e65-9936-161a1682227b",
          "required": false,
          "dataType": "@sys.number",
          "name": "people-number",
          "value": "$people-number",
          "promptMessages": [],
          "noMatchPromptMessages": [],
          "noInputPromptMessages": [],
          "outputDialogContexts": [],
          "isList": false
        }
      ],
      "messages": [
        {
          "type": 0,
          "lang": "en",
          "condition": "",
          "speech": []
        }
      ],
      "defaultResponsePlatforms": {},
      "speech": []
    }
  ],
  "priority": 500000,
  "webhookUsed": false,
  "webhookForSlotFilling": false,
  "fallbackIntent": false,
  "events": [],
  "conditionalResponses": [],
  "condition": "",
  "conditionalFollowupEvents": []
}