{
  "id": "74044460-1ebf-4cb2-b332-e8148810d1fd",
  "name": "car.seat_heater.schedule.down",
  "auto": true,
  "contexts": [],
  "responses": [
    {
      "resetContexts": false,
      "action": "car.seat_heater.schedule.down",
      "affectedContexts": [],
      "parameters": [
        {
          "id": "1a40378c-33c8-4561-b488-80fb39f97f75",
          "required": false,
          "dataType": "@car-part",
          "name": "car-part",
          "value": "$car-part",
          "promptMessages": [],
          "noMatchPromptMessages": [],
          "noInputPromptMessages": [],
          "outputDialogContexts": [],
          "isList": false
        },
        {
          "id": "61f329f7-e588-4fce-9fcb-81a03f12d96b",
          "required": false,
          "dataType": "@condition",
          "name": "condition",
          "value": "$condition",
          "promptMessages": [],
          "noMatchPromptMessages": [],
          "noInputPromptMessages": [],
          "outputDialogContexts": [],
          "isList": false
        },
        {
          "id": "8e183ae7-0b11-4ea8-8542-1ce6dc9174e6",
          "required": false,
          "dataType": "@sys.given-name",
          "name": "passenger",
          "value": "$passenger",
          "promptMessages": [],
          "noMatchPromptMessages": [],
          "noInputPromptMessages": [],
          "outputDialogContexts": [],
          "isList": false
        }
      ],
      "messages": [
        {
          "type": 0,
          "lang": "en",
          "condition": "",
          "speech": []
        }
      ],
      "defaultResponsePlatforms": {},
      "speech": []
    }
  ],
  "priority": 500000,
  "webhookUsed": false,
  "webhookForSlotFilling": false,
  "fallbackIntent": false,
  "events": [],
  "conditionalResponses": [],
  "condition": "",
  "conditionalFollowupEvents": []
}