[
  {
    "id": "d284bc57-0442-489b-82ba-af4458f23d30",
    "data": [
      {
        "text": "switch off the ",
        "userDefined": false
      },
      {
        "text": "alarm",
        "meta": "@sys.ignore",
        "userDefined": false
      },
      {
        "text": " in my car",
        "userDefined": false
      }
    ],
    "isTemplate": false,
    "count": 0,
    "updated": 0
  },
  {
    "id": "097dfdd9-6ea7-4d75-b973-a697aace41e4",
    "data": [
      {
        "text": "switch off the ",
        "userDefined": false
      },
      {
        "text": "alarm",
        "meta": "@sys.ignore",
        "userDefined": false
      },
      {
        "text": " system in my car",
        "userDefined": false
      }
    ],
    "isTemplate": false,
    "count": 0,
    "updated": 0
  },
  {
    "id": "cd8edb2a-4303-4bc0-acd1-f5cfb8429b1b",
    "data": [
      {
        "text": "turn the ",
        "userDefined": false
      },
      {
        "text": "alarm",
        "meta": "@sys.ignore",
        "userDefined": false
      },
      {
        "text": " system off for the car",
        "userDefined": false
      }
    ],
    "isTemplate": false,
    "count": 0,
    "updated": 0
  },
  {
    "id": "b4b85f87-703a-45f0-8b6d-f3c4e727a4c6",
    "data": [
      {
        "text": "remove the ",
        "userDefined": false
      },
      {
        "text": "alarm",
        "meta": "@sys.ignore",
        "userDefined": false
      },
      {
        "text": " in my car",
        "userDefined": false
      }
    ],
    "isTemplate": false,
    "count": 0,
    "updated": 0
  },
  {
    "id": "2404ca36-cd63-4067-b41a-012317411a12",
    "data": [
      {
        "text": "turn off the car ",
        "userDefined": false
      },
      {
        "text": "alarm",
        "meta": "@sys.ignore",
        "userDefined": false
      }
    ],
    "isTemplate": false,
    "count": 0,
    "updated": 0
  },
  {
    "id": "a1f29f39-98d1-4625-a15e-6bef7f29f8dc",
    "data": [
      {
        "text": "turn off ",
        "userDefined": false
      },
      {
        "text": "alarm",
        "meta": "@sys.ignore",
        "userDefined": false
      },
      {
        "text": " system of my car",
        "userDefined": false
      }
    ],
    "isTemplate": false,
    "count": 0,
    "updated": 0
  },
  {
    "id": "ce94c71f-3d4f-450f-b7f9-680a734bc79f",
    "data": [
      {
        "text": "turn off the alarm in my car",
        "userDefined": false
      }
    ],
    "isTemplate": false,
    "count": 1,
    "updated": 0
  }
]