{
  "id": "f2d50b46-7d47-479c-b629-d067b89af0fd",
  "name": "car.locks.unlock- context:car-lock-unlock",
  "auto": true,
  "contexts": [
    "car-lock-unlock"
  ],
  "responses": [
    {
      "resetContexts": false,
      "action": "car.locks.unlock",
      "affectedContexts": [],
      "parameters": [
        {
          "id": "df2c8a82-a0f7-45ac-ab46-40e1d419cc89",
          "required": false,
          "dataType": "",
          "name": "car-part",
          "value": "#car-lock-unlock.car-part",
          "promptMessages": [],
          "noMatchPromptMessages": [],
          "noInputPromptMessages": [],
          "outputDialogContexts": [],
          "isList": false
        },
        {
          "id": "4c341c74-ab39-41d2-a54d-688170b3a593",
          "required": false,
          "dataType": "",
          "name": "all",
          "value": "#car-lock-unlock.all",
          "promptMessages": [],
          "noMatchPromptMessages": [],
          "noInputPromptMessages": [],
          "outputDialogContexts": [],
          "isList": false
        }
      ],
      "messages": [
        {
          "type": 0,
          "lang": "en",
          "condition": "",
          "speech": []
        }
      ],
      "defaultResponsePlatforms": {},
      "speech": []
    }
  ],
  "priority": 500000,
  "webhookUsed": false,
  "webhookForSlotFilling": false,
  "fallbackIntent": false,
  "events": [],
  "conditionalResponses": [],
  "condition": "",
  "conditionalFollowupEvents": []
}