{
  "id": "535598f7-4ef7-4b9b-9025-3c8f1975d9a5",
  "name": "car.lights.brightness.down - context:car-brightness - comment:not dim enough",
  "auto": true,
  "contexts": [
    "car-brightness"
  ],
  "responses": [
    {
      "resetContexts": false,
      "action": "car.lights.brightness.down",
      "affectedContexts": [],
      "parameters": [],
      "messages": [
        {
          "type": 0,
          "lang": "en",
          "condition": "",
          "speech": []
        }
      ],
      "defaultResponsePlatforms": {},
      "speech": []
    }
  ],
  "priority": 500000,
  "webhookUsed": false,
  "webhookForSlotFilling": false,
  "fallbackIntent": false,
  "events": [],
  "conditionalResponses": [],
  "condition": "",
  "conditionalFollowupEvents": []
}