[
  {
    "id": "72b38643-7aa0-4dc8-afa9-0c92af9e21df",
    "data": [
      {
        "text": "turn ",
        "userDefined": false
      },
      {
        "text": "down",
        "meta": "@sys.ignore",
        "userDefined": true
      },
      {
        "text": " the temperature of the ",
        "userDefined": false
      },
      {
        "text": "driver\u0027s seat",
        "alias": "car-part",
        "meta": "@car-seat",
        "userDefined": true
      }
    ],
    "isTemplate": false,
    "count": 0,
    "updated": 0
  },
  {
    "id": "22d131a8-1cde-4197-89d6-159e37173886",
    "data": [
      {
        "text": "decrease the ",
        "userDefined": false
      },
      {
        "text": "heater",
        "meta": "@sys.ignore",
        "userDefined": true
      },
      {
        "text": " for ",
        "userDefined": false
      },
      {
        "text": "baby seat",
        "alias": "car-part",
        "meta": "@car-seat",
        "userDefined": true
      }
    ],
    "isTemplate": false,
    "count": 0,
    "updated": 0
  },
  {
    "id": "3f54bad1-d07e-4829-8119-4e8ddec39b57",
    "data": [
      {
        "text": "make ",
        "userDefined": false
      },
      {
        "text": "my seat",
        "alias": "car-part",
        "meta": "@car-seat",
        "userDefined": true
      },
      {
        "text": " cooler",
        "userDefined": false
      }
    ],
    "isTemplate": false,
    "count": 0,
    "updated": 0
  },
  {
    "id": "72a37dd9-413e-4902-b35b-4923528707f9",
    "data": [
      {
        "text": "turn the ",
        "userDefined": false
      },
      {
        "text": "heater",
        "meta": "@sys.ignore",
        "userDefined": true
      },
      {
        "text": " for both ",
        "userDefined": false
      },
      {
        "text": "front seats",
        "alias": "car-part",
        "meta": "@car-seat",
        "userDefined": true
      },
      {
        "text": " ",
        "userDefined": false
      },
      {
        "text": "down",
        "meta": "@sys.ignore",
        "userDefined": true
      }
    ],
    "isTemplate": false,
    "count": 0,
    "updated": 0
  },
  {
    "id": "f343e178-afee-4b17-8682-4f10d77061e5",
    "data": [
      {
        "text": "make the ",
        "userDefined": false
      },
      {
        "text": "driver\u0027s seat",
        "alias": "car-part",
        "meta": "@car-seat",
        "userDefined": true
      },
      {
        "text": " ",
        "userDefined": false
      },
      {
        "text": "5",
        "alias": "temperature",
        "meta": "@sys.number",
        "userDefined": true
      },
      {
        "text": " degrees colder",
        "userDefined": false
      }
    ],
    "isTemplate": false,
    "count": 0,
    "updated": 0
  },
  {
    "id": "ca234893-8375-4102-a2f7-31f334e5438e",
    "data": [
      {
        "text": "make ",
        "userDefined": false
      },
      {
        "text": "it",
        "meta": "@sys.ignore",
        "userDefined": true
      },
      {
        "text": " colder ",
        "userDefined": false
      },
      {
        "text": "for",
        "meta": "@sys.ignore",
        "userDefined": true
      },
      {
        "text": " ",
        "userDefined": false
      },
      {
        "text": "Maggie",
        "alias": "passenger",
        "meta": "@sys.given-name",
        "userDefined": true
      }
    ],
    "isTemplate": false,
    "count": 0,
    "updated": 0
  },
  {
    "id": "404a29be-c4a4-484e-862d-f4b7e864aeac",
    "data": [
      {
        "text": "turn",
        "meta": "@sys.ignore",
        "userDefined": true
      },
      {
        "text": " ",
        "userDefined": false
      },
      {
        "text": "down",
        "meta": "@sys.ignore",
        "userDefined": true
      },
      {
        "text": " the ",
        "userDefined": false
      },
      {
        "text": "air conditioning",
        "meta": "@sys.ignore",
        "userDefined": true
      },
      {
        "text": " for ",
        "userDefined": false
      },
      {
        "text": "my seat",
        "alias": "car-part",
        "meta": "@car-seat",
        "userDefined": true
      }
    ],
    "isTemplate": false,
    "count": 0,
    "updated": 0
  },
  {
    "id": "dcc2d713-648f-41bb-8cd1-354c4f649bf7",
    "data": [
      {
        "text": "turn ",
        "userDefined": false
      },
      {
        "text": "down",
        "meta": "@sys.ignore",
        "userDefined": true
      },
      {
        "text": " the ",
        "userDefined": false
      },
      {
        "text": "heater",
        "meta": "@sys.ignore",
        "userDefined": true
      },
      {
        "text": " for ",
        "userDefined": false
      },
      {
        "text": "each",
        "alias": "all",
        "meta": "@all",
        "userDefined": true
      },
      {
        "text": " seat in ",
        "userDefined": false
      },
      {
        "text": "the car",
        "meta": "@sys.ignore",
        "userDefined": true
      }
    ],
    "isTemplate": false,
    "count": 0,
    "updated": 0
  },
  {
    "id": "30b496a4-3868-49ca-a3f8-7ce78e43dfc7",
    "data": [
      {
        "text": "the ",
        "userDefined": false
      },
      {
        "text": "driver\u0027s seat",
        "alias": "car-part",
        "meta": "@car-seat",
        "userDefined": true
      },
      {
        "text": " is too hot",
        "userDefined": false
      }
    ],
    "isTemplate": false,
    "count": 0,
    "updated": 0
  },
  {
    "id": "538a878f-6836-4b18-9729-6b5f44710bd6",
    "data": [
      {
        "text": "it\u0027s too hot in the ",
        "userDefined": false
      },
      {
        "text": "rear seats",
        "alias": "car-part",
        "meta": "@car-seat",
        "userDefined": true
      }
    ],
    "isTemplate": false,
    "count": 0,
    "updated": 0
  },
  {
    "id": "9f15a6ab-fee2-41b6-8705-3ca2b5f74b27",
    "data": [
      {
        "text": "turn the ",
        "userDefined": false
      },
      {
        "text": "heater",
        "meta": "@sys.ignore",
        "userDefined": true
      },
      {
        "text": " for ",
        "userDefined": false
      },
      {
        "text": "rear left seat",
        "alias": "car-part",
        "meta": "@car-seat",
        "userDefined": true
      },
      {
        "text": " ",
        "userDefined": false
      },
      {
        "text": "down",
        "meta": "@sys.ignore",
        "userDefined": true
      }
    ],
    "isTemplate": false,
    "count": 0,
    "updated": 0
  },
  {
    "id": "6c623dfa-c295-4c98-95de-06214e2bc096",
    "data": [
      {
        "text": "turn down the temperature for ",
        "userDefined": false
      },
      {
        "text": "driver\u0027s seat",
        "alias": "car-part",
        "meta": "@car-seat",
        "userDefined": true
      }
    ],
    "isTemplate": false,
    "count": 0,
    "updated": 0
  },
  {
    "id": "9203076c-99e6-4108-91f4-ef92091bb0d1",
    "data": [
      {
        "text": "turn ",
        "userDefined": false
      },
      {
        "text": "down",
        "meta": "@sys.ignore",
        "userDefined": true
      },
      {
        "text": " the seat heater for ",
        "userDefined": false
      },
      {
        "text": "Mia",
        "alias": "passenger",
        "meta": "@sys.given-name",
        "userDefined": true
      }
    ],
    "isTemplate": false,
    "count": 0,
    "updated": 0
  },
  {
    "id": "9872b836-6ebf-43c7-9c08-7fbc3fa4ec8b",
    "data": [
      {
        "text": "make ",
        "userDefined": false
      },
      {
        "text": "Nolan\u0027s",
        "alias": "passenger",
        "meta": "@sys.given-name",
        "userDefined": true
      },
      {
        "text": " seat cooler",
        "userDefined": false
      }
    ],
    "isTemplate": false,
    "count": 0,
    "updated": 0
  },
  {
    "id": "3727186a-207c-4440-bd1f-a832c1ea5559",
    "data": [
      {
        "text": "can",
        "meta": "@sys.ignore",
        "userDefined": false
      },
      {
        "text": " you ",
        "userDefined": false
      },
      {
        "text": "lower",
        "meta": "@sys.ignore",
        "userDefined": false
      },
      {
        "text": " the ",
        "userDefined": false
      },
      {
        "text": "temperature",
        "meta": "@sys.ignore",
        "userDefined": false
      },
      {
        "text": " for ",
        "userDefined": false
      },
      {
        "text": "my seat",
        "alias": "car-part",
        "meta": "@car-seat",
        "userDefined": false
      }
    ],
    "isTemplate": false,
    "count": 0,
    "updated": 0
  },
  {
    "id": "afcfe5cd-dab2-4002-9326-64a703e4fbd6",
    "data": [
      {
        "text": "turn down the seat\u0027s temp for ",
        "userDefined": false
      },
      {
        "text": "Maggie",
        "alias": "passenger",
        "meta": "@sys.given-name",
        "userDefined": true
      }
    ],
    "isTemplate": false,
    "count": 0,
    "updated": 0
  },
  {
    "id": "7dfc375e-d288-4e37-9ee9-6d97dbdfe899",
    "data": [
      {
        "text": "make ",
        "userDefined": false
      },
      {
        "text": "my seat",
        "alias": "car-part",
        "meta": "@car-seat",
        "userDefined": true
      },
      {
        "text": " colder",
        "userDefined": false
      }
    ],
    "isTemplate": false,
    "count": 0,
    "updated": 0
  }
]