[
  {
    "id": "b397e593-c096-4e27-adfe-d7bf1e5d59aa",
    "data": [
      {
        "text": "check my cart",
        "userDefined": false
      }
    ],
    "isTemplate": false,
    "count": 0,
    "updated": 0
  },
  {
    "id": "fc693f87-a672-435d-971a-9f34e6076c88",
    "data": [
      {
        "text": "what\u0027s in my cart",
        "userDefined": false
      }
    ],
    "isTemplate": false,
    "count": 0,
    "updated": 0
  },
  {
    "id": "7d3a2101-065a-491f-b8ba-aa28652a538f",
    "data": [
      {
        "text": "check cart",
        "userDefined": false
      }
    ],
    "isTemplate": false,
    "count": 0,
    "updated": 0
  },
  {
    "id": "ff93dce7-4811-4e88-948b-f4d338477230",
    "data": [
      {
        "text": "what items are in my cart at the moment",
        "userDefined": false
      }
    ],
    "isTemplate": false,
    "count": 0,
    "updated": 0
  },
  {
    "id": "c81ef148-751a-482e-90b2-ec424ac359cf",
    "data": [
      {
        "text": "cart",
        "userDefined": false
      }
    ],
    "isTemplate": false,
    "count": 0,
    "updated": 0
  },
  {
    "id": "3b27a43f-42bf-4887-801b-a1f833b907dc",
    "data": [
      {
        "text": "check what\u0027s in my cart",
        "userDefined": false
      }
    ],
    "isTemplate": false,
    "count": 0,
    "updated": 0
  }
]