[
  {
    "id": "2599ab60-b570-47e8-8371-80dd6e74e9b3",
    "data": [
      {
        "text": "100",
        "alias": "amount",
        "meta": "@sys.number",
        "userDefined": true
      },
      {
        "text": " ",
        "userDefined": false
      },
      {
        "text": "Dinars",
        "alias": "currency-from",
        "meta": "@sys.currency-name",
        "userDefined": true
      }
    ],
    "isTemplate": false,
    "count": 0,
    "updated": 0
  },
  {
    "id": "a28913ad-0a85-43b1-ae72-34e9259d174d",
    "data": [
      {
        "text": "into ",
        "userDefined": false
      },
      {
        "text": "INR",
        "alias": "currency-to",
        "meta": "@sys.currency-name",
        "userDefined": true
      }
    ],
    "isTemplate": false,
    "count": 0,
    "updated": 0
  },
  {
    "id": "7baa4d45-590b-46e2-aa6d-d264ca5ddfe8",
    "data": [
      {
        "text": "and ",
        "userDefined": false
      },
      {
        "text": "30",
        "alias": "amount",
        "meta": "@sys.number",
        "userDefined": true
      },
      {
        "text": " ",
        "userDefined": false
      },
      {
        "text": "Yuan",
        "alias": "currency-from",
        "meta": "@sys.currency-name",
        "userDefined": true
      }
    ],
    "isTemplate": false,
    "count": 0,
    "updated": 0
  },
  {
    "id": "c5f529b0-a1c3-460b-ac3d-0419f0383722",
    "data": [
      {
        "text": "now into ",
        "userDefined": false
      },
      {
        "text": "Euros",
        "alias": "currency-to",
        "meta": "@sys.currency-name",
        "userDefined": true
      }
    ],
    "isTemplate": false,
    "count": 0,
    "updated": 0
  },
  {
    "id": "23d9147e-191a-42e9-8318-3d4306635d8f",
    "data": [
      {
        "text": "now ",
        "userDefined": false
      },
      {
        "text": "240",
        "alias": "amount",
        "meta": "@sys.number",
        "userDefined": true
      },
      {
        "text": " ",
        "userDefined": false
      },
      {
        "text": "GBP",
        "alias": "currency-from",
        "meta": "@sys.currency-name",
        "userDefined": true
      }
    ],
    "isTemplate": false,
    "count": 0,
    "updated": 0
  },
  {
    "id": "0cb1916b-22d5-452c-a185-9fa869a2cedb",
    "data": [
      {
        "text": "and in ",
        "userDefined": false
      },
      {
        "text": "Mexican Pesos",
        "alias": "currency-to",
        "meta": "@sys.currency-name",
        "userDefined": true
      }
    ],
    "isTemplate": false,
    "count": 0,
    "updated": 0
  },
  {
    "id": "9ca5e951-6c54-46b1-96d8-183e7c52a353",
    "data": [
      {
        "text": "convert it into ",
        "userDefined": false
      },
      {
        "text": "US Dollars",
        "alias": "currency-to",
        "meta": "@sys.currency-name",
        "userDefined": true
      }
    ],
    "isTemplate": false,
    "count": 0,
    "updated": 0
  }
]