[
  {
    "id": "57c07b19-74b2-4dd4-915f-94067718896e",
    "data": [
      {
        "text": "count the ",
        "userDefined": false
      },
      {
        "text": "days",
        "alias": "unit",
        "meta": "@unit-time",
        "userDefined": true
      },
      {
        "text": " between ",
        "userDefined": false
      },
      {
        "text": "Columbus Day",
        "alias": "holiday-1",
        "meta": "@holiday",
        "userDefined": true
      },
      {
        "text": " and ",
        "userDefined": false
      },
      {
        "text": "Christmas",
        "alias": "holiday-2",
        "meta": "@holiday",
        "userDefined": true
      }
    ],
    "isTemplate": false,
    "count": 0,
    "updated": 0
  },
  {
    "id": "816a4752-d515-4bf1-808b-3acfb8270646",
    "data": [
      {
        "text": "how many ",
        "userDefined": false
      },
      {
        "text": "weeks",
        "alias": "unit",
        "meta": "@unit-time",
        "userDefined": true
      },
      {
        "text": " between ",
        "userDefined": false
      },
      {
        "text": "Independence Day",
        "alias": "holiday-1",
        "meta": "@holiday",
        "userDefined": true
      },
      {
        "text": " and ",
        "userDefined": false
      },
      {
        "text": "Easter",
        "alias": "holiday-2",
        "meta": "@holiday",
        "userDefined": true
      }
    ],
    "isTemplate": false,
    "count": 0,
    "updated": 0
  },
  {
    "id": "3b072b4f-60fc-4380-8603-2145f300fd3d",
    "data": [
      {
        "text": "how many ",
        "userDefined": false
      },
      {
        "text": "days",
        "alias": "unit",
        "meta": "@unit-time",
        "userDefined": true
      },
      {
        "text": " are there between ",
        "userDefined": false
      },
      {
        "text": "Christmas",
        "alias": "holiday-1",
        "meta": "@holiday",
        "userDefined": true
      },
      {
        "text": " and ",
        "userDefined": false
      },
      {
        "text": "New Year",
        "alias": "holiday-2",
        "meta": "@holiday",
        "userDefined": true
      }
    ],
    "isTemplate": false,
    "count": 0,
    "updated": 0
  },
  {
    "id": "871f78b9-f329-4963-b590-11328ab04acd",
    "data": [
      {
        "text": "number of ",
        "userDefined": false
      },
      {
        "text": "hours",
        "alias": "unit",
        "meta": "@unit-time",
        "userDefined": true
      },
      {
        "text": " between ",
        "userDefined": false
      },
      {
        "text": "Columbus Day",
        "alias": "holiday-1",
        "meta": "@holiday",
        "userDefined": true
      },
      {
        "text": " and ",
        "userDefined": false
      },
      {
        "text": "Veterans Day",
        "alias": "holiday-2",
        "meta": "@holiday",
        "userDefined": true
      }
    ],
    "isTemplate": false,
    "count": 0,
    "updated": 0
  },
  {
    "id": "23aef553-95c4-4148-893d-27035c135de7",
    "data": [
      {
        "text": "check how many ",
        "userDefined": false
      },
      {
        "text": "weeks",
        "alias": "unit",
        "meta": "@unit-time",
        "userDefined": true
      },
      {
        "text": " are there between ",
        "userDefined": false
      },
      {
        "text": "Halloween",
        "alias": "holiday-1",
        "meta": "@holiday",
        "userDefined": true
      },
      {
        "text": " and ",
        "userDefined": false
      },
      {
        "text": "New Year",
        "alias": "holiday-2",
        "meta": "@holiday",
        "userDefined": true
      }
    ],
    "isTemplate": false,
    "count": 0,
    "updated": 0
  },
  {
    "id": "70cca1a8-723f-4aae-8c48-54076bf7a3be",
    "data": [
      {
        "text": "tell me how many ",
        "userDefined": false
      },
      {
        "text": "months",
        "alias": "unit",
        "meta": "@unit-time",
        "userDefined": true
      },
      {
        "text": " are between ",
        "userDefined": false
      },
      {
        "text": "Independence Day",
        "alias": "holiday-1",
        "meta": "@holiday",
        "userDefined": true
      },
      {
        "text": " and ",
        "userDefined": false
      },
      {
        "text": "Valentine\u0027s Day",
        "alias": "holiday-2",
        "meta": "@holiday",
        "userDefined": true
      }
    ],
    "isTemplate": false,
    "count": 0,
    "updated": 0
  },
  {
    "id": "b33fc998-902c-44f8-a92b-07ab7b916fa1",
    "data": [
      {
        "text": "calculate the number of ",
        "userDefined": false
      },
      {
        "text": "seconds",
        "alias": "unit",
        "meta": "@unit-time",
        "userDefined": true
      },
      {
        "text": " between ",
        "userDefined": false
      },
      {
        "text": "Thanksgiving",
        "alias": "holiday-1",
        "meta": "@holiday",
        "userDefined": true
      },
      {
        "text": " and ",
        "userDefined": false
      },
      {
        "text": "Halloween",
        "alias": "holiday-2",
        "meta": "@holiday",
        "userDefined": true
      }
    ],
    "isTemplate": false,
    "count": 0,
    "updated": 0
  }
]