{
  "id": "5e9bb155-e9b9-4c06-951a-e3989371887d",
  "name": "device.settings.onoff - context:device-settings-on-off",
  "auto": true,
  "contexts": [
    "device-switch-on-off"
  ],
  "responses": [
    {
      "resetContexts": false,
      "action": "#device-switch-on-off.intent_action",
      "affectedContexts": [],
      "parameters": [
        {
          "id": "1d45a43a-ae76-4701-a9c1-9a4558548486",
          "required": false,
          "dataType": "@device-module",
          "name": "module",
          "value": "$module",
          "promptMessages": [],
          "noMatchPromptMessages": [],
          "noInputPromptMessages": [],
          "outputDialogContexts": [],
          "isList": false
        }
      ],
      "messages": [
        {
          "type": 0,
          "lang": "en",
          "condition": "",
          "speech": []
        }
      ],
      "defaultResponsePlatforms": {},
      "speech": []
    }
  ],
  "priority": 500000,
  "webhookUsed": false,
  "webhookForSlotFilling": false,
  "fallbackIntent": false,
  "events": [],
  "conditionalResponses": [],
  "condition": "",
  "conditionalFollowupEvents": []
}