[
  {
    "id": "d52bcc1e-5dda-4ae8-be7c-f17ec28f9fa6",
    "data": [
      {
        "text": "unlock the screen",
        "userDefined": false
      }
    ],
    "isTemplate": false,
    "count": 0,
    "updated": 0
  },
  {
    "id": "3a5c3efa-7db6-4c31-93ed-371a05218020",
    "data": [
      {
        "text": "screen unlock",
        "userDefined": false
      }
    ],
    "isTemplate": false,
    "count": 0,
    "updated": 0
  },
  {
    "id": "7701dc39-0c6b-4c7e-89cf-a82cb38567ff",
    "data": [
      {
        "text": "unlock the phone",
        "userDefined": false
      }
    ],
    "isTemplate": false,
    "count": 0,
    "updated": 0
  },
  {
    "id": "a2b4d39a-2632-4f5a-aa0e-1967b0b5c144",
    "data": [
      {
        "text": "turn off screen lock",
        "userDefined": false
      }
    ],
    "isTemplate": false,
    "count": 0,
    "updated": 0
  },
  {
    "id": "3be3698e-1029-450b-b791-6ee1b7761d8b",
    "data": [
      {
        "text": "disable screen lock",
        "userDefined": false
      }
    ],
    "isTemplate": false,
    "count": 0,
    "updated": 0
  },
  {
    "id": "91bc4566-d66f-4457-ad1d-349d135c400d",
    "data": [
      {
        "text": "unlock lock screen",
        "userDefined": false
      }
    ],
    "isTemplate": false,
    "count": 0,
    "updated": 0
  },
  {
    "id": "9d0cc1af-16b5-4fda-8fd0-95fbb77c3383",
    "data": [
      {
        "text": "disable lock screen",
        "userDefined": false
      }
    ],
    "isTemplate": false,
    "count": 0,
    "updated": 0
  },
  {
    "id": "fb934dc9-6acf-44db-b10d-b4e0db1b2535",
    "data": [
      {
        "text": "unlock the home screen",
        "userDefined": false
      }
    ],
    "isTemplate": false,
    "count": 0,
    "updated": 0
  },
  {
    "id": "5f4171c5-d50d-4af9-a83a-e40e91c65223",
    "data": [
      {
        "text": "can you unlock the screen",
        "userDefined": false
      }
    ],
    "isTemplate": false,
    "count": 0,
    "updated": 0
  },
  {
    "id": "a142fac3-323b-4f5b-8101-a280cfc39d5a",
    "data": [
      {
        "text": "unlock my screen",
        "userDefined": false
      }
    ],
    "isTemplate": false,
    "count": 0,
    "updated": 0
  }
]