[
  {
    "id": "f71a3abf-5c2b-4898-9559-7761dc492830",
    "data": [
      {
        "text": "GPS",
        "alias": "module",
        "meta": "@device-module",
        "userDefined": true
      },
      {
        "text": " off now",
        "userDefined": false
      }
    ],
    "isTemplate": false,
    "count": 0,
    "updated": 0
  },
  {
    "id": "8b4ecd6d-43aa-4fc9-a223-63412634ce58",
    "data": [
      {
        "text": "disconnect ",
        "userDefined": false
      },
      {
        "text": "Wi-Fi",
        "alias": "module",
        "meta": "@device-module",
        "userDefined": false
      }
    ],
    "isTemplate": false,
    "count": 0,
    "updated": 0
  },
  {
    "id": "a2009331-946d-40ef-93bb-6d06a1b2e270",
    "data": [
      {
        "text": "off",
        "meta": "@sys.ignore",
        "userDefined": false
      },
      {
        "text": " the ",
        "userDefined": false
      },
      {
        "text": "Bluetooth",
        "alias": "module",
        "meta": "@device-module",
        "userDefined": false
      }
    ],
    "isTemplate": false,
    "count": 0,
    "updated": 0
  },
  {
    "id": "962a48ff-b1ae-4325-90d5-5a1eb96c799c",
    "data": [
      {
        "text": "I\u0027d like to turn off my ",
        "userDefined": false
      },
      {
        "text": "GPS",
        "alias": "module",
        "meta": "@device-module",
        "userDefined": true
      }
    ],
    "isTemplate": false,
    "count": 0,
    "updated": 0
  },
  {
    "id": "293fe23b-35c4-4905-91ea-821dcdb0eea4",
    "data": [
      {
        "text": "disable ",
        "userDefined": false
      },
      {
        "text": "mobile",
        "alias": "module",
        "meta": "@device-module",
        "userDefined": false
      },
      {
        "text": " data",
        "userDefined": false
      }
    ],
    "isTemplate": false,
    "count": 0,
    "updated": 0
  },
  {
    "id": "f37fa236-7c74-42d3-ae74-a6f250c1c14d",
    "data": [
      {
        "text": "switch ",
        "userDefined": false
      },
      {
        "text": "off",
        "meta": "@sys.ignore",
        "userDefined": false
      },
      {
        "text": " ",
        "userDefined": false
      },
      {
        "text": "airplane mode",
        "alias": "module",
        "meta": "@device-module",
        "userDefined": false
      }
    ],
    "isTemplate": false,
    "count": 0,
    "updated": 0
  },
  {
    "id": "d4df5bad-cfca-46cb-a5b0-ccde6c5157e9",
    "data": [
      {
        "text": "turn ",
        "userDefined": false
      },
      {
        "text": "off",
        "meta": "@sys.ignore",
        "userDefined": false
      },
      {
        "text": " ",
        "userDefined": false
      },
      {
        "text": "WiFi",
        "alias": "module",
        "meta": "@device-module",
        "userDefined": false
      }
    ],
    "isTemplate": false,
    "count": 0,
    "updated": 0
  },
  {
    "id": "5d36d152-8926-45bd-893f-6495232e82e5",
    "data": [
      {
        "text": "deactivate ",
        "userDefined": false
      },
      {
        "text": "silent",
        "alias": "module",
        "meta": "@device-module",
        "userDefined": false
      },
      {
        "text": " mode",
        "userDefined": false
      }
    ],
    "isTemplate": false,
    "count": 0,
    "updated": 0
  },
  {
    "id": "b319c294-0e4a-4824-b2b4-9ac477d46b0e",
    "data": [
      {
        "text": "close ",
        "userDefined": false
      },
      {
        "text": "GPS",
        "alias": "module",
        "meta": "@device-module",
        "userDefined": false
      }
    ],
    "isTemplate": false,
    "count": 0,
    "updated": 0
  },
  {
    "id": "cff03e49-03a0-4bec-99cc-a2509a007699",
    "data": [
      {
        "text": "power ",
        "userDefined": false
      },
      {
        "text": "off",
        "meta": "@sys.ignore",
        "userDefined": false
      },
      {
        "text": " ",
        "userDefined": false
      },
      {
        "text": "Bluetooth",
        "alias": "module",
        "meta": "@device-module",
        "userDefined": false
      }
    ],
    "isTemplate": false,
    "count": 0,
    "updated": 0
  },
  {
    "id": "6c225c0b-b436-46aa-8ac9-672a55cda639",
    "data": [
      {
        "text": "shut down ",
        "userDefined": false
      },
      {
        "text": "GPS",
        "alias": "module",
        "meta": "@device-module",
        "userDefined": true
      }
    ],
    "isTemplate": false,
    "count": 0,
    "updated": 0
  },
  {
    "id": "d5886630-8743-4cb5-b8f5-e26714ba2754",
    "data": [
      {
        "text": "can you turn ",
        "userDefined": false
      },
      {
        "text": "off",
        "meta": "@sys.ignore",
        "userDefined": false
      },
      {
        "text": " ",
        "userDefined": false
      },
      {
        "text": "silent",
        "alias": "module",
        "meta": "@device-module",
        "userDefined": false
      },
      {
        "text": " mode",
        "userDefined": false
      }
    ],
    "isTemplate": false,
    "count": 0,
    "updated": 0
  },
  {
    "id": "a90fe355-53d4-4c6f-9854-f63683194837",
    "data": [
      {
        "text": "from now on ",
        "userDefined": false
      },
      {
        "text": "GPS",
        "alias": "module",
        "meta": "@device-module",
        "userDefined": true
      },
      {
        "text": " off",
        "userDefined": false
      }
    ],
    "isTemplate": false,
    "count": 0,
    "updated": 0
  }
]