[
  {
    "id": "e76b68fd-b458-4309-b1eb-2fca26079133",
    "data": [
      {
        "text": "Nice shirt",
        "userDefined": false
      }
    ],
    "isTemplate": false,
    "count": 0,
    "updated": 0
  },
  {
    "id": "45a6c56c-d2b7-47e1-979e-785ec88196cb",
    "data": [
      {
        "text": "Could you please show me some dog pictures",
        "userDefined": false
      }
    ],
    "isTemplate": false,
    "count": 0,
    "updated": 0
  },
  {
    "id": "de95be71-2957-4d60-900c-7c4491fa40ba",
    "data": [
      {
        "text": "Navigate home",
        "userDefined": false
      }
    ],
    "isTemplate": false,
    "count": 0,
    "updated": 0
  },
  {
    "id": "6455e204-03e3-4607-9be7-2be45d0e641a",
    "data": [
      {
        "text": "Who are US presidents?",
        "userDefined": false
      }
    ],
    "isTemplate": false,
    "count": 0,
    "updated": 0
  },
  {
    "id": "2181be9a-fec8-4fb6-9cb7-7fa11976c0d5",
    "data": [
      {
        "text": "What are the main cities in UK?",
        "userDefined": false
      }
    ],
    "isTemplate": false,
    "count": 0,
    "updated": 0
  },
  {
    "id": "c5ee1853-b13b-4613-8659-11dd66cf486d",
    "data": [
      {
        "text": "Need help with cooking recipes",
        "userDefined": false
      }
    ],
    "isTemplate": false,
    "count": 0,
    "updated": 0
  },
  {
    "id": "4abe76a3-07e9-46a2-a67e-ac6f76b28134",
    "data": [
      {
        "text": "I want to build a snowman",
        "userDefined": false
      }
    ],
    "isTemplate": false,
    "count": 0,
    "updated": 0
  },
  {
    "id": "626fda74-5cff-4585-848c-f8370062855c",
    "data": [
      {
        "text": "Tell me about the weather",
        "userDefined": false
      }
    ],
    "isTemplate": false,
    "count": 0,
    "updated": 0
  },
  {
    "id": "be1a16d8-d1ea-465f-b736-1f3aca383407",
    "data": [
      {
        "text": "What can you do to make me laugh",
        "userDefined": false
      }
    ],
    "isTemplate": false,
    "count": 0,
    "updated": 0
  },
  {
    "id": "e418121f-704d-4a6d-8664-b7f7f507cd89",
    "data": [
      {
        "text": "Show me your travel plans",
        "userDefined": false
      }
    ],
    "isTemplate": false,
    "count": 0,
    "updated": 0
  }
]