{
  "id": "17259a71-4cef-4fc8-af05-c0adcd2dcdb1",
  "name": "faq.luggage.resticted_items",
  "auto": true,
  "contexts": [],
  "responses": [
    {
      "resetContexts": false,
      "action": "faq.luggage.resticted_items",
      "affectedContexts": [],
      "parameters": [
        {
          "id": "0ed4f95e-9794-4683-bcc2-fbe70df4a2e0",
          "required": false,
          "dataType": "@restricted-items",
          "name": "restricted-items",
          "value": "$restricted-items",
          "promptMessages": [],
          "noMatchPromptMessages": [],
          "noInputPromptMessages": [],
          "outputDialogContexts": [],
          "isList": false
        }
      ],
      "messages": [
        {
          "type": 0,
          "lang": "en",
          "condition": "",
          "speech": "Dangerous goods are articles or substances which are capable of posing a risk to health, safety, property or the environment when transported by air."
        }
      ],
      "defaultResponsePlatforms": {
        "google": true
      },
      "speech": []
    }
  ],
  "priority": 500000,
  "webhookUsed": false,
  "webhookForSlotFilling": false,
  "fallbackIntent": false,
  "events": [],
  "conditionalResponses": [],
  "condition": "",
  "conditionalFollowupEvents": []
}