{
  "id": "453d7f5d-2631-4b85-b74e-4c333978f2a3",
  "name": "flight.check - context:check-flight - comment:to",
  "auto": true,
  "contexts": [
    "check-flight"
  ],
  "responses": [
    {
      "resetContexts": false,
      "action": "flight.check",
      "affectedContexts": [],
      "parameters": [
        {
          "id": "a78b1eaf-71e7-4feb-9a23-fb2a0884f60e",
          "required": false,
          "dataType": "@sys.location",
          "name": "to",
          "value": "$to",
          "promptMessages": [],
          "noMatchPromptMessages": [],
          "noInputPromptMessages": [],
          "outputDialogContexts": [],
          "isList": false
        }
      ],
      "messages": [
        {
          "type": 0,
          "lang": "en",
          "condition": "",
          "speech": []
        }
      ],
      "defaultResponsePlatforms": {},
      "speech": []
    }
  ],
  "priority": 500000,
  "webhookUsed": false,
  "webhookForSlotFilling": false,
  "fallbackIntent": false,
  "events": [],
  "conditionalResponses": [],
  "condition": "",
  "conditionalFollowupEvents": []
}