[
  {
    "id": "07be2885-9e3d-4eeb-98bb-77ec463dacb0",
    "data": [
      {
        "text": "I\u0027d like to get temperatures in ",
        "userDefined": false
      },
      {
        "text": "Fahrenheit",
        "alias": "unit",
        "meta": "@unit-temperature",
        "userDefined": true
      }
    ],
    "isTemplate": false,
    "count": 0,
    "updated": 0
  },
  {
    "id": "ff991ab6-6129-4cf7-bb0e-e3ad76a24950",
    "data": [
      {
        "text": "use ",
        "userDefined": false
      },
      {
        "text": "Celsius",
        "alias": "unit",
        "meta": "@unit-temperature",
        "userDefined": true
      },
      {
        "text": " instead of Fahrenheit",
        "userDefined": false
      }
    ],
    "isTemplate": false,
    "count": 0,
    "updated": 0
  },
  {
    "id": "5bd651f1-4f23-4d62-8a60-f546a883f266",
    "data": [
      {
        "text": "show me temperatures in ",
        "userDefined": false
      },
      {
        "text": "Fahrenheit",
        "alias": "unit",
        "meta": "@unit-temperature",
        "userDefined": true
      }
    ],
    "isTemplate": false,
    "count": 0,
    "updated": 0
  },
  {
    "id": "ce052e66-2fee-4632-936a-7228be2d36b9",
    "data": [
      {
        "text": "I\u0027d like you to use ",
        "userDefined": false
      },
      {
        "text": "Celsius",
        "alias": "unit",
        "meta": "@unit-temperature",
        "userDefined": true
      }
    ],
    "isTemplate": false,
    "count": 0,
    "updated": 0
  },
  {
    "id": "50fec9b5-ed24-4c71-829b-a9b28fd6e80b",
    "data": [
      {
        "text": "provide me temperature in ",
        "userDefined": false
      },
      {
        "text": "Celsius",
        "alias": "unit",
        "meta": "@unit-temperature",
        "userDefined": true
      }
    ],
    "isTemplate": false,
    "count": 0,
    "updated": 0
  },
  {
    "id": "1b7fbfb0-5150-4513-88e3-4c91a37ce35c",
    "data": [
      {
        "text": "set temperature format",
        "userDefined": false
      }
    ],
    "isTemplate": false,
    "count": 0,
    "updated": 0
  },
  {
    "id": "dab58404-4f7e-4be9-b986-c5213d6a7d1f",
    "data": [
      {
        "text": "use degrees ",
        "userDefined": false
      },
      {
        "text": "Fahrenheit",
        "alias": "unit",
        "meta": "@unit-temperature",
        "userDefined": true
      },
      {
        "text": " for temperature",
        "userDefined": false
      }
    ],
    "isTemplate": false,
    "count": 0,
    "updated": 0
  },
  {
    "id": "7fb117f0-a699-4d64-98a6-aadf54561ead",
    "data": [
      {
        "text": "use ",
        "userDefined": false
      },
      {
        "text": "Celsius",
        "alias": "unit",
        "meta": "@unit-temperature",
        "userDefined": true
      }
    ],
    "isTemplate": false,
    "count": 0,
    "updated": 0
  },
  {
    "id": "2c72ae12-bb38-4842-8cef-4d109d7a99c6",
    "data": [
      {
        "text": "set ",
        "userDefined": false
      },
      {
        "text": "Celsius",
        "alias": "unit",
        "meta": "@unit-temperature",
        "userDefined": true
      },
      {
        "text": " as default temperature format",
        "userDefined": false
      }
    ],
    "isTemplate": false,
    "count": 0,
    "updated": 0
  }
]