[
  {
    "id": "2b6cb1b8-19bc-4cea-bb32-c343ddd37f74",
    "data": [
      {
        "text": "I love this ",
        "userDefined": false
      },
      {
        "text": "laptop",
        "alias": "product",
        "meta": "@product",
        "userDefined": false
      },
      {
        "text": " add it to my cart",
        "userDefined": false
      }
    ],
    "isTemplate": false,
    "count": 0,
    "updated": 0
  },
  {
    "id": "a25393ad-7c8e-4091-bdd2-e5488d639e72",
    "data": [
      {
        "text": "add these ",
        "userDefined": false
      },
      {
        "text": "shoes",
        "alias": "product",
        "meta": "@product",
        "userDefined": true
      },
      {
        "text": " to my cart",
        "userDefined": false
      }
    ],
    "isTemplate": false,
    "count": 0,
    "updated": 0
  },
  {
    "id": "07bed5d4-23e7-4535-baf0-29dc1a955955",
    "data": [
      {
        "text": "add to my cart",
        "userDefined": false
      }
    ],
    "isTemplate": false,
    "count": 0,
    "updated": 0
  },
  {
    "id": "e28809e1-4010-4165-9f03-3157a76eb5a4",
    "data": [
      {
        "text": "add ",
        "userDefined": false
      },
      {
        "text": "glasses",
        "alias": "product",
        "meta": "@product",
        "userDefined": false
      },
      {
        "text": " to my cart",
        "userDefined": false
      }
    ],
    "isTemplate": false,
    "count": 0,
    "updated": 0
  },
  {
    "id": "dde148ee-7157-4e5f-9543-c267efc187c1",
    "data": [
      {
        "text": "add item",
        "userDefined": false
      }
    ],
    "isTemplate": false,
    "count": 0,
    "updated": 0
  },
  {
    "id": "325c89df-f4a7-4bc5-bc1c-b1584a5b7786",
    "data": [
      {
        "text": "add this ",
        "userDefined": false
      },
      {
        "text": "item",
        "meta": "@sys.ignore",
        "userDefined": true
      },
      {
        "text": " to my cart",
        "userDefined": false
      }
    ],
    "isTemplate": false,
    "count": 0,
    "updated": 0
  },
  {
    "id": "52e3b38b-1115-4f9e-a616-1ccc10a571bc",
    "data": [
      {
        "text": "add the ",
        "userDefined": false
      },
      {
        "text": "hat",
        "alias": "product",
        "meta": "@product",
        "userDefined": true
      },
      {
        "text": " to my cart",
        "userDefined": false
      }
    ],
    "isTemplate": false,
    "count": 0,
    "updated": 0
  },
  {
    "id": "47923c3a-56c5-4d98-9cf1-ae8180b0cb7f",
    "data": [
      {
        "text": "can you add this ",
        "userDefined": false
      },
      {
        "text": "T-Shirt",
        "alias": "product",
        "meta": "@product",
        "userDefined": false
      },
      {
        "text": " to my cart",
        "userDefined": false
      }
    ],
    "isTemplate": false,
    "count": 0,
    "updated": 0
  }
]