[
  {
    "id": "98ea50d2-e946-4f36-95a3-715318a9ed8f",
    "data": [
      {
        "text": "delete the item",
        "userDefined": false
      }
    ],
    "isTemplate": false,
    "count": 0,
    "updated": 0
  },
  {
    "id": "0e1b48c5-dc43-4748-90af-3d8fe40541f2",
    "data": [
      {
        "text": "remove the hat from",
        "userDefined": false
      }
    ],
    "isTemplate": false,
    "count": 0,
    "updated": 0
  },
  {
    "id": "a30faeed-aea3-4176-b39a-64b19cfe7b53",
    "data": [
      {
        "text": "I\u0027ve changed my mind about ",
        "userDefined": false
      },
      {
        "text": "laptop",
        "alias": "product",
        "meta": "@product",
        "userDefined": false
      },
      {
        "text": ", remove it",
        "userDefined": false
      }
    ],
    "isTemplate": false,
    "count": 0,
    "updated": 0
  },
  {
    "id": "c1497cde-636f-4c8c-83fa-1a3dbfdeafaf",
    "data": [
      {
        "text": "remove the ",
        "userDefined": false
      },
      {
        "text": "shoes",
        "alias": "product",
        "meta": "@product",
        "userDefined": true
      },
      {
        "text": " from my cart",
        "userDefined": false
      }
    ],
    "isTemplate": false,
    "count": 0,
    "updated": 0
  },
  {
    "id": "11b0e481-2dce-47ef-8819-f0cdc07bb813",
    "data": [
      {
        "text": "remove these ",
        "userDefined": false
      },
      {
        "text": "glasses",
        "alias": "product",
        "meta": "@product",
        "userDefined": false
      },
      {
        "text": " from my cart",
        "userDefined": false
      }
    ],
    "isTemplate": false,
    "count": 0,
    "updated": 0
  },
  {
    "id": "50cee215-e30c-44b7-8161-769f71d0c8b3",
    "data": [
      {
        "text": "remove the item",
        "userDefined": false
      }
    ],
    "isTemplate": false,
    "count": 0,
    "updated": 0
  }
]