{
  "id": "2fa38908-b507-4ec8-bd51-9edac73a857a",
  "name": "language.switch",
  "auto": true,
  "contexts": [],
  "responses": [
    {
      "resetContexts": false,
      "action": "language.switch",
      "affectedContexts": [
        {
          "name": "language-switch",
          "parameters": {},
          "lifespan": 5
        }
      ],
      "parameters": [
        {
          "id": "6d53c69b-6414-4ef6-8321-5afcf39683a2",
          "required": false,
          "dataType": "@sys.language",
          "name": "language",
          "value": "$language",
          "promptMessages": [],
          "noMatchPromptMessages": [],
          "noInputPromptMessages": [],
          "outputDialogContexts": [],
          "isList": false
        }
      ],
      "messages": [
        {
          "type": 0,
          "lang": "en",
          "condition": "",
          "speech": []
        }
      ],
      "defaultResponsePlatforms": {},
      "speech": []
    }
  ],
  "priority": 500000,
  "webhookUsed": false,
  "webhookForSlotFilling": false,
  "fallbackIntent": false,
  "events": [],
  "conditionalResponses": [],
  "condition": "",
  "conditionalFollowupEvents": []
}