[
  {
    "id": "9ba9cf54-d347-4db4-81da-b18b9e3fb35a",
    "data": [
      {
        "text": "I speak ",
        "userDefined": false
      },
      {
        "text": "French",
        "alias": "language",
        "meta": "@sys.language",
        "userDefined": false
      },
      {
        "text": " only",
        "userDefined": false
      }
    ],
    "isTemplate": false,
    "count": 0,
    "updated": 0
  },
  {
    "id": "b4df97ef-de91-43f7-8336-2bee5cdb018d",
    "data": [
      {
        "text": "I can talk in ",
        "userDefined": false
      },
      {
        "text": "Russian",
        "alias": "language",
        "meta": "@sys.language",
        "userDefined": true
      }
    ],
    "isTemplate": false,
    "count": 0,
    "updated": 0
  },
  {
    "id": "bc1453b7-3ea5-48b0-81e9-1db60c907a7c",
    "data": [
      {
        "text": "I speak ",
        "userDefined": false
      },
      {
        "text": "European Portuguese",
        "alias": "language",
        "meta": "@sys.language",
        "userDefined": true
      }
    ],
    "isTemplate": false,
    "count": 0,
    "updated": 0
  },
  {
    "id": "11049ada-b4d2-4935-bbe6-7a3404fb42cb",
    "data": [
      {
        "text": "I can talk only in ",
        "userDefined": false
      },
      {
        "text": "English",
        "alias": "language",
        "meta": "@sys.language",
        "userDefined": false
      }
    ],
    "isTemplate": false,
    "count": 0,
    "updated": 0
  },
  {
    "id": "147b3d55-f404-4fd7-988e-70d693245128",
    "data": [
      {
        "text": "my mother ",
        "userDefined": false
      },
      {
        "text": "tongue",
        "meta": "@sys.ignore",
        "userDefined": false
      },
      {
        "text": " is ",
        "userDefined": false
      },
      {
        "text": "German",
        "alias": "language",
        "meta": "@sys.language",
        "userDefined": false
      }
    ],
    "isTemplate": false,
    "count": 0,
    "updated": 0
  },
  {
    "id": "264100de-d382-44f5-954b-83af0e58785a",
    "data": [
      {
        "text": "I want to talk in ",
        "userDefined": false
      },
      {
        "text": "English",
        "alias": "language",
        "meta": "@sys.language",
        "userDefined": true
      }
    ],
    "isTemplate": false,
    "count": 0,
    "updated": 0
  },
  {
    "id": "fcf8b751-0058-4fee-9262-775d28924275",
    "data": [
      {
        "text": "I can speak ",
        "userDefined": false
      },
      {
        "text": "English",
        "alias": "language",
        "meta": "@sys.language",
        "userDefined": true
      }
    ],
    "isTemplate": false,
    "count": 0,
    "updated": 0
  },
  {
    "id": "a7d5e7e4-f551-4a55-93c3-186017b015e0",
    "data": [
      {
        "text": "I\u0027m able to speak ",
        "userDefined": false
      },
      {
        "text": "General American",
        "alias": "language",
        "meta": "@sys.language",
        "userDefined": true
      }
    ],
    "isTemplate": false,
    "count": 0,
    "updated": 0
  },
  {
    "id": "5382ebfb-5d9b-4c0b-ac44-162039c82666",
    "data": [
      {
        "text": "I speak ",
        "userDefined": false
      },
      {
        "text": "Japanese",
        "alias": "language",
        "meta": "@sys.language",
        "userDefined": true
      }
    ],
    "isTemplate": false,
    "count": 0,
    "updated": 0
  },
  {
    "id": "be3f3767-c9c5-4f04-b5e8-83209d5215e8",
    "data": [
      {
        "text": "I speak only ",
        "userDefined": false
      },
      {
        "text": "French",
        "alias": "language",
        "meta": "@sys.language",
        "userDefined": true
      }
    ],
    "isTemplate": false,
    "count": 0,
    "updated": 0
  },
  {
    "id": "caf1e46a-0977-4743-87ad-a48c654168ad",
    "data": [
      {
        "text": "I speak ",
        "userDefined": false
      },
      {
        "text": "English",
        "alias": "language",
        "meta": "@sys.language",
        "userDefined": false
      },
      {
        "text": " ",
        "userDefined": false
      },
      {
        "text": "well",
        "meta": "@sys.ignore",
        "userDefined": false
      }
    ],
    "isTemplate": false,
    "count": 0,
    "updated": 0
  },
  {
    "id": "35f5a4a7-3937-4ba5-aa90-9e40ed1a6cd4",
    "data": [
      {
        "text": "I\u0027m fluent in ",
        "userDefined": false
      },
      {
        "text": "English",
        "alias": "language",
        "meta": "@sys.language",
        "userDefined": false
      }
    ],
    "isTemplate": false,
    "count": 0,
    "updated": 0
  },
  {
    "id": "13723918-4d2a-4141-9dca-d83336f9bba1",
    "data": [
      {
        "text": "I\u0027m a native speaker of ",
        "userDefined": false
      },
      {
        "text": "English",
        "alias": "language",
        "meta": "@sys.language",
        "userDefined": true
      }
    ],
    "isTemplate": false,
    "count": 0,
    "updated": 0
  }
]