{
  "id": "1a28b908-ac96-4201-ba18-98acd4fa5932",
  "name": "maps.search - context:maps-search - comment:address",
  "auto": true,
  "contexts": [
    "maps-search"
  ],
  "responses": [
    {
      "resetContexts": false,
      "action": "maps.search",
      "affectedContexts": [],
      "parameters": [
        {
          "id": "31e17358-4867-4454-885e-0cbfcbc657ae",
          "required": false,
          "dataType": "@sys.location",
          "name": "location",
          "value": "$location",
          "promptMessages": [],
          "noMatchPromptMessages": [],
          "noInputPromptMessages": [],
          "outputDialogContexts": [],
          "isList": false
        }
      ],
      "messages": [
        {
          "type": 0,
          "lang": "en",
          "condition": "",
          "speech": []
        }
      ],
      "defaultResponsePlatforms": {},
      "speech": []
    }
  ],
  "priority": 500000,
  "webhookUsed": false,
  "webhookForSlotFilling": false,
  "fallbackIntent": false,
  "events": [],
  "conditionalResponses": [],
  "condition": "",
  "conditionalFollowupEvents": []
}