{
  "id": "75ac4acd-4245-41f6-9aee-ea03930986d9",
  "name": "maps.search",
  "auto": true,
  "contexts": [],
  "responses": [
    {
      "resetContexts": false,
      "action": "maps.search",
      "affectedContexts": [
        {
          "name": "maps-search",
          "parameters": {},
          "lifespan": 3
        }
      ],
      "parameters": [
        {
          "id": "1ab96f1b-e3a3-4c7f-a3a5-1430cf8edb00",
          "required": false,
          "dataType": "@sys.location",
          "name": "location",
          "value": "$location",
          "promptMessages": [],
          "noMatchPromptMessages": [],
          "noInputPromptMessages": [],
          "outputDialogContexts": [],
          "isList": false
        }
      ],
      "messages": [
        {
          "type": 0,
          "lang": "en",
          "condition": "",
          "speech": []
        }
      ],
      "defaultResponsePlatforms": {},
      "speech": []
    }
  ],
  "priority": 500000,
  "webhookUsed": false,
  "webhookForSlotFilling": false,
  "fallbackIntent": false,
  "events": [],
  "conditionalResponses": [],
  "condition": "",
  "conditionalFollowupEvents": []
}