[
  {
    "id": "122ddf57-fe12-4f62-b42b-058b4f6b8e66",
    "data": [
      {
        "text": "Mexican",
        "alias": "station",
        "meta": "@radio-station",
        "userDefined": true
      },
      {
        "text": " radio",
        "userDefined": false
      }
    ],
    "isTemplate": false,
    "count": 0,
    "updated": 0
  },
  {
    "id": "10e0d332-d9b5-4d19-87c2-de9da2ecf909",
    "data": [
      {
        "text": "change this ",
        "userDefined": false
      },
      {
        "text": "radio",
        "meta": "@sys.ignore",
        "userDefined": true
      },
      {
        "text": " station",
        "userDefined": false
      }
    ],
    "isTemplate": false,
    "count": 0,
    "updated": 0
  },
  {
    "id": "3807041f-d3dc-43d3-b16d-bb1abe2d4af8",
    "data": [
      {
        "text": "play ",
        "userDefined": false
      },
      {
        "text": "Freakonomics Radio",
        "alias": "station",
        "meta": "@radio-station",
        "userDefined": true
      }
    ],
    "isTemplate": false,
    "count": 0,
    "updated": 0
  },
  {
    "id": "b1360c5c-1441-4ad2-bbe4-559012e91c07",
    "data": [
      {
        "text": "take me to the radio",
        "userDefined": false
      }
    ],
    "isTemplate": false,
    "count": 0,
    "updated": 0
  },
  {
    "id": "4f42b4c7-c444-417a-ba18-aa14123ce451",
    "data": [
      {
        "text": "play radio ",
        "userDefined": false
      },
      {
        "text": "Orange",
        "alias": "station",
        "meta": "@radio-station",
        "userDefined": true
      }
    ],
    "isTemplate": false,
    "count": 0,
    "updated": 0
  },
  {
    "id": "99bb3b1b-118c-4acb-8d8c-ff264583eb83",
    "data": [
      {
        "text": "switch ",
        "userDefined": false
      },
      {
        "text": "on",
        "meta": "@sys.ignore",
        "userDefined": true
      },
      {
        "text": " the ",
        "userDefined": false
      },
      {
        "text": "radio",
        "meta": "@sys.ignore",
        "userDefined": true
      }
    ],
    "isTemplate": false,
    "count": 0,
    "updated": 0
  },
  {
    "id": "6705fc24-c1a2-4a23-9f06-1a0ade6ef679",
    "data": [
      {
        "text": "radio ",
        "userDefined": false
      },
      {
        "text": "800 am",
        "alias": "station",
        "meta": "@radio-station",
        "userDefined": true
      }
    ],
    "isTemplate": false,
    "count": 0,
    "updated": 0
  },
  {
    "id": "c7ac4ab6-f72c-4ff5-a159-71dbb0e6da5e",
    "data": [
      {
        "text": "play",
        "meta": "@sys.ignore",
        "userDefined": true
      },
      {
        "text": " ",
        "userDefined": false
      },
      {
        "text": "Blackbird",
        "alias": "song",
        "meta": "@song",
        "userDefined": true
      },
      {
        "text": " ",
        "userDefined": false
      },
      {
        "text": "remix",
        "alias": "remix",
        "meta": "@remix",
        "userDefined": true
      },
      {
        "text": " ",
        "userDefined": false
      },
      {
        "text": "on",
        "meta": "@sys.ignore",
        "userDefined": true
      },
      {
        "text": " ",
        "userDefined": false
      },
      {
        "text": "radio",
        "meta": "@sys.ignore",
        "userDefined": true
      }
    ],
    "isTemplate": false,
    "count": 0,
    "updated": 0
  },
  {
    "id": "f1bd4f64-1d75-4962-8ab9-2f69121b4626",
    "data": [
      {
        "text": "can you play me a radio station",
        "userDefined": false
      }
    ],
    "isTemplate": false,
    "count": 0,
    "updated": 0
  },
  {
    "id": "72057cd5-66c1-49dc-9485-2acc3590e1ee",
    "data": [
      {
        "text": "turn on my radio",
        "userDefined": false
      }
    ],
    "isTemplate": false,
    "count": 0,
    "updated": 0
  },
  {
    "id": "a4404401-b6fb-43df-84c9-4ee824a1cfa8",
    "data": [
      {
        "text": "turn on radio ",
        "userDefined": false
      },
      {
        "text": "Stuttgart",
        "alias": "station",
        "meta": "@radio-station",
        "userDefined": true
      }
    ],
    "isTemplate": false,
    "count": 0,
    "updated": 0
  },
  {
    "id": "50bd1cca-1db1-4329-ac95-189368e89c72",
    "data": [
      {
        "text": "tune radio ",
        "userDefined": false
      },
      {
        "text": "106.6 fm",
        "alias": "station",
        "meta": "@radio-station",
        "userDefined": true
      }
    ],
    "isTemplate": false,
    "count": 0,
    "updated": 0
  },
  {
    "id": "906487a4-9831-4102-b47e-8649a587665f",
    "data": [
      {
        "text": "play interesting ",
        "userDefined": false
      },
      {
        "text": "radio",
        "meta": "@sys.ignore",
        "userDefined": true
      }
    ],
    "isTemplate": false,
    "count": 0,
    "updated": 0
  },
  {
    "id": "5b1ed9b3-ea8d-40d5-b777-7bfb4324bd2e",
    "data": [
      {
        "text": "play ",
        "userDefined": false
      },
      {
        "text": "La la la",
        "alias": "song",
        "meta": "@song",
        "userDefined": true
      },
      {
        "text": " song ",
        "userDefined": false
      },
      {
        "text": "on",
        "meta": "@sys.ignore",
        "userDefined": true
      },
      {
        "text": " ",
        "userDefined": false
      },
      {
        "text": "radio",
        "meta": "@sys.ignore",
        "userDefined": true
      }
    ],
    "isTemplate": false,
    "count": 0,
    "updated": 0
  },
  {
    "id": "6cb766ef-4c8b-4b11-9e20-3888532289e8",
    "data": [
      {
        "text": "play ",
        "userDefined": false
      },
      {
        "text": "BBC Radio 5",
        "alias": "station",
        "meta": "@radio-station",
        "userDefined": true
      }
    ],
    "isTemplate": false,
    "count": 0,
    "updated": 0
  },
  {
    "id": "6235af59-9a77-4368-b19c-4006fcf448d1",
    "data": [
      {
        "text": "play ",
        "userDefined": false
      },
      {
        "text": "radio",
        "meta": "@sys.ignore",
        "userDefined": true
      },
      {
        "text": " station",
        "userDefined": false
      }
    ],
    "isTemplate": false,
    "count": 0,
    "updated": 0
  },
  {
    "id": "9be6ba36-73a6-4700-8529-5eded5f3a5bf",
    "data": [
      {
        "text": "turn ",
        "userDefined": false
      },
      {
        "text": "on",
        "meta": "@sys.ignore",
        "userDefined": true
      },
      {
        "text": " ",
        "userDefined": false
      },
      {
        "text": "BBC radio 1",
        "alias": "station",
        "meta": "@radio-station",
        "userDefined": true
      }
    ],
    "isTemplate": false,
    "count": 0,
    "updated": 0
  },
  {
    "id": "b1442b32-d461-46b9-acd6-eb8d9fded425",
    "data": [
      {
        "text": "turn on ",
        "userDefined": false
      },
      {
        "text": "100 fm",
        "alias": "station",
        "meta": "@radio-station",
        "userDefined": true
      }
    ],
    "isTemplate": false,
    "count": 0,
    "updated": 0
  },
  {
    "id": "783a8b70-86c8-41cc-b817-0df512a1c1ba",
    "data": [
      {
        "text": "radio",
        "meta": "@sys.ignore",
        "userDefined": true
      },
      {
        "text": " ",
        "userDefined": false
      },
      {
        "text": "City FM",
        "alias": "station",
        "meta": "@radio-station",
        "userDefined": true
      }
    ],
    "isTemplate": false,
    "count": 0,
    "updated": 0
  },
  {
    "id": "11ea13b5-0e52-4a77-8614-3fe3379ba547",
    "data": [
      {
        "text": "play some ",
        "userDefined": false
      },
      {
        "text": "jazz",
        "alias": "genre",
        "meta": "@sys.music-genre",
        "userDefined": true
      },
      {
        "text": " radio",
        "userDefined": false
      }
    ],
    "isTemplate": false,
    "count": 0,
    "updated": 0
  },
  {
    "id": "bc10433e-583f-48e7-9821-da1e048f0a43",
    "data": [
      {
        "text": "can you play radio stations",
        "userDefined": false
      }
    ],
    "isTemplate": false,
    "count": 0,
    "updated": 0
  },
  {
    "id": "4dcccead-a201-41e6-83cb-5542e2b51492",
    "data": [
      {
        "text": "open ",
        "userDefined": false
      },
      {
        "text": "ESPN",
        "alias": "station",
        "meta": "@radio-station",
        "userDefined": true
      },
      {
        "text": " radio",
        "userDefined": false
      }
    ],
    "isTemplate": false,
    "count": 0,
    "updated": 0
  },
  {
    "id": "bfc467f3-5a51-4e2e-833a-07ca1445ba97",
    "data": [
      {
        "text": "can you play the ",
        "userDefined": false
      },
      {
        "text": "Energy",
        "alias": "artist",
        "meta": "@sys.music-artist",
        "userDefined": true
      },
      {
        "text": " radio",
        "userDefined": false
      }
    ],
    "isTemplate": false,
    "count": 0,
    "updated": 0
  },
  {
    "id": "04730381-e867-4bd4-9a29-f2647dab5766",
    "data": [
      {
        "text": "Paradise",
        "alias": "station",
        "meta": "@radio-station",
        "userDefined": true
      },
      {
        "text": " radio station",
        "userDefined": false
      }
    ],
    "isTemplate": false,
    "count": 1,
    "updated": 0
  },
  {
    "id": "c7571cda-7dc6-4e0c-8d24-784782d6ec22",
    "data": [
      {
        "text": "can you turn my radio on",
        "userDefined": false
      }
    ],
    "isTemplate": false,
    "count": 0,
    "updated": 0
  },
  {
    "id": "3e5750c3-1f78-4404-b872-dae1a72c8ccf",
    "data": [
      {
        "text": "radio ",
        "userDefined": false
      },
      {
        "text": "jazz",
        "alias": "genre",
        "meta": "@sys.music-genre",
        "userDefined": true
      }
    ],
    "isTemplate": false,
    "count": 0,
    "updated": 0
  },
  {
    "id": "b066aa8d-28c8-4d04-909f-bdac064f849b",
    "data": [
      {
        "text": "I want to listen to ",
        "userDefined": false
      },
      {
        "text": "radio",
        "meta": "@sys.ignore",
        "userDefined": true
      },
      {
        "text": " station ",
        "userDefined": false
      },
      {
        "text": "1029 fm",
        "alias": "station",
        "meta": "@radio-station",
        "userDefined": true
      }
    ],
    "isTemplate": false,
    "count": 0,
    "updated": 0
  },
  {
    "id": "bf6617e8-6a0b-45ef-9b6e-70d4dee18b6c",
    "data": [
      {
        "text": "radio ",
        "userDefined": false
      },
      {
        "text": "rap",
        "alias": "genre",
        "meta": "@sys.music-genre",
        "userDefined": true
      }
    ],
    "isTemplate": false,
    "count": 0,
    "updated": 0
  },
  {
    "id": "01a7a6cf-4622-4388-939e-889da19f0413",
    "data": [
      {
        "text": "Live",
        "alias": "station",
        "meta": "@radio-station",
        "userDefined": true
      },
      {
        "text": " radio",
        "userDefined": false
      }
    ],
    "isTemplate": false,
    "count": 0,
    "updated": 0
  },
  {
    "id": "6a8ebe21-3a4c-4b8a-b88d-80d6a766da93",
    "data": [
      {
        "text": "play",
        "meta": "@sys.ignore",
        "userDefined": true
      },
      {
        "text": " some ",
        "userDefined": false
      },
      {
        "text": "American",
        "alias": "language",
        "meta": "@sys.language",
        "userDefined": true
      },
      {
        "text": " ",
        "userDefined": false
      },
      {
        "text": "radio",
        "meta": "@sys.ignore",
        "userDefined": true
      }
    ],
    "isTemplate": false,
    "count": 0,
    "updated": 0
  },
  {
    "id": "5f4d9dd3-31cf-401f-b839-c51e66dfb637",
    "data": [
      {
        "text": "turn ",
        "userDefined": false
      },
      {
        "text": "on",
        "meta": "@sys.ignore",
        "userDefined": true
      },
      {
        "text": " ",
        "userDefined": false
      },
      {
        "text": "jazz",
        "alias": "genre",
        "meta": "@sys.music-genre",
        "userDefined": true
      },
      {
        "text": " ",
        "userDefined": false
      },
      {
        "text": "radio",
        "meta": "@sys.ignore",
        "userDefined": true
      },
      {
        "text": " station",
        "userDefined": false
      }
    ],
    "isTemplate": false,
    "count": 0,
    "updated": 0
  },
  {
    "id": "3924bc79-5a64-4fa3-be91-8a7310d1dda6",
    "data": [
      {
        "text": "launch ",
        "userDefined": false
      },
      {
        "text": "radio",
        "meta": "@sys.ignore",
        "userDefined": true
      }
    ],
    "isTemplate": false,
    "count": 1,
    "updated": 0
  },
  {
    "id": "a3ffa048-ec7e-490e-83b6-f82c0d0b84d6",
    "data": [
      {
        "text": "switch on the radio",
        "userDefined": false
      }
    ],
    "isTemplate": false,
    "count": 0,
    "updated": 0
  },
  {
    "id": "033ab83f-ccc7-4383-8ad0-876b3389d489",
    "data": [
      {
        "text": "take me to fm radio",
        "userDefined": false
      }
    ],
    "isTemplate": false,
    "count": 0,
    "updated": 0
  },
  {
    "id": "ecd9fed6-8eac-417f-a865-48e396565b00",
    "data": [
      {
        "text": "can you ",
        "userDefined": false
      },
      {
        "text": "open",
        "meta": "@sys.ignore",
        "userDefined": true
      },
      {
        "text": " the ",
        "userDefined": false
      },
      {
        "text": "radio",
        "meta": "@sys.ignore",
        "userDefined": true
      },
      {
        "text": " for me",
        "userDefined": false
      }
    ],
    "isTemplate": false,
    "count": 0,
    "updated": 0
  },
  {
    "id": "97e746e8-06fb-46cf-b0fc-55c44ffd4eb7",
    "data": [
      {
        "text": "play the radio",
        "userDefined": false
      }
    ],
    "isTemplate": false,
    "count": 0,
    "updated": 0
  },
  {
    "id": "e40e300d-18a5-4e1f-bd5a-faebd945826b",
    "data": [
      {
        "text": "change ",
        "userDefined": false
      },
      {
        "text": "radio",
        "meta": "@sys.ignore",
        "userDefined": true
      },
      {
        "text": " station",
        "userDefined": false
      }
    ],
    "isTemplate": false,
    "count": 0,
    "updated": 0
  },
  {
    "id": "a937bad8-c0f4-4c8e-8bc0-2492c6f1af94",
    "data": [
      {
        "text": "I\u0027d like to listen to the radio",
        "userDefined": false
      }
    ],
    "isTemplate": false,
    "count": 0,
    "updated": 0
  },
  {
    "id": "c91653f0-7527-4d3d-a70d-f680b4ee7395",
    "data": [
      {
        "text": "turn on ",
        "userDefined": false
      },
      {
        "text": "love radio",
        "alias": "station",
        "meta": "@radio-station",
        "userDefined": true
      }
    ],
    "isTemplate": false,
    "count": 0,
    "updated": 0
  },
  {
    "id": "c86dac1e-6802-49ab-9074-630815a60e15",
    "data": [
      {
        "text": "launch ",
        "userDefined": false
      },
      {
        "text": "radio",
        "meta": "@sys.ignore",
        "userDefined": true
      },
      {
        "text": " ",
        "userDefined": false
      },
      {
        "text": "102.2 fm",
        "alias": "station",
        "meta": "@radio-station",
        "userDefined": true
      }
    ],
    "isTemplate": false,
    "count": 0,
    "updated": 0
  },
  {
    "id": "e722c961-308b-4fc8-a381-d656ee2fe515",
    "data": [
      {
        "text": "Free",
        "alias": "station",
        "meta": "@radio-station",
        "userDefined": true
      },
      {
        "text": " radio",
        "userDefined": false
      }
    ],
    "isTemplate": false,
    "count": 0,
    "updated": 0
  },
  {
    "id": "b9556f69-2016-4c01-a019-7246958434bb",
    "data": [
      {
        "text": "turn ",
        "userDefined": false
      },
      {
        "text": "on",
        "meta": "@sys.ignore",
        "userDefined": true
      },
      {
        "text": " ",
        "userDefined": false
      },
      {
        "text": "radio",
        "meta": "@sys.ignore",
        "userDefined": true
      },
      {
        "text": " ",
        "userDefined": false
      },
      {
        "text": "Zet",
        "alias": "station",
        "meta": "@radio-station",
        "userDefined": true
      }
    ],
    "isTemplate": false,
    "count": 0,
    "updated": 0
  },
  {
    "id": "5e81c30e-f836-452d-9543-7e50d2c5be72",
    "data": [
      {
        "text": "play my favourite ",
        "userDefined": false
      },
      {
        "text": "NPR",
        "alias": "station",
        "meta": "@radio-station",
        "userDefined": true
      },
      {
        "text": " radio station",
        "userDefined": false
      }
    ],
    "isTemplate": false,
    "count": 0,
    "updated": 0
  },
  {
    "id": "2e548571-3f4c-4f23-9d9d-c3fb1aab9fa6",
    "data": [
      {
        "text": "go to radio music",
        "userDefined": false
      }
    ],
    "isTemplate": false,
    "count": 0,
    "updated": 0
  },
  {
    "id": "272a93f0-b182-44c5-894b-53014dcbd6c7",
    "data": [
      {
        "text": "start the radio",
        "userDefined": false
      }
    ],
    "isTemplate": false,
    "count": 0,
    "updated": 0
  },
  {
    "id": "c0d9b140-634a-4570-b35e-38427ab03a5b",
    "data": [
      {
        "text": "listen to my radio",
        "userDefined": false
      }
    ],
    "isTemplate": false,
    "count": 0,
    "updated": 0
  },
  {
    "id": "d79d71f9-2c90-4d56-95a7-fd8de0ac0168",
    "data": [
      {
        "text": "can you turn the radio on",
        "userDefined": false
      }
    ],
    "isTemplate": false,
    "count": 0,
    "updated": 0
  },
  {
    "id": "1e3f533c-ea4b-4727-8b7a-244dfef47cec",
    "data": [
      {
        "text": "the ",
        "userDefined": false
      },
      {
        "text": "rock",
        "alias": "genre",
        "meta": "@sys.music-genre",
        "userDefined": true
      },
      {
        "text": " radio station",
        "userDefined": false
      }
    ],
    "isTemplate": false,
    "count": 0,
    "updated": 0
  },
  {
    "id": "4dbdb237-973d-4371-8046-231c3a8e21d0",
    "data": [
      {
        "text": "play me a radio",
        "userDefined": false
      }
    ],
    "isTemplate": false,
    "count": 0,
    "updated": 0
  },
  {
    "id": "16def79a-bc5e-4324-9b03-e8a6752bb88b",
    "data": [
      {
        "text": "r\u0026b",
        "alias": "genre",
        "meta": "@sys.music-genre",
        "userDefined": true
      },
      {
        "text": " radio",
        "userDefined": false
      }
    ],
    "isTemplate": false,
    "count": 0,
    "updated": 0
  },
  {
    "id": "6c0b4ef8-bd5a-4e1a-924f-8208c08bc59b",
    "data": [
      {
        "text": "turn on fm radio",
        "userDefined": false
      }
    ],
    "isTemplate": false,
    "count": 0,
    "updated": 0
  },
  {
    "id": "2439ca02-de87-4ef9-9b29-3d801c83461f",
    "data": [
      {
        "text": "turn on ",
        "userDefined": false
      },
      {
        "text": "BBC",
        "alias": "station",
        "meta": "@radio-station",
        "userDefined": true
      },
      {
        "text": " radio",
        "userDefined": false
      }
    ],
    "isTemplate": false,
    "count": 0,
    "updated": 0
  },
  {
    "id": "3f808d45-e270-4c94-b55c-5a8f85f18f54",
    "data": [
      {
        "text": "turn my radio on",
        "userDefined": false
      }
    ],
    "isTemplate": false,
    "count": 0,
    "updated": 0
  },
  {
    "id": "ca633ae2-abaf-4dac-abd9-745e5c50485d",
    "data": [
      {
        "text": "radio",
        "meta": "@sys.ignore",
        "userDefined": true
      },
      {
        "text": " play",
        "userDefined": false
      }
    ],
    "isTemplate": false,
    "count": 0,
    "updated": 0
  },
  {
    "id": "558579e5-8626-4593-b592-5fb3da4c26a1",
    "data": [
      {
        "text": "tune ",
        "userDefined": false
      },
      {
        "text": "on",
        "meta": "@sys.ignore",
        "userDefined": true
      },
      {
        "text": " ",
        "userDefined": false
      },
      {
        "text": "Rock FM",
        "alias": "station",
        "meta": "@radio-station",
        "userDefined": true
      }
    ],
    "isTemplate": false,
    "count": 1,
    "updated": 0
  },
  {
    "id": "92ee8275-c06a-4a48-a2f3-a086230c7c8a",
    "data": [
      {
        "text": "play ",
        "userDefined": false
      },
      {
        "text": "jazz",
        "alias": "genre",
        "meta": "@sys.music-genre",
        "userDefined": true
      },
      {
        "text": " radio",
        "userDefined": false
      }
    ],
    "isTemplate": false,
    "count": 0,
    "updated": 0
  },
  {
    "id": "86ef55de-11e1-4bfb-98e7-8c3342d09ede",
    "data": [
      {
        "text": "play ",
        "userDefined": false
      },
      {
        "text": "The Beatles",
        "alias": "artist",
        "meta": "@sys.music-artist",
        "userDefined": true
      },
      {
        "text": " ",
        "userDefined": false
      },
      {
        "text": "radio",
        "meta": "@sys.ignore",
        "userDefined": true
      }
    ],
    "isTemplate": false,
    "count": 0,
    "updated": 0
  },
  {
    "id": "56b6fc6e-1c8f-479c-bd65-b13bd9234991",
    "data": [
      {
        "text": "rock",
        "alias": "genre",
        "meta": "@sys.music-genre",
        "userDefined": true
      },
      {
        "text": " ",
        "userDefined": false
      },
      {
        "text": "radio",
        "meta": "@sys.ignore",
        "userDefined": true
      },
      {
        "text": " station",
        "userDefined": false
      }
    ],
    "isTemplate": false,
    "count": 0,
    "updated": 0
  },
  {
    "id": "cb89968e-e17b-47eb-9785-193c806dbf3e",
    "data": [
      {
        "text": "classic rock",
        "alias": "genre",
        "meta": "@sys.music-genre",
        "userDefined": true
      },
      {
        "text": " ",
        "userDefined": false
      },
      {
        "text": "radio",
        "meta": "@sys.ignore",
        "userDefined": true
      },
      {
        "text": " station",
        "userDefined": false
      }
    ],
    "isTemplate": false,
    "count": 0,
    "updated": 0
  },
  {
    "id": "7dff8c52-93a8-4d5a-8331-d4f19ab1dc4a",
    "data": [
      {
        "text": "I want to listen to the radio",
        "userDefined": false
      }
    ],
    "isTemplate": false,
    "count": 0,
    "updated": 0
  },
  {
    "id": "c39c7c95-fe7c-4c60-bd0e-ef36979768de",
    "data": [
      {
        "text": "local radio",
        "userDefined": false
      }
    ],
    "isTemplate": false,
    "count": 0,
    "updated": 0
  },
  {
    "id": "26f3746e-d684-4476-85d0-8e9f1d64e59f",
    "data": [
      {
        "text": "play",
        "meta": "@sys.ignore",
        "userDefined": true
      },
      {
        "text": " ",
        "userDefined": false
      },
      {
        "text": "Spanish",
        "alias": "language",
        "meta": "@sys.language",
        "userDefined": true
      },
      {
        "text": " ",
        "userDefined": false
      },
      {
        "text": "radio",
        "meta": "@sys.ignore",
        "userDefined": true
      },
      {
        "text": " station",
        "userDefined": false
      }
    ],
    "isTemplate": false,
    "count": 0,
    "updated": 0
  },
  {
    "id": "6def0002-8990-4f30-8cca-99861078423c",
    "data": [
      {
        "text": "radio ",
        "userDefined": false
      },
      {
        "text": "Love",
        "alias": "station",
        "meta": "@radio-station",
        "userDefined": true
      }
    ],
    "isTemplate": false,
    "count": 0,
    "updated": 0
  },
  {
    "id": "eafeb5a7-f862-41aa-a137-24e65e0a8d0b",
    "data": [
      {
        "text": "Yes",
        "alias": "station",
        "meta": "@radio-station",
        "userDefined": true
      },
      {
        "text": " radio",
        "userDefined": false
      }
    ],
    "isTemplate": false,
    "count": 0,
    "updated": 0
  },
  {
    "id": "454e5cc6-edfd-45d0-b6b0-3d20fb70c65d",
    "data": [
      {
        "text": "turn the radio",
        "userDefined": false
      }
    ],
    "isTemplate": false,
    "count": 0,
    "updated": 0
  },
  {
    "id": "beb64d92-f37d-49d4-8c90-10c76a63c1a7",
    "data": [
      {
        "text": "play ",
        "userDefined": false
      },
      {
        "text": "Yellow submarine",
        "alias": "song",
        "meta": "@song",
        "userDefined": true
      },
      {
        "text": " on radio",
        "userDefined": false
      }
    ],
    "isTemplate": false,
    "count": 0,
    "updated": 0
  },
  {
    "id": "496714f4-ffcf-4297-ad19-4f5fcd82499b",
    "data": [
      {
        "text": "go to radio",
        "userDefined": false
      }
    ],
    "isTemplate": false,
    "count": 0,
    "updated": 0
  },
  {
    "id": "f7c74caf-37ea-43c4-bd84-bd3bf3df7c80",
    "data": [
      {
        "text": "can you turn ",
        "userDefined": false
      },
      {
        "text": "on",
        "meta": "@sys.ignore",
        "userDefined": true
      },
      {
        "text": " the ",
        "userDefined": false
      },
      {
        "text": "radio",
        "meta": "@sys.ignore",
        "userDefined": true
      }
    ],
    "isTemplate": false,
    "count": 0,
    "updated": 0
  },
  {
    "id": "ed06cb90-4bfe-4def-aa00-fe086166601b",
    "data": [
      {
        "text": "play ",
        "userDefined": false
      },
      {
        "text": "Radio Moscow",
        "alias": "station",
        "meta": "@radio-station",
        "userDefined": true
      }
    ],
    "isTemplate": false,
    "count": 0,
    "updated": 0
  },
  {
    "id": "66a9b9d0-da03-454b-9f37-b7703ba35ec2",
    "data": [
      {
        "text": "radio",
        "meta": "@sys.ignore",
        "userDefined": true
      },
      {
        "text": " station",
        "userDefined": false
      }
    ],
    "isTemplate": false,
    "count": 0,
    "updated": 0
  },
  {
    "id": "ba9bafe6-a317-4829-89a7-2309ea6d5f43",
    "data": [
      {
        "text": "I want to listen to ",
        "userDefined": false
      },
      {
        "text": "911 fm",
        "alias": "station",
        "meta": "@radio-station",
        "userDefined": true
      },
      {
        "text": " ",
        "userDefined": false
      },
      {
        "text": "radio",
        "meta": "@sys.ignore",
        "userDefined": true
      }
    ],
    "isTemplate": false,
    "count": 0,
    "updated": 0
  },
  {
    "id": "41f4fed7-e004-4922-938e-c67818bdc6d0",
    "data": [
      {
        "text": "open",
        "meta": "@sys.ignore",
        "userDefined": true
      },
      {
        "text": " ",
        "userDefined": false
      },
      {
        "text": "Love",
        "alias": "station",
        "meta": "@radio-station",
        "userDefined": true
      },
      {
        "text": " ",
        "userDefined": false
      },
      {
        "text": "radio",
        "meta": "@sys.ignore",
        "userDefined": true
      }
    ],
    "isTemplate": false,
    "count": 0,
    "updated": 0
  },
  {
    "id": "bf58ab43-81ef-47a3-aa65-9c2b0ab98aef",
    "data": [
      {
        "text": "play ",
        "userDefined": false
      },
      {
        "text": "The takeaway",
        "alias": "program",
        "meta": "@radio-program",
        "userDefined": true
      }
    ],
    "isTemplate": false,
    "count": 0,
    "updated": 0
  },
  {
    "id": "d6d122b8-a039-4122-a8cc-0eeb072438ae",
    "data": [
      {
        "text": "play ",
        "userDefined": false
      },
      {
        "text": "Radio Jazz",
        "alias": "station",
        "meta": "@radio-station",
        "userDefined": true
      }
    ],
    "isTemplate": false,
    "count": 1,
    "updated": 0
  },
  {
    "id": "7908db70-00af-4abc-a76c-f714bb644714",
    "data": [
      {
        "text": "play ",
        "userDefined": false
      },
      {
        "text": "Beatles",
        "alias": "artist",
        "meta": "@sys.music-artist",
        "userDefined": true
      },
      {
        "text": " on radio",
        "userDefined": false
      }
    ],
    "isTemplate": false,
    "count": 0,
    "updated": 0
  },
  {
    "id": "3bb216c8-6a71-4dfe-8323-b7aea012c8bb",
    "data": [
      {
        "text": "open up ",
        "userDefined": false
      },
      {
        "text": "CBN",
        "alias": "station",
        "meta": "@radio-station",
        "userDefined": true
      },
      {
        "text": " radio",
        "userDefined": false
      }
    ],
    "isTemplate": false,
    "count": 0,
    "updated": 0
  },
  {
    "id": "44dee0fd-d145-4b29-ac0a-5d597fe6b4e2",
    "data": [
      {
        "text": "can you play a radio station for me",
        "userDefined": false
      }
    ],
    "isTemplate": false,
    "count": 0,
    "updated": 0
  },
  {
    "id": "8cbdab91-ad42-429a-96be-017562427f1a",
    "data": [
      {
        "text": "turn ",
        "userDefined": false
      },
      {
        "text": "on",
        "meta": "@sys.ignore",
        "userDefined": true
      },
      {
        "text": " ",
        "userDefined": false
      },
      {
        "text": "radio",
        "meta": "@sys.ignore",
        "userDefined": true
      },
      {
        "text": " stations playing ",
        "userDefined": false
      },
      {
        "text": "rock",
        "alias": "genre",
        "meta": "@sys.music-genre",
        "userDefined": true
      }
    ],
    "isTemplate": false,
    "count": 0,
    "updated": 0
  },
  {
    "id": "9406c0e9-5b68-40c6-8a32-b5383ac3191b",
    "data": [
      {
        "text": "tune ",
        "userDefined": false
      },
      {
        "text": "radio",
        "meta": "@sys.ignore",
        "userDefined": true
      },
      {
        "text": " ",
        "userDefined": false
      },
      {
        "text": "Energy",
        "alias": "station",
        "meta": "@radio-station",
        "userDefined": true
      }
    ],
    "isTemplate": false,
    "count": 0,
    "updated": 0
  },
  {
    "id": "4fd3d3a9-8ab3-49d2-847e-e957acf62752",
    "data": [
      {
        "text": "open radio",
        "userDefined": false
      }
    ],
    "isTemplate": false,
    "count": 0,
    "updated": 0
  },
  {
    "id": "92d62089-6a09-42b1-ab9c-cf0e43a38bfe",
    "data": [
      {
        "text": "All things considered",
        "alias": "program",
        "meta": "@radio-program",
        "userDefined": true
      }
    ],
    "isTemplate": false,
    "count": 0,
    "updated": 0
  },
  {
    "id": "e2de5a7c-f05e-4bee-8d02-734892ec17a3",
    "data": [
      {
        "text": "open ",
        "userDefined": false
      },
      {
        "text": "Hit FM",
        "alias": "station",
        "meta": "@radio-station",
        "userDefined": true
      },
      {
        "text": " radio",
        "userDefined": false
      }
    ],
    "isTemplate": false,
    "count": 0,
    "updated": 0
  },
  {
    "id": "d4f24699-3c20-4a17-bb3d-8beab16b0d75",
    "data": [
      {
        "text": "give me radio",
        "userDefined": false
      }
    ],
    "isTemplate": false,
    "count": 0,
    "updated": 0
  },
  {
    "id": "9b6eb0a7-ac9b-48de-9021-ba3ec6ff3d43",
    "data": [
      {
        "text": "play some music on the radio",
        "userDefined": false
      }
    ],
    "isTemplate": false,
    "count": 0,
    "updated": 0
  },
  {
    "id": "60dd91cc-9b89-4ef7-a05b-0d8f3129aaaa",
    "data": [
      {
        "text": "99 fm",
        "alias": "station",
        "meta": "@radio-station",
        "userDefined": true
      },
      {
        "text": " radio station",
        "userDefined": false
      }
    ],
    "isTemplate": false,
    "count": 0,
    "updated": 0
  },
  {
    "id": "dd3a71ff-de0d-4c1d-ac01-db1479714d5f",
    "data": [
      {
        "text": "Start fm",
        "alias": "station",
        "meta": "@radio-station",
        "userDefined": true
      },
      {
        "text": " ",
        "userDefined": false
      },
      {
        "text": "radio",
        "meta": "@sys.ignore",
        "userDefined": true
      }
    ],
    "isTemplate": false,
    "count": 0,
    "updated": 0
  },
  {
    "id": "f25cb66b-fe26-4706-847d-6edff9e546a4",
    "data": [
      {
        "text": "tune to ",
        "userDefined": false
      },
      {
        "text": "Rock FM",
        "alias": "station",
        "meta": "@radio-station",
        "userDefined": true
      }
    ],
    "isTemplate": false,
    "count": 0,
    "updated": 0
  },
  {
    "id": "7feeb3cc-ed5a-466c-b9be-9eea1253b46e",
    "data": [
      {
        "text": "listen to radio station",
        "userDefined": false
      }
    ],
    "isTemplate": false,
    "count": 0,
    "updated": 0
  },
  {
    "id": "472f4a19-3d1f-48f6-8489-dea0d94eb09f",
    "data": [
      {
        "text": "play music on the radio",
        "userDefined": false
      }
    ],
    "isTemplate": false,
    "count": 0,
    "updated": 0
  },
  {
    "id": "24ef17f3-3b42-4061-8436-b78ac82dcc58",
    "data": [
      {
        "text": "can you open the radio",
        "userDefined": false
      }
    ],
    "isTemplate": false,
    "count": 0,
    "updated": 0
  },
  {
    "id": "bc4255e7-3d56-4a91-8d23-52ae86da7220",
    "data": [
      {
        "text": "can you play ",
        "userDefined": false
      },
      {
        "text": "NPR",
        "alias": "station",
        "meta": "@radio-station",
        "userDefined": true
      },
      {
        "text": " please",
        "userDefined": false
      }
    ],
    "isTemplate": false,
    "count": 0,
    "updated": 0
  },
  {
    "id": "463cf506-41ef-4f57-a1de-d0cac41cc9b5",
    "data": [
      {
        "text": "radio",
        "meta": "@sys.ignore",
        "userDefined": true
      },
      {
        "text": " station ",
        "userDefined": false
      },
      {
        "text": "Kiss FM",
        "alias": "station",
        "meta": "@radio-station",
        "userDefined": true
      }
    ],
    "isTemplate": false,
    "count": 0,
    "updated": 0
  },
  {
    "id": "2a1528d6-a8ab-44a1-9789-852aba952d8b",
    "data": [
      {
        "text": "how can you turn on the radio",
        "userDefined": false
      }
    ],
    "isTemplate": false,
    "count": 0,
    "updated": 0
  },
  {
    "id": "21988ad8-3481-4b62-8499-57f4576c4c9f",
    "data": [
      {
        "text": "activate the radio station",
        "userDefined": false
      }
    ],
    "isTemplate": false,
    "count": 0,
    "updated": 0
  },
  {
    "id": "b91cd4fd-7308-4dd7-be2e-3150e82eeed7",
    "data": [
      {
        "text": "play radio for rear left seat",
        "userDefined": false
      }
    ],
    "isTemplate": false,
    "count": 0,
    "updated": 0
  },
  {
    "id": "835a2330-5ee0-4b32-9ec5-ac7741a74757",
    "data": [
      {
        "text": "turn the ",
        "userDefined": false
      },
      {
        "text": "radio",
        "meta": "@sys.ignore",
        "userDefined": true
      },
      {
        "text": " ",
        "userDefined": false
      },
      {
        "text": "on",
        "meta": "@sys.ignore",
        "userDefined": true
      }
    ],
    "isTemplate": false,
    "count": 0,
    "updated": 0
  },
  {
    "id": "0fcbdd01-982a-49ca-9df9-9c74c855b3b5",
    "data": [
      {
        "text": "can I listen to the radio",
        "userDefined": false
      }
    ],
    "isTemplate": false,
    "count": 0,
    "updated": 0
  },
  {
    "id": "ef88cb39-f898-4580-b43f-8cc7057c8d33",
    "data": [
      {
        "text": "play ",
        "userDefined": false
      },
      {
        "text": "Madonna",
        "alias": "artist",
        "meta": "@sys.music-artist",
        "userDefined": true
      },
      {
        "text": " ",
        "userDefined": false
      },
      {
        "text": "on",
        "meta": "@sys.ignore",
        "userDefined": true
      },
      {
        "text": " ",
        "userDefined": false
      },
      {
        "text": "radio",
        "meta": "@sys.ignore",
        "userDefined": true
      }
    ],
    "isTemplate": false,
    "count": 0,
    "updated": 0
  },
  {
    "id": "2f57f4f7-3416-4923-8fc4-a742b93ea556",
    "data": [
      {
        "text": "I want to listen to ",
        "userDefined": false
      },
      {
        "text": "radio",
        "meta": "@sys.ignore",
        "userDefined": true
      },
      {
        "text": " station",
        "userDefined": false
      }
    ],
    "isTemplate": false,
    "count": 0,
    "updated": 0
  },
  {
    "id": "ef824edf-fd05-4ab4-b2ca-cd311a02725c",
    "data": [
      {
        "text": "play ",
        "userDefined": false
      },
      {
        "text": "101.1 fm",
        "alias": "station",
        "meta": "@radio-station",
        "userDefined": true
      }
    ],
    "isTemplate": false,
    "count": 0,
    "updated": 0
  },
  {
    "id": "e21f8076-ae0b-4d59-ba44-da658132fa63",
    "data": [
      {
        "text": "start tuning ",
        "userDefined": false
      },
      {
        "text": "radio",
        "meta": "@sys.ignore",
        "userDefined": true
      }
    ],
    "isTemplate": false,
    "count": 0,
    "updated": 0
  },
  {
    "id": "2bd1d564-b025-4000-9fd8-9ef95c5689a2",
    "data": [
      {
        "text": "turn on the radio for me",
        "userDefined": false
      }
    ],
    "isTemplate": false,
    "count": 0,
    "updated": 0
  },
  {
    "id": "c333bc41-ac83-43d9-b32d-f7a0b9c61d92",
    "data": [
      {
        "text": "play ",
        "userDefined": false
      },
      {
        "text": "The best of car talk",
        "alias": "program",
        "meta": "@radio-program",
        "userDefined": true
      }
    ],
    "isTemplate": false,
    "count": 0,
    "updated": 0
  },
  {
    "id": "109b1514-6061-41bc-ae74-d77e9ed7da12",
    "data": [
      {
        "text": "play ",
        "userDefined": false
      },
      {
        "text": "Justin Bieber",
        "alias": "artist",
        "meta": "@sys.music-artist",
        "userDefined": true
      },
      {
        "text": " ",
        "userDefined": false
      },
      {
        "text": "on",
        "meta": "@sys.ignore",
        "userDefined": true
      },
      {
        "text": " ",
        "userDefined": false
      },
      {
        "text": "radio",
        "meta": "@sys.ignore",
        "userDefined": true
      }
    ],
    "isTemplate": false,
    "count": 0,
    "updated": 0
  },
  {
    "id": "515ea7e2-82fb-4ccf-b12e-49e1e162e063",
    "data": [
      {
        "text": "can you turn ",
        "userDefined": false
      },
      {
        "text": "on",
        "meta": "@sys.ignore",
        "userDefined": true
      },
      {
        "text": " my ",
        "userDefined": false
      },
      {
        "text": "radio",
        "meta": "@sys.ignore",
        "userDefined": true
      }
    ],
    "isTemplate": false,
    "count": 0,
    "updated": 0
  },
  {
    "id": "c52faeef-eddc-465b-9915-0717fd9c3b6a",
    "data": [
      {
        "text": "radio",
        "meta": "@sys.ignore",
        "userDefined": true
      },
      {
        "text": " ",
        "userDefined": false
      },
      {
        "text": "on",
        "meta": "@sys.ignore",
        "userDefined": true
      }
    ],
    "isTemplate": false,
    "count": 0,
    "updated": 0
  },
  {
    "id": "338e4bb2-985b-4a59-a5df-4c8a400f273f",
    "data": [
      {
        "text": "open ",
        "userDefined": false
      },
      {
        "text": "jazz",
        "alias": "genre",
        "meta": "@sys.music-genre",
        "userDefined": true
      },
      {
        "text": " radio",
        "userDefined": false
      }
    ],
    "isTemplate": false,
    "count": 0,
    "updated": 0
  },
  {
    "id": "c5be86a3-3f8d-4aee-b7e2-589ca73726f1",
    "data": [
      {
        "text": "play ",
        "userDefined": false
      },
      {
        "text": "music",
        "meta": "@sys.ignore",
        "userDefined": true
      },
      {
        "text": " ",
        "userDefined": false
      },
      {
        "text": "radio",
        "meta": "@sys.ignore",
        "userDefined": true
      },
      {
        "text": " ",
        "userDefined": false
      },
      {
        "text": "Love",
        "alias": "station",
        "meta": "@radio-station",
        "userDefined": true
      }
    ],
    "isTemplate": false,
    "count": 0,
    "updated": 0
  },
  {
    "id": "3e88b686-1db4-4144-a59e-2fa8cf00337c",
    "data": [
      {
        "text": "can you play a ",
        "userDefined": false
      },
      {
        "text": "radio",
        "meta": "@sys.ignore",
        "userDefined": true
      },
      {
        "text": " station",
        "userDefined": false
      }
    ],
    "isTemplate": false,
    "count": 0,
    "updated": 0
  },
  {
    "id": "7bd8cfc3-174f-46ed-aed5-473dfbb85990",
    "data": [
      {
        "text": "change ",
        "userDefined": false
      },
      {
        "text": "radio",
        "meta": "@sys.ignore",
        "userDefined": true
      },
      {
        "text": " station to ",
        "userDefined": false
      },
      {
        "text": "105 fm",
        "alias": "station",
        "meta": "@radio-station",
        "userDefined": true
      }
    ],
    "isTemplate": false,
    "count": 0,
    "updated": 0
  },
  {
    "id": "373095bd-8ec0-4a2b-9093-8837db89dd61",
    "data": [
      {
        "text": "radio",
        "meta": "@sys.ignore",
        "userDefined": true
      },
      {
        "text": " station ",
        "userDefined": false
      },
      {
        "text": "fm 991",
        "alias": "station",
        "meta": "@radio-station",
        "userDefined": true
      }
    ],
    "isTemplate": false,
    "count": 0,
    "updated": 0
  }
]