[
  {
    "id": "68fa9c3d-2166-41f9-8b99-309d588a1b14",
    "data": [
      {
        "text": "find ",
        "userDefined": false
      },
      {
        "text": "Miller FM",
        "alias": "station",
        "meta": "@radio-station",
        "userDefined": true
      },
      {
        "text": " ",
        "userDefined": false
      },
      {
        "text": "radio",
        "meta": "@sys.ignore",
        "userDefined": true
      },
      {
        "text": " stations",
        "userDefined": false
      }
    ],
    "isTemplate": false,
    "count": 0,
    "updated": 0
  },
  {
    "id": "1ed970b4-7024-42d9-a58a-371363c29cda",
    "data": [
      {
        "text": "search ",
        "userDefined": false
      },
      {
        "text": "Yellow submarine",
        "alias": "song",
        "meta": "@song",
        "userDefined": true
      },
      {
        "text": " on radio",
        "userDefined": false
      }
    ],
    "isTemplate": false,
    "count": 0,
    "updated": 0
  },
  {
    "id": "16f7c875-435e-4683-81e2-a71301ebc63b",
    "data": [
      {
        "text": "search ",
        "userDefined": false
      },
      {
        "text": "Madonna",
        "alias": "artist",
        "meta": "@sys.music-artist",
        "userDefined": true
      },
      {
        "text": " ",
        "userDefined": false
      },
      {
        "text": "on",
        "meta": "@sys.ignore",
        "userDefined": true
      },
      {
        "text": " ",
        "userDefined": false
      },
      {
        "text": "radio",
        "meta": "@sys.ignore",
        "userDefined": true
      }
    ],
    "isTemplate": false,
    "count": 0,
    "updated": 0
  },
  {
    "id": "0c36b114-059b-4c63-a60f-4b43f2fcef23",
    "data": [
      {
        "text": "find radio ",
        "userDefined": false
      },
      {
        "text": "Energy",
        "alias": "station",
        "meta": "@radio-station",
        "userDefined": true
      }
    ],
    "isTemplate": false,
    "count": 0,
    "updated": 0
  },
  {
    "id": "c88788fd-08af-4a1b-84d7-c40b6b3d824e",
    "data": [
      {
        "text": "find ",
        "userDefined": false
      },
      {
        "text": "The Beatles",
        "alias": "artist",
        "meta": "@sys.music-artist",
        "userDefined": true
      },
      {
        "text": " ",
        "userDefined": false
      },
      {
        "text": "on",
        "meta": "@sys.ignore",
        "userDefined": true
      },
      {
        "text": " ",
        "userDefined": false
      },
      {
        "text": "radio",
        "meta": "@sys.ignore",
        "userDefined": true
      }
    ],
    "isTemplate": false,
    "count": 0,
    "updated": 0
  },
  {
    "id": "c001ff1c-ae53-4fbf-85e8-0d39a585c877",
    "data": [
      {
        "text": "find ",
        "userDefined": false
      },
      {
        "text": "Michael Jackson",
        "alias": "artist",
        "meta": "@sys.music-artist",
        "userDefined": true
      },
      {
        "text": " ",
        "userDefined": false
      },
      {
        "text": "on",
        "meta": "@sys.ignore",
        "userDefined": true
      },
      {
        "text": " ",
        "userDefined": false
      },
      {
        "text": "radio",
        "meta": "@sys.ignore",
        "userDefined": true
      }
    ],
    "isTemplate": false,
    "count": 0,
    "updated": 0
  },
  {
    "id": "a841760d-5549-41c6-b61f-88a237372465",
    "data": [
      {
        "text": "search",
        "meta": "@sys.ignore",
        "userDefined": true
      },
      {
        "text": " ",
        "userDefined": false
      },
      {
        "text": "The best of car talk",
        "alias": "program",
        "meta": "@radio-program",
        "userDefined": true
      }
    ],
    "isTemplate": false,
    "count": 0,
    "updated": 0
  },
  {
    "id": "28ac8ed0-000e-49f7-9add-fad419b9618d",
    "data": [
      {
        "text": "find a ",
        "userDefined": false
      },
      {
        "text": "jazz",
        "alias": "genre",
        "meta": "@sys.music-genre",
        "userDefined": true
      },
      {
        "text": " radio station",
        "userDefined": false
      }
    ],
    "isTemplate": false,
    "count": 0,
    "updated": 0
  },
  {
    "id": "8a1b9cf3-c7c6-469d-abc5-acaa1ddb3840",
    "data": [
      {
        "text": "find fm radio",
        "userDefined": false
      }
    ],
    "isTemplate": false,
    "count": 0,
    "updated": 0
  },
  {
    "id": "4662642b-422f-4f42-bcfb-4f61392f5f7b",
    "data": [
      {
        "text": "radio stations",
        "meta": "@sys.ignore",
        "userDefined": false
      },
      {
        "text": " playing ",
        "userDefined": false
      },
      {
        "text": "rock",
        "alias": "genre",
        "meta": "@sys.music-genre",
        "userDefined": true
      }
    ],
    "isTemplate": false,
    "count": 0,
    "updated": 0
  },
  {
    "id": "6d2d38d2-6ff4-4913-bab2-765f8fe4d0fb",
    "data": [
      {
        "text": "look up for ",
        "userDefined": false
      },
      {
        "text": "Love Radio",
        "alias": "station",
        "meta": "@radio-station",
        "userDefined": true
      },
      {
        "text": " station",
        "userDefined": false
      }
    ],
    "isTemplate": false,
    "count": 0,
    "updated": 0
  },
  {
    "id": "7e1e3193-368d-4dc5-99fd-cc17863715d6",
    "data": [
      {
        "text": "find radio",
        "userDefined": false
      }
    ],
    "isTemplate": false,
    "count": 0,
    "updated": 0
  },
  {
    "id": "8d0ae56f-5e30-4c42-a77a-09900ebb9d5f",
    "data": [
      {
        "text": "search radio",
        "userDefined": false
      }
    ],
    "isTemplate": false,
    "count": 0,
    "updated": 0
  },
  {
    "id": "a94d5fdf-75a2-4e16-a2ca-bc1f7f579ef9",
    "data": [
      {
        "text": "search",
        "meta": "@sys.ignore",
        "userDefined": true
      },
      {
        "text": " ",
        "userDefined": false
      },
      {
        "text": "The takeaway",
        "alias": "program",
        "meta": "@radio-program",
        "userDefined": true
      },
      {
        "text": " ",
        "userDefined": false
      },
      {
        "text": "on",
        "meta": "@sys.ignore",
        "userDefined": true
      },
      {
        "text": " ",
        "userDefined": false
      },
      {
        "text": "radio",
        "meta": "@sys.ignore",
        "userDefined": true
      }
    ],
    "isTemplate": false,
    "count": 1,
    "updated": 0
  },
  {
    "id": "c161c968-dce1-4837-9149-d385dd1bd953",
    "data": [
      {
        "text": "find song ",
        "userDefined": false
      },
      {
        "text": "Blackbird",
        "alias": "song",
        "meta": "@song",
        "userDefined": true
      },
      {
        "text": " on radio",
        "userDefined": false
      }
    ],
    "isTemplate": false,
    "count": 0,
    "updated": 0
  },
  {
    "id": "598a19c4-18a9-4d19-8137-f1df3bc3cd43",
    "data": [
      {
        "text": "find song ",
        "userDefined": false
      },
      {
        "text": "Send my love",
        "alias": "song",
        "meta": "@song",
        "userDefined": true
      },
      {
        "text": " on radio",
        "userDefined": false
      }
    ],
    "isTemplate": false,
    "count": 0,
    "updated": 0
  },
  {
    "id": "d84b4baa-54c7-481f-887d-48562b6a6155",
    "data": [
      {
        "text": "some ",
        "userDefined": false
      },
      {
        "text": "American",
        "alias": "language",
        "meta": "@sys.language",
        "userDefined": true
      },
      {
        "text": " ",
        "userDefined": false
      },
      {
        "text": "radio",
        "meta": "@sys.ignore",
        "userDefined": true
      }
    ],
    "isTemplate": false,
    "count": 0,
    "updated": 0
  },
  {
    "id": "3229cc67-dcfa-4627-a2cf-51a6dbe5edfa",
    "data": [
      {
        "text": "find ",
        "userDefined": false
      },
      {
        "text": "rock",
        "alias": "genre",
        "meta": "@sys.music-genre",
        "userDefined": true
      },
      {
        "text": " ",
        "userDefined": false
      },
      {
        "text": "radio",
        "meta": "@sys.ignore",
        "userDefined": true
      }
    ],
    "isTemplate": false,
    "count": 0,
    "updated": 0
  },
  {
    "id": "b02facdc-c6b5-47d7-b642-84f30e140943",
    "data": [
      {
        "text": "find me a ",
        "userDefined": false
      },
      {
        "text": "classical",
        "alias": "genre",
        "meta": "@sys.music-genre",
        "userDefined": true
      },
      {
        "text": " station",
        "userDefined": false
      }
    ],
    "isTemplate": false,
    "count": 0,
    "updated": 0
  },
  {
    "id": "dd9a36ea-d817-4e0f-bba1-4dbebd714a17",
    "data": [
      {
        "text": "find the radio station",
        "userDefined": false
      }
    ],
    "isTemplate": false,
    "count": 0,
    "updated": 0
  },
  {
    "id": "2c95a14a-bc9b-4571-ab85-066798879d0e",
    "data": [
      {
        "text": "I need a radio station that only plays ",
        "userDefined": false
      },
      {
        "text": "love songs",
        "alias": "genre",
        "meta": "@sys.music-genre",
        "userDefined": true
      }
    ],
    "isTemplate": false,
    "count": 1,
    "updated": 0
  },
  {
    "id": "a5766b1d-5836-43b5-80bb-243bdcb8d9de",
    "data": [
      {
        "text": "find ",
        "userDefined": false
      },
      {
        "text": "BBC Radio 1",
        "alias": "station",
        "meta": "@radio-station",
        "userDefined": true
      }
    ],
    "isTemplate": false,
    "count": 0,
    "updated": 0
  },
  {
    "id": "781c3bac-6954-48b0-a181-9b3924a47ec8",
    "data": [
      {
        "text": "search",
        "meta": "@sys.ignore",
        "userDefined": true
      },
      {
        "text": " ",
        "userDefined": false
      },
      {
        "text": "Russian",
        "alias": "language",
        "meta": "@sys.language",
        "userDefined": true
      },
      {
        "text": " ",
        "userDefined": false
      },
      {
        "text": "radio",
        "meta": "@sys.ignore",
        "userDefined": true
      },
      {
        "text": " station",
        "userDefined": false
      }
    ],
    "isTemplate": false,
    "count": 0,
    "updated": 0
  },
  {
    "id": "e1b124e9-071a-4927-9327-75b4662e5635",
    "data": [
      {
        "text": "find me radio",
        "userDefined": false
      }
    ],
    "isTemplate": false,
    "count": 0,
    "updated": 0
  },
  {
    "id": "dee42c8c-05d7-461d-9971-088e99914db4",
    "data": [
      {
        "text": "find any fm radio",
        "userDefined": false
      }
    ],
    "isTemplate": false,
    "count": 0,
    "updated": 0
  },
  {
    "id": "71f8db64-c46a-4d19-95a4-5cf6c8044c4e",
    "data": [
      {
        "text": "search",
        "meta": "@sys.ignore",
        "userDefined": true
      },
      {
        "text": " ",
        "userDefined": false
      },
      {
        "text": "Blackbird",
        "alias": "song",
        "meta": "@song",
        "userDefined": true
      },
      {
        "text": " ",
        "userDefined": false
      },
      {
        "text": "remix",
        "alias": "remix",
        "meta": "@remix",
        "userDefined": true
      },
      {
        "text": " ",
        "userDefined": false
      },
      {
        "text": "on",
        "meta": "@sys.ignore",
        "userDefined": true
      },
      {
        "text": " ",
        "userDefined": false
      },
      {
        "text": "radio",
        "meta": "@sys.ignore",
        "userDefined": true
      }
    ],
    "isTemplate": false,
    "count": 0,
    "updated": 0
  },
  {
    "id": "daf6bba0-4409-428f-a455-9de3827004f5",
    "data": [
      {
        "text": "find ",
        "userDefined": false
      },
      {
        "text": "The Beatles",
        "alias": "artist",
        "meta": "@sys.music-artist",
        "userDefined": true
      },
      {
        "text": " ",
        "userDefined": false
      },
      {
        "text": "radio",
        "meta": "@sys.ignore",
        "userDefined": true
      }
    ],
    "isTemplate": false,
    "count": 0,
    "updated": 0
  },
  {
    "id": "e4b46203-95fb-4e83-9233-d200c7515bc8",
    "data": [
      {
        "text": "find me ",
        "userDefined": false
      },
      {
        "text": "911 fm",
        "alias": "station",
        "meta": "@radio-station",
        "userDefined": true
      },
      {
        "text": " ",
        "userDefined": false
      },
      {
        "text": "radio",
        "meta": "@sys.ignore",
        "userDefined": true
      }
    ],
    "isTemplate": false,
    "count": 0,
    "updated": 0
  },
  {
    "id": "e3fe9c0a-4909-4223-9288-cebe0b5b8cd4",
    "data": [
      {
        "text": "search on the radio",
        "userDefined": false
      }
    ],
    "isTemplate": false,
    "count": 0,
    "updated": 0
  },
  {
    "id": "71d9de86-4025-4d21-ae0a-ae4e8ef4bfe6",
    "data": [
      {
        "text": "can you find me a radio station",
        "userDefined": false
      }
    ],
    "isTemplate": false,
    "count": 0,
    "updated": 0
  },
  {
    "id": "a143d7f6-7981-46eb-a0c5-19a6befc6043",
    "data": [
      {
        "text": "search for radio",
        "userDefined": false
      }
    ],
    "isTemplate": false,
    "count": 0,
    "updated": 0
  },
  {
    "id": "c912962f-bd42-48f8-9d3f-d01bffe5c1cb",
    "data": [
      {
        "text": "find me a radio station",
        "userDefined": false
      }
    ],
    "isTemplate": false,
    "count": 0,
    "updated": 0
  }
]