[
  {
    "id": "ada16e18-f6c9-4a8f-a983-87b2c2fcab4c",
    "data": [
      {
        "text": "I received a damaged item",
        "userDefined": false
      }
    ],
    "isTemplate": false,
    "count": 0,
    "updated": 0
  },
  {
    "id": "faa10d83-e792-4597-8a49-803a5e25bf70",
    "data": [
      {
        "text": "I\u0027d like to cancel purchase",
        "userDefined": false
      }
    ],
    "isTemplate": false,
    "count": 0,
    "updated": 0
  },
  {
    "id": "ce3ac7c8-9082-4307-bc68-e12fb90b62b1",
    "data": [
      {
        "text": "I request a refund",
        "userDefined": false
      }
    ],
    "isTemplate": false,
    "count": 0,
    "updated": 0
  },
  {
    "id": "ca4022c4-53c6-477d-acbf-899ecd16acc6",
    "data": [
      {
        "text": "I want my money back",
        "userDefined": false
      }
    ],
    "isTemplate": false,
    "count": 0,
    "updated": 0
  },
  {
    "id": "b7a01b69-cc95-455b-bf24-6bb0b27c2857",
    "data": [
      {
        "text": "Refund",
        "userDefined": false
      }
    ],
    "isTemplate": false,
    "count": 0,
    "updated": 0
  },
  {
    "id": "61f87f14-8a64-4638-bdb1-9c73d9bcc55a",
    "data": [
      {
        "text": "I want to return my purchase",
        "userDefined": false
      }
    ],
    "isTemplate": false,
    "count": 0,
    "updated": 0
  },
  {
    "id": "03c9d9a1-19af-47e6-a108-407f59e5c75b",
    "data": [
      {
        "text": "I want to get refund",
        "userDefined": false
      }
    ],
    "isTemplate": false,
    "count": 0,
    "updated": 0
  },
  {
    "id": "87a96b47-5418-474a-9ce5-24d11002736b",
    "data": [
      {
        "text": "cancel purchase",
        "userDefined": false
      }
    ],
    "isTemplate": false,
    "count": 0,
    "updated": 0
  },
  {
    "id": "1b3b46c3-2ba3-4142-ba0e-5c8d576ac15e",
    "data": [
      {
        "text": "I received a wrong item",
        "userDefined": false
      }
    ],
    "isTemplate": false,
    "count": 0,
    "updated": 0
  },
  {
    "id": "3835ebbd-1226-4bad-8826-26059bc5b0b4",
    "data": [
      {
        "text": "I want to make an exchange",
        "userDefined": false
      }
    ],
    "isTemplate": false,
    "count": 0,
    "updated": 0
  },
  {
    "id": "90fad5ae-98f8-4e5c-8e9f-ff6a3e8249a8",
    "data": [
      {
        "text": "Can I get my money back",
        "userDefined": false
      }
    ],
    "isTemplate": false,
    "count": 0,
    "updated": 0
  }
]