{
  "id": "8245d67f-8938-405f-b35e-a57d432b3f76",
  "name": "resume",
  "auto": true,
  "contexts": [],
  "responses": [
    {
      "resetContexts": false,
      "action": "resume",
      "affectedContexts": [
        {
          "name": "cv-followup",
          "parameters": {},
          "lifespan": 2
        }
      ],
      "parameters": [],
      "messages": [
        {
          "type": 0,
          "platform": "kik",
          "lang": "en",
          "condition": "",
          "speech": [
            "Here you are.",
            "Here you go.",
            "Sure."
          ]
        },
        {
          "type": 3,
          "platform": "kik",
          "lang": "en",
          "condition": "",
          "imageUrl": "https://api.ai/docs/images/samples/for-agents/agent-store/ProfileBot_CV.jpg"
        },
        {
          "type": 2,
          "platform": "kik",
          "lang": "en",
          "condition": "",
          "title": "Would you like to see my portfolio as well?",
          "replies": [
            "Yes",
            "No"
          ]
        },
        {
          "type": 0,
          "platform": "telegram",
          "lang": "en",
          "condition": "",
          "speech": [
            "Here you are.",
            "Here you go.",
            "Sure."
          ]
        },
        {
          "type": 3,
          "platform": "telegram",
          "lang": "en",
          "condition": "",
          "imageUrl": "https://api.ai/docs/images/samples/for-agents/agent-store/ProfileBot_CV.jpg"
        },
        {
          "type": 2,
          "platform": "telegram",
          "lang": "en",
          "condition": "",
          "title": "Would you like to see my portfolio as well?",
          "replies": [
            "Yes",
            "No"
          ]
        },
        {
          "type": 0,
          "platform": "slack",
          "lang": "en",
          "condition": "",
          "speech": [
            "Here you are.",
            "Here you go.",
            "Sure."
          ]
        },
        {
          "type": 3,
          "platform": "slack",
          "lang": "en",
          "condition": "",
          "imageUrl": "https://api.ai/docs/images/samples/for-agents/agent-store/ProfileBot_CV.jpg"
        },
        {
          "type": 2,
          "platform": "slack",
          "lang": "en",
          "condition": "",
          "title": "Would you like to see my portfolio as well?",
          "replies": [
            "Yes",
            "No"
          ]
        },
        {
          "type": 0,
          "platform": "facebook",
          "lang": "en",
          "condition": "",
          "speech": [
            "Here you are.",
            "Here you go.",
            "Sure."
          ]
        },
        {
          "type": 3,
          "platform": "facebook",
          "lang": "en",
          "condition": "",
          "imageUrl": "https://dialogflow.com/docs/images/samples/for-agents/agent-store/ProfileBot_CV.jpg"
        },
        {
          "type": 2,
          "platform": "facebook",
          "lang": "en",
          "condition": "",
          "title": "Would you like to see my portfolio as well?",
          "replies": [
            "Yes",
            "No"
          ]
        }
      ],
      "defaultResponsePlatforms": {},
      "speech": []
    }
  ],
  "priority": 500000,
  "webhookUsed": false,
  "webhookForSlotFilling": false,
  "fallbackIntent": false,
  "events": [],
  "conditionalResponses": [],
  "condition": "",
  "conditionalFollowupEvents": []
}