[
  {
    "id": "07e4d6fd-314e-44d1-9a3f-9d701d3b6bdf",
    "data": [
      {
        "text": "do you have a hobby",
        "userDefined": false
      }
    ],
    "isTemplate": false,
    "count": 0,
    "updated": 0
  },
  {
    "id": "c2935b76-a33f-41a2-8d32-14634c5f93ee",
    "data": [
      {
        "text": "what about your hobby",
        "userDefined": false
      }
    ],
    "isTemplate": false,
    "count": 0,
    "updated": 0
  },
  {
    "id": "6f4d5e0f-0304-451f-9f6d-c664015d4e40",
    "data": [
      {
        "text": "what\u0027s your hobby",
        "userDefined": false
      }
    ],
    "isTemplate": false,
    "count": 0,
    "updated": 0
  },
  {
    "id": "345540a1-f95b-4ffa-970c-144c79ff3d42",
    "data": [
      {
        "text": "what do you do for fun",
        "userDefined": false
      }
    ],
    "isTemplate": false,
    "count": 0,
    "updated": 0
  },
  {
    "id": "60d0eb6a-578f-4c5b-b9f5-aa3ca0ed8f59",
    "data": [
      {
        "text": "your hobby",
        "userDefined": false
      }
    ],
    "isTemplate": false,
    "count": 0,
    "updated": 0
  },
  {
    "id": "a16e85c3-eeb2-45a2-a8fc-f8366684f811",
    "data": [
      {
        "text": "what ",
        "userDefined": false
      },
      {
        "text": "are",
        "meta": "@sys.ignore",
        "userDefined": true
      },
      {
        "text": " your hobbies",
        "userDefined": false
      }
    ],
    "isTemplate": false,
    "count": 0,
    "updated": 0
  },
  {
    "id": "ea364603-8ddf-4253-b93d-1a6e158d7b0f",
    "data": [
      {
        "text": "tell ",
        "userDefined": false
      },
      {
        "text": "me",
        "meta": "@sys.ignore",
        "userDefined": true
      },
      {
        "text": " about your hobby",
        "userDefined": false
      }
    ],
    "isTemplate": false,
    "count": 0,
    "updated": 0
  }
]