[
  {
    "id": "193f05f5-c20c-485b-b114-9ab47a456a8e",
    "data": [
      {
        "text": "answer",
        "userDefined": false
      }
    ],
    "isTemplate": false,
    "count": 0,
    "updated": 0
  },
  {
    "id": "a41d0df1-1d0f-4ecf-a72e-04b17f24e43c",
    "data": [
      {
        "text": "just answer my question",
        "userDefined": false
      }
    ],
    "isTemplate": false,
    "count": 0,
    "updated": 0
  },
  {
    "id": "fffe6dcf-0250-47bd-9046-1ae9f818b0d0",
    "data": [
      {
        "text": "answers",
        "userDefined": false
      }
    ],
    "isTemplate": false,
    "count": 0,
    "updated": 0
  },
  {
    "id": "3a0186d6-5fe6-474e-b9fd-af250b7ced8f",
    "data": [
      {
        "text": "tell me the answer",
        "userDefined": false
      }
    ],
    "isTemplate": false,
    "count": 0,
    "updated": 0
  },
  {
    "id": "38260288-fc3d-462e-b9bd-43b4058b7f37",
    "data": [
      {
        "text": "answer my question",
        "userDefined": false
      }
    ],
    "isTemplate": false,
    "count": 0,
    "updated": 0
  },
  {
    "id": "f12a0180-38aa-4604-9517-81187b164f81",
    "data": [
      {
        "text": "can you answer me",
        "userDefined": false
      }
    ],
    "isTemplate": false,
    "count": 0,
    "updated": 0
  },
  {
    "id": "2c434cef-f544-404d-8fc9-7bc623cdc9fd",
    "data": [
      {
        "text": "answering questions",
        "userDefined": false
      }
    ],
    "isTemplate": false,
    "count": 0,
    "updated": 0
  },
  {
    "id": "c16859fb-35c6-4dda-b6ac-3fff7e3b76e4",
    "data": [
      {
        "text": "I have a question",
        "userDefined": false
      }
    ],
    "isTemplate": false,
    "count": 0,
    "updated": 0
  },
  {
    "id": "cf0dced4-25a3-47c3-b2f2-8bec7f1b26cd",
    "data": [
      {
        "text": "can you answer my question",
        "userDefined": false
      }
    ],
    "isTemplate": false,
    "count": 0,
    "updated": 0
  },
  {
    "id": "83902ee7-5a0c-4d33-8e71-c2eb86eef1bd",
    "data": [
      {
        "text": "give",
        "meta": "@sys.ignore",
        "userDefined": false
      },
      {
        "text": " me the answer",
        "userDefined": false
      }
    ],
    "isTemplate": false,
    "count": 0,
    "updated": 0
  },
  {
    "id": "9d34f846-f818-4c69-b480-6e74cdd1ad26",
    "data": [
      {
        "text": "I want you to answer my question",
        "userDefined": false
      }
    ],
    "isTemplate": false,
    "count": 0,
    "updated": 0
  },
  {
    "id": "6c34e4c0-e8a7-4793-9dce-75fa5e03fcc7",
    "data": [
      {
        "text": "answer me",
        "userDefined": false
      }
    ],
    "isTemplate": false,
    "count": 0,
    "updated": 0
  },
  {
    "id": "cb9c3c1a-f6bd-4843-8eee-f19f95dcbea1",
    "data": [
      {
        "text": "answer the question",
        "userDefined": false
      }
    ],
    "isTemplate": false,
    "count": 0,
    "updated": 0
  },
  {
    "id": "3f168d5a-ddca-4944-8c87-7a6441e3fc53",
    "data": [
      {
        "text": "just answer the question",
        "userDefined": false
      }
    ],
    "isTemplate": false,
    "count": 0,
    "updated": 0
  },
  {
    "id": "b13b3967-682e-4b0f-8c8c-a31d5ea5508d",
    "data": [
      {
        "text": "give",
        "meta": "@sys.ignore",
        "userDefined": false
      },
      {
        "text": " me an answer",
        "userDefined": false
      }
    ],
    "isTemplate": false,
    "count": 0,
    "updated": 0
  },
  {
    "id": "b8ca3416-aa4d-4c01-9150-2ada2b925c61",
    "data": [
      {
        "text": "can you answer",
        "userDefined": false
      }
    ],
    "isTemplate": false,
    "count": 0,
    "updated": 0
  },
  {
    "id": "da368839-7c9f-4803-99fb-55adc8f71e2e",
    "data": [
      {
        "text": "I want you to answer ",
        "userDefined": false
      },
      {
        "text": "me",
        "meta": "@sys.ignore",
        "userDefined": false
      }
    ],
    "isTemplate": false,
    "count": 0,
    "updated": 0
  },
  {
    "id": "0cd4ed9c-4875-40d7-9856-9021d800de35",
    "data": [
      {
        "text": "I want the answer now",
        "userDefined": false
      }
    ],
    "isTemplate": false,
    "count": 0,
    "updated": 0
  },
  {
    "id": "d4b626d7-d05b-496a-81df-06f340bde366",
    "data": [
      {
        "text": "can you answer a question for me",
        "userDefined": false
      }
    ],
    "isTemplate": false,
    "count": 0,
    "updated": 0
  },
  {
    "id": "043942e4-f698-436e-a6ef-cd2cfa50a1ac",
    "data": [
      {
        "text": "answer ",
        "userDefined": false
      },
      {
        "text": "it",
        "meta": "@sys.ignore",
        "userDefined": false
      }
    ],
    "isTemplate": false,
    "count": 0,
    "updated": 0
  }
]