[
  {
    "id": "df27448b-e08b-4eb5-bf65-1a5b79f4f4e3",
    "data": [
      {
        "text": "you\u0027re very hungry",
        "userDefined": false
      }
    ],
    "isTemplate": false,
    "count": 1,
    "updated": 0
  },
  {
    "id": "8711daaf-e6b7-46eb-a70b-21264bb8e846",
    "data": [
      {
        "text": "you ",
        "userDefined": false
      },
      {
        "text": "are",
        "meta": "@sys.ignore",
        "userDefined": false
      },
      {
        "text": " hungry",
        "userDefined": false
      }
    ],
    "isTemplate": false,
    "count": 0,
    "updated": 0
  },
  {
    "id": "cbd092d5-f1f4-4f1a-8646-c0cf59ee143c",
    "data": [
      {
        "text": "do you want to ",
        "userDefined": false
      },
      {
        "text": "eat",
        "meta": "@sys.ignore",
        "userDefined": false
      }
    ],
    "isTemplate": false,
    "count": 0,
    "updated": 0
  },
  {
    "id": "44cfc0e5-7be3-4f2c-9d36-92ff1140808c",
    "data": [
      {
        "text": "you\u0027re so hungry",
        "userDefined": false
      }
    ],
    "isTemplate": false,
    "count": 0,
    "updated": 0
  },
  {
    "id": "4c86283f-dfbb-434f-8632-9098bdfc35d4",
    "data": [
      {
        "text": "would you like to ",
        "userDefined": false
      },
      {
        "text": "eat",
        "meta": "@sys.ignore",
        "userDefined": false
      },
      {
        "text": " something",
        "userDefined": false
      }
    ],
    "isTemplate": false,
    "count": 0,
    "updated": 0
  },
  {
    "id": "14069cee-7028-48f9-8d01-9a33c739a894",
    "data": [
      {
        "text": "are",
        "meta": "@sys.ignore",
        "userDefined": false
      },
      {
        "text": " you hungry",
        "userDefined": false
      }
    ],
    "isTemplate": false,
    "count": 0,
    "updated": 0
  },
  {
    "id": "bc92d3b8-a3a9-41f9-bb9d-449dca841c2c",
    "data": [
      {
        "text": "you might be hungry",
        "userDefined": false
      }
    ],
    "isTemplate": false,
    "count": 0,
    "updated": 0
  },
  {
    "id": "dc282979-8c79-4c2a-8f5c-42990ab2dd85",
    "data": [
      {
        "text": "you\u0027re really hungry",
        "userDefined": false
      }
    ],
    "isTemplate": false,
    "count": 0,
    "updated": 0
  }
]