[
  {
    "id": "f9eed3ad-d66f-46db-a1b4-697ce1ac94c0",
    "data": [
      {
        "text": "do you have a hobby",
        "userDefined": false
      }
    ],
    "isTemplate": false,
    "count": 0,
    "updated": 0
  },
  {
    "id": "6b65aab3-4239-46d0-b099-e091cd4098da",
    "data": [
      {
        "text": "what about your hobby",
        "userDefined": false
      }
    ],
    "isTemplate": false,
    "count": 0,
    "updated": 0
  },
  {
    "id": "b288d1bd-6ffd-48aa-8d80-4151bfb7cebb",
    "data": [
      {
        "text": "what\u0027s your hobby",
        "userDefined": false
      }
    ],
    "isTemplate": false,
    "count": 0,
    "updated": 0
  },
  {
    "id": "a4077888-317a-4afc-8e6a-80a3b5d03772",
    "data": [
      {
        "text": "what do you do for fun",
        "userDefined": false
      }
    ],
    "isTemplate": false,
    "count": 0,
    "updated": 0
  },
  {
    "id": "2c9f95b5-5c84-482a-8474-c694b664a6ac",
    "data": [
      {
        "text": "your hobby",
        "userDefined": false
      }
    ],
    "isTemplate": false,
    "count": 0,
    "updated": 0
  },
  {
    "id": "e917b5ca-79a0-44f4-b749-66ae34a56a87",
    "data": [
      {
        "text": "what ",
        "userDefined": false
      },
      {
        "text": "are",
        "meta": "@sys.ignore",
        "userDefined": true
      },
      {
        "text": " your hobbies",
        "userDefined": false
      }
    ],
    "isTemplate": false,
    "count": 0,
    "updated": 0
  },
  {
    "id": "667cd6b3-630b-46f7-9789-d03213c94d9d",
    "data": [
      {
        "text": "tell ",
        "userDefined": false
      },
      {
        "text": "me",
        "meta": "@sys.ignore",
        "userDefined": true
      },
      {
        "text": " about your hobby",
        "userDefined": false
      }
    ],
    "isTemplate": false,
    "count": 0,
    "updated": 0
  }
]