[
  {
    "id": "8368e63f-825d-4b5e-9ca7-880c8cdf4665",
    "data": [
      {
        "text": "you ",
        "userDefined": false
      },
      {
        "text": "are",
        "meta": "@sys.ignore",
        "userDefined": false
      },
      {
        "text": " so special",
        "userDefined": false
      }
    ],
    "isTemplate": false,
    "count": 0,
    "updated": 0
  },
  {
    "id": "c068472d-a6f2-43d9-ba1c-f473983bcf9c",
    "data": [
      {
        "text": "I liked you",
        "userDefined": false
      }
    ],
    "isTemplate": false,
    "count": 0,
    "updated": 0
  },
  {
    "id": "63706a5d-7570-48fd-9a52-0f1d9c465e5e",
    "data": [
      {
        "text": "okay I like you",
        "userDefined": false
      }
    ],
    "isTemplate": false,
    "count": 0,
    "updated": 0
  },
  {
    "id": "d18cbce0-ba6b-48d6-897f-5f9244434030",
    "data": [
      {
        "text": "I really do like you",
        "userDefined": false
      }
    ],
    "isTemplate": false,
    "count": 0,
    "updated": 0
  },
  {
    "id": "c5f56045-d74b-48e5-a747-e14e98fd91d1",
    "data": [
      {
        "text": "but I like you",
        "userDefined": false
      }
    ],
    "isTemplate": false,
    "count": 0,
    "updated": 0
  },
  {
    "id": "292f032d-bbc1-49cb-956d-7ecbdf3246f7",
    "data": [
      {
        "text": "you ",
        "userDefined": false
      },
      {
        "text": "are",
        "meta": "@sys.ignore",
        "userDefined": false
      },
      {
        "text": " special to me",
        "userDefined": false
      }
    ],
    "isTemplate": false,
    "count": 0,
    "updated": 0
  },
  {
    "id": "3b8505ca-766c-483e-aff4-b3ce1a4cf3bc",
    "data": [
      {
        "text": "that\u0027s what I like about you",
        "userDefined": false
      }
    ],
    "isTemplate": false,
    "count": 0,
    "updated": 0
  },
  {
    "id": "d2715341-3d8b-457f-8b30-474d3fa8f84e",
    "data": [
      {
        "text": "I\u0027m",
        "meta": "@sys.ignore",
        "userDefined": false
      },
      {
        "text": " starting to like you",
        "userDefined": false
      }
    ],
    "isTemplate": false,
    "count": 0,
    "updated": 0
  },
  {
    "id": "fa4c431a-850d-4f3d-9e43-5855ca0604c7",
    "data": [
      {
        "text": "you\u0027re so special",
        "userDefined": false
      }
    ],
    "isTemplate": false,
    "count": 0,
    "updated": 0
  },
  {
    "id": "82263015-f7fa-4b51-bb22-5acdd82254cb",
    "data": [
      {
        "text": "I really really like you",
        "userDefined": false
      }
    ],
    "isTemplate": false,
    "count": 0,
    "updated": 0
  },
  {
    "id": "d81d2d0b-ab7d-4a20-9a30-21ebd3166015",
    "data": [
      {
        "text": "hi I like you",
        "userDefined": false
      }
    ],
    "isTemplate": false,
    "count": 0,
    "updated": 0
  },
  {
    "id": "fa4a10d3-3900-4706-b788-a114641b9add",
    "data": [
      {
        "text": "you ",
        "userDefined": false
      },
      {
        "text": "are",
        "meta": "@sys.ignore",
        "userDefined": false
      },
      {
        "text": " so special to me",
        "userDefined": false
      }
    ],
    "isTemplate": false,
    "count": 0,
    "updated": 0
  },
  {
    "id": "bed105f4-c0d1-4cda-9a14-00a4744ae326",
    "data": [
      {
        "text": "I like you too much",
        "userDefined": false
      }
    ],
    "isTemplate": false,
    "count": 0,
    "updated": 0
  },
  {
    "id": "da9da4bb-13ca-422a-985d-87508c1ea87f",
    "data": [
      {
        "text": "I like you very",
        "userDefined": false
      }
    ],
    "isTemplate": false,
    "count": 0,
    "updated": 0
  },
  {
    "id": "75a10e0b-962a-463a-9f83-bb661a443a7a",
    "data": [
      {
        "text": "I like you a lot",
        "userDefined": false
      }
    ],
    "isTemplate": false,
    "count": 0,
    "updated": 0
  },
  {
    "id": "a63a6175-afa4-49c1-ad8b-febd4e40a885",
    "data": [
      {
        "text": "I do like you",
        "userDefined": false
      }
    ],
    "isTemplate": false,
    "count": 0,
    "updated": 0
  },
  {
    "id": "4cf1a445-b038-44f7-a3c7-d0889fd2daaf",
    "data": [
      {
        "text": "that\u0027s why I like you",
        "userDefined": false
      }
    ],
    "isTemplate": false,
    "count": 0,
    "updated": 0
  },
  {
    "id": "57e1dee9-e113-4f19-8e97-24193846a3b5",
    "data": [
      {
        "text": "I like you now",
        "userDefined": false
      }
    ],
    "isTemplate": false,
    "count": 0,
    "updated": 0
  },
  {
    "id": "5ff349b4-3704-4260-9b6a-e90ed901ceeb",
    "data": [
      {
        "text": "I like you you\u0027re ",
        "userDefined": false
      },
      {
        "text": "cool",
        "meta": "@sys.ignore",
        "userDefined": false
      }
    ],
    "isTemplate": false,
    "count": 0,
    "updated": 0
  },
  {
    "id": "553c96e6-7b07-40fe-aaf8-4a673e3a0cb0",
    "data": [
      {
        "text": "you are so sweet",
        "userDefined": false
      }
    ],
    "isTemplate": false,
    "count": 0,
    "updated": 0
  },
  {
    "id": "4aa62365-33e0-41f2-9a6d-e490af8ee3fd",
    "data": [
      {
        "text": "I like you ",
        "userDefined": false
      },
      {
        "text": "baby",
        "meta": "@sys.ignore",
        "userDefined": false
      }
    ],
    "isTemplate": false,
    "count": 0,
    "updated": 0
  },
  {
    "id": "72dfedae-5d7b-40c4-9f73-165a2b958c01",
    "data": [
      {
        "text": "I like you so much",
        "userDefined": false
      }
    ],
    "isTemplate": false,
    "count": 1,
    "updated": 0
  },
  {
    "id": "d2ed910a-9b01-4aeb-b057-f5f98ab06a82",
    "data": [
      {
        "text": "hey I like you",
        "userDefined": false
      }
    ],
    "isTemplate": false,
    "count": 0,
    "updated": 0
  },
  {
    "id": "78bc79ea-bafb-46a2-b134-e6610c22afdf",
    "data": [
      {
        "text": "you\u0027re very special to me",
        "userDefined": false
      }
    ],
    "isTemplate": false,
    "count": 0,
    "updated": 0
  },
  {
    "id": "878f9fc0-cd7e-41f2-9e0c-185e8de76cc5",
    "data": [
      {
        "text": "I like you just the way you are",
        "userDefined": false
      }
    ],
    "isTemplate": false,
    "count": 0,
    "updated": 0
  },
  {
    "id": "caf742d4-598c-466e-a29e-5d65412fb2b5",
    "data": [
      {
        "text": "just like you",
        "userDefined": false
      }
    ],
    "isTemplate": false,
    "count": 0,
    "updated": 0
  },
  {
    "id": "1300ea9a-69bc-4279-8eb3-f21676701456",
    "data": [
      {
        "text": "but I like you so much",
        "userDefined": false
      }
    ],
    "isTemplate": false,
    "count": 0,
    "updated": 0
  },
  {
    "id": "10b2edf4-2887-461d-bb03-62d332ea5bb7",
    "data": [
      {
        "text": "thank you",
        "meta": "@sys.ignore",
        "userDefined": false
      },
      {
        "text": " I like you too",
        "userDefined": false
      }
    ],
    "isTemplate": false,
    "count": 0,
    "updated": 0
  },
  {
    "id": "5d2fc741-96dc-4af1-ae85-3f050dadc2d9",
    "data": [
      {
        "text": "I like you",
        "userDefined": false
      }
    ],
    "isTemplate": false,
    "count": 0,
    "updated": 0
  },
  {
    "id": "ccae230e-f035-4bec-961b-9941a004064f",
    "data": [
      {
        "text": "I kinda like you",
        "userDefined": false
      }
    ],
    "isTemplate": false,
    "count": 0,
    "updated": 0
  },
  {
    "id": "319c70eb-9139-4ec3-b601-ac51bb9b0cdb",
    "data": [
      {
        "text": "but I really like you",
        "userDefined": false
      }
    ],
    "isTemplate": false,
    "count": 0,
    "updated": 0
  },
  {
    "id": "415cfaed-5a95-4703-b6fa-1caac69fb027",
    "data": [
      {
        "text": "I like that about you",
        "userDefined": false
      }
    ],
    "isTemplate": false,
    "count": 0,
    "updated": 0
  },
  {
    "id": "be38b206-bb4d-4586-9a36-952bfb141b76",
    "data": [
      {
        "text": "yes I like you",
        "userDefined": false
      }
    ],
    "isTemplate": false,
    "count": 0,
    "updated": 0
  },
  {
    "id": "5baa7c95-bfc1-4925-aecc-a271cea7bc8a",
    "data": [
      {
        "text": "you\u0027re awesome I like you",
        "userDefined": false
      }
    ],
    "isTemplate": false,
    "count": 0,
    "updated": 0
  },
  {
    "id": "a7ec163c-b8c4-414f-8e88-8545f61910fc",
    "data": [
      {
        "text": "you\u0027re very special",
        "userDefined": false
      }
    ],
    "isTemplate": false,
    "count": 0,
    "updated": 0
  },
  {
    "id": "a2c79e70-1361-47ba-bb58-db0fa30334f9",
    "data": [
      {
        "text": "I like you you\u0027re ",
        "userDefined": false
      },
      {
        "text": "nice",
        "meta": "@sys.ignore",
        "userDefined": false
      }
    ],
    "isTemplate": false,
    "count": 0,
    "updated": 0
  },
  {
    "id": "23bec8f9-7094-45b9-887f-6b888fc5eedd",
    "data": [
      {
        "text": "but I like you ",
        "userDefined": false
      },
      {
        "text": "just the way you are",
        "meta": "@sys.ignore",
        "userDefined": false
      }
    ],
    "isTemplate": false,
    "count": 0,
    "updated": 0
  },
  {
    "id": "6df8e679-1b8c-4c52-98e0-19399fd4fc6c",
    "data": [
      {
        "text": "sorry I like you",
        "userDefined": false
      }
    ],
    "isTemplate": false,
    "count": 0,
    "updated": 0
  },
  {
    "id": "7fa7d32b-f0fc-4b12-b676-a41553a23e59",
    "data": [
      {
        "text": "yeah I like you",
        "userDefined": false
      }
    ],
    "isTemplate": false,
    "count": 0,
    "updated": 0
  },
  {
    "id": "5fe55157-afc7-47b6-9b40-ec496e64f254",
    "data": [
      {
        "text": "thanks I like you too",
        "userDefined": false
      }
    ],
    "isTemplate": false,
    "count": 0,
    "updated": 0
  },
  {
    "id": "61472f70-11e1-48e3-9dd3-37ac1d5c3103",
    "data": [
      {
        "text": "cuz I like you",
        "userDefined": false
      }
    ],
    "isTemplate": false,
    "count": 0,
    "updated": 0
  },
  {
    "id": "54b899d3-486b-4855-930b-fbcdf89f3575",
    "data": [
      {
        "text": "you ",
        "userDefined": false
      },
      {
        "text": "are",
        "meta": "@sys.ignore",
        "userDefined": false
      },
      {
        "text": " special for me",
        "userDefined": false
      }
    ],
    "isTemplate": false,
    "count": 0,
    "updated": 0
  },
  {
    "id": "27300d1b-bdcb-4e86-aeca-841235314541",
    "data": [
      {
        "text": "I like you the way you ",
        "userDefined": false
      },
      {
        "text": "are",
        "meta": "@sys.ignore",
        "userDefined": false
      }
    ],
    "isTemplate": false,
    "count": 0,
    "updated": 0
  },
  {
    "id": "9f0274a9-0968-4246-aeb3-c1979b008e86",
    "data": [
      {
        "text": "really like you",
        "userDefined": false
      }
    ],
    "isTemplate": false,
    "count": 0,
    "updated": 0
  },
  {
    "id": "552ffec7-7c1a-4af5-bd1b-0339f0a5e0a9",
    "data": [
      {
        "text": "you ",
        "userDefined": false
      },
      {
        "text": "are",
        "meta": "@sys.ignore",
        "userDefined": false
      },
      {
        "text": " very special",
        "userDefined": false
      }
    ],
    "isTemplate": false,
    "count": 0,
    "updated": 0
  },
  {
    "id": "5179b753-d602-4195-b5f8-e3e02c1551cf",
    "data": [
      {
        "text": "I also like you",
        "userDefined": false
      }
    ],
    "isTemplate": false,
    "count": 0,
    "updated": 0
  },
  {
    "id": "2b79bd2b-6c54-4e3f-90af-daa33859ed01",
    "data": [
      {
        "text": "you ",
        "userDefined": false
      },
      {
        "text": "are",
        "meta": "@sys.ignore",
        "userDefined": false
      },
      {
        "text": " special",
        "userDefined": false
      }
    ],
    "isTemplate": false,
    "count": 0,
    "updated": 0
  },
  {
    "id": "818345f3-56d9-4fd7-90f2-aa0080ee6f11",
    "data": [
      {
        "text": "I just like you",
        "userDefined": false
      }
    ],
    "isTemplate": false,
    "count": 0,
    "updated": 0
  },
  {
    "id": "9b0bc84c-b944-4384-8145-ce6ccaecd8e7",
    "data": [
      {
        "text": "yes you ",
        "userDefined": false
      },
      {
        "text": "are",
        "meta": "@sys.ignore",
        "userDefined": false
      },
      {
        "text": " special",
        "userDefined": false
      }
    ],
    "isTemplate": false,
    "count": 0,
    "updated": 0
  },
  {
    "id": "e8426bd6-41aa-4e9a-a4ad-d0427d698ed4",
    "data": [
      {
        "text": "I like you too",
        "userDefined": false
      }
    ],
    "isTemplate": false,
    "count": 0,
    "updated": 0
  },
  {
    "id": "2d8e9d8c-b8b1-460d-9deb-50dbd00fb572",
    "data": [
      {
        "text": "I said I like you",
        "userDefined": false
      }
    ],
    "isTemplate": false,
    "count": 0,
    "updated": 0
  },
  {
    "id": "fafa39f5-c289-41e4-8934-f905072f5cbe",
    "data": [
      {
        "text": "I like you very much",
        "userDefined": false
      }
    ],
    "isTemplate": false,
    "count": 0,
    "updated": 0
  },
  {
    "id": "7181a900-7de2-4374-8b16-f30cb507b041",
    "data": [
      {
        "text": "I like your smile",
        "userDefined": false
      }
    ],
    "isTemplate": false,
    "count": 0,
    "updated": 0
  },
  {
    "id": "f1c97d3e-7a54-410c-8597-25db12ae8c12",
    "data": [
      {
        "text": "I think I like you",
        "userDefined": false
      }
    ],
    "isTemplate": false,
    "count": 0,
    "updated": 0
  },
  {
    "id": "3bc541c3-32f6-4460-862f-0b668d14fc4c",
    "data": [
      {
        "text": "I like you already",
        "userDefined": false
      }
    ],
    "isTemplate": false,
    "count": 0,
    "updated": 0
  },
  {
    "id": "bf2a1278-76c2-4446-affe-fb205cff8a5e",
    "data": [
      {
        "text": "I like you so",
        "userDefined": false
      }
    ],
    "isTemplate": false,
    "count": 0,
    "updated": 0
  },
  {
    "id": "11bd37c8-8a5b-47ba-8916-f9b22437410e",
    "data": [
      {
        "text": "I like u",
        "userDefined": false
      }
    ],
    "isTemplate": false,
    "count": 0,
    "updated": 0
  },
  {
    "id": "5adb937c-e5e9-4e6d-9149-87661447b4f7",
    "data": [
      {
        "text": "you know I like you",
        "userDefined": false
      }
    ],
    "isTemplate": false,
    "count": 0,
    "updated": 0
  },
  {
    "id": "bebc148d-47b8-46ab-848a-7e431737d18d",
    "data": [
      {
        "text": "you ",
        "userDefined": false
      },
      {
        "text": "are",
        "meta": "@sys.ignore",
        "userDefined": false
      },
      {
        "text": " very special to me",
        "userDefined": false
      }
    ],
    "isTemplate": false,
    "count": 0,
    "updated": 0
  },
  {
    "id": "4caa6cb3-c3ac-4f1d-9102-a8fa147a954e",
    "data": [
      {
        "text": "good",
        "meta": "@sys.ignore",
        "userDefined": false
      },
      {
        "text": " I like you",
        "userDefined": false
      }
    ],
    "isTemplate": false,
    "count": 0,
    "updated": 0
  },
  {
    "id": "40e944e4-8d21-4c39-ac3f-c58e70c648a8",
    "data": [
      {
        "text": "you ",
        "userDefined": false
      },
      {
        "text": "are",
        "meta": "@sys.ignore",
        "userDefined": false
      },
      {
        "text": " really special",
        "userDefined": false
      }
    ],
    "isTemplate": false,
    "count": 0,
    "updated": 0
  },
  {
    "id": "119cbc8b-c92f-4c03-901e-7c25643c390e",
    "data": [
      {
        "text": "you\u0027re so special to me",
        "userDefined": false
      }
    ],
    "isTemplate": false,
    "count": 0,
    "updated": 0
  },
  {
    "id": "3d92e4f5-ad6e-4b73-aa9a-115a38c2d866",
    "data": [
      {
        "text": "that\u0027s because you ",
        "userDefined": false
      },
      {
        "text": "are",
        "meta": "@sys.ignore",
        "userDefined": false
      },
      {
        "text": " special",
        "userDefined": false
      }
    ],
    "isTemplate": false,
    "count": 0,
    "updated": 0
  },
  {
    "id": "c0acbdf4-66e2-49ff-9cff-b39230f5c1f3",
    "data": [
      {
        "text": "I like you too you\u0027re ",
        "userDefined": false
      },
      {
        "text": "one",
        "meta": "@sys.ignore",
        "userDefined": false
      },
      {
        "text": " ",
        "userDefined": false
      },
      {
        "text": "of",
        "meta": "@sys.ignore",
        "userDefined": false
      },
      {
        "text": " my ",
        "userDefined": false
      },
      {
        "text": "favorite",
        "meta": "@sys.ignore",
        "userDefined": false
      },
      {
        "text": " people to chat with",
        "userDefined": false
      }
    ],
    "isTemplate": false,
    "count": 0,
    "updated": 0
  },
  {
    "id": "81667994-b03f-4852-a927-810b26d38052",
    "data": [
      {
        "text": "of",
        "meta": "@sys.ignore",
        "userDefined": false
      },
      {
        "text": " course I like you",
        "userDefined": false
      }
    ],
    "isTemplate": false,
    "count": 0,
    "updated": 0
  },
  {
    "id": "2e086af4-baef-420c-a407-5c0af9fbbfbf",
    "data": [
      {
        "text": "I like you more",
        "userDefined": false
      }
    ],
    "isTemplate": false,
    "count": 0,
    "updated": 0
  },
  {
    "id": "1232d823-8611-4171-8e1c-763addeed22d",
    "data": [
      {
        "text": "I like you as you ",
        "userDefined": false
      },
      {
        "text": "are",
        "meta": "@sys.ignore",
        "userDefined": false
      }
    ],
    "isTemplate": false,
    "count": 0,
    "updated": 0
  },
  {
    "id": "d9da9f28-ad9d-4895-a4bc-11412ff54958",
    "data": [
      {
        "text": "I like you as a ",
        "userDefined": false
      },
      {
        "text": "friend",
        "meta": "@sys.ignore",
        "userDefined": false
      }
    ],
    "isTemplate": false,
    "count": 0,
    "updated": 0
  },
  {
    "id": "c01c8171-9d32-4b10-9748-4d3a5de79453",
    "data": [
      {
        "text": "you\u0027re ",
        "userDefined": false
      },
      {
        "text": "funny",
        "meta": "@sys.ignore",
        "userDefined": false
      },
      {
        "text": " I like you",
        "userDefined": false
      }
    ],
    "isTemplate": false,
    "count": 0,
    "updated": 0
  },
  {
    "id": "2ae3fe0d-d5cc-4147-b225-5ae941685a9a",
    "data": [
      {
        "text": "you\u0027re special",
        "userDefined": false
      }
    ],
    "isTemplate": false,
    "count": 0,
    "updated": 0
  },
  {
    "id": "578ba2e4-dd8d-4fb5-af72-7a756a1cd1a5",
    "data": [
      {
        "text": "I really like you",
        "userDefined": false
      }
    ],
    "isTemplate": false,
    "count": 0,
    "updated": 0
  },
  {
    "id": "6167f865-4fd0-4b8e-ac02-f9f40e079663",
    "data": [
      {
        "text": "no I like you the way you ",
        "userDefined": false
      },
      {
        "text": "are",
        "meta": "@sys.ignore",
        "userDefined": false
      }
    ],
    "isTemplate": false,
    "count": 0,
    "updated": 0
  },
  {
    "id": "63eadc74-b08e-49fe-a37b-ab1401990da7",
    "data": [
      {
        "text": "well",
        "meta": "@sys.ignore",
        "userDefined": false
      },
      {
        "text": " you ",
        "userDefined": false
      },
      {
        "text": "are",
        "meta": "@sys.ignore",
        "userDefined": false
      },
      {
        "text": " special",
        "userDefined": false
      }
    ],
    "isTemplate": false,
    "count": 0,
    "updated": 0
  },
  {
    "id": "86bffd43-4632-4393-9136-b013d22f114c",
    "data": [
      {
        "text": "okay I like you too",
        "userDefined": false
      }
    ],
    "isTemplate": false,
    "count": 0,
    "updated": 0
  },
  {
    "id": "af65ffe3-0b7b-464b-83cb-44ca89e0297d",
    "data": [
      {
        "text": "like you a lot",
        "userDefined": false
      }
    ],
    "isTemplate": false,
    "count": 0,
    "updated": 0
  },
  {
    "id": "154c4984-0ebf-4985-a36f-2383d8dabd70",
    "data": [
      {
        "text": "I really really really really like you",
        "userDefined": false
      }
    ],
    "isTemplate": false,
    "count": 0,
    "updated": 0
  },
  {
    "id": "16191693-23a1-43f0-86e5-8efa03b14b94",
    "data": [
      {
        "text": "but I like u",
        "userDefined": false
      }
    ],
    "isTemplate": false,
    "count": 0,
    "updated": 0
  }
]