[
  {
    "id": "88b8acc3-1856-4466-8188-95af0c3279df",
    "data": [
      {
        "text": "you make me laugh a lot",
        "userDefined": false
      }
    ],
    "isTemplate": false,
    "count": 0,
    "updated": 0
  },
  {
    "id": "21039168-837f-4de9-ab55-f3873a138fd4",
    "data": [
      {
        "text": "you ",
        "userDefined": false
      },
      {
        "text": "are",
        "meta": "@sys.ignore",
        "userDefined": false
      },
      {
        "text": " funny",
        "userDefined": false
      }
    ],
    "isTemplate": false,
    "count": 0,
    "updated": 0
  },
  {
    "id": "9c06dbbe-a21e-425f-b9f4-a9566fb2e251",
    "data": [
      {
        "text": "you ",
        "userDefined": false
      },
      {
        "text": "are",
        "meta": "@sys.ignore",
        "userDefined": false
      },
      {
        "text": " so funny",
        "userDefined": false
      }
    ],
    "isTemplate": false,
    "count": 0,
    "updated": 0
  },
  {
    "id": "c758e5cd-bdc7-45f6-b01f-f13a63868ee5",
    "data": [
      {
        "text": "you\u0027re so funny",
        "userDefined": false
      }
    ],
    "isTemplate": false,
    "count": 1,
    "updated": 0
  },
  {
    "id": "f2ecd511-8016-40ae-8361-588cd2b7e4ed",
    "data": [
      {
        "text": "how funny you ",
        "userDefined": false
      },
      {
        "text": "are",
        "meta": "@sys.ignore",
        "userDefined": false
      }
    ],
    "isTemplate": false,
    "count": 0,
    "updated": 0
  },
  {
    "id": "9d78c306-d5c7-4ea9-a708-bda16c9ea227",
    "data": [
      {
        "text": "you\u0027re a very funny bot",
        "userDefined": false
      }
    ],
    "isTemplate": false,
    "count": 0,
    "updated": 0
  },
  {
    "id": "04917cb0-bbb2-4683-b0f8-6847aff2651a",
    "data": [
      {
        "text": "you\u0027re incredibly funny",
        "userDefined": false
      }
    ],
    "isTemplate": false,
    "count": 1,
    "updated": 0
  },
  {
    "id": "055bfc4f-1845-41dd-94b3-bcb42de416ff",
    "data": [
      {
        "text": "you\u0027re really funny",
        "userDefined": false
      }
    ],
    "isTemplate": false,
    "count": 0,
    "updated": 0
  },
  {
    "id": "73f15cda-247a-45fc-bbd2-ee2aaec95629",
    "data": [
      {
        "text": "you ",
        "userDefined": false
      },
      {
        "text": "are",
        "meta": "@sys.ignore",
        "userDefined": false
      },
      {
        "text": " hilarious",
        "userDefined": false
      }
    ],
    "isTemplate": false,
    "count": 0,
    "updated": 0
  },
  {
    "id": "cde99837-5d2b-48ee-b94b-bece408f544f",
    "data": [
      {
        "text": "you ",
        "userDefined": false
      },
      {
        "text": "are",
        "meta": "@sys.ignore",
        "userDefined": false
      },
      {
        "text": " very funny",
        "userDefined": false
      }
    ],
    "isTemplate": false,
    "count": 0,
    "updated": 0
  },
  {
    "id": "5f271838-e988-4dbb-9f81-e3908f039013",
    "data": [
      {
        "text": "that was funny",
        "userDefined": false
      }
    ],
    "isTemplate": false,
    "count": 0,
    "updated": 0
  },
  {
    "id": "2ef75919-963e-4faa-b3f4-c05ad3d7448e",
    "data": [
      {
        "text": "you\u0027",
        "userDefined": false
      },
      {
        "text": "re the funniest bot",
        "meta": "@sys.ignore",
        "userDefined": false
      },
      {
        "text": " I\u0027ve talked to",
        "userDefined": false
      }
    ],
    "isTemplate": false,
    "count": 0,
    "updated": 0
  },
  {
    "id": "f6447612-ec8d-456e-9144-15d1ccff65b9",
    "data": [
      {
        "text": "you make ",
        "userDefined": false
      },
      {
        "text": "me",
        "meta": "@sys.ignore",
        "userDefined": false
      },
      {
        "text": " laugh",
        "userDefined": false
      }
    ],
    "isTemplate": false,
    "count": 0,
    "updated": 0
  },
  {
    "id": "740075c5-5ea7-4e16-a123-b06bdd22a5e2",
    "data": [
      {
        "text": "you\u0027re the funniest",
        "userDefined": false
      }
    ],
    "isTemplate": false,
    "count": 3,
    "updated": 0
  },
  {
    "id": "a3e6722c-0a05-4bbc-8933-33e4867c9879",
    "data": [
      {
        "text": "you are really funny",
        "userDefined": false
      }
    ],
    "isTemplate": false,
    "count": 0,
    "updated": 0
  }
]