[
  {
    "id": "0a52578a-3ef6-492b-87b4-a388659bb05d",
    "data": [
      {
        "text": "it",
        "meta": "@sys.ignore",
        "userDefined": false
      },
      {
        "text": " was ",
        "userDefined": false
      },
      {
        "text": "nice",
        "meta": "@sys.ignore",
        "userDefined": false
      },
      {
        "text": " ",
        "userDefined": false
      },
      {
        "text": "meeting",
        "meta": "@sys.ignore",
        "userDefined": false
      },
      {
        "text": " you",
        "userDefined": false
      }
    ],
    "isTemplate": false,
    "count": 0,
    "updated": 0
  },
  {
    "id": "acfdf759-27aa-438a-a0bd-6d7126e100b4",
    "data": [
      {
        "text": "nice",
        "meta": "@sys.ignore",
        "userDefined": false
      },
      {
        "text": " to ",
        "userDefined": false
      },
      {
        "text": "meet",
        "meta": "@sys.ignore",
        "userDefined": false
      },
      {
        "text": " you",
        "userDefined": false
      }
    ],
    "isTemplate": false,
    "count": 0,
    "updated": 0
  },
  {
    "id": "8372433c-e4ed-4184-bc44-4bdbd820ba7c",
    "data": [
      {
        "text": "glad to ",
        "userDefined": false
      },
      {
        "text": "meet",
        "meta": "@sys.ignore",
        "userDefined": false
      },
      {
        "text": " you",
        "userDefined": false
      }
    ],
    "isTemplate": false,
    "count": 0,
    "updated": 0
  },
  {
    "id": "f7aedabf-3d96-4db3-8b29-e5eb28ed3a41",
    "data": [
      {
        "text": "it",
        "meta": "@sys.ignore",
        "userDefined": false
      },
      {
        "text": " was very ",
        "userDefined": false
      },
      {
        "text": "nice",
        "meta": "@sys.ignore",
        "userDefined": false
      },
      {
        "text": " to ",
        "userDefined": false
      },
      {
        "text": "meet",
        "meta": "@sys.ignore",
        "userDefined": false
      },
      {
        "text": " you",
        "userDefined": false
      }
    ],
    "isTemplate": false,
    "count": 0,
    "updated": 0
  },
  {
    "id": "e405e0a0-8470-4bbb-b5a6-c8178c314139",
    "data": [
      {
        "text": "pleased to ",
        "userDefined": false
      },
      {
        "text": "meet",
        "meta": "@sys.ignore",
        "userDefined": false
      },
      {
        "text": " you",
        "userDefined": false
      }
    ],
    "isTemplate": false,
    "count": 0,
    "updated": 0
  },
  {
    "id": "10b46594-e64b-49a7-a381-162cd3e840d2",
    "data": [
      {
        "text": "pleasure to ",
        "userDefined": false
      },
      {
        "text": "meet",
        "meta": "@sys.ignore",
        "userDefined": false
      },
      {
        "text": " you too",
        "userDefined": false
      }
    ],
    "isTemplate": false,
    "count": 0,
    "updated": 0
  },
  {
    "id": "fa5b1700-fff2-4bd0-94de-e11ebc38a06d",
    "data": [
      {
        "text": "good to know ",
        "userDefined": false
      },
      {
        "text": "each",
        "meta": "@sys.ignore",
        "userDefined": false
      },
      {
        "text": " other",
        "userDefined": false
      }
    ],
    "isTemplate": false,
    "count": 0,
    "updated": 0
  },
  {
    "id": "db51ee69-882e-4029-8b66-2506253ad3ef",
    "data": [
      {
        "text": "nice",
        "meta": "@sys.ignore",
        "userDefined": false
      },
      {
        "text": " to ",
        "userDefined": false
      },
      {
        "text": "meet",
        "meta": "@sys.ignore",
        "userDefined": false
      },
      {
        "text": " you too",
        "userDefined": false
      }
    ],
    "isTemplate": false,
    "count": 0,
    "updated": 0
  },
  {
    "id": "6448e03a-3a5a-4643-b014-7e793cb3d959",
    "data": [
      {
        "text": "pleasure to ",
        "userDefined": false
      },
      {
        "text": "meet",
        "meta": "@sys.ignore",
        "userDefined": false
      },
      {
        "text": " you",
        "userDefined": false
      }
    ],
    "isTemplate": false,
    "count": 0,
    "updated": 0
  },
  {
    "id": "ab9ced85-3ca3-46b4-87d3-3fa9774e1e86",
    "data": [
      {
        "text": "nice",
        "meta": "@sys.ignore",
        "userDefined": false
      },
      {
        "text": " ",
        "userDefined": false
      },
      {
        "text": "meeting",
        "meta": "@sys.ignore",
        "userDefined": false
      },
      {
        "text": " you",
        "userDefined": false
      }
    ],
    "isTemplate": false,
    "count": 0,
    "updated": 0
  }
]