[
  {
    "id": "3255aef8-3cf8-4b9d-a6bf-0e526891b80e",
    "data": [
      {
        "text": "that is true",
        "userDefined": false
      }
    ],
    "isTemplate": false,
    "count": 0,
    "updated": 0
  },
  {
    "id": "ba92aaeb-2fcc-41b0-8b09-8a15013a0a48",
    "data": [
      {
        "text": "it\u0027s",
        "meta": "@sys.ignore",
        "userDefined": false
      },
      {
        "text": " the truth",
        "userDefined": false
      }
    ],
    "isTemplate": false,
    "count": 0,
    "updated": 0
  },
  {
    "id": "a3a12b84-8ec2-45ca-8024-b85415409d32",
    "data": [
      {
        "text": "you ",
        "userDefined": false
      },
      {
        "text": "are",
        "meta": "@sys.ignore",
        "userDefined": false
      },
      {
        "text": " correct",
        "userDefined": false
      }
    ],
    "isTemplate": false,
    "count": 0,
    "updated": 0
  },
  {
    "id": "fffc7689-1d37-4ef0-b24f-9b9a8ca2104f",
    "data": [
      {
        "text": "that\u0027s true",
        "userDefined": false
      }
    ],
    "isTemplate": false,
    "count": 0,
    "updated": 0
  },
  {
    "id": "d66c6a33-20ea-473a-8cc8-2b868940ab6e",
    "data": [
      {
        "text": "it\u0027s",
        "meta": "@sys.ignore",
        "userDefined": false
      },
      {
        "text": " right",
        "userDefined": false
      }
    ],
    "isTemplate": false,
    "count": 0,
    "updated": 0
  },
  {
    "id": "a62f2da6-0f12-404e-83c5-572761851c16",
    "data": [
      {
        "text": "I know that\u0027s right",
        "userDefined": false
      }
    ],
    "isTemplate": false,
    "count": 0,
    "updated": 0
  },
  {
    "id": "47b039ad-c26c-4cf8-81ce-0437754d4f30",
    "data": [
      {
        "text": "true",
        "userDefined": false
      }
    ],
    "isTemplate": false,
    "count": 1,
    "updated": 0
  },
  {
    "id": "78716dd6-e74b-404b-a3b4-922802ba0189",
    "data": [
      {
        "text": "you ",
        "userDefined": false
      },
      {
        "text": "are",
        "meta": "@sys.ignore",
        "userDefined": false
      },
      {
        "text": " so right",
        "userDefined": false
      }
    ],
    "isTemplate": false,
    "count": 0,
    "updated": 0
  },
  {
    "id": "da08f26a-bcd1-4972-be76-4adfbd4fe444",
    "data": [
      {
        "text": "you\u0027re absolutely right",
        "userDefined": false
      }
    ],
    "isTemplate": false,
    "count": 0,
    "updated": 0
  },
  {
    "id": "f6de6e5e-2c73-4aec-ac51-b8d094bbb905",
    "data": [
      {
        "text": "it",
        "meta": "@sys.ignore",
        "userDefined": false
      },
      {
        "text": " is true",
        "userDefined": false
      }
    ],
    "isTemplate": false,
    "count": 0,
    "updated": 0
  },
  {
    "id": "a020be01-898b-4670-9add-51c03a6b43f0",
    "data": [
      {
        "text": "you\u0027re telling the truth",
        "userDefined": false
      }
    ],
    "isTemplate": false,
    "count": 0,
    "updated": 0
  },
  {
    "id": "272fc8f2-0982-4b0a-b5e8-eaaa9952375e",
    "data": [
      {
        "text": "you ",
        "userDefined": false
      },
      {
        "text": "are",
        "meta": "@sys.ignore",
        "userDefined": false
      },
      {
        "text": " right",
        "userDefined": false
      }
    ],
    "isTemplate": false,
    "count": 0,
    "updated": 0
  },
  {
    "id": "40832f6f-d3e8-4b06-8685-68f2a7d9313d",
    "data": [
      {
        "text": "that is very true",
        "userDefined": false
      }
    ],
    "isTemplate": false,
    "count": 0,
    "updated": 0
  },
  {
    "id": "9a1261d0-481a-4e32-9b3b-12bc79753d77",
    "data": [
      {
        "text": "that\u0027s so true",
        "userDefined": false
      }
    ],
    "isTemplate": false,
    "count": 0,
    "updated": 0
  },
  {
    "id": "60f3745e-394c-4d22-867b-bc7df73ad007",
    "data": [
      {
        "text": "that is right",
        "userDefined": false
      }
    ],
    "isTemplate": false,
    "count": 0,
    "updated": 0
  },
  {
    "id": "b42110a8-9323-4d28-840d-369117af8e0e",
    "data": [
      {
        "text": "you\u0027re not wrong",
        "userDefined": false
      }
    ],
    "isTemplate": false,
    "count": 0,
    "updated": 0
  },
  {
    "id": "11a37410-68fc-466c-af2a-c31693a16b9d",
    "data": [
      {
        "text": "you\u0027re right about that",
        "userDefined": false
      }
    ],
    "isTemplate": false,
    "count": 0,
    "updated": 0
  },
  {
    "id": "a2446a6d-f435-4a4a-8d8b-58f682df9472",
    "data": [
      {
        "text": "it\u0027s true",
        "userDefined": false
      }
    ],
    "isTemplate": false,
    "count": 0,
    "updated": 0
  },
  {
    "id": "d1adbf35-ecfb-4d16-a99f-d0b7902e6c81",
    "data": [
      {
        "text": "you\u0027re definitely right",
        "userDefined": false
      }
    ],
    "isTemplate": false,
    "count": 0,
    "updated": 0
  },
  {
    "id": "9f0b759a-cafb-439d-92e6-dd96231a55fd",
    "data": [
      {
        "text": "what you say is true",
        "userDefined": false
      }
    ],
    "isTemplate": false,
    "count": 0,
    "updated": 0
  }
]