{
  "id": "01f7576d-0657-49c2-af2e-8b82b049ea6f",
  "name": "smarthome.device.brightness.up.implicit",
  "auto": true,
  "contexts": [],
  "responses": [
    {
      "resetContexts": false,
      "action": "smarthome.device.brightness.up.implicit",
      "affectedContexts": [
        {
          "name": "device-brightness",
          "parameters": {},
          "lifespan": 5
        },
        {
          "name": "room",
          "parameters": {},
          "lifespan": 3
        }
      ],
      "parameters": [
        {
          "id": "f47fcc59-efa0-4547-96e9-f4ad871f802e",
          "required": false,
          "dataType": "@device",
          "name": "device",
          "value": "$device",
          "promptMessages": [],
          "noMatchPromptMessages": [],
          "noInputPromptMessages": [],
          "outputDialogContexts": [],
          "isList": false
        },
        {
          "id": "95ed508d-fc8d-446a-a8e0-faba6a7bd4d2",
          "required": false,
          "dataType": "@room",
          "name": "room",
          "value": "$room",
          "promptMessages": [],
          "noMatchPromptMessages": [],
          "noInputPromptMessages": [],
          "outputDialogContexts": [],
          "isList": false
        },
        {
          "id": "331f2b34-b048-4110-8bcb-7e91737aa5a7",
          "required": false,
          "dataType": "@all",
          "name": "all",
          "value": "$all",
          "promptMessages": [],
          "noMatchPromptMessages": [],
          "noInputPromptMessages": [],
          "outputDialogContexts": [],
          "isList": false
        }
      ],
      "messages": [
        {
          "type": 0,
          "lang": "en",
          "condition": "",
          "speech": []
        }
      ],
      "defaultResponsePlatforms": {},
      "speech": []
    }
  ],
  "priority": 500000,
  "webhookUsed": false,
  "webhookForSlotFilling": false,
  "fallbackIntent": false,
  "events": [],
  "conditionalResponses": [],
  "condition": "",
  "conditionalFollowupEvents": []
}