{
  "id": "a40e5134-fe7c-4382-a19f-8db338ed4680",
  "name": "smarthome.lights.hue.down",
  "auto": true,
  "contexts": [],
  "responses": [
    {
      "resetContexts": false,
      "action": "smarthome.lights.hue.down",
      "affectedContexts": [],
      "parameters": [
        {
          "id": "9f2e68d0-3c37-41cc-8bfd-4ed5170ce80e",
          "required": false,
          "dataType": "@sys.number",
          "name": "change-value",
          "value": "$change-value",
          "promptMessages": [],
          "noMatchPromptMessages": [],
          "noInputPromptMessages": [],
          "outputDialogContexts": [],
          "isList": false
        },
        {
          "id": "fe9fb0d1-5c99-417f-a913-c368d15b5ea1",
          "required": false,
          "dataType": "@sys.number",
          "name": "final-value",
          "value": "$final-value",
          "promptMessages": [],
          "noMatchPromptMessages": [],
          "noInputPromptMessages": [],
          "outputDialogContexts": [],
          "isList": false
        },
        {
          "id": "6671955b-f2d4-42ce-9c42-dd073c1a9e45",
          "required": false,
          "dataType": "@lights",
          "name": "device",
          "value": "$device",
          "promptMessages": [],
          "noMatchPromptMessages": [],
          "noInputPromptMessages": [],
          "outputDialogContexts": [],
          "isList": false
        },
        {
          "id": "a6c85762-ac80-4297-80d7-030746e32aa1",
          "required": false,
          "dataType": "@color",
          "name": "color",
          "value": "$color",
          "promptMessages": [],
          "noMatchPromptMessages": [],
          "noInputPromptMessages": [],
          "outputDialogContexts": [],
          "isList": false
        },
        {
          "id": "a055bc5e-83a3-46e6-949c-9ba74cf50a45",
          "required": false,
          "dataType": "@room",
          "name": "room",
          "value": "$room",
          "promptMessages": [],
          "noMatchPromptMessages": [],
          "noInputPromptMessages": [],
          "outputDialogContexts": [],
          "isList": false
        },
        {
          "id": "c69473f6-17e9-4d76-a9bb-bb306cbf31e3",
          "required": false,
          "dataType": "@all",
          "name": "all",
          "value": "$all",
          "promptMessages": [],
          "noMatchPromptMessages": [],
          "noInputPromptMessages": [],
          "outputDialogContexts": [],
          "isList": false
        }
      ],
      "messages": [
        {
          "type": 0,
          "lang": "en",
          "condition": "",
          "speech": []
        }
      ],
      "defaultResponsePlatforms": {},
      "speech": []
    }
  ],
  "priority": 500000,
  "webhookUsed": false,
  "webhookForSlotFilling": false,
  "fallbackIntent": false,
  "events": [],
  "conditionalResponses": [],
  "condition": "",
  "conditionalFollowupEvents": []
}