[
  {
    "id": "79c6834c-21c2-47ed-ae98-8469395d1eb1",
    "data": [
      {
        "text": "pode dar-me o endereço de email dos seus programadores",
        "userDefined": false
      }
    ],
    "isTemplate": false,
    "count": 0,
    "updated": 0
  },
  {
    "id": "da36eec3-51a2-4a1d-9bc4-2f7f3a948205",
    "data": [
      {
        "text": "dê-me o endereço de email dos seus programadores",
        "userDefined": false
      }
    ],
    "isTemplate": false,
    "count": 0,
    "updated": 0
  },
  {
    "id": "84286129-ed5f-4c1b-98a2-3c04ed085131",
    "data": [
      {
        "text": "forneça-me o email dos seus programadores",
        "userDefined": false
      }
    ],
    "isTemplate": false,
    "count": 0,
    "updated": 0
  },
  {
    "id": "56ce066e-30b8-40c6-b851-063b3e819579",
    "data": [
      {
        "text": "qual é o email dos seus programadores",
        "userDefined": false
      }
    ],
    "isTemplate": false,
    "count": 0,
    "updated": 0
  },
  {
    "id": "be4a4a57-7b0f-49ac-8886-1e9d13010080",
    "data": [
      {
        "text": "qual é o email dos programadores",
        "userDefined": false
      }
    ],
    "isTemplate": false,
    "count": 0,
    "updated": 0
  },
  {
    "id": "69f41085-c069-4e8b-b67c-e8ad2a65ba6b",
    "data": [
      {
        "text": "quero contactar os seus programadores dê-me o endereço de email deles",
        "userDefined": false
      }
    ],
    "isTemplate": false,
    "count": 0,
    "updated": 0
  },
  {
    "id": "5a2c9dd3-a329-4f83-9318-302ccc5f81c8",
    "data": [
      {
        "text": "posso enviar um email aos seus programadores",
        "userDefined": false
      }
    ],
    "isTemplate": false,
    "count": 0,
    "updated": 0
  },
  {
    "id": "bcf59981-0749-46fe-99bf-effde2f650cc",
    "data": [
      {
        "text": "quero contactar os seus programadores mostre-me o email deles",
        "userDefined": false
      }
    ],
    "isTemplate": false,
    "count": 0,
    "updated": 0
  },
  {
    "id": "3021d8b4-eca7-48f4-8c3c-bc4f56594e33",
    "data": [
      {
        "text": "gostaria de escrever um email para os seus programadores",
        "userDefined": false
      }
    ],
    "isTemplate": false,
    "count": 0,
    "updated": 0
  },
  {
    "id": "9735cd70-ff7c-4d15-bfdd-d37d16339dba",
    "data": [
      {
        "text": "mostre-me o email dos seus programadores",
        "userDefined": false
      }
    ],
    "isTemplate": false,
    "count": 0,
    "updated": 0
  },
  {
    "id": "477f76f1-e1df-47f8-ac25-066ddbfcca80",
    "data": [
      {
        "text": "como enviar um email para os seus criadores",
        "userDefined": false
      }
    ],
    "isTemplate": false,
    "count": 0,
    "updated": 0
  }
]