[
  {
    "id": "0883d9c4-8445-4566-9600-258f7317f129",
    "data": [
      {
        "text": "給我介紹你公司的開發人員",
        "userDefined": false
      }
    ],
    "isTemplate": false,
    "count": 1,
    "updated": 0
  },
  {
    "id": "877c2684-2bf0-4362-b01b-275dcad0c238",
    "data": [
      {
        "text": "關于你的開發員",
        "userDefined": false
      }
    ],
    "isTemplate": false,
    "count": 0,
    "updated": 0
  },
  {
    "id": "a8f314d4-5be3-41b7-b91b-34e1752f26ed",
    "data": [
      {
        "text": "關于你的開發員消息",
        "userDefined": false
      }
    ],
    "isTemplate": false,
    "count": 0,
    "updated": 0
  },
  {
    "id": "8260c06d-afaa-46c0-9ef5-3b72d34f8f55",
    "data": [
      {
        "text": "請你給我介紹你公司的開發人員",
        "userDefined": false
      }
    ],
    "isTemplate": false,
    "count": 0,
    "updated": 0
  },
  {
    "id": "060496be-b901-49ab-8272-f9e66bed7ea8",
    "data": [
      {
        "text": "你的開發人員創造別的東西嗎",
        "userDefined": false
      }
    ],
    "isTemplate": false,
    "count": 0,
    "updated": 0
  },
  {
    "id": "20a5cbde-fe27-41a6-8a3c-d254523b34dd",
    "data": [
      {
        "text": "你的公司團隊在做什麽工作",
        "userDefined": false
      }
    ],
    "isTemplate": false,
    "count": 0,
    "updated": 0
  },
  {
    "id": "3bd68d32-c548-4630-b7d2-191100a766db",
    "data": [
      {
        "text": "你的開發者做什麽",
        "userDefined": false
      }
    ],
    "isTemplate": false,
    "count": 0,
    "updated": 0
  },
  {
    "id": "ffc74a2f-a8f6-4ced-9d9f-fde3f9e3a9bb",
    "data": [
      {
        "text": "你的開發員是什麽人",
        "userDefined": false
      }
    ],
    "isTemplate": false,
    "count": 0,
    "updated": 0
  },
  {
    "id": "c651d6a3-2216-4256-8b7a-84a812cab447",
    "data": [
      {
        "text": "你的開發者有更多的應用程序",
        "userDefined": false
      }
    ],
    "isTemplate": false,
    "count": 0,
    "updated": 0
  },
  {
    "id": "4a3be381-8b2f-4f0b-a9f3-9df9aace3c26",
    "data": [
      {
        "text": "開發人員有關的信息",
        "userDefined": false
      }
    ],
    "isTemplate": false,
    "count": 0,
    "updated": 0
  },
  {
    "id": "09dafed4-339c-4117-ac49-a226150b5d9d",
    "data": [
      {
        "text": "你的開發員是誰",
        "userDefined": false
      }
    ],
    "isTemplate": false,
    "count": 0,
    "updated": 0
  },
  {
    "id": "b4aaac5f-0512-4479-8595-0e5ff371a86e",
    "data": [
      {
        "text": "給我介紹你",
        "userDefined": false
      },
      {
        "text": "的開發人員",
        "meta": "@sys.ignore",
        "userDefined": false
      }
    ],
    "isTemplate": false,
    "count": 0,
    "updated": 0
  },
  {
    "id": "2dcf6976-2a1f-4b17-916a-fe3b0e4b1ebf",
    "data": [
      {
        "text": "你們公司開發什麽",
        "userDefined": false
      }
    ],
    "isTemplate": false,
    "count": 0,
    "updated": 0
  },
  {
    "id": "aad20f13-3b8d-4577-b6e2-9097fd54e718",
    "data": [
      {
        "text": "貴公司是否開發任何其他産品",
        "userDefined": false
      }
    ],
    "isTemplate": false,
    "count": 0,
    "updated": 0
  },
  {
    "id": "b151dad7-0cdb-46ef-ae99-46290cac9aab",
    "data": [
      {
        "text": "貴公司是否有其他産品",
        "userDefined": false
      }
    ],
    "isTemplate": false,
    "count": 0,
    "updated": 0
  },
  {
    "id": "3cfaf98d-1b38-49e1-a7cc-1fa6664a9700",
    "data": [
      {
        "text": "你的開發人員還有什麽",
        "userDefined": false
      }
    ],
    "isTemplate": false,
    "count": 0,
    "updated": 0
  },
  {
    "id": "0310f49b-8187-4d61-a8a1-8ffdba6fae92",
    "data": [
      {
        "text": "我需要了解貴公司的開發人員",
        "userDefined": false
      }
    ],
    "isTemplate": false,
    "count": 0,
    "updated": 0
  },
  {
    "id": "c23b5b78-779c-4346-9115-3d722abbf370",
    "data": [
      {
        "text": "貴公司是否有更多的應用程式",
        "userDefined": false
      }
    ],
    "isTemplate": false,
    "count": 0,
    "updated": 0
  },
  {
    "id": "7db4cdd9-3a05-4377-bc0a-be95b96489b1",
    "data": [
      {
        "text": "你公司最暢銷的産品是什麽",
        "userDefined": false
      }
    ],
    "isTemplate": false,
    "count": 0,
    "updated": 0
  },
  {
    "id": "20be661e-8673-4651-bbd8-7a3052377ddd",
    "data": [
      {
        "text": "你的開發員消息",
        "userDefined": false
      }
    ],
    "isTemplate": false,
    "count": 0,
    "updated": 0
  }
]