[
  {
    "id": "dc59e1e7-015d-418a-bc87-4214cf0605d5",
    "data": [
      {
        "text": "e il tuo ",
        "userDefined": false
      },
      {
        "text": "Twitter",
        "alias": "media",
        "meta": "@media",
        "userDefined": true
      }
    ],
    "isTemplate": false,
    "count": 0,
    "updated": 0
  },
  {
    "id": "0b413b9b-0b1d-45ec-b79a-b2c400833231",
    "data": [
      {
        "text": "e ",
        "userDefined": false
      },
      {
        "text": "Instagram",
        "alias": "media",
        "meta": "@media",
        "userDefined": true
      }
    ],
    "isTemplate": false,
    "count": 0,
    "updated": 0
  },
  {
    "id": "4289a8d3-168d-48ae-addf-ea4d43c2f1a4",
    "data": [
      {
        "text": "e anche ",
        "userDefined": false
      },
      {
        "text": "Facebook",
        "alias": "media",
        "meta": "@media",
        "userDefined": true
      }
    ],
    "isTemplate": false,
    "count": 0,
    "updated": 0
  },
  {
    "id": "a46376ee-d075-4533-a757-c81ded984fc5",
    "data": [
      {
        "text": "anche ",
        "userDefined": false
      },
      {
        "text": "Facebook",
        "alias": "media",
        "meta": "@media",
        "userDefined": true
      }
    ],
    "isTemplate": false,
    "count": 0,
    "updated": 0
  },
  {
    "id": "12376317-a816-4bf6-b819-eba4a2015fea",
    "data": [
      {
        "text": "ora ",
        "userDefined": false
      },
      {
        "text": "Twitter",
        "alias": "media",
        "meta": "@media",
        "userDefined": true
      }
    ],
    "isTemplate": false,
    "count": 0,
    "updated": 0
  }
]