[
  {
    "id": "8efae578-da7b-419d-8c52-4fc0c9f72d4b",
    "data": [
      {
        "text": "I expect my money back",
        "userDefined": false
      }
    ],
    "isTemplate": false,
    "count": 0,
    "updated": 0
  },
  {
    "id": "15bd64db-f1b3-4300-b9d8-9d3aa243c6ad",
    "data": [
      {
        "text": "how do I get a refund",
        "userDefined": false
      }
    ],
    "isTemplate": false,
    "count": 0,
    "updated": 0
  },
  {
    "id": "ea9d34b5-209a-4424-bd4f-022fac3d5570",
    "data": [
      {
        "text": "give me back my money",
        "userDefined": false
      }
    ],
    "isTemplate": false,
    "count": 0,
    "updated": 0
  },
  {
    "id": "98c9cd7b-7b7c-4e04-b41c-575cc0f48129",
    "data": [
      {
        "text": "I purchased an item by mistake, can I have my money back?",
        "userDefined": false
      }
    ],
    "isTemplate": false,
    "count": 0,
    "updated": 0
  },
  {
    "id": "c36a6cb9-9b92-4151-aeba-ca1d4ae31605",
    "data": [
      {
        "text": "I want to cancel the purchase ",
        "userDefined": false
      },
      {
        "text": "134567890",
        "alias": "transaction-id",
        "meta": "@sys.number",
        "userDefined": false
      }
    ],
    "isTemplate": false,
    "count": 1,
    "updated": 0
  },
  {
    "id": "b12c2187-4e83-448c-855c-e28834958ccc",
    "data": [
      {
        "text": "refund",
        "userDefined": false
      }
    ],
    "isTemplate": false,
    "count": 0,
    "updated": 0
  },
  {
    "id": "c4679113-a894-486b-99e3-2efce752c87b",
    "data": [
      {
        "text": "I\u0027ve bought a broken item. Return my money",
        "userDefined": false
      }
    ],
    "isTemplate": false,
    "count": 0,
    "updated": 0
  },
  {
    "id": "79ee66d7-fead-4add-a41f-30e7cd26ddb9",
    "data": [
      {
        "text": "the product I\u0027ve bought here is failed",
        "userDefined": false
      }
    ],
    "isTemplate": false,
    "count": 0,
    "updated": 0
  },
  {
    "id": "31beafc5-42d5-4809-83fe-316bfebeb88e",
    "data": [
      {
        "text": "refund my purchase. Transaction id is ",
        "userDefined": false
      },
      {
        "text": "12390283736",
        "alias": "transaction-id",
        "meta": "@sys.number",
        "userDefined": false
      }
    ],
    "isTemplate": false,
    "count": 0,
    "updated": 0
  },
  {
    "id": "23db1fe3-4607-47dd-9773-598499f868db",
    "data": [
      {
        "text": "I want to request a refund",
        "userDefined": false
      }
    ],
    "isTemplate": false,
    "count": 0,
    "updated": 0
  },
  {
    "id": "1b0e84f8-3884-4bec-b755-2ec511e2b42c",
    "data": [
      {
        "text": "Your product doesn\u0027t meet my expectations I want a refund",
        "userDefined": false
      }
    ],
    "isTemplate": false,
    "count": 0,
    "updated": 0
  }
]