[
  {
    "id": "eec19bc2-3acb-4383-8e17-3031ef56567d",
    "data": [
      {
        "text": "and their ",
        "userDefined": false
      },
      {
        "text": "email",
        "meta": "@sys.ignore",
        "userDefined": false
      },
      {
        "text": " address",
        "userDefined": false
      }
    ],
    "isTemplate": false,
    "count": 0,
    "updated": 0
  },
  {
    "id": "db479a70-2b6d-4a8f-a579-82459d681143",
    "data": [
      {
        "text": "I need ",
        "userDefined": false
      },
      {
        "text": "email",
        "meta": "@sys.ignore",
        "userDefined": false
      },
      {
        "text": " too",
        "userDefined": false
      }
    ],
    "isTemplate": false,
    "count": 0,
    "updated": 0
  },
  {
    "id": "a3d92b9f-1113-4f4b-bf2b-d50b87cfb792",
    "data": [
      {
        "text": "get",
        "meta": "@sys.ignore",
        "userDefined": false
      },
      {
        "text": " me their ",
        "userDefined": false
      },
      {
        "text": "email",
        "meta": "@sys.ignore",
        "userDefined": false
      },
      {
        "text": " too",
        "userDefined": false
      }
    ],
    "isTemplate": false,
    "count": 0,
    "updated": 0
  },
  {
    "id": "e21c251b-2724-4b04-8bcb-26db44cd2d5f",
    "data": [
      {
        "text": "an",
        "meta": "@sys.ignore",
        "userDefined": false
      },
      {
        "text": " ",
        "userDefined": false
      },
      {
        "text": "email",
        "meta": "@sys.ignore",
        "userDefined": false
      },
      {
        "text": " as well",
        "userDefined": false
      }
    ],
    "isTemplate": false,
    "count": 0,
    "updated": 0
  },
  {
    "id": "ca211923-f2d6-4082-a62b-23e54617e3c1",
    "data": [
      {
        "text": "now their ",
        "userDefined": false
      },
      {
        "text": "email",
        "meta": "@sys.ignore",
        "userDefined": false
      }
    ],
    "isTemplate": false,
    "count": 0,
    "updated": 0
  },
  {
    "id": "5cd5e134-c9f2-4d8d-96fa-8ce896a01927",
    "data": [
      {
        "text": "do you know their ",
        "userDefined": false
      },
      {
        "text": "email",
        "meta": "@sys.ignore",
        "userDefined": false
      },
      {
        "text": " address",
        "userDefined": false
      }
    ],
    "isTemplate": false,
    "count": 0,
    "updated": 0
  },
  {
    "id": "fbfffe34-a686-4575-89cb-cf3398535e53",
    "data": [
      {
        "text": "can I write an ",
        "userDefined": false
      },
      {
        "text": "email",
        "meta": "@sys.ignore",
        "userDefined": false
      }
    ],
    "isTemplate": false,
    "count": 0,
    "updated": 0
  },
  {
    "id": "69208fa2-cc6c-4bd4-8bc8-43c57008a44f",
    "data": [
      {
        "text": "an",
        "meta": "@sys.ignore",
        "userDefined": false
      },
      {
        "text": " ",
        "userDefined": false
      },
      {
        "text": "email",
        "meta": "@sys.ignore",
        "userDefined": false
      },
      {
        "text": " too",
        "userDefined": false
      }
    ],
    "isTemplate": false,
    "count": 0,
    "updated": 0
  },
  {
    "id": "8afe2a05-0d56-412e-b455-33c57a63a09b",
    "data": [
      {
        "text": "and ",
        "userDefined": false
      },
      {
        "text": "now",
        "meta": "@sys.ignore",
        "userDefined": false
      },
      {
        "text": " ",
        "userDefined": false
      },
      {
        "text": "email",
        "meta": "@sys.ignore",
        "userDefined": false
      }
    ],
    "isTemplate": false,
    "count": 0,
    "updated": 0
  },
  {
    "id": "383c2fde-b301-4db3-8990-601336a65301",
    "data": [
      {
        "text": "and their ",
        "userDefined": false
      },
      {
        "text": "email",
        "meta": "@sys.ignore",
        "userDefined": false
      }
    ],
    "isTemplate": false,
    "count": 0,
    "updated": 0
  },
  {
    "id": "6e5994bb-7315-4667-a708-c1713e6c7e86",
    "data": [
      {
        "text": "can ",
        "userDefined": false
      },
      {
        "text": "I contact",
        "meta": "@sys.ignore",
        "userDefined": false
      },
      {
        "text": " ",
        "userDefined": false
      },
      {
        "text": "them",
        "meta": "@sys.ignore",
        "userDefined": false
      },
      {
        "text": " by ",
        "userDefined": false
      },
      {
        "text": "email",
        "meta": "@sys.ignore",
        "userDefined": false
      }
    ],
    "isTemplate": false,
    "count": 0,
    "updated": 0
  },
  {
    "id": "c6a8dcf6-2926-4dda-a316-76ffa7a5ee08",
    "data": [
      {
        "text": "what about ",
        "userDefined": false
      },
      {
        "text": "email",
        "meta": "@sys.ignore",
        "userDefined": false
      }
    ],
    "isTemplate": false,
    "count": 0,
    "updated": 0
  },
  {
    "id": "6183bf0a-9a90-4934-bf75-63ba61fb7e0b",
    "data": [
      {
        "text": "an",
        "meta": "@sys.ignore",
        "userDefined": false
      },
      {
        "text": " ",
        "userDefined": false
      },
      {
        "text": "email",
        "meta": "@sys.ignore",
        "userDefined": false
      },
      {
        "text": " too please",
        "userDefined": false
      }
    ],
    "isTemplate": false,
    "count": 0,
    "updated": 0
  },
  {
    "id": "28e84e76-2b0a-4cf6-98c2-bc1b1d2c5ea5",
    "data": [
      {
        "text": "and ",
        "userDefined": false
      },
      {
        "text": "email",
        "meta": "@sys.ignore",
        "userDefined": false
      }
    ],
    "isTemplate": false,
    "count": 0,
    "updated": 0
  }
]