[
  {
    "id": "98baec08-6021-4836-881a-f8035e178754",
    "data": [
      {
        "text": "你的 ",
        "userDefined": false
      },
      {
        "text": "Facebook",
        "alias": "media",
        "meta": "@media",
        "userDefined": false
      },
      {
        "text": " 主页网址是什么？",
        "userDefined": false
      }
    ],
    "isTemplate": false,
    "count": 0,
    "updated": 0
  },
  {
    "id": "fc05f4e2-0b21-414a-8b93-358f7fd6b2e1",
    "data": [
      {
        "text": "我想知道你的社交网站",
        "userDefined": false
      }
    ],
    "isTemplate": false,
    "count": 0,
    "updated": 0
  },
  {
    "id": "1b7e74ef-f784-4383-a2e2-08068066d473",
    "data": [
      {
        "text": "给我说你",
        "userDefined": false
      },
      {
        "text": "的",
        "meta": "@sys.ignore",
        "userDefined": false
      },
      {
        "text": "脸书",
        "alias": "media",
        "meta": "@media",
        "userDefined": false
      }
    ],
    "isTemplate": false,
    "count": 0,
    "updated": 0
  },
  {
    "id": "89f25960-5d4f-4023-8182-4a115523c5b8",
    "data": [
      {
        "text": "告诉我你的",
        "userDefined": false
      },
      {
        "text": "微博",
        "alias": "media",
        "meta": "@media",
        "userDefined": true
      },
      {
        "text": "页面",
        "userDefined": false
      }
    ],
    "isTemplate": false,
    "count": 0,
    "updated": 0
  },
  {
    "id": "ae0da760-ce50-4b7e-b836-0569bfc84f34",
    "data": [
      {
        "text": "告诉我你的社交网站",
        "userDefined": false
      }
    ],
    "isTemplate": false,
    "count": 0,
    "updated": 0
  },
  {
    "id": "52eddb4b-ce94-4eaf-aae8-7c4794d0c12f",
    "data": [
      {
        "text": "给我介绍你",
        "userDefined": false
      },
      {
        "text": "的",
        "meta": "@sys.ignore",
        "userDefined": false
      },
      {
        "text": "推特",
        "alias": "media",
        "meta": "@media",
        "userDefined": false
      }
    ],
    "isTemplate": false,
    "count": 0,
    "updated": 0
  },
  {
    "id": "c548d40d-5599-43c9-878b-15db71fe16f1",
    "data": [
      {
        "text": "你的微博",
        "userDefined": false
      }
    ],
    "isTemplate": false,
    "count": 0,
    "updated": 0
  },
  {
    "id": "08f197b6-2395-4836-93c2-1b39e7b9d2ba",
    "data": [
      {
        "text": "你有",
        "userDefined": false
      },
      {
        "text": "instagram",
        "alias": "media",
        "meta": "@media",
        "userDefined": true
      },
      {
        "text": "帐号吗",
        "userDefined": false
      }
    ],
    "isTemplate": false,
    "count": 0,
    "updated": 0
  },
  {
    "id": "72dfd32a-a009-448f-b680-bf5e928fb6db",
    "data": [
      {
        "text": "你的社交网站",
        "userDefined": false
      }
    ],
    "isTemplate": false,
    "count": 0,
    "updated": 0
  },
  {
    "id": "5cabb274-ed75-4781-845a-6a11b2e2aa1e",
    "data": [
      {
        "text": "你的社交网站 你那一个",
        "userDefined": false
      }
    ],
    "isTemplate": false,
    "count": 0,
    "updated": 0
  },
  {
    "id": "4e749ffe-ec59-4a4f-9e7f-a1f5e0ae8152",
    "data": [
      {
        "text": "你的脸书页面在哪里",
        "userDefined": false
      }
    ],
    "isTemplate": false,
    "count": 0,
    "updated": 0
  },
  {
    "id": "52694557-806c-459c-939d-f1cb8236b296",
    "data": [
      {
        "text": "我想访问你的",
        "userDefined": false
      },
      {
        "text": "instagram",
        "alias": "media",
        "meta": "@media",
        "userDefined": true
      },
      {
        "text": "网站",
        "userDefined": false
      }
    ],
    "isTemplate": false,
    "count": 0,
    "updated": 0
  },
  {
    "id": "605bc79a-d40b-4043-b6ef-9ea331bde4ed",
    "data": [
      {
        "text": "我要知道你有社交网站对不对",
        "userDefined": false
      }
    ],
    "isTemplate": false,
    "count": 0,
    "updated": 0
  },
  {
    "id": "677d9587-da27-4078-ba3b-1b3cf610b481",
    "data": [
      {
        "text": "你有",
        "userDefined": false
      },
      {
        "text": "脸书",
        "alias": "media",
        "meta": "@media",
        "userDefined": true
      },
      {
        "text": "页面吗",
        "userDefined": false
      }
    ],
    "isTemplate": false,
    "count": 0,
    "updated": 0
  },
  {
    "id": "82431533-e540-4c65-b2e4-cdf19c83e3a2",
    "data": [
      {
        "text": "你的页面在",
        "userDefined": false
      },
      {
        "text": "脸书",
        "alias": "media",
        "meta": "@media",
        "userDefined": true
      }
    ],
    "isTemplate": false,
    "count": 0,
    "updated": 0
  },
  {
    "id": "ef959735-0a9d-47ad-97e6-4291de48cb82",
    "data": [
      {
        "text": "你有 ",
        "userDefined": false
      },
      {
        "text": "Instagram",
        "alias": "media",
        "meta": "@media",
        "userDefined": false
      },
      {
        "text": " 帐号吗",
        "userDefined": false
      }
    ],
    "isTemplate": false,
    "count": 1,
    "updated": 0
  },
  {
    "id": "d2c6fe6e-a396-4afe-8063-57137f9dca4a",
    "data": [
      {
        "text": "你有社交网站吗",
        "userDefined": false
      }
    ],
    "isTemplate": false,
    "count": 0,
    "updated": 0
  },
  {
    "id": "e577f138-f5e4-4f3c-a8b9-2c8075ae33ac",
    "data": [
      {
        "text": "你有没有社交网站",
        "userDefined": false
      }
    ],
    "isTemplate": false,
    "count": 0,
    "updated": 0
  },
  {
    "id": "8e4715c3-c05d-4742-8577-b52572fd5eaf",
    "data": [
      {
        "text": "你有用",
        "userDefined": false
      },
      {
        "text": "微博",
        "alias": "media",
        "meta": "@media",
        "userDefined": true
      },
      {
        "text": "吗",
        "userDefined": false
      }
    ],
    "isTemplate": false,
    "count": 0,
    "updated": 0
  },
  {
    "id": "6e838ce3-c489-41d1-a554-19a9ad4da8cd",
    "data": [
      {
        "text": "你有",
        "userDefined": false
      },
      {
        "text": "微博",
        "alias": "media",
        "meta": "@media",
        "userDefined": true
      },
      {
        "text": "帐号吗",
        "userDefined": false
      }
    ],
    "isTemplate": false,
    "count": 0,
    "updated": 0
  },
  {
    "id": "72d85fdf-c9bb-4d8f-8566-3dd439645e9f",
    "data": [
      {
        "text": "你的",
        "userDefined": false
      },
      {
        "text": "脸书",
        "alias": "media",
        "meta": "@media",
        "userDefined": true
      },
      {
        "text": "页面是什么",
        "userDefined": false
      }
    ],
    "isTemplate": false,
    "count": 0,
    "updated": 0
  },
  {
    "id": "3fda9985-4268-4e4b-b3fb-1d826255c3b4",
    "data": [
      {
        "text": "打开你的",
        "userDefined": false
      },
      {
        "text": "脸书",
        "alias": "media",
        "meta": "@media",
        "userDefined": true
      },
      {
        "text": "页面",
        "userDefined": false
      }
    ],
    "isTemplate": false,
    "count": 0,
    "updated": 0
  }
]