[
  {
    "id": "30953aba-10a0-49f4-8869-faf1f721cb99",
    "data": [
      {
        "text": "agora o Website",
        "userDefined": false
      }
    ],
    "isTemplate": false,
    "count": 0,
    "updated": 0
  },
  {
    "id": "2528dbf9-e5fb-4f43-ac3d-ab771b9dc22c",
    "data": [
      {
        "text": "e o seu Website",
        "userDefined": false
      }
    ],
    "isTemplate": false,
    "count": 1,
    "updated": 0
  },
  {
    "id": "1313d29b-71a9-473c-a4e0-86744fc82f5a",
    "data": [
      {
        "text": "o site também",
        "userDefined": false
      }
    ],
    "isTemplate": false,
    "count": 0,
    "updated": 0
  },
  {
    "id": "d058144c-b119-4987-99c0-ea718d90eb80",
    "data": [
      {
        "text": "o seu Website",
        "userDefined": false
      }
    ],
    "isTemplate": false,
    "count": 0,
    "updated": 0
  },
  {
    "id": "be71c7f2-50cd-4826-8f09-1250b68c1e2d",
    "data": [
      {
        "text": "Website",
        "userDefined": false
      }
    ],
    "isTemplate": false,
    "count": 0,
    "updated": 0
  },
  {
    "id": "94528d71-6801-4d2c-8f89-42a724a312c1",
    "data": [
      {
        "text": "Website agora",
        "userDefined": false
      }
    ],
    "isTemplate": false,
    "count": 0,
    "updated": 0
  },
  {
    "id": "63bd0b61-ccf1-4405-a2bb-64b42072471e",
    "data": [
      {
        "text": "site também",
        "userDefined": false
      }
    ],
    "isTemplate": false,
    "count": 0,
    "updated": 0
  },
  {
    "id": "88922d89-a89f-4e1c-b653-4db1e0685572",
    "data": [
      {
        "text": "o seu site",
        "userDefined": false
      }
    ],
    "isTemplate": false,
    "count": 0,
    "updated": 0
  },
  {
    "id": "9859ce29-103b-4db8-b676-dd1026e4989f",
    "data": [
      {
        "text": "o Website também",
        "userDefined": false
      }
    ],
    "isTemplate": false,
    "count": 0,
    "updated": 0
  }
]