[
  {
    "id": "8417846f-c95c-4857-97f0-a7c207462958",
    "data": [
      {
        "text": "你",
        "userDefined": false
      },
      {
        "text": "的",
        "meta": "@sys.ignore",
        "userDefined": false
      },
      {
        "text": "網",
        "userDefined": false
      },
      {
        "text": "站",
        "meta": "@sys.ignore",
        "userDefined": false
      }
    ],
    "isTemplate": false,
    "count": 0,
    "updated": 0
  },
  {
    "id": "1d0dc058-9f71-4671-888a-5c9070ce450b",
    "data": [
      {
        "text": "我還要網站",
        "userDefined": false
      }
    ],
    "isTemplate": false,
    "count": 0,
    "updated": 0
  },
  {
    "id": "2a469468-67d1-4f1e-b2eb-8715b326d039",
    "data": [
      {
        "text": "會不會網站",
        "userDefined": false
      }
    ],
    "isTemplate": false,
    "count": 0,
    "updated": 0
  },
  {
    "id": "4044eea2-3e1b-4ecd-9758-84023893c5e0",
    "data": [
      {
        "text": "現在網站",
        "userDefined": false
      }
    ],
    "isTemplate": false,
    "count": 0,
    "updated": 0
  },
  {
    "id": "bc45d101-9816-4dfb-82b4-c2bfe4dac989",
    "data": [
      {
        "text": "還要網站",
        "userDefined": false
      }
    ],
    "isTemplate": false,
    "count": 0,
    "updated": 0
  },
  {
    "id": "c0328bac-c838-4b58-b676-3550d80e2216",
    "data": [
      {
        "text": "還能不能網站",
        "userDefined": false
      }
    ],
    "isTemplate": false,
    "count": 0,
    "updated": 0
  },
  {
    "id": "235a0803-62b8-4878-871c-c84918e55103",
    "data": [
      {
        "text": "我還很想網站",
        "userDefined": false
      }
    ],
    "isTemplate": false,
    "count": 0,
    "updated": 0
  },
  {
    "id": "52fbd27f-88ab-4a2c-9fb0-f4f764239f0f",
    "data": [
      {
        "text": "你",
        "userDefined": false
      },
      {
        "text": "的",
        "meta": "@sys.ignore",
        "userDefined": false
      },
      {
        "text": "網絡",
        "userDefined": false
      }
    ],
    "isTemplate": false,
    "count": 0,
    "updated": 0
  },
  {
    "id": "86c1c96b-f22e-4413-b035-3d0fb4d986e7",
    "data": [
      {
        "text": "怎麽能網站",
        "userDefined": false
      }
    ],
    "isTemplate": false,
    "count": 0,
    "updated": 0
  },
  {
    "id": "97a6dd9b-0087-4ede-97cf-84be969d9c3f",
    "data": [
      {
        "text": "能不能網站",
        "userDefined": false
      }
    ],
    "isTemplate": false,
    "count": 0,
    "updated": 0
  },
  {
    "id": "e4adafc2-e83a-4976-8a4d-a03eb3751185",
    "data": [
      {
        "text": "關于網站",
        "userDefined": false
      }
    ],
    "isTemplate": false,
    "count": 0,
    "updated": 0
  },
  {
    "id": "97b8c5d5-2442-45d7-b84d-0b6748a243ff",
    "data": [
      {
        "text": "還需要網站",
        "userDefined": false
      }
    ],
    "isTemplate": false,
    "count": 0,
    "updated": 0
  }
]