[
  {
    "id": "d7f5f087-5cc5-4db2-9310-c1a4fe158b44",
    "data": [
      {
        "text": "あなたの会社では何を作成していますか",
        "userDefined": false
      }
    ],
    "isTemplate": false,
    "count": 0,
    "updated": 0
  },
  {
    "id": "302981b3-feda-465b-a064-bf16566363a8",
    "data": [
      {
        "text": "あなたの会社で最も売れている商品は何ですか",
        "userDefined": false
      }
    ],
    "isTemplate": false,
    "count": 1,
    "updated": 0
  },
  {
    "id": "b815e857-95fc-4eab-8f33-02f2e6fa19e7",
    "data": [
      {
        "text": "あなたの会社では他にもアプリを扱っていますか",
        "userDefined": false
      }
    ],
    "isTemplate": false,
    "count": 0,
    "updated": 0
  },
  {
    "id": "ac126219-f19f-4df1-a73d-487c268f3b76",
    "data": [
      {
        "text": "デベロッパーは他に何かしていますか",
        "userDefined": false
      }
    ],
    "isTemplate": false,
    "count": 1,
    "updated": 0
  },
  {
    "id": "b8f3a51c-6271-42ce-b481-d1cc286f3e36",
    "data": [
      {
        "text": "あなたの会社では他にも商品を扱っていますか",
        "userDefined": false
      }
    ],
    "isTemplate": false,
    "count": 0,
    "updated": 0
  },
  {
    "id": "9ed0c031-5b56-4cae-a71e-e9ef1506379f",
    "data": [
      {
        "text": "あなたの会社では何を開発していますか",
        "userDefined": false
      }
    ],
    "isTemplate": false,
    "count": 0,
    "updated": 0
  },
  {
    "id": "3a27d790-ffd7-4f71-941a-3e2392cf15ef",
    "data": [
      {
        "text": "デベロッパーは他に何をしていますか",
        "userDefined": false
      }
    ],
    "isTemplate": false,
    "count": 0,
    "updated": 0
  },
  {
    "id": "2d33ec2c-5d1c-4b63-8dca-e17387f0d9d5",
    "data": [
      {
        "text": "デベロッパーは何か作成したことがありますか",
        "userDefined": false
      }
    ],
    "isTemplate": false,
    "count": 1,
    "updated": 0
  },
  {
    "id": "0e22301b-d807-430a-8e96-f4b4c4666322",
    "data": [
      {
        "text": "デベロッパーは何をしていますか",
        "userDefined": false
      }
    ],
    "isTemplate": false,
    "count": 0,
    "updated": 0
  },
  {
    "id": "49176741-713a-4d0a-810c-75644b1ce668",
    "data": [
      {
        "text": "あなたの会社では他に何か扱っていますか",
        "userDefined": false
      }
    ],
    "isTemplate": false,
    "count": 0,
    "updated": 0
  }
]