{
  "id": "eaf9bd9f-0260-4430-a7b7-52a8c5e26860",
  "name": "time.convert",
  "auto": true,
  "contexts": [],
  "responses": [
    {
      "resetContexts": false,
      "action": "time.convert",
      "affectedContexts": [
        {
          "name": "convert-time",
          "parameters": {},
          "lifespan": 5
        }
      ],
      "parameters": [
        {
          "id": "557b2695-01e3-4620-9c10-de1809111218",
          "required": false,
          "dataType": "@sys.time",
          "name": "time-from",
          "value": "$time-from",
          "promptMessages": [],
          "noMatchPromptMessages": [],
          "noInputPromptMessages": [],
          "outputDialogContexts": [],
          "isList": false
        },
        {
          "id": "ace91ed8-d5c3-4777-bd82-17810300071c",
          "required": false,
          "dataType": "@sys.location",
          "name": "location-from",
          "value": "$location-from",
          "promptMessages": [],
          "noMatchPromptMessages": [],
          "noInputPromptMessages": [],
          "outputDialogContexts": [],
          "isList": false
        },
        {
          "id": "b0f6da21-eef6-4aec-a77a-d5745b16cf7c",
          "required": false,
          "dataType": "@sys.location",
          "name": "location-to",
          "value": "$location-to",
          "promptMessages": [],
          "noMatchPromptMessages": [],
          "noInputPromptMessages": [],
          "outputDialogContexts": [],
          "isList": false
        }
      ],
      "messages": [
        {
          "type": 0,
          "lang": "en",
          "condition": "",
          "speech": []
        }
      ],
      "defaultResponsePlatforms": {},
      "speech": []
    }
  ],
  "priority": 500000,
  "webhookUsed": false,
  "webhookForSlotFilling": false,
  "fallbackIntent": false,
  "events": [],
  "conditionalResponses": [],
  "condition": "",
  "conditionalFollowupEvents": []
}