{
  "id": "23b4ad26-c130-4ef0-8a9b-eaf13ce5ee21",
  "name": "time - context:time",
  "auto": true,
  "contexts": [
    "time"
  ],
  "responses": [
    {
      "resetContexts": false,
      "action": "#time.intent_action",
      "affectedContexts": [],
      "parameters": [
        {
          "id": "9f068dcf-7d5e-41eb-8a52-9c395f4d2e20",
          "required": false,
          "dataType": "@sys.location",
          "name": "location",
          "value": "$location",
          "promptMessages": [],
          "noMatchPromptMessages": [],
          "noInputPromptMessages": [],
          "outputDialogContexts": [],
          "isList": false
        }
      ],
      "messages": [
        {
          "type": 0,
          "lang": "en",
          "condition": "",
          "speech": []
        }
      ],
      "defaultResponsePlatforms": {},
      "speech": []
    }
  ],
  "priority": 500000,
  "webhookUsed": false,
  "webhookForSlotFilling": false,
  "fallbackIntent": false,
  "events": [],
  "conditionalResponses": [],
  "condition": "",
  "conditionalFollowupEvents": []
}