[
  {
    "id": "f3b78c66-77a8-4d36-8755-b40cbf6a0a69",
    "data": [
      {
        "text": "so what time is ",
        "userDefined": false
      },
      {
        "text": "it",
        "meta": "@sys.ignore",
        "userDefined": false
      }
    ],
    "isTemplate": false,
    "count": 0,
    "updated": 0
  },
  {
    "id": "ab103c44-aa06-4964-9683-86558f8b2659",
    "data": [
      {
        "text": "current",
        "meta": "@sys.ignore",
        "userDefined": true
      },
      {
        "text": " time",
        "userDefined": false
      }
    ],
    "isTemplate": false,
    "count": 0,
    "updated": 0
  },
  {
    "id": "cb9d3507-e703-4d47-990d-6a4f3e027e3e",
    "data": [
      {
        "text": "time ",
        "userDefined": false
      },
      {
        "text": "right now",
        "meta": "@sys.ignore",
        "userDefined": false
      }
    ],
    "isTemplate": false,
    "count": 0,
    "updated": 0
  },
  {
    "id": "ea44124f-1d63-4f8a-baed-df6f5607fd88",
    "data": [
      {
        "text": "you know what time is ",
        "userDefined": false
      },
      {
        "text": "it",
        "meta": "@sys.ignore",
        "userDefined": false
      }
    ],
    "isTemplate": false,
    "count": 0,
    "updated": 0
  },
  {
    "id": "dd26eec8-b585-4f79-969a-36d1ee13df59",
    "data": [
      {
        "text": "what is the time",
        "userDefined": false
      }
    ],
    "isTemplate": false,
    "count": 0,
    "updated": 0
  },
  {
    "id": "cafad1d4-b0bb-4824-a001-44687e9437cd",
    "data": [
      {
        "text": "tell me the time please",
        "userDefined": false
      }
    ],
    "isTemplate": false,
    "count": 0,
    "updated": 0
  },
  {
    "id": "a1c6b40e-f30a-46a1-928f-5d7f017e592e",
    "data": [
      {
        "text": "do you know what time is ",
        "userDefined": false
      },
      {
        "text": "it",
        "meta": "@sys.ignore",
        "userDefined": false
      }
    ],
    "isTemplate": false,
    "count": 0,
    "updated": 0
  },
  {
    "id": "7d187835-6f64-4e78-ab52-eed56f4fb9a8",
    "data": [
      {
        "text": "ok what time",
        "userDefined": false
      }
    ],
    "isTemplate": false,
    "count": 0,
    "updated": 0
  },
  {
    "id": "6572067a-dbe7-4af2-8acd-61147ea001b0",
    "data": [
      {
        "text": "tell me what is the time now",
        "userDefined": false
      }
    ],
    "isTemplate": false,
    "count": 0,
    "updated": 0
  },
  {
    "id": "4b81fe9e-ca42-42ff-9067-601f0672b63c",
    "data": [
      {
        "text": "tell me the time in ",
        "userDefined": false
      },
      {
        "text": "Bangalore",
        "alias": "location",
        "meta": "@sys.location",
        "userDefined": false
      }
    ],
    "isTemplate": false,
    "count": 0,
    "updated": 0
  },
  {
    "id": "d3eeced5-4740-4a5a-8c34-7b832efbc8d6",
    "data": [
      {
        "text": "time check",
        "userDefined": false
      }
    ],
    "isTemplate": false,
    "count": 0,
    "updated": 0
  },
  {
    "id": "83a9c410-4fc2-49d8-8297-98590e0d33a9",
    "data": [
      {
        "text": "what is ",
        "userDefined": false
      },
      {
        "text": "New York",
        "alias": "location",
        "meta": "@sys.location",
        "userDefined": true
      },
      {
        "text": " time",
        "userDefined": false
      }
    ],
    "isTemplate": false,
    "count": 0,
    "updated": 0
  },
  {
    "id": "de6c6511-8bdb-4d47-b5a5-d142f79016a0",
    "data": [
      {
        "text": "so what time is ",
        "userDefined": false
      },
      {
        "text": "it",
        "meta": "@sys.ignore",
        "userDefined": false
      },
      {
        "text": " now",
        "userDefined": false
      }
    ],
    "isTemplate": false,
    "count": 0,
    "updated": 0
  },
  {
    "id": "9fbd836f-c7e6-47af-b075-101e5181860c",
    "data": [
      {
        "text": "what time is ",
        "userDefined": false
      },
      {
        "text": "it",
        "meta": "@sys.ignore",
        "userDefined": true
      },
      {
        "text": " ",
        "userDefined": false
      },
      {
        "text": "right now",
        "meta": "@sys.ignore",
        "userDefined": true
      }
    ],
    "isTemplate": false,
    "count": 0,
    "updated": 0
  },
  {
    "id": "d766c7b3-eff9-4cd1-aa2e-24c014c15f40",
    "data": [
      {
        "text": "can you tell me the time",
        "userDefined": false
      }
    ],
    "isTemplate": false,
    "count": 0,
    "updated": 0
  },
  {
    "id": "a96e500e-e3fc-493e-a75c-8212e156db1f",
    "data": [
      {
        "text": "is ",
        "userDefined": false
      },
      {
        "text": "it",
        "meta": "@sys.ignore",
        "userDefined": false
      },
      {
        "text": " ",
        "userDefined": false
      },
      {
        "text": "late",
        "meta": "@sys.ignore",
        "userDefined": false
      }
    ],
    "isTemplate": false,
    "count": 0,
    "updated": 0
  },
  {
    "id": "16937e8c-14ad-44ca-aa27-45c6321594f6",
    "data": [
      {
        "text": "can you tell me what time is it",
        "userDefined": false
      }
    ],
    "isTemplate": false,
    "count": 0,
    "updated": 0
  },
  {
    "id": "7f2b0615-8a66-4569-be3a-c281b4cb4d20",
    "data": [
      {
        "text": "hello",
        "meta": "@sys.ignore",
        "userDefined": false
      },
      {
        "text": " ",
        "userDefined": false
      },
      {
        "text": "what\u0027s",
        "meta": "@sys.ignore",
        "userDefined": false
      },
      {
        "text": " the time",
        "userDefined": false
      }
    ],
    "isTemplate": false,
    "count": 0,
    "updated": 0
  },
  {
    "id": "5894fa6a-3a36-4c06-9730-9ffd7e927424",
    "data": [
      {
        "text": "what\u0027s the time in ",
        "userDefined": false
      },
      {
        "text": "New York",
        "alias": "location",
        "meta": "@sys.location",
        "userDefined": false
      }
    ],
    "isTemplate": false,
    "count": 0,
    "updated": 0
  },
  {
    "id": "b5df0889-6adb-4112-8e9c-f2401e695607",
    "data": [
      {
        "text": "what\u0027s",
        "meta": "@sys.ignore",
        "userDefined": false
      },
      {
        "text": " time ",
        "userDefined": false
      },
      {
        "text": "right now",
        "meta": "@sys.ignore",
        "userDefined": false
      }
    ],
    "isTemplate": false,
    "count": 0,
    "updated": 0
  },
  {
    "id": "77308206-13c5-439c-8548-edade7b63d15",
    "data": [
      {
        "text": "what\u0027s the time in ",
        "userDefined": false
      },
      {
        "text": "London",
        "alias": "location",
        "meta": "@sys.location",
        "userDefined": true
      }
    ],
    "isTemplate": false,
    "count": 0,
    "updated": 0
  },
  {
    "id": "acaa8309-a288-4f4a-961b-201124da3c32",
    "data": [
      {
        "text": "what time ",
        "userDefined": false
      },
      {
        "text": "right now",
        "meta": "@sys.ignore",
        "userDefined": false
      }
    ],
    "isTemplate": false,
    "count": 0,
    "updated": 0
  },
  {
    "id": "186f97c4-daa0-4782-8b1d-5075ed2cbe0c",
    "data": [
      {
        "text": "what time is ",
        "userDefined": false
      },
      {
        "text": "it",
        "meta": "@sys.ignore",
        "userDefined": false
      },
      {
        "text": " ",
        "userDefined": false
      },
      {
        "text": "here",
        "meta": "@sys.ignore",
        "userDefined": false
      }
    ],
    "isTemplate": false,
    "count": 0,
    "updated": 0
  },
  {
    "id": "74398bd6-acf3-4ee3-ad09-15c377876aed",
    "data": [
      {
        "text": "so ",
        "userDefined": false
      },
      {
        "text": "what\u0027s",
        "meta": "@sys.ignore",
        "userDefined": false
      },
      {
        "text": " the time",
        "userDefined": false
      }
    ],
    "isTemplate": false,
    "count": 0,
    "updated": 0
  },
  {
    "id": "ab0f09f7-f5de-4b42-b35b-ba2111661fbb",
    "data": [
      {
        "text": "what is the ",
        "userDefined": false
      },
      {
        "text": "current",
        "meta": "@sys.ignore",
        "userDefined": false
      },
      {
        "text": " time",
        "userDefined": false
      }
    ],
    "isTemplate": false,
    "count": 0,
    "updated": 0
  },
  {
    "id": "1594be66-c083-42b2-8026-7645b9164ab2",
    "data": [
      {
        "text": "show me the time",
        "userDefined": false
      }
    ],
    "isTemplate": false,
    "count": 1,
    "updated": 0
  },
  {
    "id": "4b39eda7-6f65-40a8-bc80-ffbd9081a352",
    "data": [
      {
        "text": "how much time is ",
        "userDefined": false
      },
      {
        "text": "it",
        "meta": "@sys.ignore",
        "userDefined": false
      }
    ],
    "isTemplate": false,
    "count": 0,
    "updated": 0
  },
  {
    "id": "f3957191-37d3-4b0e-9a6b-29745f84174c",
    "data": [
      {
        "text": "what is the time in",
        "userDefined": false
      }
    ],
    "isTemplate": false,
    "count": 0,
    "updated": 0
  },
  {
    "id": "c2de42ad-5e4a-42eb-adb0-1a1fcf259b87",
    "data": [
      {
        "text": "what\u0027s",
        "meta": "@sys.ignore",
        "userDefined": true
      },
      {
        "text": " the time",
        "userDefined": false
      }
    ],
    "isTemplate": false,
    "count": 0,
    "updated": 0
  },
  {
    "id": "24e61779-b024-4ab1-a4a7-1acb8dd8f110",
    "data": [
      {
        "text": "show me the clock",
        "userDefined": false
      }
    ],
    "isTemplate": false,
    "count": 0,
    "updated": 0
  },
  {
    "id": "8f351181-6fc7-4d48-8e38-687b192bc7cc",
    "data": [
      {
        "text": "do u know what time is",
        "userDefined": false
      }
    ],
    "isTemplate": false,
    "count": 0,
    "updated": 0
  },
  {
    "id": "f677fdf8-cbd5-4323-b4c1-4db7684c5de2",
    "data": [
      {
        "text": "can you tell me what time is ",
        "userDefined": false
      },
      {
        "text": "it",
        "meta": "@sys.ignore",
        "userDefined": false
      }
    ],
    "isTemplate": false,
    "count": 0,
    "updated": 0
  },
  {
    "id": "3ce21ace-6e1c-429f-ab34-f9a8595e2f1f",
    "data": [
      {
        "text": "check the ",
        "userDefined": false
      },
      {
        "text": "current",
        "meta": "@sys.ignore",
        "userDefined": true
      },
      {
        "text": " time",
        "userDefined": false
      }
    ],
    "isTemplate": false,
    "count": 0,
    "updated": 0
  },
  {
    "id": "66333457-755e-4cb6-987f-cf2eaea5a34f",
    "data": [
      {
        "text": "show me what time is ",
        "userDefined": false
      },
      {
        "text": "it",
        "meta": "@sys.ignore",
        "userDefined": false
      }
    ],
    "isTemplate": false,
    "count": 0,
    "updated": 0
  },
  {
    "id": "aaee6f08-ac92-44d5-aa58-544f5322e2fc",
    "data": [
      {
        "text": "what is the time now",
        "userDefined": false
      }
    ],
    "isTemplate": false,
    "count": 0,
    "updated": 0
  },
  {
    "id": "1b0b67d3-ce53-4030-a852-eee708a97684",
    "data": [
      {
        "text": "you know what time ",
        "userDefined": false
      },
      {
        "text": "it",
        "meta": "@sys.ignore",
        "userDefined": false
      },
      {
        "text": " is",
        "userDefined": false
      }
    ],
    "isTemplate": false,
    "count": 0,
    "updated": 0
  },
  {
    "id": "840db4dd-7a52-4202-a4dc-31d8b412a772",
    "data": [
      {
        "text": "what time is ",
        "userDefined": false
      },
      {
        "text": "it",
        "meta": "@sys.ignore",
        "userDefined": true
      },
      {
        "text": " now",
        "userDefined": false
      }
    ],
    "isTemplate": false,
    "count": 0,
    "updated": 0
  },
  {
    "id": "7f58248c-03b4-4a0a-8655-d15cc53f59f7",
    "data": [
      {
        "text": "what is time ",
        "userDefined": false
      },
      {
        "text": "right now",
        "meta": "@sys.ignore",
        "userDefined": false
      }
    ],
    "isTemplate": false,
    "count": 0,
    "updated": 0
  },
  {
    "id": "7f18a93d-a662-4ba2-8b47-156d602406db",
    "data": [
      {
        "text": "what is the time ",
        "userDefined": false
      },
      {
        "text": "right now",
        "meta": "@sys.ignore",
        "userDefined": true
      }
    ],
    "isTemplate": false,
    "count": 0,
    "updated": 0
  },
  {
    "id": "7bff288e-d986-47fb-be18-5c6a390c335f",
    "data": [
      {
        "text": "what\u0027s the time now",
        "userDefined": false
      }
    ],
    "isTemplate": false,
    "count": 0,
    "updated": 0
  },
  {
    "id": "2c9935cf-eeb1-4120-baa3-82da19ba2d96",
    "data": [
      {
        "text": "London",
        "alias": "location",
        "meta": "@sys.location",
        "userDefined": true
      },
      {
        "text": " time right now",
        "userDefined": false
      }
    ],
    "isTemplate": false,
    "count": 0,
    "updated": 0
  },
  {
    "id": "832db3fe-97d9-4c46-bd26-20e745221906",
    "data": [
      {
        "text": "ok what time is ",
        "userDefined": false
      },
      {
        "text": "it",
        "meta": "@sys.ignore",
        "userDefined": false
      }
    ],
    "isTemplate": false,
    "count": 0,
    "updated": 0
  },
  {
    "id": "535b9c0c-5aea-4781-a068-03361e7abba5",
    "data": [
      {
        "text": "do you know what time ",
        "userDefined": false
      },
      {
        "text": "it",
        "meta": "@sys.ignore",
        "userDefined": false
      },
      {
        "text": " is",
        "userDefined": false
      }
    ],
    "isTemplate": false,
    "count": 0,
    "updated": 0
  },
  {
    "id": "a9d31d7c-7cc8-4645-abe4-48fba3c33c12",
    "data": [
      {
        "text": "what time ",
        "userDefined": false
      },
      {
        "text": "it",
        "meta": "@sys.ignore",
        "userDefined": false
      },
      {
        "text": " is now",
        "userDefined": false
      }
    ],
    "isTemplate": false,
    "count": 0,
    "updated": 0
  },
  {
    "id": "4e9a253e-e205-4444-9e4d-76fee5f8bb00",
    "data": [
      {
        "text": "current time in ",
        "userDefined": false
      },
      {
        "text": "New York",
        "alias": "location",
        "meta": "@sys.location",
        "userDefined": true
      }
    ],
    "isTemplate": false,
    "count": 0,
    "updated": 0
  },
  {
    "id": "a847cd52-7ef6-45de-8b78-cfe5aa0dba7c",
    "data": [
      {
        "text": "what the time now",
        "userDefined": false
      }
    ],
    "isTemplate": false,
    "count": 0,
    "updated": 0
  },
  {
    "id": "9001c9c2-c433-4f62-887c-ea715d7ae648",
    "data": [
      {
        "text": "ok what is the time",
        "userDefined": false
      }
    ],
    "isTemplate": false,
    "count": 0,
    "updated": 0
  },
  {
    "id": "7ccfce8d-e14b-44d1-8e30-f69bf27bee03",
    "data": [
      {
        "text": "time in ",
        "userDefined": false
      },
      {
        "text": "London",
        "alias": "location",
        "meta": "@sys.location",
        "userDefined": false
      }
    ],
    "isTemplate": false,
    "count": 0,
    "updated": 0
  },
  {
    "id": "8ae827d7-614c-44aa-9dcd-1e493888e74d",
    "data": [
      {
        "text": "tell the time",
        "userDefined": false
      }
    ],
    "isTemplate": false,
    "count": 0,
    "updated": 0
  },
  {
    "id": "a6afbcbd-3219-4a9d-a074-14b31a101a88",
    "data": [
      {
        "text": "is ",
        "userDefined": false
      },
      {
        "text": "it",
        "meta": "@sys.ignore",
        "userDefined": false
      },
      {
        "text": " too ",
        "userDefined": false
      },
      {
        "text": "late",
        "meta": "@sys.ignore",
        "userDefined": false
      }
    ],
    "isTemplate": false,
    "count": 0,
    "updated": 0
  },
  {
    "id": "d7a444ca-51f2-4c7b-8fe9-a885d0f804cf",
    "data": [
      {
        "text": "what time is ",
        "userDefined": false
      },
      {
        "text": "it",
        "meta": "@sys.ignore",
        "userDefined": false
      },
      {
        "text": " in ",
        "userDefined": false
      },
      {
        "text": "New York",
        "alias": "location",
        "meta": "@sys.location",
        "userDefined": false
      }
    ],
    "isTemplate": false,
    "count": 0,
    "updated": 0
  },
  {
    "id": "451143d3-bf33-4852-a58f-65acd57dc8e3",
    "data": [
      {
        "text": "what time is ",
        "userDefined": false
      },
      {
        "text": "it",
        "meta": "@sys.ignore",
        "userDefined": true
      },
      {
        "text": " in ",
        "userDefined": false
      },
      {
        "text": "London",
        "alias": "location",
        "meta": "@sys.location",
        "userDefined": true
      }
    ],
    "isTemplate": false,
    "count": 1,
    "updated": 0
  },
  {
    "id": "d70c8762-0bc0-4d17-86bc-905bcae4a968",
    "data": [
      {
        "text": "what is the time in ",
        "userDefined": false
      },
      {
        "text": "New York",
        "alias": "location",
        "meta": "@sys.location",
        "userDefined": true
      }
    ],
    "isTemplate": false,
    "count": 0,
    "updated": 0
  },
  {
    "id": "7ad41a0d-229c-429e-9133-211de7af85d3",
    "data": [
      {
        "text": "time please",
        "userDefined": false
      }
    ],
    "isTemplate": false,
    "count": 0,
    "updated": 0
  },
  {
    "id": "c7356657-1708-4e76-919e-d1efd5f6e99f",
    "data": [
      {
        "text": "what is the exact time",
        "userDefined": false
      }
    ],
    "isTemplate": false,
    "count": 0,
    "updated": 0
  },
  {
    "id": "760685de-5e13-4a01-a939-eafb01cdee07",
    "data": [
      {
        "text": "hey ",
        "userDefined": false
      },
      {
        "text": "what\u0027s",
        "meta": "@sys.ignore",
        "userDefined": false
      },
      {
        "text": " the time now",
        "userDefined": false
      }
    ],
    "isTemplate": false,
    "count": 0,
    "updated": 0
  },
  {
    "id": "3a43fdee-0458-4d8d-bce1-58d348700ea2",
    "data": [
      {
        "text": "alright what time",
        "userDefined": false
      }
    ],
    "isTemplate": false,
    "count": 0,
    "updated": 0
  },
  {
    "id": "f299c704-08df-45c4-81a8-7470ce00dfed",
    "data": [
      {
        "text": "I said what time is ",
        "userDefined": false
      },
      {
        "text": "it",
        "meta": "@sys.ignore",
        "userDefined": false
      }
    ],
    "isTemplate": false,
    "count": 0,
    "updated": 0
  },
  {
    "id": "71d56344-12e3-4465-aee7-a5964b5d1a20",
    "data": [
      {
        "text": "tell me what time is it",
        "userDefined": false
      }
    ],
    "isTemplate": false,
    "count": 0,
    "updated": 0
  },
  {
    "id": "de3abf14-0881-41d3-bbbe-690b4334510a",
    "data": [
      {
        "text": "hello",
        "meta": "@sys.ignore",
        "userDefined": false
      },
      {
        "text": " what time is ",
        "userDefined": false
      },
      {
        "text": "it",
        "meta": "@sys.ignore",
        "userDefined": false
      }
    ],
    "isTemplate": false,
    "count": 0,
    "updated": 0
  },
  {
    "id": "e4248eb1-9ad9-40ee-b888-49727e53fb7b",
    "data": [
      {
        "text": "and what time is ",
        "userDefined": false
      },
      {
        "text": "it",
        "meta": "@sys.ignore",
        "userDefined": false
      }
    ],
    "isTemplate": false,
    "count": 0,
    "updated": 0
  },
  {
    "id": "7b370aa9-02bb-451d-a7e9-b28483e634be",
    "data": [
      {
        "text": "what\u0027s",
        "meta": "@sys.ignore",
        "userDefined": false
      },
      {
        "text": " the time in",
        "userDefined": false
      }
    ],
    "isTemplate": false,
    "count": 0,
    "updated": 0
  },
  {
    "id": "1c27d421-e705-496c-a75f-13f42cd822a1",
    "data": [
      {
        "text": "what\u0027s",
        "meta": "@sys.ignore",
        "userDefined": true
      },
      {
        "text": " time now",
        "userDefined": false
      }
    ],
    "isTemplate": false,
    "count": 0,
    "updated": 0
  },
  {
    "id": "6cfe58a5-d3ec-48c4-8717-255f2c2a38ef",
    "data": [
      {
        "text": "tell me the time",
        "userDefined": false
      }
    ],
    "isTemplate": false,
    "count": 0,
    "updated": 0
  },
  {
    "id": "9fa89950-cf0b-49ee-bab4-920ff89fc3e9",
    "data": [
      {
        "text": "Vegas",
        "alias": "location",
        "meta": "@sys.location",
        "userDefined": false
      },
      {
        "text": " ",
        "userDefined": false
      },
      {
        "text": "time now",
        "meta": "@sys.ignore",
        "userDefined": false
      }
    ],
    "isTemplate": false,
    "count": 0,
    "updated": 0
  },
  {
    "id": "e30c4f04-f032-48b9-94b3-27ebab911149",
    "data": [
      {
        "text": "time",
        "userDefined": false
      }
    ],
    "isTemplate": false,
    "count": 0,
    "updated": 0
  },
  {
    "id": "ae4a672f-b873-41f6-bb99-73d74772b672",
    "data": [
      {
        "text": "what time is it in ",
        "userDefined": false
      },
      {
        "text": "Mountain View",
        "alias": "location",
        "meta": "@sys.location",
        "userDefined": true
      }
    ],
    "isTemplate": false,
    "count": 0,
    "updated": 0
  },
  {
    "id": "483f83e9-c62a-4061-beeb-b12a44850970",
    "data": [
      {
        "text": "can you tell the time",
        "userDefined": false
      }
    ],
    "isTemplate": false,
    "count": 0,
    "updated": 0
  },
  {
    "id": "1f1a201c-24b2-4d28-9796-f8ca928f6098",
    "data": [
      {
        "text": "what\u0027s",
        "meta": "@sys.ignore",
        "userDefined": false
      },
      {
        "text": " the time please",
        "userDefined": false
      }
    ],
    "isTemplate": false,
    "count": 0,
    "updated": 0
  },
  {
    "id": "a5804496-382a-4854-a727-823322ceba76",
    "data": [
      {
        "text": "clock",
        "userDefined": false
      }
    ],
    "isTemplate": false,
    "count": 0,
    "updated": 0
  },
  {
    "id": "1904c0b0-3126-43a7-be44-79a949f9234d",
    "data": [
      {
        "text": "is ",
        "userDefined": false
      },
      {
        "text": "it",
        "meta": "@sys.ignore",
        "userDefined": false
      },
      {
        "text": " ",
        "userDefined": false
      },
      {
        "text": "late",
        "meta": "@sys.ignore",
        "userDefined": false
      },
      {
        "text": " in ",
        "userDefined": false
      },
      {
        "text": "Paris",
        "alias": "location",
        "meta": "@sys.location",
        "userDefined": false
      }
    ],
    "isTemplate": false,
    "count": 0,
    "updated": 0
  },
  {
    "id": "6155b68a-cdc0-45f5-9ce8-30b257615c4e",
    "data": [
      {
        "text": "what time is that",
        "userDefined": false
      }
    ],
    "isTemplate": false,
    "count": 0,
    "updated": 0
  },
  {
    "id": "0d63a50c-ecd9-4d54-a7ff-a03d0d1ce1e4",
    "data": [
      {
        "text": "what\u0027s",
        "meta": "@sys.ignore",
        "userDefined": false
      },
      {
        "text": " the time ",
        "userDefined": false
      },
      {
        "text": "right now",
        "meta": "@sys.ignore",
        "userDefined": false
      }
    ],
    "isTemplate": false,
    "count": 0,
    "updated": 0
  },
  {
    "id": "dd6594f8-d507-4da8-82cb-896863884a93",
    "data": [
      {
        "text": "time clock",
        "userDefined": false
      }
    ],
    "isTemplate": false,
    "count": 0,
    "updated": 0
  },
  {
    "id": "b1f531ba-d63e-42bb-a441-c5223b6b925e",
    "data": [
      {
        "text": "what time ",
        "userDefined": false
      },
      {
        "text": "it",
        "meta": "@sys.ignore",
        "userDefined": true
      },
      {
        "text": " is",
        "userDefined": false
      }
    ],
    "isTemplate": false,
    "count": 0,
    "updated": 0
  },
  {
    "id": "63297b82-a844-40bc-9c7d-8c32ada7707f",
    "data": [
      {
        "text": "what time is ",
        "userDefined": false
      },
      {
        "text": "it",
        "meta": "@sys.ignore",
        "userDefined": false
      },
      {
        "text": " there",
        "userDefined": false
      }
    ],
    "isTemplate": false,
    "count": 0,
    "updated": 0
  },
  {
    "id": "da7348f3-f1e3-43a3-8adb-0ba4c180270b",
    "data": [
      {
        "text": "is ",
        "userDefined": false
      },
      {
        "text": "it",
        "meta": "@sys.ignore",
        "userDefined": false
      },
      {
        "text": " getting ",
        "userDefined": false
      },
      {
        "text": "late",
        "meta": "@sys.ignore",
        "userDefined": false
      }
    ],
    "isTemplate": false,
    "count": 0,
    "updated": 0
  },
  {
    "id": "89294a1b-3fb0-4a8d-abd1-d78ebdbe9ca5",
    "data": [
      {
        "text": "do you know the time",
        "userDefined": false
      }
    ],
    "isTemplate": false,
    "count": 0,
    "updated": 0
  },
  {
    "id": "d6fd34b0-f01b-4090-9a0a-0476ccd47ff8",
    "data": [
      {
        "text": "what time is ",
        "userDefined": false
      },
      {
        "text": "it",
        "meta": "@sys.ignore",
        "userDefined": true
      },
      {
        "text": " my clock doesn\u0027t ",
        "userDefined": false
      },
      {
        "text": "work",
        "meta": "@sys.ignore",
        "userDefined": true
      }
    ],
    "isTemplate": false,
    "count": 0,
    "updated": 0
  },
  {
    "id": "6050aba3-c37c-4fc9-b9f8-2f3a30aa9ec8",
    "data": [
      {
        "text": "so ",
        "userDefined": false
      },
      {
        "text": "what\u0027s",
        "meta": "@sys.ignore",
        "userDefined": false
      },
      {
        "text": " the time now",
        "userDefined": false
      }
    ],
    "isTemplate": false,
    "count": 0,
    "updated": 0
  },
  {
    "id": "04efe164-ba51-4825-b839-4fd45e25e164",
    "data": [
      {
        "text": "what time is ",
        "userDefined": false
      },
      {
        "text": "it",
        "meta": "@sys.ignore",
        "userDefined": false
      }
    ],
    "isTemplate": false,
    "count": 0,
    "updated": 0
  },
  {
    "id": "88baf8a6-548f-435c-b6b5-11c6888b60c4",
    "data": [
      {
        "text": "what time is ",
        "userDefined": false
      },
      {
        "text": "it",
        "meta": "@sys.ignore",
        "userDefined": false
      },
      {
        "text": " please",
        "userDefined": false
      }
    ],
    "isTemplate": false,
    "count": 0,
    "updated": 0
  },
  {
    "id": "a4334c97-6141-4786-a75d-f0738a396562",
    "data": [
      {
        "text": "what\u0027s the time",
        "userDefined": false
      }
    ],
    "isTemplate": false,
    "count": 0,
    "updated": 0
  },
  {
    "id": "7c05c694-8076-4a59-973a-0db9b4979959",
    "data": [
      {
        "text": "check time",
        "userDefined": false
      }
    ],
    "isTemplate": false,
    "count": 0,
    "updated": 0
  },
  {
    "id": "3e06d125-dc91-4544-8630-3dba30a076aa",
    "data": [
      {
        "text": "please tell me the time",
        "userDefined": false
      }
    ],
    "isTemplate": false,
    "count": 0,
    "updated": 0
  },
  {
    "id": "ea92d711-33e3-48c7-9510-e8b53afb04c9",
    "data": [
      {
        "text": "tell me what time is ",
        "userDefined": false
      },
      {
        "text": "it",
        "meta": "@sys.ignore",
        "userDefined": false
      }
    ],
    "isTemplate": false,
    "count": 0,
    "updated": 0
  },
  {
    "id": "596ad7e6-500b-45d2-bc3d-2f8ac1be8672",
    "data": [
      {
        "text": "ok ",
        "userDefined": false
      },
      {
        "text": "what\u0027s",
        "meta": "@sys.ignore",
        "userDefined": false
      },
      {
        "text": " the time",
        "userDefined": false
      }
    ],
    "isTemplate": false,
    "count": 0,
    "updated": 0
  },
  {
    "id": "213d2d78-5110-4123-b2fb-7258fa4c5dce",
    "data": [
      {
        "text": "what time is it",
        "userDefined": false
      }
    ],
    "isTemplate": false,
    "count": 0,
    "updated": 0
  },
  {
    "id": "6cd31f92-196d-46dd-8b6a-8e59f18cd6a7",
    "data": [
      {
        "text": "hey what time is ",
        "userDefined": false
      },
      {
        "text": "it",
        "meta": "@sys.ignore",
        "userDefined": false
      }
    ],
    "isTemplate": false,
    "count": 0,
    "updated": 0
  }
]