[
  {
    "id": "e778a2f4-e891-41f7-a401-7ac58f772729",
    "data": [
      {
        "text": "convert ",
        "userDefined": false
      },
      {
        "text": "Moscow",
        "alias": "location-from",
        "meta": "@sys.location",
        "userDefined": true
      },
      {
        "text": " time in ",
        "userDefined": false
      },
      {
        "text": "Tokyo",
        "alias": "location-to",
        "meta": "@sys.location",
        "userDefined": true
      }
    ],
    "isTemplate": false,
    "count": 0,
    "updated": 0
  },
  {
    "id": "6b80aa16-a3ec-4a97-821a-de0a631da007",
    "data": [
      {
        "text": "can",
        "meta": "@sys.ignore",
        "userDefined": false
      },
      {
        "text": " you convert time",
        "userDefined": false
      }
    ],
    "isTemplate": false,
    "count": 0,
    "updated": 0
  },
  {
    "id": "b77da182-dd44-42da-8435-c4e9ba43b6d1",
    "data": [
      {
        "text": "convert ",
        "userDefined": false
      },
      {
        "text": "London",
        "alias": "location-from",
        "meta": "@sys.location",
        "userDefined": true
      },
      {
        "text": " time",
        "userDefined": false
      }
    ],
    "isTemplate": false,
    "count": 0,
    "updated": 0
  },
  {
    "id": "abdc92dc-ba31-47b8-a914-61c412d262d1",
    "data": [
      {
        "text": "convert time",
        "userDefined": false
      }
    ],
    "isTemplate": false,
    "count": 0,
    "updated": 0
  },
  {
    "id": "6f92ef9f-748c-4d11-91ab-11972565751d",
    "data": [
      {
        "text": "when ",
        "userDefined": false
      },
      {
        "text": "it\u0027s",
        "meta": "@sys.ignore",
        "userDefined": true
      },
      {
        "text": " ",
        "userDefined": false
      },
      {
        "text": "6 am",
        "alias": "time-from",
        "meta": "@sys.time",
        "userDefined": true
      },
      {
        "text": " in ",
        "userDefined": false
      },
      {
        "text": "Moscow",
        "alias": "location-from",
        "meta": "@sys.location",
        "userDefined": true
      },
      {
        "text": " what time is ",
        "userDefined": false
      },
      {
        "text": "it",
        "meta": "@sys.ignore",
        "userDefined": true
      },
      {
        "text": " in ",
        "userDefined": false
      },
      {
        "text": "Tokyo",
        "alias": "location-to",
        "meta": "@sys.location",
        "userDefined": true
      }
    ],
    "isTemplate": false,
    "count": 0,
    "updated": 0
  },
  {
    "id": "7b9a1860-d2da-48cc-ab72-19eb81990791",
    "data": [
      {
        "text": "when ",
        "userDefined": false
      },
      {
        "text": "it\u0027s",
        "meta": "@sys.ignore",
        "userDefined": true
      },
      {
        "text": " ",
        "userDefined": false
      },
      {
        "text": "11 a.m.",
        "alias": "time-from",
        "meta": "@sys.time",
        "userDefined": true
      },
      {
        "text": " in ",
        "userDefined": false
      },
      {
        "text": "USA",
        "alias": "location-from",
        "meta": "@sys.location",
        "userDefined": true
      },
      {
        "text": " what time is ",
        "userDefined": false
      },
      {
        "text": "it",
        "meta": "@sys.ignore",
        "userDefined": true
      },
      {
        "text": " in ",
        "userDefined": false
      },
      {
        "text": "Australia",
        "alias": "location-to",
        "meta": "@sys.location",
        "userDefined": true
      }
    ],
    "isTemplate": false,
    "count": 0,
    "updated": 0
  },
  {
    "id": "2bcbca32-7a97-439f-85ed-42ee5122e826",
    "data": [
      {
        "text": "what time is in ",
        "userDefined": false
      },
      {
        "text": "France",
        "alias": "location-to",
        "meta": "@sys.location",
        "userDefined": true
      },
      {
        "text": " when ",
        "userDefined": false
      },
      {
        "text": "it",
        "meta": "@sys.ignore",
        "userDefined": true
      },
      {
        "text": " is ",
        "userDefined": false
      },
      {
        "text": "6 am",
        "alias": "time-from",
        "meta": "@sys.time",
        "userDefined": true
      },
      {
        "text": " in ",
        "userDefined": false
      },
      {
        "text": "Portugal",
        "alias": "location-from",
        "meta": "@sys.location",
        "userDefined": true
      }
    ],
    "isTemplate": false,
    "count": 0,
    "updated": 0
  },
  {
    "id": "f8fcc1eb-665b-4c2a-9ec7-bfa2bc41ec8b",
    "data": [
      {
        "text": "what time is it in ",
        "userDefined": false
      },
      {
        "text": "Miami",
        "alias": "location-to",
        "meta": "@sys.location",
        "userDefined": true
      },
      {
        "text": " when it\u0027s ",
        "userDefined": false
      },
      {
        "text": "11 am",
        "alias": "time-from",
        "meta": "@sys.time",
        "userDefined": true
      },
      {
        "text": " in ",
        "userDefined": false
      },
      {
        "text": "Tbilisi",
        "alias": "location-from",
        "meta": "@sys.location",
        "userDefined": true
      }
    ],
    "isTemplate": false,
    "count": 0,
    "updated": 0
  },
  {
    "id": "61c6f35a-0b5e-4d36-bde6-d8728c3a9420",
    "data": [
      {
        "text": "what time is in ",
        "userDefined": false
      },
      {
        "text": "London",
        "alias": "location-to",
        "meta": "@sys.location",
        "userDefined": true
      },
      {
        "text": " when ",
        "userDefined": false
      },
      {
        "text": "it",
        "meta": "@sys.ignore",
        "userDefined": true
      },
      {
        "text": " is ",
        "userDefined": false
      },
      {
        "text": "5 pm",
        "alias": "time-from",
        "meta": "@sys.time",
        "userDefined": true
      },
      {
        "text": " in ",
        "userDefined": false
      },
      {
        "text": "New York",
        "alias": "location-from",
        "meta": "@sys.location",
        "userDefined": true
      }
    ],
    "isTemplate": false,
    "count": 0,
    "updated": 0
  },
  {
    "id": "72909da0-4a9d-4e76-91cc-38938f3eed95",
    "data": [
      {
        "text": "I want to convert time",
        "userDefined": false
      }
    ],
    "isTemplate": false,
    "count": 0,
    "updated": 0
  },
  {
    "id": "fb958984-9bc1-4d8d-a39f-ed455b5d13fb",
    "data": [
      {
        "text": "time converter",
        "userDefined": false
      }
    ],
    "isTemplate": false,
    "count": 0,
    "updated": 0
  },
  {
    "id": "cf2fd52a-e4c9-42aa-a783-da1461149f79",
    "data": [
      {
        "text": "what ",
        "userDefined": false
      },
      {
        "text": "time",
        "meta": "@sys.ignore",
        "userDefined": true
      },
      {
        "text": " is ",
        "userDefined": false
      },
      {
        "text": "in",
        "meta": "@sys.ignore",
        "userDefined": true
      },
      {
        "text": " ",
        "userDefined": false
      },
      {
        "text": "Moscow",
        "alias": "location-to",
        "meta": "@sys.location",
        "userDefined": true
      },
      {
        "text": " ",
        "userDefined": false
      },
      {
        "text": "when",
        "meta": "@sys.ignore",
        "userDefined": true
      },
      {
        "text": " ",
        "userDefined": false
      },
      {
        "text": "it",
        "meta": "@sys.ignore",
        "userDefined": true
      },
      {
        "text": "\u0027s ",
        "userDefined": false
      },
      {
        "text": "5 am",
        "alias": "time-from",
        "meta": "@sys.time",
        "userDefined": true
      },
      {
        "text": " ",
        "userDefined": false
      },
      {
        "text": "in",
        "meta": "@sys.ignore",
        "userDefined": true
      },
      {
        "text": " ",
        "userDefined": false
      },
      {
        "text": "Palo Alto",
        "alias": "location-from",
        "meta": "@sys.location",
        "userDefined": true
      }
    ],
    "isTemplate": false,
    "count": 0,
    "updated": 0
  },
  {
    "id": "cd2ee052-1109-40c2-af40-16f73a953a77",
    "data": [
      {
        "text": "what time is it in ",
        "userDefined": false
      },
      {
        "text": "LA",
        "alias": "location-to",
        "meta": "@sys.location",
        "userDefined": true
      },
      {
        "text": " when it\u0027s ",
        "userDefined": false
      },
      {
        "text": "midday",
        "alias": "time-from",
        "meta": "@sys.time",
        "userDefined": true
      },
      {
        "text": " in ",
        "userDefined": false
      },
      {
        "text": "Moscow",
        "alias": "location-from",
        "meta": "@sys.location",
        "userDefined": true
      }
    ],
    "isTemplate": false,
    "count": 0,
    "updated": 0
  }
]