{
  "id": "4bbb4907-979a-47fa-8a86-3efc0939c7f0",
  "name": "traffic.get",
  "auto": true,
  "contexts": [],
  "responses": [
    {
      "resetContexts": false,
      "action": "traffic.get",
      "affectedContexts": [
        {
          "name": "traffic",
          "parameters": {},
          "lifespan": 3
        }
      ],
      "parameters": [
        {
          "id": "03c43436-7d1f-4bda-bfbf-a8bdcd973bda",
          "required": false,
          "dataType": "@traffic-event",
          "name": "event",
          "value": "$event",
          "promptMessages": [],
          "noMatchPromptMessages": [],
          "noInputPromptMessages": [],
          "outputDialogContexts": [],
          "isList": false
        },
        {
          "id": "68c4b018-8e1a-42a5-8e98-76505ff91a1b",
          "required": false,
          "dataType": "@sys.location",
          "name": "address",
          "value": "$address",
          "promptMessages": [],
          "noMatchPromptMessages": [],
          "noInputPromptMessages": [],
          "outputDialogContexts": [],
          "isList": false
        }
      ],
      "messages": [
        {
          "type": 0,
          "lang": "en",
          "condition": "",
          "speech": []
        }
      ],
      "defaultResponsePlatforms": {},
      "speech": []
    }
  ],
  "priority": 500000,
  "webhookUsed": false,
  "webhookForSlotFilling": false,
  "fallbackIntent": false,
  "events": [],
  "conditionalResponses": [],
  "condition": "",
  "conditionalFollowupEvents": []
}