{
  "id": "f6bdc67c-9bc8-4b98-a43c-8f18796b4a5a",
  "name": "traffic.get - context:traffic - comment:address",
  "auto": true,
  "contexts": [
    "traffic"
  ],
  "responses": [
    {
      "resetContexts": false,
      "action": "#traffic.intent_action",
      "affectedContexts": [],
      "parameters": [
        {
          "id": "080af1c0-b824-43f3-9081-6ca83eed3c56",
          "required": false,
          "dataType": "@sys.location",
          "name": "address",
          "value": "$address",
          "promptMessages": [],
          "noMatchPromptMessages": [],
          "noInputPromptMessages": [],
          "outputDialogContexts": [],
          "isList": false
        }
      ],
      "messages": [
        {
          "type": 0,
          "lang": "en",
          "condition": "",
          "speech": []
        }
      ],
      "defaultResponsePlatforms": {},
      "speech": []
    }
  ],
  "priority": 500000,
  "webhookUsed": false,
  "webhookForSlotFilling": false,
  "fallbackIntent": false,
  "events": [],
  "conditionalResponses": [],
  "condition": "",
  "conditionalFollowupEvents": []
}