[
  {
    "id": "246bf976-e316-4784-a1fa-4e5c51825074",
    "data": [
      {
        "text": "also ",
        "userDefined": false
      },
      {
        "text": "speed cameras",
        "alias": "event",
        "meta": "@traffic-event",
        "userDefined": false
      }
    ],
    "isTemplate": false,
    "count": 0,
    "updated": 0
  },
  {
    "id": "18996ae7-896a-4326-8f49-5717c323a4b4",
    "data": [
      {
        "text": "and any ",
        "userDefined": false
      },
      {
        "text": "accidents",
        "alias": "event",
        "meta": "@traffic-event",
        "userDefined": true
      }
    ],
    "isTemplate": false,
    "count": 0,
    "updated": 0
  },
  {
    "id": "c15e0cfa-428f-481d-9397-bd00ea04c1eb",
    "data": [
      {
        "text": "check ",
        "userDefined": false
      },
      {
        "text": "speed cameras",
        "alias": "event",
        "meta": "@traffic-event",
        "userDefined": true
      }
    ],
    "isTemplate": false,
    "count": 0,
    "updated": 0
  },
  {
    "id": "1ddb7e9c-2e04-4348-a6f6-2f838098c2b9",
    "data": [
      {
        "text": "road works",
        "alias": "event",
        "meta": "@traffic-event",
        "userDefined": true
      },
      {
        "text": " as well",
        "userDefined": false
      }
    ],
    "isTemplate": false,
    "count": 0,
    "updated": 0
  },
  {
    "id": "063423d6-83af-46b0-b507-fd6f9a9c02ab",
    "data": [
      {
        "text": "how ",
        "userDefined": false
      },
      {
        "text": "about",
        "meta": "@sys.ignore",
        "userDefined": false
      },
      {
        "text": " ",
        "userDefined": false
      },
      {
        "text": "traffic jams",
        "alias": "event",
        "meta": "@traffic-event",
        "userDefined": true
      }
    ],
    "isTemplate": false,
    "count": 0,
    "updated": 0
  },
  {
    "id": "83e5062c-9393-4e2e-9036-4a47cbaa23bc",
    "data": [
      {
        "text": "road accidents",
        "alias": "event",
        "meta": "@traffic-event",
        "userDefined": true
      },
      {
        "text": " too",
        "userDefined": false
      }
    ],
    "isTemplate": false,
    "count": 0,
    "updated": 0
  },
  {
    "id": "5390ac06-7032-4af4-938a-db55484af562",
    "data": [
      {
        "text": "what about ",
        "userDefined": false
      },
      {
        "text": "road works",
        "alias": "event",
        "meta": "@traffic-event",
        "userDefined": true
      }
    ],
    "isTemplate": false,
    "count": 0,
    "updated": 0
  },
  {
    "id": "4bb5acf8-772d-461d-b2a8-26d618832399",
    "data": [
      {
        "text": "speed cameras",
        "alias": "event",
        "meta": "@traffic-event",
        "userDefined": true
      },
      {
        "text": " also",
        "userDefined": false
      }
    ],
    "isTemplate": false,
    "count": 1,
    "updated": 0
  }
]