[
  {
    "id": "491ae530-2437-4f81-b818-2c0f5b604a52",
    "data": [
      {
        "text": "agora ",
        "userDefined": false
      },
      {
        "text": "como vai",
        "alias": "text",
        "meta": "@sys.any",
        "userDefined": true
      }
    ],
    "isTemplate": false,
    "count": 0,
    "updated": 0
  },
  {
    "id": "edc37202-c475-44b7-ab22-c5e70f8abe40",
    "data": [
      {
        "text": "je t\u0027aime",
        "alias": "text",
        "meta": "@sys.any",
        "userDefined": true
      }
    ],
    "isTemplate": false,
    "count": 0,
    "updated": 0
  },
  {
    "id": "3461993e-62bc-40d3-8e7b-91e865790076",
    "data": [
      {
        "text": "agora ",
        "userDefined": false
      },
      {
        "text": "café da manhã",
        "alias": "text",
        "meta": "@sys.any",
        "userDefined": true
      }
    ],
    "isTemplate": false,
    "count": 0,
    "updated": 0
  },
  {
    "id": "eda335a7-3c62-4dd9-8525-954640dc00e1",
    "data": [
      {
        "text": "olá",
        "alias": "text",
        "meta": "@sys.any",
        "userDefined": true
      }
    ],
    "isTemplate": false,
    "count": 0,
    "updated": 0
  },
  {
    "id": "f0291224-be4f-4e46-a231-a5d0d16c6825",
    "data": [
      {
        "text": "e ",
        "userDefined": false
      },
      {
        "text": "bonjour",
        "alias": "text",
        "meta": "@sys.any",
        "userDefined": true
      }
    ],
    "isTemplate": false,
    "count": 0,
    "updated": 0
  },
  {
    "id": "a21bf1bb-20f0-4a07-ab18-482c60a2e58b",
    "data": [
      {
        "text": "e ",
        "userDefined": false
      },
      {
        "text": "eu te amo",
        "alias": "text",
        "meta": "@sys.any",
        "userDefined": true
      }
    ],
    "isTemplate": false,
    "count": 0,
    "updated": 0
  },
  {
    "id": "2abaa1f8-bbd3-482e-9643-a570d1eb0c2d",
    "data": [
      {
        "text": "agora traduzir ",
        "userDefined": false
      },
      {
        "text": "como você está",
        "alias": "text",
        "meta": "@sys.any",
        "userDefined": true
      }
    ],
    "isTemplate": false,
    "count": 0,
    "updated": 0
  },
  {
    "id": "d1d9cb60-25bb-487f-aebd-f7a46b8869a1",
    "data": [
      {
        "text": "agora traduzir ",
        "userDefined": false
      },
      {
        "text": "como anda a vida",
        "alias": "text",
        "meta": "@sys.any",
        "userDefined": true
      }
    ],
    "isTemplate": false,
    "count": 0,
    "updated": 0
  },
  {
    "id": "9cd0d11d-1afe-4936-bf38-1ebf3ab82a39",
    "data": [
      {
        "text": "eu te amo",
        "alias": "text",
        "meta": "@sys.any",
        "userDefined": true
      }
    ],
    "isTemplate": false,
    "count": 0,
    "updated": 0
  },
  {
    "id": "3587a948-6d86-47aa-9e7c-b7d13785bba3",
    "data": [
      {
        "text": "como se diz ",
        "userDefined": false
      },
      {
        "text": "me liga amanhã",
        "alias": "text",
        "meta": "@sys.any",
        "userDefined": true
      }
    ],
    "isTemplate": false,
    "count": 0,
    "updated": 0
  }
]