[
  {
    "id": "441927c2-b40c-46d3-9342-bc35c016c4aa",
    "data": [
      {
        "text": "et le ",
        "userDefined": false
      },
      {
        "text": "chat",
        "alias": "text",
        "meta": "@sys.any",
        "userDefined": true
      },
      {
        "text": " en ",
        "userDefined": false
      },
      {
        "text": "anglais",
        "alias": "lang-to",
        "meta": "@sys.language",
        "userDefined": false
      }
    ],
    "isTemplate": false,
    "count": 0,
    "updated": 0
  },
  {
    "id": "6f5f7d47-d443-4934-af3a-4b449876d0da",
    "data": [
      {
        "text": "dis ça en ",
        "userDefined": false
      },
      {
        "text": "anglais",
        "alias": "lang-to",
        "meta": "@sys.language",
        "userDefined": false
      }
    ],
    "isTemplate": false,
    "count": 0,
    "updated": 0
  },
  {
    "id": "aefd1166-d60a-4545-9ff1-826ef4ade3f6",
    "data": [
      {
        "text": "la même chose en ",
        "userDefined": false
      },
      {
        "text": "chinois",
        "alias": "lang-to",
        "meta": "@sys.language",
        "userDefined": false
      }
    ],
    "isTemplate": false,
    "count": 0,
    "updated": 0
  },
  {
    "id": "106fe4e0-b77f-47ed-ae55-26d4d7e380dd",
    "data": [
      {
        "text": "le mot ",
        "userDefined": false
      },
      {
        "text": "maintenant",
        "alias": "text",
        "meta": "@sys.any",
        "userDefined": true
      },
      {
        "text": " en ",
        "userDefined": false
      },
      {
        "text": "polonais",
        "alias": "lang-to",
        "meta": "@sys.language",
        "userDefined": false
      }
    ],
    "isTemplate": false,
    "count": 0,
    "updated": 0
  },
  {
    "id": "543636d2-ff51-4dd6-95b7-cd8c4079925c",
    "data": [
      {
        "text": "peux-tu le dire en ",
        "userDefined": false
      },
      {
        "text": "italien",
        "alias": "lang-to",
        "meta": "@sys.language",
        "userDefined": false
      },
      {
        "text": " maintenant",
        "userDefined": false
      }
    ],
    "isTemplate": false,
    "count": 0,
    "updated": 0
  },
  {
    "id": "f4fc176b-527a-48de-ab86-43cd8466b7d7",
    "data": [
      {
        "text": "maintenant en ",
        "userDefined": false
      },
      {
        "text": "anglais",
        "alias": "lang-to",
        "meta": "@sys.language",
        "userDefined": false
      }
    ],
    "isTemplate": false,
    "count": 0,
    "updated": 0
  },
  {
    "id": "603d438f-9420-4556-beec-314be8efe5c6",
    "data": [
      {
        "text": "en ",
        "userDefined": false
      },
      {
        "text": "russe",
        "alias": "lang-to",
        "meta": "@sys.language",
        "userDefined": false
      },
      {
        "text": " aussi",
        "userDefined": false
      }
    ],
    "isTemplate": false,
    "count": 0,
    "updated": 0
  },
  {
    "id": "d12ffdab-9031-4c73-a86f-d85a1a8dd7ca",
    "data": [
      {
        "text": "et en ",
        "userDefined": false
      },
      {
        "text": "italien",
        "alias": "lang-to",
        "meta": "@sys.language",
        "userDefined": false
      }
    ],
    "isTemplate": false,
    "count": 0,
    "updated": 0
  },
  {
    "id": "82b145cf-a0c1-4fe2-996e-f29bd112cc96",
    "data": [
      {
        "text": "et en ",
        "userDefined": false
      },
      {
        "text": "japonais",
        "alias": "lang-to",
        "meta": "@sys.language",
        "userDefined": false
      },
      {
        "text": " maintenant",
        "userDefined": false
      }
    ],
    "isTemplate": false,
    "count": 0,
    "updated": 0
  },
  {
    "id": "fc804a31-0d1f-4f15-8989-a7dc1864ab40",
    "data": [
      {
        "text": "chat",
        "alias": "text",
        "meta": "@sys.any",
        "userDefined": true
      },
      {
        "text": " en ",
        "userDefined": false
      },
      {
        "text": "italien",
        "alias": "lang-to",
        "meta": "@sys.language",
        "userDefined": false
      }
    ],
    "isTemplate": false,
    "count": 0,
    "updated": 0
  },
  {
    "id": "0f6e5f1b-83d2-4dd8-b3d7-e046ab9bd29c",
    "data": [
      {
        "text": "en ",
        "userDefined": false
      },
      {
        "text": "espagnol",
        "alias": "lang-to",
        "meta": "@sys.language",
        "userDefined": false
      }
    ],
    "isTemplate": false,
    "count": 0,
    "updated": 0
  }
]