{
  "id": "f3756419-3593-46b9-a29a-37f4758e4e7c",
  "name": "tv_listings.search - context:tv-search - comment:channel",
  "auto": true,
  "contexts": [
    "tv-search"
  ],
  "responses": [
    {
      "resetContexts": false,
      "action": "tv_listings.search",
      "affectedContexts": [],
      "parameters": [
        {
          "id": "cf2a121c-f69b-41c9-82e3-1add3f954c4e",
          "required": false,
          "dataType": "@tv-channel",
          "name": "channel",
          "value": "$channel",
          "promptMessages": [],
          "noMatchPromptMessages": [],
          "noInputPromptMessages": [],
          "outputDialogContexts": [],
          "isList": false
        }
      ],
      "messages": [
        {
          "type": 0,
          "lang": "en",
          "condition": "",
          "speech": []
        }
      ],
      "defaultResponsePlatforms": {},
      "speech": []
    }
  ],
  "priority": 500000,
  "webhookUsed": false,
  "webhookForSlotFilling": false,
  "fallbackIntent": false,
  "events": [],
  "conditionalResponses": [],
  "condition": "",
  "conditionalFollowupEvents": []
}