{
  "id": "edf6c348-a6d7-44f1-9ad3-c5bf4f0c8f16",
  "name": "units.convert - context:units",
  "auto": true,
  "contexts": [
    "convert-units"
  ],
  "responses": [
    {
      "resetContexts": false,
      "action": "units.convert",
      "affectedContexts": [],
      "parameters": [
        {
          "id": "2d89aff5-876b-472b-8003-f52903cd25d1",
          "required": false,
          "dataType": "@sys.number",
          "name": "amount",
          "value": "$amount",
          "promptMessages": [],
          "noMatchPromptMessages": [],
          "noInputPromptMessages": [],
          "outputDialogContexts": [],
          "isList": false
        },
        {
          "id": "e2457717-8d8e-4368-b97d-c2eb1f13b21c",
          "required": false,
          "dataType": "@unit",
          "name": "unit-from",
          "value": "$unit-from",
          "promptMessages": [],
          "noMatchPromptMessages": [],
          "noInputPromptMessages": [],
          "outputDialogContexts": [],
          "isList": false
        },
        {
          "id": "0fca8d56-f300-46e8-bd80-1b59855f853c",
          "required": false,
          "dataType": "@unit",
          "name": "unit-to",
          "value": "$unit-to",
          "promptMessages": [],
          "noMatchPromptMessages": [],
          "noInputPromptMessages": [],
          "outputDialogContexts": [],
          "isList": false
        }
      ],
      "messages": [
        {
          "type": 0,
          "lang": "en",
          "condition": "",
          "speech": []
        }
      ],
      "defaultResponsePlatforms": {},
      "speech": []
    }
  ],
  "priority": 500000,
  "webhookUsed": false,
  "webhookForSlotFilling": false,
  "fallbackIntent": false,
  "events": [],
  "conditionalResponses": [],
  "condition": "",
  "conditionalFollowupEvents": []
}