{
  "id": "bb0482d6-2b18-439c-96e5-44cfead859a5",
  "parentId": "2071853b-850c-4ed9-867f-ca0a98496dee",
  "rootParentId": "2071853b-850c-4ed9-867f-ca0a98496dee",
  "name": "venues.nightlife.search - new venue",
  "auto": true,
  "contexts": [
    "venuesnightlifesearch-followup"
  ],
  "responses": [
    {
      "resetContexts": false,
      "action": "venues.nightlife.search",
      "affectedContexts": [
        {
          "name": "venues-nightlife",
          "parameters": {},
          "lifespan": 3
        },
        {
          "name": "venues",
          "parameters": {},
          "lifespan": 3
        }
      ],
      "parameters": [
        {
          "id": "0c046232-f6b9-49dd-8c92-94beba0654f2",
          "required": false,
          "dataType": "@venue-nightlife-type",
          "name": "venue-type",
          "value": "$venue-type",
          "promptMessages": [],
          "noMatchPromptMessages": [],
          "noInputPromptMessages": [],
          "outputDialogContexts": [],
          "isList": false
        },
        {
          "id": "f7a3d527-29c0-4f15-935d-75b31e3ba719",
          "required": false,
          "dataType": "",
          "name": "beverage",
          "value": "#venuesnightlifesearch-followup.beverage",
          "promptMessages": [],
          "noMatchPromptMessages": [],
          "noInputPromptMessages": [],
          "outputDialogContexts": [],
          "isList": true
        },
        {
          "id": "799d2a3e-d432-49ab-b2ff-29a08dd86d81",
          "required": false,
          "dataType": "",
          "name": "location",
          "value": "#venuesnightlifesearch-followup.location",
          "promptMessages": [],
          "noMatchPromptMessages": [],
          "noInputPromptMessages": [],
          "outputDialogContexts": [],
          "isList": false
        },
        {
          "id": "3e07c885-4690-4e3a-b4f9-ed6f610ff02d",
          "required": false,
          "dataType": "",
          "name": "sort",
          "value": "#venuesnightlifesearch-followup.sort",
          "promptMessages": [],
          "noMatchPromptMessages": [],
          "noInputPromptMessages": [],
          "outputDialogContexts": [],
          "isList": true
        },
        {
          "id": "8fd568fa-501b-4552-9139-0841878f3f81",
          "required": false,
          "dataType": "",
          "name": "open",
          "value": "#venuesnightlifesearch-followup.open",
          "promptMessages": [],
          "noMatchPromptMessages": [],
          "noInputPromptMessages": [],
          "outputDialogContexts": [],
          "isList": false
        },
        {
          "id": "35f68c2c-6326-41b8-be56-f4bb0af3460b",
          "required": false,
          "dataType": "",
          "name": "rating",
          "value": "#venuesnightlifesearch-followup.rating",
          "promptMessages": [],
          "noMatchPromptMessages": [],
          "noInputPromptMessages": [],
          "outputDialogContexts": [],
          "isList": false
        }
      ],
      "messages": [
        {
          "type": 0,
          "lang": "en",
          "condition": "",
          "speech": []
        }
      ],
      "defaultResponsePlatforms": {},
      "speech": []
    }
  ],
  "priority": 500000,
  "webhookUsed": false,
  "webhookForSlotFilling": false,
  "fallbackIntent": false,
  "events": [],
  "conditionalResponses": [],
  "condition": "",
  "conditionalFollowupEvents": []
}