{
  "id": "6570824c-0af9-42bb-8eb5-54719b25a62f",
  "parentId": "4d24cbf6-a41b-4928-999e-0eef4e93f981",
  "rootParentId": "4d24cbf6-a41b-4928-999e-0eef4e93f981",
  "name": "venues.medical.search - new venue",
  "auto": true,
  "contexts": [
    "venuesmedicalsearch-followup"
  ],
  "responses": [
    {
      "resetContexts": false,
      "action": "venues.medical.search",
      "affectedContexts": [],
      "parameters": [
        {
          "id": "d368b47d-f2a0-4f29-8d88-595816bc01e8",
          "required": false,
          "dataType": "@venue-medical-type",
          "name": "venue-type",
          "value": "$venue-type",
          "promptMessages": [],
          "noMatchPromptMessages": [],
          "noInputPromptMessages": [],
          "outputDialogContexts": [],
          "isList": false
        },
        {
          "id": "ecc45ad4-7595-4df4-9483-f62639abcb16",
          "required": false,
          "dataType": "",
          "name": "venue-chain",
          "value": "#venuesmedicalsearch-followup.venue-chain",
          "promptMessages": [],
          "noMatchPromptMessages": [],
          "noInputPromptMessages": [],
          "outputDialogContexts": [],
          "isList": false
        },
        {
          "id": "27a193e1-b240-45cb-ab84-887533310fb7",
          "required": false,
          "dataType": "",
          "name": "venue-title",
          "value": "#venuesmedicalsearch-followup.venue-title",
          "promptMessages": [],
          "noMatchPromptMessages": [],
          "noInputPromptMessages": [],
          "outputDialogContexts": [],
          "isList": false
        },
        {
          "id": "7756a643-c11a-47ab-b961-1604de9e640b",
          "required": false,
          "dataType": "",
          "name": "venue-facility",
          "value": "#venuesmedicalsearch-followup.venue-facility",
          "promptMessages": [],
          "noMatchPromptMessages": [],
          "noInputPromptMessages": [],
          "outputDialogContexts": [],
          "isList": true
        },
        {
          "id": "0e0a4508-958b-4f3f-ad92-4897f8427d2e",
          "required": false,
          "dataType": "",
          "name": "sort",
          "value": "#venuesmedicalsearch-followup.sort",
          "promptMessages": [],
          "noMatchPromptMessages": [],
          "noInputPromptMessages": [],
          "outputDialogContexts": [],
          "isList": true
        },
        {
          "id": "f247ea74-6cb1-4e90-8596-32c0f3f5ace9",
          "required": false,
          "dataType": "",
          "name": "location",
          "value": "#venuesmedicalsearch-followup.location",
          "promptMessages": [],
          "noMatchPromptMessages": [],
          "noInputPromptMessages": [],
          "outputDialogContexts": [],
          "isList": false
        },
        {
          "id": "3967cfa4-6e05-4fe4-842f-69df4a6ec3b6",
          "required": false,
          "dataType": "",
          "name": "open",
          "value": "#venuesmedicalsearch-followup.open",
          "promptMessages": [],
          "noMatchPromptMessages": [],
          "noInputPromptMessages": [],
          "outputDialogContexts": [],
          "isList": false
        }
      ],
      "messages": [
        {
          "type": 0,
          "lang": "en",
          "condition": "",
          "speech": []
        }
      ],
      "defaultResponsePlatforms": {},
      "speech": []
    }
  ],
  "priority": 500000,
  "webhookUsed": false,
  "webhookForSlotFilling": false,
  "fallbackIntent": false,
  "events": [],
  "conditionalResponses": [],
  "condition": "",
  "conditionalFollowupEvents": []
}