[
  {
    "id": "a47c4bf4-0aea-4704-a156-3f11f5df6f22",
    "data": [
      {
        "text": "find ",
        "userDefined": false
      },
      {
        "text": "cheap",
        "alias": "sort",
        "meta": "@map-sort",
        "userDefined": true
      },
      {
        "text": " ",
        "userDefined": false
      },
      {
        "text": "pubs",
        "alias": "venue-type",
        "meta": "@venue-nightlife-type",
        "userDefined": true
      },
      {
        "text": " in ",
        "userDefined": false
      },
      {
        "text": "London",
        "alias": "location",
        "meta": "@sys.location",
        "userDefined": true
      }
    ],
    "isTemplate": false,
    "count": 0,
    "updated": 0
  },
  {
    "id": "8080d1f2-d8c4-4011-88e2-5ddfa2d8e6be",
    "data": [
      {
        "text": "find ",
        "userDefined": false
      },
      {
        "text": "Ministry of Sound",
        "alias": "venue-chain",
        "meta": "@venue-nightlife-chain",
        "userDefined": true
      },
      {
        "text": " ",
        "userDefined": false
      },
      {
        "text": "bar",
        "alias": "venue-type",
        "meta": "@venue-nightlife-type",
        "userDefined": true
      }
    ],
    "isTemplate": false,
    "count": 0,
    "updated": 0
  },
  {
    "id": "91749d26-371f-4cba-bfed-4475f9bcb654",
    "data": [
      {
        "text": "I wanna ",
        "userDefined": false
      },
      {
        "text": "drink",
        "alias": "venue-type",
        "meta": "@venue-nightlife-type",
        "userDefined": true
      },
      {
        "text": " a little ",
        "userDefined": false
      },
      {
        "text": "whiskey",
        "alias": "beverage",
        "meta": "@beverage-hard-drinks",
        "userDefined": true
      }
    ],
    "isTemplate": false,
    "count": 0,
    "updated": 0
  },
  {
    "id": "c7a8acbf-447d-452a-b44a-5c107450ad1b",
    "data": [
      {
        "text": "are there any ",
        "userDefined": false
      },
      {
        "text": "good",
        "alias": "sort",
        "meta": "@map-sort",
        "userDefined": true
      },
      {
        "text": " ",
        "userDefined": false
      },
      {
        "text": "pubs",
        "alias": "venue-type",
        "meta": "@venue-nightlife-type",
        "userDefined": true
      },
      {
        "text": " ",
        "userDefined": false
      },
      {
        "text": "close by",
        "alias": "sort",
        "meta": "@map-sort",
        "userDefined": true
      }
    ],
    "isTemplate": false,
    "count": 0,
    "updated": 0
  },
  {
    "id": "8c5654b5-d73e-4652-ab52-412337a76247",
    "data": [
      {
        "text": "find ",
        "userDefined": false
      },
      {
        "text": "LIV",
        "alias": "venue-title",
        "meta": "@venue-nightlife-title",
        "userDefined": true
      },
      {
        "text": " ",
        "userDefined": false
      },
      {
        "text": "bar",
        "alias": "venue-type",
        "meta": "@venue-nightlife-type",
        "userDefined": true
      }
    ],
    "isTemplate": false,
    "count": 0,
    "updated": 0
  },
  {
    "id": "00b69fe2-f336-427f-89fb-879430fc409f",
    "data": [
      {
        "text": "I would like to have ",
        "userDefined": false
      },
      {
        "text": "vodka",
        "alias": "beverage",
        "meta": "@beverage-hard-drinks",
        "userDefined": true
      }
    ],
    "isTemplate": false,
    "count": 0,
    "updated": 0
  },
  {
    "id": "c564b34d-eea8-4a2c-b542-6a5c53d9194a",
    "data": [
      {
        "text": "I want to have a ",
        "userDefined": false
      },
      {
        "text": "drink",
        "alias": "venue-type",
        "meta": "@venue-nightlife-type",
        "userDefined": true
      }
    ],
    "isTemplate": false,
    "count": 0,
    "updated": 0
  },
  {
    "id": "c4f0890a-6b6e-4b43-9d03-5a6a5ab2003d",
    "data": [
      {
        "text": "is there any ",
        "userDefined": false
      },
      {
        "text": "bar",
        "alias": "venue-type",
        "meta": "@venue-nightlife-type",
        "userDefined": true
      },
      {
        "text": " ",
        "userDefined": false
      },
      {
        "text": "in the area",
        "alias": "sort",
        "meta": "@map-sort",
        "userDefined": true
      }
    ],
    "isTemplate": false,
    "count": 0,
    "updated": 0
  },
  {
    "id": "e45ed934-2249-43df-b062-2236d63c8630",
    "data": [
      {
        "text": "is there any ",
        "userDefined": false
      },
      {
        "text": "bar",
        "alias": "venue-type",
        "meta": "@venue-nightlife-type",
        "userDefined": true
      },
      {
        "text": " ",
        "userDefined": false
      },
      {
        "text": "nearby",
        "alias": "sort",
        "meta": "@map-sort",
        "userDefined": true
      }
    ],
    "isTemplate": false,
    "count": 0,
    "updated": 0
  },
  {
    "id": "18ab552b-4fe1-49d1-a516-d8203f7a8328",
    "data": [
      {
        "text": "I want to ",
        "userDefined": false
      },
      {
        "text": "get",
        "meta": "@sys.ignore",
        "userDefined": true
      },
      {
        "text": " drunk",
        "userDefined": false
      }
    ],
    "isTemplate": false,
    "count": 1,
    "updated": 0
  },
  {
    "id": "e8188745-e3f0-4e26-b8b6-5cdfb9e327eb",
    "data": [
      {
        "text": "I want to party hard",
        "userDefined": false
      }
    ],
    "isTemplate": false,
    "count": 0,
    "updated": 0
  },
  {
    "id": "037813b1-0c46-4c2b-a044-eea391cd495e",
    "data": [
      {
        "text": "nightclub",
        "alias": "venue-type",
        "meta": "@venue-nightlife-type",
        "userDefined": true
      },
      {
        "text": " ",
        "userDefined": false
      },
      {
        "text": "nearby",
        "alias": "sort",
        "meta": "@map-sort",
        "userDefined": false
      }
    ],
    "isTemplate": false,
    "count": 0,
    "updated": 0
  },
  {
    "id": "b7268c55-1ee8-4202-9086-101b3150b1bd",
    "data": [
      {
        "text": "near",
        "alias": "sort",
        "meta": "@map-sort",
        "userDefined": false
      },
      {
        "text": " ",
        "userDefined": false
      },
      {
        "text": "bar",
        "alias": "venue-type",
        "meta": "@venue-nightlife-type",
        "userDefined": false
      }
    ],
    "isTemplate": false,
    "count": 0,
    "updated": 0
  },
  {
    "id": "ad4aab9e-a093-45f1-a6ea-a1dfc2418119",
    "data": [
      {
        "text": "where can I get ",
        "userDefined": false
      },
      {
        "text": "ale",
        "alias": "beverage",
        "meta": "@beverage-hard-drinks",
        "userDefined": true
      },
      {
        "text": " ",
        "userDefined": false
      },
      {
        "text": "here",
        "alias": "sort",
        "meta": "@map-sort",
        "userDefined": true
      }
    ],
    "isTemplate": false,
    "count": 0,
    "updated": 0
  },
  {
    "id": "24ccfc6a-3350-4bf4-9506-1866e0ff681c",
    "data": [
      {
        "text": "find ",
        "userDefined": false
      },
      {
        "text": "Employees Only",
        "alias": "venue-title",
        "meta": "@venue-nightlife-title",
        "userDefined": true
      },
      {
        "text": " ",
        "userDefined": false
      },
      {
        "text": "bar",
        "alias": "venue-type",
        "meta": "@venue-nightlife-type",
        "userDefined": false
      },
      {
        "text": " in ",
        "userDefined": false
      },
      {
        "text": "NYC",
        "alias": "location",
        "meta": "@sys.location",
        "userDefined": false
      }
    ],
    "isTemplate": false,
    "count": 0,
    "updated": 0
  },
  {
    "id": "1c990ad9-7489-4fa4-a3a1-9c8415f92cd9",
    "data": [
      {
        "text": "search for ",
        "userDefined": false
      },
      {
        "text": "open",
        "alias": "open",
        "meta": "@open",
        "userDefined": true
      },
      {
        "text": " ",
        "userDefined": false
      },
      {
        "text": "bars",
        "alias": "venue-type",
        "meta": "@venue-nightlife-type",
        "userDefined": true
      }
    ],
    "isTemplate": false,
    "count": 0,
    "updated": 0
  },
  {
    "id": "1ed097f9-182d-4353-ab2a-dedea8a1caf7",
    "data": [
      {
        "text": "show me ",
        "userDefined": false
      },
      {
        "text": "Tricolore Bar",
        "alias": "venue-title",
        "meta": "@venue-nightlife-title",
        "userDefined": true
      }
    ],
    "isTemplate": false,
    "count": 0,
    "updated": 0
  },
  {
    "id": "563e2bfe-c58e-4a75-a41f-57c7ce09b78d",
    "data": [
      {
        "text": "Playboy Club",
        "alias": "venue-chain",
        "meta": "@venue-nightlife-chain",
        "userDefined": true
      }
    ],
    "isTemplate": false,
    "count": 0,
    "updated": 0
  },
  {
    "id": "2412b606-0fb0-45f7-8909-c838fb2f01cf",
    "data": [
      {
        "text": "list area ",
        "userDefined": false
      },
      {
        "text": "nightclubs",
        "alias": "venue-type",
        "meta": "@venue-nightlife-type",
        "userDefined": false
      }
    ],
    "isTemplate": false,
    "count": 0,
    "updated": 0
  },
  {
    "id": "5b24533c-a25b-41dd-9db7-1a4d292e72ee",
    "data": [
      {
        "text": "local",
        "alias": "sort",
        "meta": "@map-sort",
        "userDefined": false
      },
      {
        "text": " ",
        "userDefined": false
      },
      {
        "text": "nightclubs",
        "alias": "venue-type",
        "meta": "@venue-nightlife-type",
        "userDefined": true
      }
    ],
    "isTemplate": false,
    "count": 0,
    "updated": 0
  },
  {
    "id": "81dc2727-f49f-45c7-8ff9-2db4024f9dee",
    "data": [
      {
        "text": "show ",
        "userDefined": false
      },
      {
        "text": "expensive",
        "alias": "sort",
        "meta": "@map-sort",
        "userDefined": true
      },
      {
        "text": " ",
        "userDefined": false
      },
      {
        "text": "wine bars",
        "alias": "venue-type",
        "meta": "@venue-nightlife-type",
        "userDefined": true
      },
      {
        "text": " in ",
        "userDefined": false
      },
      {
        "text": "Venice",
        "alias": "location",
        "meta": "@sys.location",
        "userDefined": true
      }
    ],
    "isTemplate": false,
    "count": 0,
    "updated": 0
  },
  {
    "id": "fa1a92c1-56f4-4707-a797-80cb01b8faa8",
    "data": [
      {
        "text": "cheap",
        "alias": "sort",
        "meta": "@map-sort",
        "userDefined": true
      },
      {
        "text": " ",
        "userDefined": false
      },
      {
        "text": "pub",
        "alias": "venue-type",
        "meta": "@venue-nightlife-type",
        "userDefined": true
      },
      {
        "text": " in ",
        "userDefined": false
      },
      {
        "text": "London",
        "alias": "location",
        "meta": "@sys.location",
        "userDefined": true
      }
    ],
    "isTemplate": false,
    "count": 0,
    "updated": 0
  },
  {
    "id": "691f4053-a537-4b45-bb07-415c83ecc6de",
    "data": [
      {
        "text": " I need ",
        "userDefined": false
      },
      {
        "text": "bar",
        "alias": "venue-type",
        "meta": "@venue-nightlife-type",
        "userDefined": true
      },
      {
        "text": " with ",
        "userDefined": false
      },
      {
        "text": "5",
        "alias": "stars",
        "meta": "@sys.number",
        "userDefined": true
      },
      {
        "text": " stars",
        "userDefined": false
      }
    ],
    "isTemplate": false,
    "count": 0,
    "updated": 0
  },
  {
    "id": "9de6977a-53a1-4f07-a63c-5ab34869cf3a",
    "data": [
      {
        "text": "I would like some ",
        "userDefined": false
      },
      {
        "text": "beer",
        "alias": "beverage",
        "meta": "@beverage-hard-drinks",
        "userDefined": false
      }
    ],
    "isTemplate": false,
    "count": 0,
    "updated": 0
  },
  {
    "id": "bea7f023-b8e6-4751-ae34-7c89460ab12b",
    "data": [
      {
        "text": "bars",
        "alias": "venue-type",
        "meta": "@venue-nightlife-type",
        "userDefined": true
      },
      {
        "text": " that are ",
        "userDefined": false
      },
      {
        "text": "opened now",
        "alias": "open",
        "meta": "@open",
        "userDefined": true
      }
    ],
    "isTemplate": false,
    "count": 0,
    "updated": 0
  },
  {
    "id": "35159fea-6751-4c08-b7a7-38029c5a0ae5",
    "data": [
      {
        "text": "what is the ",
        "userDefined": false
      },
      {
        "text": "best",
        "alias": "sort",
        "meta": "@map-sort",
        "userDefined": true
      },
      {
        "text": " ",
        "userDefined": false
      },
      {
        "text": "bar",
        "alias": "venue-type",
        "meta": "@venue-nightlife-type",
        "userDefined": true
      },
      {
        "text": " in ",
        "userDefined": false
      },
      {
        "text": "Italy",
        "alias": "location",
        "meta": "@sys.location",
        "userDefined": true
      }
    ],
    "isTemplate": false,
    "count": 0,
    "updated": 0
  },
  {
    "id": "c1af6eb9-831c-4df1-b208-753df2e3dccc",
    "data": [
      {
        "text": "find ",
        "userDefined": false
      },
      {
        "text": "good",
        "alias": "sort",
        "meta": "@map-sort",
        "userDefined": true
      },
      {
        "text": " ",
        "userDefined": false
      },
      {
        "text": "whiskey",
        "alias": "beverage",
        "meta": "@beverage-hard-drinks",
        "userDefined": true
      }
    ],
    "isTemplate": false,
    "count": 0,
    "updated": 0
  },
  {
    "id": "994f9c36-b39d-4e3f-b87d-939d126a9c16",
    "data": [
      {
        "text": "is there any ",
        "userDefined": false
      },
      {
        "text": "bar",
        "alias": "venue-type",
        "meta": "@venue-nightlife-type",
        "userDefined": true
      },
      {
        "text": " in ",
        "userDefined": false
      },
      {
        "text": "Bercy",
        "alias": "location",
        "meta": "@sys.location",
        "userDefined": true
      }
    ],
    "isTemplate": false,
    "count": 0,
    "updated": 0
  },
  {
    "id": "5e027479-4ae5-4b9e-a7f2-4cc42b9116a3",
    "data": [
      {
        "text": "it\u0027s whiskey time",
        "userDefined": false
      }
    ],
    "isTemplate": false,
    "count": 0,
    "updated": 0
  },
  {
    "id": "1911dcb2-db9b-4d3c-bdd9-45f286bd5489",
    "data": [
      {
        "text": "find a ",
        "userDefined": false
      },
      {
        "text": "local",
        "alias": "sort",
        "meta": "@map-sort",
        "userDefined": true
      },
      {
        "text": " ",
        "userDefined": false
      },
      {
        "text": "nightclub",
        "alias": "venue-type",
        "meta": "@venue-nightlife-type",
        "userDefined": true
      }
    ],
    "isTemplate": false,
    "count": 0,
    "updated": 0
  },
  {
    "id": "55c94567-20c5-485e-a2c4-e225493cca8f",
    "data": [
      {
        "text": "find ",
        "userDefined": false
      },
      {
        "text": "Bar",
        "alias": "venue-type",
        "meta": "@venue-nightlife-type",
        "userDefined": true
      }
    ],
    "isTemplate": false,
    "count": 0,
    "updated": 0
  },
  {
    "id": "b4e3f080-4754-48ff-9f1a-8382ffcba852",
    "data": [
      {
        "text": "bars",
        "alias": "venue-type",
        "meta": "@venue-nightlife-type",
        "userDefined": true
      },
      {
        "text": " ",
        "userDefined": false
      },
      {
        "text": "nearby",
        "alias": "sort",
        "meta": "@map-sort",
        "userDefined": true
      }
    ],
    "isTemplate": false,
    "count": 0,
    "updated": 0
  },
  {
    "id": "59023dc1-d24f-41d5-9e55-0aadfb2792af",
    "data": [
      {
        "text": "seach for ",
        "userDefined": false
      },
      {
        "text": "night club",
        "alias": "venue-type",
        "meta": "@venue-nightlife-type",
        "userDefined": true
      },
      {
        "text": " ",
        "userDefined": false
      },
      {
        "text": "nearby",
        "alias": "sort",
        "meta": "@map-sort",
        "userDefined": true
      }
    ],
    "isTemplate": false,
    "count": 0,
    "updated": 0
  },
  {
    "id": "b68c807b-3178-40ff-ac02-798d43af1c09",
    "data": [
      {
        "text": "wine bar",
        "alias": "venue-type",
        "meta": "@venue-nightlife-type",
        "userDefined": true
      },
      {
        "text": " with ",
        "userDefined": false
      },
      {
        "text": "WIFI",
        "alias": "venue-facility",
        "meta": "@venue-facility",
        "userDefined": true
      }
    ],
    "isTemplate": false,
    "count": 0,
    "updated": 0
  },
  {
    "id": "4d598037-4183-4b8f-81e9-ab43e550f893",
    "data": [
      {
        "text": "red wine",
        "alias": "beverage",
        "meta": "@beverage-hard-drinks",
        "userDefined": true
      }
    ],
    "isTemplate": false,
    "count": 0,
    "updated": 0
  },
  {
    "id": "291612d7-b106-4d43-8f55-966f8d410d61",
    "data": [
      {
        "text": "I\u0027m in the mood for cocktail",
        "userDefined": false
      }
    ],
    "isTemplate": false,
    "count": 0,
    "updated": 0
  },
  {
    "id": "fbc8ea56-152f-4b7c-85eb-1c8ba4fd24ca",
    "data": [
      {
        "text": "search ",
        "userDefined": false
      },
      {
        "text": "cheap",
        "alias": "sort",
        "meta": "@map-sort",
        "userDefined": true
      },
      {
        "text": " ",
        "userDefined": false
      },
      {
        "text": "pub",
        "alias": "venue-type",
        "meta": "@venue-nightlife-type",
        "userDefined": true
      }
    ],
    "isTemplate": false,
    "count": 0,
    "updated": 0
  },
  {
    "id": "283fc999-15d3-41ce-96dc-8121acc3940a",
    "data": [
      {
        "text": "Ministry of Sound",
        "alias": "venue-chain",
        "meta": "@venue-nightlife-chain",
        "userDefined": true
      },
      {
        "text": " ",
        "userDefined": false
      },
      {
        "text": "bar",
        "alias": "venue-type",
        "meta": "@venue-nightlife-type",
        "userDefined": true
      }
    ],
    "isTemplate": false,
    "count": 0,
    "updated": 0
  },
  {
    "id": "d03d44fe-68e6-43b0-ad03-26bf7571a6d6",
    "data": [
      {
        "text": "where is ",
        "userDefined": false
      },
      {
        "text": "nearest",
        "alias": "sort",
        "meta": "@map-sort",
        "userDefined": true
      },
      {
        "text": " ",
        "userDefined": false
      },
      {
        "text": "10 Ginger Man",
        "alias": "venue-chain",
        "meta": "@venue-nightlife-chain",
        "userDefined": true
      }
    ],
    "isTemplate": false,
    "count": 0,
    "updated": 0
  },
  {
    "id": "1a304b63-d404-40e0-a5f6-ce02b6a4ebd9",
    "data": [
      {
        "text": "help me to find some ",
        "userDefined": false
      },
      {
        "text": "nice",
        "alias": "sort",
        "meta": "@map-sort",
        "userDefined": false
      },
      {
        "text": " ",
        "userDefined": false
      },
      {
        "text": "pubs",
        "alias": "venue-type",
        "meta": "@venue-nightlife-type",
        "userDefined": false
      },
      {
        "text": " in ",
        "userDefined": false
      },
      {
        "text": "Bercy",
        "alias": "location",
        "meta": "@sys.location",
        "userDefined": false
      }
    ],
    "isTemplate": false,
    "count": 0,
    "updated": 0
  },
  {
    "id": "c436fcb7-686f-4f8f-97d9-e0026a643746",
    "data": [
      {
        "text": "pubs",
        "alias": "venue-type",
        "meta": "@venue-nightlife-type",
        "userDefined": false
      }
    ],
    "isTemplate": false,
    "count": 0,
    "updated": 0
  },
  {
    "id": "3d647ae2-9646-4ed2-8350-9a05cc4a43bb",
    "data": [
      {
        "text": "get me a ",
        "userDefined": false
      },
      {
        "text": "beer",
        "alias": "beverage",
        "meta": "@beverage-hard-drinks",
        "userDefined": false
      }
    ],
    "isTemplate": false,
    "count": 0,
    "updated": 0
  },
  {
    "id": "2b4a6e90-aa65-4b96-a8b0-958cd44830b0",
    "data": [
      {
        "text": "strip club",
        "alias": "venue-type",
        "meta": "@venue-nightlife-type",
        "userDefined": false
      },
      {
        "text": " ",
        "userDefined": false
      },
      {
        "text": "nearby",
        "alias": "sort",
        "meta": "@map-sort",
        "userDefined": false
      }
    ],
    "isTemplate": false,
    "count": 0,
    "updated": 0
  },
  {
    "id": "42ea9f6b-0bb1-4827-ac13-c2d020c0856c",
    "data": [
      {
        "text": "find a ",
        "userDefined": false
      },
      {
        "text": "bar",
        "alias": "venue-type",
        "meta": "@venue-nightlife-type",
        "userDefined": true
      },
      {
        "text": " in ",
        "userDefined": false
      },
      {
        "text": "Moscow",
        "alias": "location",
        "meta": "@sys.location",
        "userDefined": true
      }
    ],
    "isTemplate": false,
    "count": 0,
    "updated": 0
  },
  {
    "id": "30dc064b-41a0-4bb9-b187-1135a6774b11",
    "data": [
      {
        "text": "what is the ",
        "userDefined": false
      },
      {
        "text": "best",
        "alias": "sort",
        "meta": "@map-sort",
        "userDefined": true
      },
      {
        "text": " ",
        "userDefined": false
      },
      {
        "text": "bar",
        "alias": "venue-type",
        "meta": "@venue-nightlife-type",
        "userDefined": true
      }
    ],
    "isTemplate": false,
    "count": 0,
    "updated": 0
  },
  {
    "id": "eae43181-9d3e-4007-b047-45b77fddf0c1",
    "data": [
      {
        "text": "I would like to have a ",
        "userDefined": false
      },
      {
        "text": "drink",
        "alias": "venue-type",
        "meta": "@venue-nightlife-type",
        "userDefined": true
      }
    ],
    "isTemplate": false,
    "count": 0,
    "updated": 0
  },
  {
    "id": "d858efcd-1cdc-43b3-ae0f-acbf05bf2352",
    "data": [
      {
        "text": "I need a ",
        "userDefined": false
      },
      {
        "text": "drink",
        "alias": "venue-type",
        "meta": "@venue-nightlife-type",
        "userDefined": true
      }
    ],
    "isTemplate": false,
    "count": 0,
    "updated": 0
  },
  {
    "id": "d6f16e22-7235-404c-96d9-076df1a6ab05",
    "data": [
      {
        "text": "I wanna go to ",
        "userDefined": false
      },
      {
        "text": "drink",
        "alias": "venue-type",
        "meta": "@venue-nightlife-type",
        "userDefined": true
      }
    ],
    "isTemplate": false,
    "count": 0,
    "updated": 0
  },
  {
    "id": "d5aee7d5-25b0-4140-96bc-c3a523b2df31",
    "data": [
      {
        "text": "are there any ",
        "userDefined": false
      },
      {
        "text": "good",
        "alias": "sort",
        "meta": "@map-sort",
        "userDefined": true
      },
      {
        "text": " ",
        "userDefined": false
      },
      {
        "text": "pubs",
        "alias": "venue-type",
        "meta": "@venue-nightlife-type",
        "userDefined": true
      },
      {
        "text": " not far from ",
        "userDefined": false
      },
      {
        "text": "LA",
        "alias": "location",
        "meta": "@sys.location",
        "userDefined": true
      }
    ],
    "isTemplate": false,
    "count": 0,
    "updated": 0
  },
  {
    "id": "7f53af61-a493-4c31-af71-a9d17eb1685e",
    "data": [
      {
        "text": "where can I have fun tonight",
        "userDefined": false
      }
    ],
    "isTemplate": false,
    "count": 0,
    "updated": 0
  },
  {
    "id": "9fe1d8a8-22ee-4322-93c0-fd2d2b5bfc1e",
    "data": [
      {
        "text": "gay bar",
        "alias": "venue-type",
        "meta": "@venue-nightlife-type",
        "userDefined": false
      }
    ],
    "isTemplate": false,
    "count": 0,
    "updated": 0
  },
  {
    "id": "1441f708-d24c-4894-a03d-a96be99bc933",
    "data": [
      {
        "text": "hi um where is the ",
        "userDefined": false
      },
      {
        "text": "nearest",
        "alias": "sort",
        "meta": "@map-sort",
        "userDefined": false
      },
      {
        "text": " ",
        "userDefined": false
      },
      {
        "text": "bar",
        "alias": "venue-type",
        "meta": "@venue-nightlife-type",
        "userDefined": false
      }
    ],
    "isTemplate": false,
    "count": 0,
    "updated": 0
  },
  {
    "id": "f93615b1-2583-4cc8-9989-42d525eb7e01",
    "data": [
      {
        "text": "show ",
        "userDefined": false
      },
      {
        "text": "wine bars",
        "alias": "venue-type",
        "meta": "@venue-nightlife-type",
        "userDefined": true
      },
      {
        "text": " in ",
        "userDefined": false
      },
      {
        "text": "Venice",
        "alias": "location",
        "meta": "@sys.location",
        "userDefined": true
      }
    ],
    "isTemplate": false,
    "count": 0,
    "updated": 0
  },
  {
    "id": "61a2d70b-5e8a-42b6-a0b7-aff4837bfcf7",
    "data": [
      {
        "text": "Pure Nightclub",
        "alias": "venue-title",
        "meta": "@venue-nightlife-title",
        "userDefined": true
      }
    ],
    "isTemplate": false,
    "count": 0,
    "updated": 0
  },
  {
    "id": "bc10b44f-6598-471b-9b3b-61eb76c72599",
    "data": [
      {
        "text": "where is ",
        "userDefined": false
      },
      {
        "text": "Pure Nightclub",
        "alias": "venue-title",
        "meta": "@venue-nightlife-title",
        "userDefined": true
      }
    ],
    "isTemplate": false,
    "count": 0,
    "updated": 0
  },
  {
    "id": "9ff254e2-050f-4e12-8694-e19d51eb5006",
    "data": [
      {
        "text": "is there any ",
        "userDefined": false
      },
      {
        "text": "bar",
        "alias": "venue-type",
        "meta": "@venue-nightlife-type",
        "userDefined": true
      },
      {
        "text": " not far from ",
        "userDefined": false
      },
      {
        "text": "Trocadero",
        "alias": "location",
        "meta": "@sys.location",
        "userDefined": true
      }
    ],
    "isTemplate": false,
    "count": 0,
    "updated": 0
  },
  {
    "id": "884fb389-1249-45db-a553-9afbf8572b36",
    "data": [
      {
        "text": "show",
        "meta": "@sys.ignore",
        "userDefined": true
      },
      {
        "text": " me the ",
        "userDefined": false
      },
      {
        "text": "nearest",
        "alias": "sort",
        "meta": "@map-sort",
        "userDefined": true
      },
      {
        "text": " ",
        "userDefined": false
      },
      {
        "text": "bar",
        "alias": "venue-type",
        "meta": "@venue-nightlife-type",
        "userDefined": true
      }
    ],
    "isTemplate": false,
    "count": 0,
    "updated": 0
  },
  {
    "id": "ee8b651b-16ca-475a-8fa1-8eee9772d5e2",
    "data": [
      {
        "text": "find a ",
        "userDefined": false
      },
      {
        "text": "bar",
        "alias": "venue-type",
        "meta": "@venue-nightlife-type",
        "userDefined": true
      },
      {
        "text": " for me",
        "userDefined": false
      }
    ],
    "isTemplate": false,
    "count": 0,
    "updated": 0
  },
  {
    "id": "ccc0c4c7-52ac-4474-9222-0a59f1a64a4b",
    "data": [
      {
        "text": "I ",
        "userDefined": false
      },
      {
        "text": "feel",
        "meta": "@sys.ignore",
        "userDefined": true
      },
      {
        "text": " like ",
        "userDefined": false
      },
      {
        "text": "beer",
        "alias": "beverage",
        "meta": "@beverage-hard-drinks",
        "userDefined": true
      }
    ],
    "isTemplate": false,
    "count": 0,
    "updated": 0
  },
  {
    "id": "afb41b2a-e0a9-449d-b0a9-de7567131051",
    "data": [
      {
        "text": "where can i get a ",
        "userDefined": false
      },
      {
        "text": "drink",
        "alias": "venue-type",
        "meta": "@venue-nightlife-type",
        "userDefined": true
      }
    ],
    "isTemplate": false,
    "count": 0,
    "updated": 0
  },
  {
    "id": "3f571479-e7b4-4930-b61f-53213e26e2a7",
    "data": [
      {
        "text": "find me the ",
        "userDefined": false
      },
      {
        "text": "nearest",
        "alias": "sort",
        "meta": "@map-sort",
        "userDefined": true
      },
      {
        "text": " ",
        "userDefined": false
      },
      {
        "text": "bar",
        "alias": "venue-type",
        "meta": "@venue-nightlife-type",
        "userDefined": true
      }
    ],
    "isTemplate": false,
    "count": 0,
    "updated": 0
  },
  {
    "id": "c4da3885-b307-4027-94ba-dac873a81947",
    "data": [
      {
        "text": "show ",
        "userDefined": false
      },
      {
        "text": "nearest",
        "alias": "sort",
        "meta": "@map-sort",
        "userDefined": true
      },
      {
        "text": " ",
        "userDefined": false
      },
      {
        "text": "Playboy Club",
        "alias": "venue-chain",
        "meta": "@venue-nightlife-chain",
        "userDefined": true
      }
    ],
    "isTemplate": false,
    "count": 0,
    "updated": 0
  },
  {
    "id": "c658569d-397d-4c96-847f-3afcb16437d0",
    "data": [
      {
        "text": "are there any ",
        "userDefined": false
      },
      {
        "text": "great",
        "alias": "sort",
        "meta": "@map-sort",
        "userDefined": true
      },
      {
        "text": " ",
        "userDefined": false
      },
      {
        "text": "pubs",
        "alias": "venue-type",
        "meta": "@venue-nightlife-type",
        "userDefined": true
      },
      {
        "text": " in ",
        "userDefined": false
      },
      {
        "text": "Chicago",
        "alias": "location",
        "meta": "@sys.location",
        "userDefined": true
      }
    ],
    "isTemplate": false,
    "count": 0,
    "updated": 0
  },
  {
    "id": "e163cd8d-70cb-4846-805b-3e6e10f2ac6f",
    "data": [
      {
        "text": "are there any ",
        "userDefined": false
      },
      {
        "text": "nice",
        "alias": "sort",
        "meta": "@map-sort",
        "userDefined": true
      },
      {
        "text": " ",
        "userDefined": false
      },
      {
        "text": "pubs",
        "alias": "venue-type",
        "meta": "@venue-nightlife-type",
        "userDefined": true
      },
      {
        "text": " not far from my ",
        "userDefined": false
      },
      {
        "text": "home",
        "alias": "location",
        "meta": "@sys.location",
        "userDefined": true
      }
    ],
    "isTemplate": false,
    "count": 0,
    "updated": 0
  },
  {
    "id": "10fe788a-2ecf-46a0-916c-5f90d4a80741",
    "data": [
      {
        "text": "are there any ",
        "userDefined": false
      },
      {
        "text": "cool",
        "alias": "sort",
        "meta": "@map-sort",
        "userDefined": true
      },
      {
        "text": " ",
        "userDefined": false
      },
      {
        "text": "pubs",
        "alias": "venue-type",
        "meta": "@venue-nightlife-type",
        "userDefined": true
      },
      {
        "text": " close to ",
        "userDefined": false
      },
      {
        "text": "Trocadero",
        "alias": "location",
        "meta": "@sys.location",
        "userDefined": true
      }
    ],
    "isTemplate": false,
    "count": 0,
    "updated": 0
  },
  {
    "id": "d2ddfe40-523b-4b98-bbe3-0cef3472f0c9",
    "data": [
      {
        "text": "let\u0027s get a drink",
        "userDefined": false
      }
    ],
    "isTemplate": false,
    "count": 0,
    "updated": 0
  },
  {
    "id": "2d513331-1298-4c64-8abd-961388d1722a",
    "data": [
      {
        "text": "I ",
        "userDefined": false
      },
      {
        "text": "feel",
        "meta": "@sys.ignore",
        "userDefined": false
      },
      {
        "text": " like a ",
        "userDefined": false
      },
      {
        "text": "vodka",
        "alias": "beverage",
        "meta": "@beverage-hard-drinks",
        "userDefined": false
      }
    ],
    "isTemplate": false,
    "count": 0,
    "updated": 0
  },
  {
    "id": "69e016d5-a4b9-4621-b487-387c0d090fa5",
    "data": [
      {
        "text": "where can I have ",
        "userDefined": false
      },
      {
        "text": "cheap",
        "alias": "sort",
        "meta": "@map-sort",
        "userDefined": false
      },
      {
        "text": " ",
        "userDefined": false
      },
      {
        "text": "whiskey",
        "alias": "beverage",
        "meta": "@beverage-hard-drinks",
        "userDefined": true
      },
      {
        "text": " or ",
        "userDefined": false
      },
      {
        "text": "vodka",
        "alias": "beverage",
        "meta": "@beverage-hard-drinks",
        "userDefined": false
      }
    ],
    "isTemplate": false,
    "count": 0,
    "updated": 0
  },
  {
    "id": "47794584-d3d5-4c67-9302-509b74914bf5",
    "data": [
      {
        "text": "LIV",
        "alias": "venue-title",
        "meta": "@venue-nightlife-title",
        "userDefined": true
      },
      {
        "text": " ",
        "userDefined": false
      },
      {
        "text": "bar",
        "alias": "venue-type",
        "meta": "@venue-nightlife-type",
        "userDefined": true
      }
    ],
    "isTemplate": false,
    "count": 0,
    "updated": 0
  },
  {
    "id": "fe0a2d31-fa77-432a-a735-57c06d80f96b",
    "data": [
      {
        "text": "show ",
        "userDefined": false
      },
      {
        "text": "Stingaree",
        "alias": "venue-title",
        "meta": "@venue-nightlife-title",
        "userDefined": true
      },
      {
        "text": " ",
        "userDefined": false
      },
      {
        "text": "bar",
        "alias": "venue-type",
        "meta": "@venue-nightlife-type",
        "userDefined": true
      }
    ],
    "isTemplate": false,
    "count": 0,
    "updated": 0
  },
  {
    "id": "9f9c166a-8f60-4d2b-89e8-eef830113860",
    "data": [
      {
        "text": "find ",
        "userDefined": false
      },
      {
        "text": "bar",
        "alias": "venue-type",
        "meta": "@venue-nightlife-type",
        "userDefined": true
      },
      {
        "text": " with ",
        "userDefined": false
      },
      {
        "text": "parking",
        "alias": "venue-facility",
        "meta": "@venue-facility",
        "userDefined": true
      }
    ],
    "isTemplate": false,
    "count": 0,
    "updated": 0
  },
  {
    "id": "21493e52-726f-4118-a9da-32b07e46a6aa",
    "data": [
      {
        "text": "can I get a ",
        "userDefined": false
      },
      {
        "text": "beer",
        "alias": "beverage",
        "meta": "@beverage-hard-drinks",
        "userDefined": false
      },
      {
        "text": " here",
        "userDefined": false
      }
    ],
    "isTemplate": false,
    "count": 0,
    "updated": 0
  },
  {
    "id": "bad9e5f4-7be5-4be9-9544-85d3549838fc",
    "data": [
      {
        "text": "locate a ",
        "userDefined": false
      },
      {
        "text": "nightclub",
        "alias": "venue-type",
        "meta": "@venue-nightlife-type",
        "userDefined": false
      }
    ],
    "isTemplate": false,
    "count": 0,
    "updated": 0
  },
  {
    "id": "9ba8fcf9-2267-4f99-a7b3-3054637bd000",
    "data": [
      {
        "text": "where are ",
        "userDefined": false
      },
      {
        "text": "nearby",
        "alias": "sort",
        "meta": "@map-sort",
        "userDefined": false
      },
      {
        "text": " ",
        "userDefined": false
      },
      {
        "text": "nightclubs",
        "alias": "venue-type",
        "meta": "@venue-nightlife-type",
        "userDefined": true
      }
    ],
    "isTemplate": false,
    "count": 0,
    "updated": 0
  },
  {
    "id": "c7bb99a3-c8cc-4212-a15c-52663519c447",
    "data": [
      {
        "text": "where\u0027s the ",
        "userDefined": false
      },
      {
        "text": "nearest",
        "alias": "sort",
        "meta": "@map-sort",
        "userDefined": false
      },
      {
        "text": " ",
        "userDefined": false
      },
      {
        "text": "strip club",
        "alias": "venue-type",
        "meta": "@venue-nightlife-type",
        "userDefined": false
      }
    ],
    "isTemplate": false,
    "count": 0,
    "updated": 0
  },
  {
    "id": "c4daf3c4-e4cc-493c-8afd-4e65a7c0e0cd",
    "data": [
      {
        "text": "cheap",
        "alias": "sort",
        "meta": "@map-sort",
        "userDefined": true
      },
      {
        "text": " ",
        "userDefined": false
      },
      {
        "text": "pub",
        "alias": "venue-type",
        "meta": "@venue-nightlife-type",
        "userDefined": true
      }
    ],
    "isTemplate": false,
    "count": 0,
    "updated": 0
  },
  {
    "id": "8b578092-b496-4550-9a69-cb8a840002ae",
    "data": [
      {
        "text": "wine bars",
        "alias": "venue-type",
        "meta": "@venue-nightlife-type",
        "userDefined": true
      },
      {
        "text": " in ",
        "userDefined": false
      },
      {
        "text": "Venice",
        "alias": "location",
        "meta": "@sys.location",
        "userDefined": true
      }
    ],
    "isTemplate": false,
    "count": 0,
    "updated": 0
  },
  {
    "id": "3419ba14-18ae-4b84-b881-24693fdd12c7",
    "data": [
      {
        "text": "bar",
        "alias": "venue-type",
        "meta": "@venue-nightlife-type",
        "userDefined": true
      },
      {
        "text": " with ",
        "userDefined": false
      },
      {
        "text": "4",
        "alias": "stars",
        "meta": "@sys.number",
        "userDefined": true
      },
      {
        "text": " stars",
        "userDefined": false
      }
    ],
    "isTemplate": false,
    "count": 0,
    "updated": 0
  },
  {
    "id": "913eafd5-60d4-4da1-b88c-1c3051d3bb9e",
    "data": [
      {
        "text": "find ",
        "userDefined": false
      },
      {
        "text": "whiskey",
        "alias": "beverage",
        "meta": "@beverage-hard-drinks",
        "userDefined": true
      },
      {
        "text": " for me",
        "userDefined": false
      }
    ],
    "isTemplate": false,
    "count": 0,
    "updated": 0
  },
  {
    "id": "f41c6ad1-668f-42e4-8a3c-d14fa0196454",
    "data": [
      {
        "text": "nightclub",
        "alias": "venue-type",
        "meta": "@venue-nightlife-type",
        "userDefined": false
      }
    ],
    "isTemplate": false,
    "count": 0,
    "updated": 0
  },
  {
    "id": "bb42cd08-06a6-4d51-bc13-55a63a5c61bc",
    "data": [
      {
        "text": "list of ",
        "userDefined": false
      },
      {
        "text": "bars",
        "alias": "venue-type",
        "meta": "@venue-nightlife-type",
        "userDefined": true
      },
      {
        "text": " in ",
        "userDefined": false
      },
      {
        "text": "Lisbon",
        "alias": "location",
        "meta": "@sys.location",
        "userDefined": true
      }
    ],
    "isTemplate": false,
    "count": 0,
    "updated": 0
  },
  {
    "id": "9cd473d9-f714-4299-817a-dc07f834b2d0",
    "data": [
      {
        "text": "bars",
        "alias": "venue-type",
        "meta": "@venue-nightlife-type",
        "userDefined": true
      }
    ],
    "isTemplate": false,
    "count": 0,
    "updated": 0
  },
  {
    "id": "ffb0940d-2adf-4558-a902-cd72354fa709",
    "data": [
      {
        "text": "I enjoy drinking ",
        "userDefined": false
      },
      {
        "text": "alcohol",
        "alias": "beverage",
        "meta": "@beverage-hard-drinks",
        "userDefined": true
      }
    ],
    "isTemplate": false,
    "count": 0,
    "updated": 0
  },
  {
    "id": "6338a31f-b734-4f64-ab9d-91214204d5fe",
    "data": [
      {
        "text": "is there any ",
        "userDefined": false
      },
      {
        "text": "bar",
        "alias": "venue-type",
        "meta": "@venue-nightlife-type",
        "userDefined": true
      },
      {
        "text": " close to ",
        "userDefined": false
      },
      {
        "text": "Trocadero",
        "alias": "location",
        "meta": "@sys.location",
        "userDefined": true
      }
    ],
    "isTemplate": false,
    "count": 0,
    "updated": 0
  },
  {
    "id": "2779ecba-6f57-4f99-a57f-d06eb9e0d635",
    "data": [
      {
        "text": "find ",
        "userDefined": false
      },
      {
        "text": "clubs",
        "alias": "venue-type",
        "meta": "@venue-nightlife-type",
        "userDefined": true
      }
    ],
    "isTemplate": false,
    "count": 0,
    "updated": 0
  },
  {
    "id": "7d7d70e6-8564-48ef-8d65-ed57950ee039",
    "data": [
      {
        "text": "where is a ",
        "userDefined": false
      },
      {
        "text": "night club",
        "alias": "venue-type",
        "meta": "@venue-nightlife-type",
        "userDefined": false
      }
    ],
    "isTemplate": false,
    "count": 0,
    "updated": 0
  },
  {
    "id": "cf13626e-df09-4a3a-9316-020bd58e127c",
    "data": [
      {
        "text": "please find the ",
        "userDefined": false
      },
      {
        "text": "best",
        "alias": "sort",
        "meta": "@map-sort",
        "userDefined": true
      },
      {
        "text": " ",
        "userDefined": false
      },
      {
        "text": "pub",
        "alias": "venue-type",
        "meta": "@venue-nightlife-type",
        "userDefined": true
      },
      {
        "text": " ",
        "userDefined": false
      },
      {
        "text": "in",
        "meta": "@sys.ignore",
        "userDefined": true
      },
      {
        "text": " ",
        "userDefined": false
      },
      {
        "text": "London",
        "alias": "location",
        "meta": "@sys.location",
        "userDefined": true
      },
      {
        "text": " with ",
        "userDefined": false
      },
      {
        "text": "free Wi-Fi",
        "alias": "venue-facility",
        "meta": "@venue-facility",
        "userDefined": true
      },
      {
        "text": " and ",
        "userDefined": false
      },
      {
        "text": "parking",
        "alias": "venue-facility",
        "meta": "@venue-facility",
        "userDefined": true
      }
    ],
    "isTemplate": false,
    "count": 0,
    "updated": 0
  },
  {
    "id": "bd651763-ea4d-4bab-a427-fbc0434501af",
    "data": [
      {
        "text": "find a ",
        "userDefined": false
      },
      {
        "text": "bar",
        "alias": "venue-type",
        "meta": "@venue-nightlife-type",
        "userDefined": true
      }
    ],
    "isTemplate": false,
    "count": 0,
    "updated": 0
  },
  {
    "id": "c7c6a69d-ce6f-4cd2-8b9d-af0460666a5b",
    "data": [
      {
        "text": "are there any ",
        "userDefined": false
      },
      {
        "text": "good",
        "alias": "sort",
        "meta": "@map-sort",
        "userDefined": true
      },
      {
        "text": " ",
        "userDefined": false
      },
      {
        "text": "pubs",
        "alias": "venue-type",
        "meta": "@venue-nightlife-type",
        "userDefined": true
      },
      {
        "text": " ",
        "userDefined": false
      },
      {
        "text": "in the area",
        "alias": "sort",
        "meta": "@map-sort",
        "userDefined": true
      }
    ],
    "isTemplate": false,
    "count": 0,
    "updated": 0
  },
  {
    "id": "746660d1-a72a-4993-b5c3-d62495942b24",
    "data": [
      {
        "text": "are there any ",
        "userDefined": false
      },
      {
        "text": "good",
        "alias": "sort",
        "meta": "@map-sort",
        "userDefined": false
      },
      {
        "text": " ",
        "userDefined": false
      },
      {
        "text": "pubs",
        "alias": "venue-type",
        "meta": "@venue-nightlife-type",
        "userDefined": false
      },
      {
        "text": " in ",
        "userDefined": false
      },
      {
        "text": "Palo Alto",
        "alias": "location",
        "meta": "@sys.location",
        "userDefined": false
      }
    ],
    "isTemplate": false,
    "count": 0,
    "updated": 0
  }
]