{
  "id": "c2281b89-1172-4174-8049-c68d0618af93",
  "parentId": "62b61bb6-d10b-4129-8aa5-f0edebc75645",
  "rootParentId": "62b61bb6-d10b-4129-8aa5-f0edebc75645",
  "name": "venues.travel.search - new venue",
  "auto": true,
  "contexts": [
    "venuestravelsearch-followup"
  ],
  "responses": [
    {
      "resetContexts": false,
      "action": "venues.travel.search",
      "affectedContexts": [],
      "parameters": [
        {
          "id": "d5f6f9e9-9d85-48fe-aaef-8500a1a15044",
          "required": false,
          "dataType": "@venue-travel-type",
          "name": "venue-type",
          "value": "$venue-type",
          "promptMessages": [],
          "noMatchPromptMessages": [],
          "noInputPromptMessages": [],
          "outputDialogContexts": [],
          "isList": false
        },
        {
          "id": "344e0dd4-7657-4899-a7ed-4be04fd0d6ba",
          "required": false,
          "dataType": "",
          "name": "location",
          "value": "#venuestravelsearch-followup.location",
          "promptMessages": [],
          "noMatchPromptMessages": [],
          "noInputPromptMessages": [],
          "outputDialogContexts": [],
          "isList": false
        },
        {
          "id": "986a510f-bfc1-4624-ac1e-005eb6be4948",
          "required": false,
          "dataType": "",
          "name": "sort",
          "value": "#venuestravelsearch-followup.sort",
          "promptMessages": [],
          "noMatchPromptMessages": [],
          "noInputPromptMessages": [],
          "outputDialogContexts": [],
          "isList": true
        },
        {
          "id": "74a574cc-a77a-46f4-b0bb-5998abe652a5",
          "required": false,
          "dataType": "",
          "name": "open",
          "value": "#venuestravelsearch-followup.open",
          "promptMessages": [],
          "noMatchPromptMessages": [],
          "noInputPromptMessages": [],
          "outputDialogContexts": [],
          "isList": false
        },
        {
          "id": "68878141-ccac-4aa9-a736-453ef9a57c2a",
          "required": false,
          "dataType": "",
          "name": "venue-facility",
          "value": "#venuestravelsearch-followup.venue-facility",
          "promptMessages": [],
          "noMatchPromptMessages": [],
          "noInputPromptMessages": [],
          "outputDialogContexts": [],
          "isList": true
        },
        {
          "id": "68a81dea-6752-45ac-b8ff-fdf3d2e1c16b",
          "required": false,
          "dataType": "",
          "name": "venue-chain",
          "value": "#venuestravelsearch-followup.venue-chain",
          "promptMessages": [],
          "noMatchPromptMessages": [],
          "noInputPromptMessages": [],
          "outputDialogContexts": [],
          "isList": false
        }
      ],
      "messages": [
        {
          "type": 0,
          "lang": "en",
          "condition": "",
          "speech": []
        }
      ],
      "defaultResponsePlatforms": {},
      "speech": []
    }
  ],
  "priority": 500000,
  "webhookUsed": false,
  "webhookForSlotFilling": false,
  "fallbackIntent": false,
  "events": [],
  "conditionalResponses": [],
  "condition": "",
  "conditionalFollowupEvents": []
}