[
  {
    "id": "e004b281-3f9a-4671-bf00-f9bb11091ff1",
    "data": [
      {
        "text": "show ",
        "userDefined": false
      },
      {
        "text": "all inclusive",
        "alias": "board-type",
        "meta": "@board-type",
        "userDefined": true
      }
    ],
    "isTemplate": false,
    "count": 0,
    "updated": 0
  },
  {
    "id": "793ae13d-1200-4364-a8d0-3643ce85e341",
    "data": [
      {
        "text": "where is ",
        "userDefined": false
      },
      {
        "text": "nearest",
        "alias": "sort",
        "meta": "@map-sort",
        "userDefined": true
      },
      {
        "text": " ",
        "userDefined": false
      },
      {
        "text": "Radisson",
        "alias": "venue-chain",
        "meta": "@venue-accomodation-chain",
        "userDefined": true
      },
      {
        "text": " ",
        "userDefined": false
      },
      {
        "text": "hotel",
        "alias": "venue-type",
        "meta": "@venue-accomodation-type",
        "userDefined": true
      }
    ],
    "isTemplate": false,
    "count": 0,
    "updated": 0
  },
  {
    "id": "ee59a0ba-ce99-42c7-a71c-593568750728",
    "data": [
      {
        "text": "show me a ",
        "userDefined": false
      },
      {
        "text": "pet friendly",
        "alias": "venue-facility",
        "meta": "@venue-facility",
        "userDefined": true
      },
      {
        "text": " ",
        "userDefined": false
      },
      {
        "text": "hotel",
        "alias": "venue-type",
        "meta": "@venue-accomodation-type",
        "userDefined": true
      }
    ],
    "isTemplate": false,
    "count": 0,
    "updated": 0
  },
  {
    "id": "b7fed4a4-9f56-499e-ba08-fd683415ec70",
    "data": [
      {
        "text": "is there a ",
        "userDefined": false
      },
      {
        "text": "Hilton hotel",
        "alias": "venue-chain",
        "meta": "@venue-accomodation-chain",
        "userDefined": true
      },
      {
        "text": " in ",
        "userDefined": false
      },
      {
        "text": "Berlin",
        "alias": "location",
        "meta": "@sys.location",
        "userDefined": true
      }
    ],
    "isTemplate": false,
    "count": 0,
    "updated": 0
  },
  {
    "id": "45513dba-3051-4a09-b908-b3b59de12c13",
    "data": [
      {
        "text": "Holiday Inn",
        "alias": "venue-chain",
        "meta": "@venue-accomodation-chain",
        "userDefined": true
      },
      {
        "text": " ",
        "userDefined": false
      },
      {
        "text": "resort",
        "alias": "venue-type",
        "meta": "@venue-accomodation-type",
        "userDefined": true
      }
    ],
    "isTemplate": false,
    "count": 0,
    "updated": 0
  },
  {
    "id": "85cfcc0e-7815-4442-ad35-604909f14d68",
    "data": [
      {
        "text": "find ",
        "userDefined": false
      },
      {
        "text": "best",
        "alias": "sort",
        "meta": "@map-sort",
        "userDefined": true
      },
      {
        "text": " ",
        "userDefined": false
      },
      {
        "text": "motels",
        "alias": "venue-type",
        "meta": "@venue-accomodation-type",
        "userDefined": true
      }
    ],
    "isTemplate": false,
    "count": 0,
    "updated": 0
  },
  {
    "id": "a391d662-668f-4bea-a318-a0a176bc4fc6",
    "data": [
      {
        "text": "what ",
        "userDefined": false
      },
      {
        "text": "are",
        "meta": "@sys.ignore",
        "userDefined": true
      },
      {
        "text": " the ",
        "userDefined": false
      },
      {
        "text": "cheap",
        "alias": "sort",
        "meta": "@map-sort",
        "userDefined": true
      },
      {
        "text": " ",
        "userDefined": false
      },
      {
        "text": "hotels",
        "alias": "venue-type",
        "meta": "@venue-accomodation-type",
        "userDefined": true
      },
      {
        "text": " in ",
        "userDefined": false
      },
      {
        "text": "Victorville California",
        "alias": "location",
        "meta": "@sys.location",
        "userDefined": true
      }
    ],
    "isTemplate": false,
    "count": 0,
    "updated": 0
  },
  {
    "id": "d7718b80-7056-402a-bd05-bea425a3b18f",
    "data": [
      {
        "text": "hotels",
        "alias": "venue-type",
        "meta": "@venue-accomodation-type",
        "userDefined": true
      },
      {
        "text": " ",
        "userDefined": false
      },
      {
        "text": "on",
        "meta": "@sys.ignore",
        "userDefined": true
      },
      {
        "text": " the ",
        "userDefined": false
      },
      {
        "text": "map",
        "meta": "@sys.ignore",
        "userDefined": true
      }
    ],
    "isTemplate": false,
    "count": 0,
    "updated": 0
  },
  {
    "id": "772c8d54-f1a3-4667-ba89-a63db7c7417f",
    "data": [
      {
        "text": "find ",
        "userDefined": false
      },
      {
        "text": "Hotels",
        "alias": "venue-type",
        "meta": "@venue-accomodation-type",
        "userDefined": true
      }
    ],
    "isTemplate": false,
    "count": 0,
    "updated": 0
  },
  {
    "id": "3f15a37b-35b5-4abf-ada9-9ac8f549b871",
    "data": [
      {
        "text": "search for a ",
        "userDefined": false
      },
      {
        "text": "cheap",
        "alias": "sort",
        "meta": "@map-sort",
        "userDefined": true
      },
      {
        "text": " ",
        "userDefined": false
      },
      {
        "text": "hotel",
        "alias": "venue-type",
        "meta": "@venue-accomodation-type",
        "userDefined": true
      },
      {
        "text": " in ",
        "userDefined": false
      },
      {
        "text": "Greece",
        "alias": "location",
        "meta": "@sys.location",
        "userDefined": true
      }
    ],
    "isTemplate": false,
    "count": 0,
    "updated": 0
  },
  {
    "id": "51ca0370-a3a1-4ae0-850e-6e7db1e5a2bf",
    "data": [
      {
        "text": "find a ",
        "userDefined": false
      },
      {
        "text": "hotel",
        "alias": "venue-type",
        "meta": "@venue-accomodation-type",
        "userDefined": true
      },
      {
        "text": " in ",
        "userDefined": false
      },
      {
        "text": "Arabi Louisiana",
        "alias": "location",
        "meta": "@sys.location",
        "userDefined": true
      }
    ],
    "isTemplate": false,
    "count": 0,
    "updated": 0
  },
  {
    "id": "03998422-724e-4884-8a4a-7e8bb26d1324",
    "data": [
      {
        "text": "hotels",
        "alias": "venue-type",
        "meta": "@venue-accomodation-type",
        "userDefined": true
      },
      {
        "text": " in ",
        "userDefined": false
      },
      {
        "text": "Abu Dhabi",
        "alias": "location",
        "meta": "@sys.location",
        "userDefined": true
      }
    ],
    "isTemplate": false,
    "count": 0,
    "updated": 0
  },
  {
    "id": "359d973d-8883-46d8-8af8-3227053c84ef",
    "data": [
      {
        "text": "hotels",
        "alias": "venue-type",
        "meta": "@venue-accomodation-type",
        "userDefined": true
      },
      {
        "text": " near ",
        "userDefined": false
      },
      {
        "text": "Pensacola",
        "alias": "location",
        "meta": "@sys.location",
        "userDefined": true
      }
    ],
    "isTemplate": false,
    "count": 0,
    "updated": 0
  },
  {
    "id": "f2e4ba0e-d3b4-4152-abb9-206750c035f6",
    "data": [
      {
        "text": "hotel",
        "alias": "venue-type",
        "meta": "@venue-accomodation-type",
        "userDefined": true
      },
      {
        "text": " in ",
        "userDefined": false
      },
      {
        "text": "New York",
        "alias": "location",
        "meta": "@sys.location",
        "userDefined": true
      },
      {
        "text": " from ",
        "userDefined": false
      },
      {
        "text": "4 sept",
        "alias": "checkin-date",
        "meta": "@sys.date-time",
        "userDefined": true
      },
      {
        "text": " to ",
        "userDefined": false
      },
      {
        "text": "6 sept",
        "alias": "checkout-date",
        "meta": "@sys.date-time",
        "userDefined": true
      }
    ],
    "isTemplate": false,
    "count": 0,
    "updated": 0
  },
  {
    "id": "c25673ef-ed67-44c9-8214-c8d6a913a8b1",
    "data": [
      {
        "text": "I",
        "meta": "@sys.ignore",
        "userDefined": true
      },
      {
        "text": "\u0027",
        "userDefined": false
      },
      {
        "text": "d",
        "meta": "@sys.ignore",
        "userDefined": true
      },
      {
        "text": " ",
        "userDefined": false
      },
      {
        "text": "like",
        "meta": "@sys.ignore",
        "userDefined": true
      },
      {
        "text": " a ",
        "userDefined": false
      },
      {
        "text": "hotel",
        "alias": "venue-type",
        "meta": "@venue-accomodation-type",
        "userDefined": true
      },
      {
        "text": " ",
        "userDefined": false
      },
      {
        "text": "in",
        "meta": "@sys.ignore",
        "userDefined": true
      },
      {
        "text": " ",
        "userDefined": false
      },
      {
        "text": "Nashville",
        "alias": "location",
        "meta": "@sys.location",
        "userDefined": true
      },
      {
        "text": " on ",
        "userDefined": false
      },
      {
        "text": "July 18-21",
        "alias": "date-period",
        "meta": "@sys.date-period",
        "userDefined": true
      }
    ],
    "isTemplate": false,
    "count": 0,
    "updated": 0
  },
  {
    "id": "75776868-8ea6-44c2-bbef-bec520461d54",
    "data": [
      {
        "text": "nearest",
        "alias": "sort",
        "meta": "@map-sort",
        "userDefined": true
      },
      {
        "text": " ",
        "userDefined": false
      },
      {
        "text": "hotels",
        "alias": "venue-type",
        "meta": "@venue-accomodation-type",
        "userDefined": true
      }
    ],
    "isTemplate": false,
    "count": 0,
    "updated": 0
  },
  {
    "id": "993b0259-f9b3-4468-84e6-318c176469e1",
    "data": [
      {
        "text": "hotels",
        "alias": "venue-type",
        "meta": "@venue-accomodation-type",
        "userDefined": true
      },
      {
        "text": " near ",
        "userDefined": false
      },
      {
        "text": "Paris Disneyland",
        "alias": "location",
        "meta": "@sys.location",
        "userDefined": true
      }
    ],
    "isTemplate": false,
    "count": 0,
    "updated": 0
  },
  {
    "id": "d13aa7bc-8f2b-4e23-a1b3-260225d86273",
    "data": [
      {
        "text": "hotels",
        "alias": "venue-type",
        "meta": "@venue-accomodation-type",
        "userDefined": true
      },
      {
        "text": " in ",
        "userDefined": false
      },
      {
        "text": "Sarajevo",
        "alias": "location",
        "meta": "@sys.location",
        "userDefined": true
      }
    ],
    "isTemplate": false,
    "count": 0,
    "updated": 0
  },
  {
    "id": "de906ca5-a687-4ae0-be94-f6c4feb561e0",
    "data": [
      {
        "text": "find ",
        "userDefined": false
      },
      {
        "text": "Hotel Indigo",
        "alias": "venue-chain",
        "meta": "@venue-accomodation-chain",
        "userDefined": true
      }
    ],
    "isTemplate": false,
    "count": 0,
    "updated": 0
  },
  {
    "id": "4d9cd42c-7f23-4739-b2b4-44e0b936094d",
    "data": [
      {
        "text": "best",
        "alias": "sort",
        "meta": "@map-sort",
        "userDefined": true
      },
      {
        "text": " ",
        "userDefined": false
      },
      {
        "text": "hotels",
        "alias": "venue-type",
        "meta": "@venue-accomodation-type",
        "userDefined": true
      }
    ],
    "isTemplate": false,
    "count": 0,
    "updated": 0
  },
  {
    "id": "4d772273-4926-4b4f-9219-62d7ad1364c9",
    "data": [
      {
        "text": "show me ",
        "userDefined": false
      },
      {
        "text": "pet friendly",
        "alias": "venue-facility",
        "meta": "@venue-facility",
        "userDefined": true
      },
      {
        "text": " ",
        "userDefined": false
      },
      {
        "text": "hotel",
        "alias": "venue-type",
        "meta": "@venue-accomodation-type",
        "userDefined": true
      },
      {
        "text": " near ",
        "userDefined": false
      },
      {
        "text": "Park Ave NY",
        "alias": "location",
        "meta": "@sys.location",
        "userDefined": true
      },
      {
        "text": " with ",
        "userDefined": false
      },
      {
        "text": "3",
        "alias": "stars",
        "meta": "@sys.number",
        "userDefined": true
      },
      {
        "text": " stars under ",
        "userDefined": false
      },
      {
        "text": "$200",
        "alias": "price",
        "meta": "@sys.unit-currency",
        "userDefined": true
      },
      {
        "text": " ",
        "userDefined": false
      },
      {
        "text": "bed and breakfast",
        "alias": "board-type",
        "meta": "@board-type",
        "userDefined": true
      }
    ],
    "isTemplate": false,
    "count": 0,
    "updated": 0
  },
  {
    "id": "1cc49bae-b674-4084-bc7b-848969277ea1",
    "data": [
      {
        "text": "find ",
        "userDefined": false
      },
      {
        "text": "Hilton",
        "alias": "venue-chain",
        "meta": "@venue-accomodation-chain",
        "userDefined": true
      },
      {
        "text": " in ",
        "userDefined": false
      },
      {
        "text": "Miami",
        "alias": "location",
        "meta": "@sys.location",
        "userDefined": true
      }
    ],
    "isTemplate": false,
    "count": 0,
    "updated": 0
  },
  {
    "id": "4ab2feed-692e-40f0-9aec-d75e66a96c84",
    "data": [
      {
        "text": "Marriott",
        "alias": "venue-chain",
        "meta": "@venue-accomodation-chain",
        "userDefined": true
      },
      {
        "text": " ",
        "userDefined": false
      },
      {
        "text": "hotel",
        "alias": "venue-type",
        "meta": "@venue-accomodation-type",
        "userDefined": true
      }
    ],
    "isTemplate": false,
    "count": 0,
    "updated": 0
  },
  {
    "id": "bc92690e-a639-4a80-80a8-03b21e8d5739",
    "data": [
      {
        "text": "hotels",
        "alias": "venue-type",
        "meta": "@venue-accomodation-type",
        "userDefined": true
      },
      {
        "text": " ",
        "userDefined": false
      },
      {
        "text": "Resort Maldives",
        "alias": "venue-chain",
        "meta": "@venue-accomodation-chain",
        "userDefined": true
      }
    ],
    "isTemplate": false,
    "count": 0,
    "updated": 0
  },
  {
    "id": "1d536a5b-d201-4a66-9496-7e621ce87f99",
    "data": [
      {
        "text": "find ",
        "userDefined": false
      },
      {
        "text": "hotel",
        "alias": "venue-type",
        "meta": "@venue-accomodation-type",
        "userDefined": true
      }
    ],
    "isTemplate": false,
    "count": 0,
    "updated": 0
  },
  {
    "id": "dd618a44-7294-4a96-bf9f-1acf75fd71ca",
    "data": [
      {
        "text": "show ",
        "userDefined": false
      },
      {
        "text": "pet friendly",
        "alias": "venue-facility",
        "meta": "@venue-facility",
        "userDefined": true
      },
      {
        "text": " ",
        "userDefined": false
      },
      {
        "text": "hotel",
        "alias": "venue-type",
        "meta": "@venue-accomodation-type",
        "userDefined": true
      },
      {
        "text": " near ",
        "userDefined": false
      },
      {
        "text": "Park Avenue",
        "alias": "location",
        "meta": "@sys.location",
        "userDefined": true
      },
      {
        "text": " with ",
        "userDefined": false
      },
      {
        "text": "3",
        "alias": "stars",
        "meta": "@sys.number",
        "userDefined": true
      },
      {
        "text": " stars under ",
        "userDefined": false
      },
      {
        "text": "$ 200",
        "alias": "price",
        "meta": "@sys.unit-currency",
        "userDefined": true
      }
    ],
    "isTemplate": false,
    "count": 0,
    "updated": 0
  },
  {
    "id": "a1c83f83-822b-4701-afbc-a36075f3535b",
    "data": [
      {
        "text": "search for a ",
        "userDefined": false
      },
      {
        "text": "cheap",
        "alias": "sort",
        "meta": "@map-sort",
        "userDefined": true
      },
      {
        "text": " ",
        "userDefined": false
      },
      {
        "text": "hotel",
        "alias": "venue-type",
        "meta": "@venue-accomodation-type",
        "userDefined": true
      },
      {
        "text": " in ",
        "userDefined": false
      },
      {
        "text": "Gresham",
        "alias": "location",
        "meta": "@sys.location",
        "userDefined": true
      }
    ],
    "isTemplate": false,
    "count": 0,
    "updated": 0
  },
  {
    "id": "75382f8d-f2de-41af-aa52-d30d360d73fd",
    "data": [
      {
        "text": "find a ",
        "userDefined": false
      },
      {
        "text": "hotel",
        "alias": "venue-type",
        "meta": "@venue-accomodation-type",
        "userDefined": true
      },
      {
        "text": " ",
        "userDefined": false
      },
      {
        "text": "in",
        "meta": "@sys.ignore",
        "userDefined": true
      },
      {
        "text": " ",
        "userDefined": false
      },
      {
        "text": "Tokyo",
        "alias": "location",
        "meta": "@sys.location",
        "userDefined": true
      },
      {
        "text": " from ",
        "userDefined": false
      },
      {
        "text": "April 10 till 15",
        "alias": "date-period",
        "meta": "@sys.date-period",
        "userDefined": true
      }
    ],
    "isTemplate": false,
    "count": 0,
    "updated": 0
  },
  {
    "id": "416c5b0f-ef36-4752-88f0-dfdd795e92e3",
    "data": [
      {
        "text": "search for ",
        "userDefined": false
      },
      {
        "text": "hotels",
        "alias": "venue-type",
        "meta": "@venue-accomodation-type",
        "userDefined": true
      },
      {
        "text": " in ",
        "userDefined": false
      },
      {
        "text": "Chennai",
        "alias": "location",
        "meta": "@sys.location",
        "userDefined": true
      }
    ],
    "isTemplate": false,
    "count": 0,
    "updated": 0
  },
  {
    "id": "dc844b8c-06b1-48eb-b20e-0125c36c8e20",
    "data": [
      {
        "text": "hotels",
        "alias": "venue-type",
        "meta": "@venue-accomodation-type",
        "userDefined": true
      },
      {
        "text": " near ",
        "userDefined": false
      },
      {
        "text": "Florida International University",
        "alias": "location",
        "meta": "@sys.location",
        "userDefined": true
      }
    ],
    "isTemplate": false,
    "count": 0,
    "updated": 0
  },
  {
    "id": "30ba0ecd-d3fe-4f8a-83c0-004828dcbc8c",
    "data": [
      {
        "text": "find ",
        "userDefined": false
      },
      {
        "text": "Doubletree",
        "alias": "venue-chain",
        "meta": "@venue-accomodation-chain",
        "userDefined": true
      },
      {
        "text": " ",
        "userDefined": false
      },
      {
        "text": "hotels",
        "alias": "venue-type",
        "meta": "@venue-accomodation-type",
        "userDefined": true
      }
    ],
    "isTemplate": false,
    "count": 0,
    "updated": 0
  },
  {
    "id": "11299e99-f21f-4b5e-9a0a-1ba5147b5b1a",
    "data": [
      {
        "text": "hotels",
        "alias": "venue-type",
        "meta": "@venue-accomodation-type",
        "userDefined": true
      }
    ],
    "isTemplate": false,
    "count": 0,
    "updated": 0
  },
  {
    "id": "91beb55e-98e9-432a-8974-13b42e5c0eec",
    "data": [
      {
        "text": "hotels",
        "alias": "venue-type",
        "meta": "@venue-accomodation-type",
        "userDefined": true
      },
      {
        "text": " near ",
        "userDefined": false
      },
      {
        "text": "airport in Pensacola",
        "alias": "location",
        "meta": "@sys.location",
        "userDefined": true
      }
    ],
    "isTemplate": false,
    "count": 0,
    "updated": 0
  },
  {
    "id": "fe1e2564-4328-4ffd-aa09-996110eda8d6",
    "data": [
      {
        "text": "I\u0027m looking for ",
        "userDefined": false
      },
      {
        "text": "hotel",
        "alias": "venue-type",
        "meta": "@venue-accomodation-type",
        "userDefined": true
      },
      {
        "text": " in ",
        "userDefined": false
      },
      {
        "text": "Roma",
        "alias": "location",
        "meta": "@sys.location",
        "userDefined": true
      }
    ],
    "isTemplate": false,
    "count": 0,
    "updated": 0
  },
  {
    "id": "fbcbe34d-fdbe-41dc-9903-2320a4008452",
    "data": [
      {
        "text": "find ",
        "userDefined": false
      },
      {
        "text": "Cosmos",
        "alias": "venue-title",
        "meta": "@venue-accomodation-title",
        "userDefined": true
      },
      {
        "text": " ",
        "userDefined": false
      },
      {
        "text": "hotel",
        "alias": "venue-type",
        "meta": "@venue-accomodation-type",
        "userDefined": true
      },
      {
        "text": " in ",
        "userDefined": false
      },
      {
        "text": "Moscow",
        "alias": "location",
        "meta": "@sys.location",
        "userDefined": true
      }
    ],
    "isTemplate": false,
    "count": 0,
    "updated": 0
  },
  {
    "id": "a193972d-7a49-4cca-9e49-aa67a0b4f924",
    "data": [
      {
        "text": "Moody Gardens hotel",
        "alias": "venue-chain",
        "meta": "@venue-accomodation-chain",
        "userDefined": true
      },
      {
        "text": " amp ",
        "userDefined": false
      },
      {
        "text": "resort",
        "alias": "venue-type",
        "meta": "@venue-accomodation-type",
        "userDefined": true
      },
      {
        "text": " in ",
        "userDefined": false
      },
      {
        "text": "Galveston Texas",
        "alias": "location",
        "meta": "@sys.location",
        "userDefined": true
      }
    ],
    "isTemplate": false,
    "count": 0,
    "updated": 0
  },
  {
    "id": "cbd1c6b8-f2f4-48a3-bf0c-2375441cabaf",
    "data": [
      {
        "text": "find ",
        "userDefined": false
      },
      {
        "text": "hotels",
        "alias": "venue-type",
        "meta": "@venue-accomodation-type",
        "userDefined": true
      },
      {
        "text": " in ",
        "userDefined": false
      },
      {
        "text": "Berlin",
        "alias": "location",
        "meta": "@sys.location",
        "userDefined": true
      }
    ],
    "isTemplate": false,
    "count": 0,
    "updated": 0
  },
  {
    "id": "14d8629a-cd87-4a33-9a01-258a07f7c2af",
    "data": [
      {
        "text": "search for ",
        "userDefined": false
      },
      {
        "text": "pet friendly",
        "alias": "venue-facility",
        "meta": "@venue-facility",
        "userDefined": true
      },
      {
        "text": " ",
        "userDefined": false
      },
      {
        "text": "hotel",
        "alias": "venue-type",
        "meta": "@venue-accomodation-type",
        "userDefined": true
      },
      {
        "text": " near ",
        "userDefined": false
      },
      {
        "text": "London",
        "alias": "location",
        "meta": "@sys.location",
        "userDefined": true
      },
      {
        "text": " with ",
        "userDefined": false
      },
      {
        "text": "3",
        "alias": "stars",
        "meta": "@sys.number",
        "userDefined": true
      },
      {
        "text": " stars only ",
        "userDefined": false
      },
      {
        "text": "bed and breakfast",
        "alias": "board-type",
        "meta": "@board-type",
        "userDefined": true
      }
    ],
    "isTemplate": false,
    "count": 0,
    "updated": 0
  },
  {
    "id": "f465be35-5864-48f9-8b7f-09b7a10e7b41",
    "data": [
      {
        "text": "best",
        "alias": "sort",
        "meta": "@map-sort",
        "userDefined": true
      },
      {
        "text": " ",
        "userDefined": false
      },
      {
        "text": "hotels",
        "alias": "venue-type",
        "meta": "@venue-accomodation-type",
        "userDefined": true
      },
      {
        "text": " of ",
        "userDefined": false
      },
      {
        "text": "Calcutta",
        "alias": "location",
        "meta": "@sys.location",
        "userDefined": true
      }
    ],
    "isTemplate": false,
    "count": 0,
    "updated": 0
  },
  {
    "id": "c13343c1-6333-489b-b055-f64cf6f8ac07",
    "data": [
      {
        "text": " find a ",
        "userDefined": false
      },
      {
        "text": "hotel",
        "alias": "venue-type",
        "meta": "@venue-accomodation-type",
        "userDefined": true
      }
    ],
    "isTemplate": false,
    "count": 0,
    "updated": 0
  },
  {
    "id": "4ac574d0-edf8-40f1-8a4b-611c04fee713",
    "data": [
      {
        "text": "find ",
        "userDefined": false
      },
      {
        "text": "apartment",
        "alias": "venue-type",
        "meta": "@venue-accomodation-type",
        "userDefined": true
      }
    ],
    "isTemplate": false,
    "count": 0,
    "updated": 0
  },
  {
    "id": "be884d53-c568-4d07-b6d0-75e2d73de469",
    "data": [
      {
        "text": "hotel",
        "alias": "venue-type",
        "meta": "@venue-accomodation-type",
        "userDefined": true
      }
    ],
    "isTemplate": false,
    "count": 0,
    "updated": 0
  },
  {
    "id": "bad25390-6bf3-4331-b484-15eef7c6020d",
    "data": [
      {
        "text": "hotels",
        "alias": "venue-type",
        "meta": "@venue-accomodation-type",
        "userDefined": true
      },
      {
        "text": " ",
        "userDefined": false
      },
      {
        "text": "near me",
        "alias": "sort",
        "meta": "@map-sort",
        "userDefined": true
      }
    ],
    "isTemplate": false,
    "count": 0,
    "updated": 0
  },
  {
    "id": "e36f81bc-69bd-4409-bd12-e4fe7f696900",
    "data": [
      {
        "text": "find ",
        "userDefined": false
      },
      {
        "text": "hotel",
        "alias": "venue-type",
        "meta": "@venue-accomodation-type",
        "userDefined": true
      },
      {
        "text": " ",
        "userDefined": false
      },
      {
        "text": "room",
        "meta": "@sys.ignore",
        "userDefined": true
      },
      {
        "text": " with ",
        "userDefined": false
      },
      {
        "text": "terrace",
        "alias": "room-facility",
        "meta": "@room-facility",
        "userDefined": true
      }
    ],
    "isTemplate": false,
    "count": 0,
    "updated": 0
  },
  {
    "id": "4d218d4e-eb2a-48e4-b65c-9b552a0d077a",
    "data": [
      {
        "text": "Lancaster Pennsylvania",
        "alias": "location",
        "meta": "@sys.location",
        "userDefined": true
      },
      {
        "text": " ",
        "userDefined": false
      },
      {
        "text": "Marriott",
        "alias": "venue-chain",
        "meta": "@venue-accomodation-chain",
        "userDefined": true
      },
      {
        "text": " ",
        "userDefined": false
      },
      {
        "text": "hotel",
        "alias": "venue-type",
        "meta": "@venue-accomodation-type",
        "userDefined": true
      }
    ],
    "isTemplate": false,
    "count": 0,
    "updated": 0
  },
  {
    "id": "032da994-cc30-4e92-9b14-4065fee89acd",
    "data": [
      {
        "text": "nearby",
        "alias": "sort",
        "meta": "@map-sort",
        "userDefined": true
      },
      {
        "text": " ",
        "userDefined": false
      },
      {
        "text": "hotels",
        "alias": "venue-type",
        "meta": "@venue-accomodation-type",
        "userDefined": true
      }
    ],
    "isTemplate": false,
    "count": 0,
    "updated": 0
  },
  {
    "id": "4492e358-5a4c-4517-9747-22bcc4775f66",
    "data": [
      {
        "text": "full board",
        "alias": "board-type",
        "meta": "@board-type",
        "userDefined": true
      },
      {
        "text": " ",
        "userDefined": false
      },
      {
        "text": "hotels",
        "alias": "venue-type",
        "meta": "@venue-accomodation-type",
        "userDefined": true
      }
    ],
    "isTemplate": false,
    "count": 0,
    "updated": 0
  },
  {
    "id": "afe92842-3f2c-4604-b41a-398d09a685c3",
    "data": [
      {
        "text": "can",
        "meta": "@sys.ignore",
        "userDefined": true
      },
      {
        "text": " you find ",
        "userDefined": false
      },
      {
        "text": "me",
        "meta": "@sys.ignore",
        "userDefined": true
      },
      {
        "text": " a ",
        "userDefined": false
      },
      {
        "text": "hotel",
        "alias": "venue-type",
        "meta": "@venue-accomodation-type",
        "userDefined": true
      },
      {
        "text": " ",
        "userDefined": false
      },
      {
        "text": "in",
        "meta": "@sys.ignore",
        "userDefined": true
      },
      {
        "text": " ",
        "userDefined": false
      },
      {
        "text": "Chicago",
        "alias": "location",
        "meta": "@sys.location",
        "userDefined": true
      },
      {
        "text": " ",
        "userDefined": false
      },
      {
        "text": "next Thursday",
        "alias": "checkin-date",
        "meta": "@sys.date-time",
        "userDefined": true
      }
    ],
    "isTemplate": false,
    "count": 0,
    "updated": 0
  },
  {
    "id": "055dcdbc-04e1-4085-a52b-3b68733e537b",
    "data": [
      {
        "text": "find ",
        "userDefined": false
      },
      {
        "text": "opened",
        "alias": "open",
        "meta": "@open",
        "userDefined": true
      },
      {
        "text": " ",
        "userDefined": false
      },
      {
        "text": "motels",
        "alias": "venue-type",
        "meta": "@venue-accomodation-type",
        "userDefined": true
      }
    ],
    "isTemplate": false,
    "count": 0,
    "updated": 0
  },
  {
    "id": "a60bd61d-d510-4fea-9054-4b7a27161368",
    "data": [
      {
        "text": "I\u0027m looking for a ",
        "userDefined": false
      },
      {
        "text": "good",
        "alias": "sort",
        "meta": "@map-sort",
        "userDefined": true
      },
      {
        "text": " ",
        "userDefined": false
      },
      {
        "text": "hotel",
        "alias": "venue-type",
        "meta": "@venue-accomodation-type",
        "userDefined": true
      },
      {
        "text": " in ",
        "userDefined": false
      },
      {
        "text": "Frankfurt Germany",
        "alias": "location",
        "meta": "@sys.location",
        "userDefined": true
      }
    ],
    "isTemplate": false,
    "count": 0,
    "updated": 0
  },
  {
    "id": "e6273e30-0031-4011-9c44-bc8d6b391340",
    "data": [
      {
        "text": "hotel",
        "alias": "venue-type",
        "meta": "@venue-accomodation-type",
        "userDefined": true
      },
      {
        "text": " in ",
        "userDefined": false
      },
      {
        "text": "Baltimore Ohio",
        "alias": "location",
        "meta": "@sys.location",
        "userDefined": true
      }
    ],
    "isTemplate": false,
    "count": 0,
    "updated": 0
  },
  {
    "id": "8f3a5fb4-69c2-4de4-a095-1df4615fd7e4",
    "data": [
      {
        "text": "hotels",
        "alias": "venue-type",
        "meta": "@venue-accomodation-type",
        "userDefined": true
      },
      {
        "text": " in ",
        "userDefined": false
      },
      {
        "text": "Opryland",
        "alias": "location",
        "meta": "@sys.location",
        "userDefined": true
      }
    ],
    "isTemplate": false,
    "count": 0,
    "updated": 0
  },
  {
    "id": "8b87c7d6-1f97-4334-8718-b3c6e8e54cc2",
    "data": [
      {
        "text": "find ",
        "userDefined": false
      },
      {
        "text": "hotels",
        "alias": "venue-type",
        "meta": "@venue-accomodation-type",
        "userDefined": true
      },
      {
        "text": " ",
        "userDefined": false
      },
      {
        "text": "Charlotte North Carolina",
        "alias": "location",
        "meta": "@sys.location",
        "userDefined": true
      }
    ],
    "isTemplate": false,
    "count": 0,
    "updated": 0
  },
  {
    "id": "0af51bd3-99a5-4190-a81b-e668125cf0a9",
    "data": [
      {
        "text": "search ",
        "userDefined": false
      },
      {
        "text": "pet friendly",
        "alias": "venue-facility",
        "meta": "@venue-facility",
        "userDefined": true
      },
      {
        "text": " ",
        "userDefined": false
      },
      {
        "text": "hotel",
        "alias": "venue-type",
        "meta": "@venue-accomodation-type",
        "userDefined": true
      },
      {
        "text": " near ",
        "userDefined": false
      },
      {
        "text": "London",
        "alias": "location",
        "meta": "@sys.location",
        "userDefined": true
      },
      {
        "text": " with ",
        "userDefined": false
      },
      {
        "text": "3",
        "alias": "stars",
        "meta": "@sys.number",
        "userDefined": true
      },
      {
        "text": " stars",
        "userDefined": false
      }
    ],
    "isTemplate": false,
    "count": 0,
    "updated": 0
  },
  {
    "id": "3df54d9c-fa0e-45c9-a38a-8e9797bfcc9b",
    "data": [
      {
        "text": "hotel",
        "alias": "venue-type",
        "meta": "@venue-accomodation-type",
        "userDefined": true
      },
      {
        "text": " with ",
        "userDefined": false
      },
      {
        "text": "parking",
        "alias": "venue-facility",
        "meta": "@venue-facility",
        "userDefined": true
      },
      {
        "text": " and ",
        "userDefined": false
      },
      {
        "text": "wifi",
        "alias": "venue-facility",
        "meta": "@venue-facility",
        "userDefined": true
      }
    ],
    "isTemplate": false,
    "count": 0,
    "updated": 0
  },
  {
    "id": "4c2718e3-dbb6-4cbc-b30a-3fadbfcd3ace",
    "data": [
      {
        "text": "search for ",
        "userDefined": false
      },
      {
        "text": "hotels",
        "alias": "venue-type",
        "meta": "@venue-accomodation-type",
        "userDefined": true
      },
      {
        "text": " with ",
        "userDefined": false
      },
      {
        "text": "free Wi-Fi",
        "alias": "venue-facility",
        "meta": "@venue-facility",
        "userDefined": true
      }
    ],
    "isTemplate": false,
    "count": 0,
    "updated": 0
  },
  {
    "id": "af5adced-cf01-45ac-a94c-cc454045dd97",
    "data": [
      {
        "text": "hotels",
        "alias": "venue-type",
        "meta": "@venue-accomodation-type",
        "userDefined": true
      },
      {
        "text": " ",
        "userDefined": false
      },
      {
        "text": "nearby",
        "alias": "sort",
        "meta": "@map-sort",
        "userDefined": true
      }
    ],
    "isTemplate": false,
    "count": 0,
    "updated": 0
  },
  {
    "id": "8514c590-07aa-49fd-9916-f5411f099d3e",
    "data": [
      {
        "text": "find ",
        "userDefined": false
      },
      {
        "text": "hotels",
        "alias": "venue-type",
        "meta": "@venue-accomodation-type",
        "userDefined": true
      },
      {
        "text": " in ",
        "userDefined": false
      },
      {
        "text": "Santa Barbara",
        "alias": "location",
        "meta": "@sys.location",
        "userDefined": true
      }
    ],
    "isTemplate": false,
    "count": 0,
    "updated": 0
  },
  {
    "id": "08dc7e86-2e8e-4a92-a10d-28202bbabda0",
    "data": [
      {
        "text": "good",
        "alias": "sort",
        "meta": "@map-sort",
        "userDefined": true
      },
      {
        "text": " ",
        "userDefined": false
      },
      {
        "text": "hotels",
        "alias": "venue-type",
        "meta": "@venue-accomodation-type",
        "userDefined": true
      },
      {
        "text": " in ",
        "userDefined": false
      },
      {
        "text": "Abu Dhabi",
        "alias": "location",
        "meta": "@sys.location",
        "userDefined": true
      }
    ],
    "isTemplate": false,
    "count": 0,
    "updated": 0
  },
  {
    "id": "502e5312-b3cd-4ad9-8fd2-6e5c4f2033c7",
    "data": [
      {
        "text": "find me an affordable ",
        "userDefined": false
      },
      {
        "text": "hotel",
        "alias": "venue-type",
        "meta": "@venue-accomodation-type",
        "userDefined": true
      },
      {
        "text": " in ",
        "userDefined": false
      },
      {
        "text": "Jersey",
        "alias": "location",
        "meta": "@sys.location",
        "userDefined": true
      }
    ],
    "isTemplate": false,
    "count": 0,
    "updated": 0
  },
  {
    "id": "32649f4d-2acc-491c-875f-cbd9201a3eb3",
    "data": [
      {
        "text": "can you find ",
        "userDefined": false
      },
      {
        "text": "hotels",
        "alias": "venue-type",
        "meta": "@venue-accomodation-type",
        "userDefined": true
      },
      {
        "text": " in ",
        "userDefined": false
      },
      {
        "text": "Okinawa",
        "alias": "location",
        "meta": "@sys.location",
        "userDefined": true
      }
    ],
    "isTemplate": false,
    "count": 0,
    "updated": 0
  },
  {
    "id": "ba4aea10-e86e-4930-a314-88eadf45d2bc",
    "data": [
      {
        "text": "hostel",
        "alias": "venue-type",
        "meta": "@venue-accomodation-type",
        "userDefined": true
      },
      {
        "text": " with ",
        "userDefined": false
      },
      {
        "text": "parking",
        "alias": "venue-facility",
        "meta": "@venue-facility",
        "userDefined": true
      }
    ],
    "isTemplate": false,
    "count": 0,
    "updated": 0
  },
  {
    "id": "ce48e901-d4db-4618-aec6-bdfcd31a1cca",
    "data": [
      {
        "text": "hostel",
        "alias": "venue-type",
        "meta": "@venue-accomodation-type",
        "userDefined": true
      },
      {
        "text": " ",
        "userDefined": false
      },
      {
        "text": "room",
        "meta": "@sys.ignore",
        "userDefined": true
      },
      {
        "text": " with ",
        "userDefined": false
      },
      {
        "text": "terrace",
        "alias": "room-facility",
        "meta": "@room-facility",
        "userDefined": true
      }
    ],
    "isTemplate": false,
    "count": 0,
    "updated": 0
  },
  {
    "id": "f39b1e14-f41b-4d5b-b55b-641da5ff4c9d",
    "data": [
      {
        "text": "find ",
        "userDefined": false
      },
      {
        "text": "cheap",
        "alias": "sort",
        "meta": "@map-sort",
        "userDefined": true
      },
      {
        "text": " ",
        "userDefined": false
      },
      {
        "text": "motel",
        "alias": "venue-type",
        "meta": "@venue-accomodation-type",
        "userDefined": true
      }
    ],
    "isTemplate": false,
    "count": 0,
    "updated": 0
  },
  {
    "id": "991619df-f723-467f-a160-56d8282c49fb",
    "data": [
      {
        "text": "is there a ",
        "userDefined": false
      },
      {
        "text": "cheap",
        "alias": "sort",
        "meta": "@map-sort",
        "userDefined": true
      },
      {
        "text": " ",
        "userDefined": false
      },
      {
        "text": "well-rated",
        "alias": "rating",
        "meta": "@rating",
        "userDefined": true
      },
      {
        "text": " ",
        "userDefined": false
      },
      {
        "text": "bed and breakfast",
        "alias": "board-type",
        "meta": "@board-type",
        "userDefined": true
      },
      {
        "text": " in ",
        "userDefined": false
      },
      {
        "text": "Melbourne",
        "alias": "location",
        "meta": "@sys.location",
        "userDefined": true
      },
      {
        "text": " with ",
        "userDefined": false
      },
      {
        "text": "free Wi-Fi",
        "alias": "venue-facility",
        "meta": "@venue-facility",
        "userDefined": true
      }
    ],
    "isTemplate": false,
    "count": 0,
    "updated": 0
  },
  {
    "id": "c1914a88-ffe1-41fa-9151-8431db37c843",
    "data": [
      {
        "text": "place to ",
        "userDefined": false
      },
      {
        "text": "stay",
        "meta": "@sys.ignore",
        "userDefined": true
      },
      {
        "text": " in ",
        "userDefined": false
      },
      {
        "text": "London",
        "alias": "location",
        "meta": "@sys.location",
        "userDefined": true
      }
    ],
    "isTemplate": false,
    "count": 0,
    "updated": 0
  },
  {
    "id": "6a8c9291-c7d8-4b26-8b2d-24da93a6374a",
    "data": [
      {
        "text": "any ",
        "userDefined": false
      },
      {
        "text": "hotels",
        "alias": "venue-type",
        "meta": "@venue-accomodation-type",
        "userDefined": true
      },
      {
        "text": " ",
        "userDefined": false
      },
      {
        "text": "near by",
        "alias": "sort",
        "meta": "@map-sort",
        "userDefined": true
      }
    ],
    "isTemplate": false,
    "count": 0,
    "updated": 0
  },
  {
    "id": "d2c83d8d-b5e6-4e95-a891-8e5b22873c8a",
    "data": [
      {
        "text": "search ",
        "userDefined": false
      },
      {
        "text": "hotels",
        "alias": "venue-type",
        "meta": "@venue-accomodation-type",
        "userDefined": true
      },
      {
        "text": " in ",
        "userDefined": false
      },
      {
        "text": "Goa",
        "alias": "location",
        "meta": "@sys.location",
        "userDefined": true
      }
    ],
    "isTemplate": false,
    "count": 0,
    "updated": 0
  },
  {
    "id": "ee37d672-962c-41a7-a0da-862621c9fa8c",
    "data": [
      {
        "text": "spa",
        "alias": "venue-facility",
        "meta": "@venue-facility",
        "userDefined": true
      },
      {
        "text": " ",
        "userDefined": false
      },
      {
        "text": "hotels",
        "alias": "venue-type",
        "meta": "@venue-accomodation-type",
        "userDefined": true
      },
      {
        "text": " in ",
        "userDefined": false
      },
      {
        "text": "Soest",
        "alias": "location",
        "meta": "@sys.location",
        "userDefined": true
      }
    ],
    "isTemplate": false,
    "count": 0,
    "updated": 0
  },
  {
    "id": "7389220a-0b8a-48c8-9b5d-3430bd62144c",
    "data": [
      {
        "text": "search ",
        "userDefined": false
      },
      {
        "text": "hotels",
        "alias": "venue-type",
        "meta": "@venue-accomodation-type",
        "userDefined": true
      },
      {
        "text": " in ",
        "userDefined": false
      },
      {
        "text": "Temecula",
        "alias": "location",
        "meta": "@sys.location",
        "userDefined": true
      }
    ],
    "isTemplate": false,
    "count": 0,
    "updated": 0
  },
  {
    "id": "050eae35-086b-4749-975f-3b057bbd2a18",
    "data": [
      {
        "text": "show me ",
        "userDefined": false
      },
      {
        "text": "pet friendly",
        "alias": "venue-facility",
        "meta": "@venue-facility",
        "userDefined": true
      },
      {
        "text": " ",
        "userDefined": false
      },
      {
        "text": "hotel",
        "alias": "venue-type",
        "meta": "@venue-accomodation-type",
        "userDefined": true
      },
      {
        "text": " near ",
        "userDefined": false
      },
      {
        "text": "Main Street",
        "alias": "location",
        "meta": "@sys.location",
        "userDefined": true
      },
      {
        "text": " with ",
        "userDefined": false
      },
      {
        "text": "3",
        "alias": "stars",
        "meta": "@sys.number",
        "userDefined": true
      },
      {
        "text": " stars",
        "userDefined": false
      }
    ],
    "isTemplate": false,
    "count": 0,
    "updated": 0
  },
  {
    "id": "0876f91f-9775-4bae-b09a-a375771a055a",
    "data": [
      {
        "text": "show ",
        "userDefined": false
      },
      {
        "text": "best",
        "alias": "sort",
        "meta": "@map-sort",
        "userDefined": true
      },
      {
        "text": " ",
        "userDefined": false
      },
      {
        "text": "hotels",
        "alias": "venue-type",
        "meta": "@venue-accomodation-type",
        "userDefined": true
      }
    ],
    "isTemplate": false,
    "count": 0,
    "updated": 0
  },
  {
    "id": "cb3bb2ca-b609-4a65-a27f-30845bfab638",
    "data": [
      {
        "text": "show me the ",
        "userDefined": false
      },
      {
        "text": "nearest",
        "alias": "sort",
        "meta": "@map-sort",
        "userDefined": true
      },
      {
        "text": " ",
        "userDefined": false
      },
      {
        "text": "hotels",
        "alias": "venue-type",
        "meta": "@venue-accomodation-type",
        "userDefined": true
      },
      {
        "text": " ",
        "userDefined": false
      },
      {
        "text": "on",
        "meta": "@sys.ignore",
        "userDefined": true
      },
      {
        "text": " the ",
        "userDefined": false
      },
      {
        "text": "map",
        "meta": "@sys.ignore",
        "userDefined": true
      }
    ],
    "isTemplate": false,
    "count": 0,
    "updated": 0
  },
  {
    "id": "8ccbff89-3dc3-4403-85c0-30376c7e11ae",
    "data": [
      {
        "text": "search",
        "meta": "@sys.ignore",
        "userDefined": true
      },
      {
        "text": " ",
        "userDefined": false
      },
      {
        "text": "hotels",
        "alias": "venue-type",
        "meta": "@venue-accomodation-type",
        "userDefined": true
      },
      {
        "text": " with available ",
        "userDefined": false
      },
      {
        "text": "rooms",
        "meta": "@sys.ignore",
        "userDefined": true
      },
      {
        "text": " with ",
        "userDefined": false
      },
      {
        "text": "hair dryer",
        "alias": "room-facility",
        "meta": "@room-facility",
        "userDefined": true
      },
      {
        "text": " and ",
        "userDefined": false
      },
      {
        "text": "air conditioner",
        "alias": "room-facility",
        "meta": "@room-facility",
        "userDefined": true
      }
    ],
    "isTemplate": false,
    "count": 0,
    "updated": 0
  },
  {
    "id": "c5c13e1f-ae5f-4c90-9a88-09fa559e92f9",
    "data": [
      {
        "text": "find ",
        "userDefined": false
      },
      {
        "text": "all inclusive",
        "alias": "board-type",
        "meta": "@board-type",
        "userDefined": true
      }
    ],
    "isTemplate": false,
    "count": 0,
    "updated": 0
  },
  {
    "id": "4d0a0507-fce0-481c-82f6-22af87d11443",
    "data": [
      {
        "text": "hotels",
        "alias": "venue-type",
        "meta": "@venue-accomodation-type",
        "userDefined": true
      },
      {
        "text": " in ",
        "userDefined": false
      },
      {
        "text": "Pensacola",
        "alias": "location",
        "meta": "@sys.location",
        "userDefined": true
      }
    ],
    "isTemplate": false,
    "count": 0,
    "updated": 0
  },
  {
    "id": "0e1b4d03-4b46-4c67-b5f4-d727afebc4fa",
    "data": [
      {
        "text": "accommodation in ",
        "userDefined": false
      },
      {
        "text": "London",
        "alias": "location",
        "meta": "@sys.location",
        "userDefined": true
      }
    ],
    "isTemplate": false,
    "count": 0,
    "updated": 0
  },
  {
    "id": "baab12bc-9c8a-4f3e-91d2-211a60ef329b",
    "data": [
      {
        "text": "show ",
        "userDefined": false
      },
      {
        "text": "hotels",
        "alias": "venue-type",
        "meta": "@venue-accomodation-type",
        "userDefined": true
      }
    ],
    "isTemplate": false,
    "count": 0,
    "updated": 0
  },
  {
    "id": "cf74bb1a-0b6e-4f52-b935-f85d6c9ae25d",
    "data": [
      {
        "text": "hello show me the ",
        "userDefined": false
      },
      {
        "text": "cheapest",
        "alias": "sort",
        "meta": "@map-sort",
        "userDefined": true
      },
      {
        "text": " ",
        "userDefined": false
      },
      {
        "text": "hotels",
        "alias": "venue-type",
        "meta": "@venue-accomodation-type",
        "userDefined": true
      },
      {
        "text": " in ",
        "userDefined": false
      },
      {
        "text": "Miami Florida",
        "alias": "location",
        "meta": "@sys.location",
        "userDefined": true
      }
    ],
    "isTemplate": false,
    "count": 0,
    "updated": 0
  },
  {
    "id": "4dde8f7f-24c4-4c1c-bc28-7800cbccec42",
    "data": [
      {
        "text": "accomodation",
        "userDefined": false
      }
    ],
    "isTemplate": false,
    "count": 0,
    "updated": 0
  },
  {
    "id": "36a32d64-f399-40b8-bf06-a39cdcdc1f74",
    "data": [
      {
        "text": "show ",
        "userDefined": false
      },
      {
        "text": "pet friendly",
        "alias": "venue-facility",
        "meta": "@venue-facility",
        "userDefined": true
      },
      {
        "text": " ",
        "userDefined": false
      },
      {
        "text": "hotel",
        "alias": "venue-type",
        "meta": "@venue-accomodation-type",
        "userDefined": true
      },
      {
        "text": " near ",
        "userDefined": false
      },
      {
        "text": "London",
        "alias": "location",
        "meta": "@sys.location",
        "userDefined": true
      }
    ],
    "isTemplate": false,
    "count": 0,
    "updated": 0
  },
  {
    "id": "db4bdc5f-f9d1-4c8e-9278-08bc62eba2ad",
    "data": [
      {
        "text": "show me",
        "meta": "@sys.ignore",
        "userDefined": true
      },
      {
        "text": " the ",
        "userDefined": false
      },
      {
        "text": "nearest",
        "alias": "sort",
        "meta": "@map-sort",
        "userDefined": true
      },
      {
        "text": " ",
        "userDefined": false
      },
      {
        "text": "hotel",
        "alias": "venue-type",
        "meta": "@venue-accomodation-type",
        "userDefined": true
      }
    ],
    "isTemplate": false,
    "count": 1,
    "updated": 0
  },
  {
    "id": "84d30b22-fa90-410f-8ddc-16ea1609db43",
    "data": [
      {
        "text": "hotel",
        "alias": "venue-type",
        "meta": "@venue-accomodation-type",
        "userDefined": true
      },
      {
        "text": " in ",
        "userDefined": false
      },
      {
        "text": "SF",
        "alias": "location",
        "meta": "@sys.location",
        "userDefined": true
      }
    ],
    "isTemplate": false,
    "count": 0,
    "updated": 0
  },
  {
    "id": "1f43caa4-6835-471b-b555-81489134b0bd",
    "data": [
      {
        "text": "best",
        "alias": "sort",
        "meta": "@map-sort",
        "userDefined": true
      },
      {
        "text": " ",
        "userDefined": false
      },
      {
        "text": "nearest",
        "alias": "sort",
        "meta": "@map-sort",
        "userDefined": true
      },
      {
        "text": " ",
        "userDefined": false
      },
      {
        "text": "hotel",
        "alias": "venue-type",
        "meta": "@venue-accomodation-type",
        "userDefined": true
      }
    ],
    "isTemplate": false,
    "count": 0,
    "updated": 0
  },
  {
    "id": "b5065940-4235-4661-aa14-cca917da56b4",
    "data": [
      {
        "text": "find a ",
        "userDefined": false
      },
      {
        "text": "hotel",
        "alias": "venue-type",
        "meta": "@venue-accomodation-type",
        "userDefined": true
      },
      {
        "text": " ",
        "userDefined": false
      },
      {
        "text": "in",
        "meta": "@sys.ignore",
        "userDefined": true
      },
      {
        "text": " ",
        "userDefined": false
      },
      {
        "text": "Tokyo",
        "alias": "location",
        "meta": "@sys.location",
        "userDefined": true
      },
      {
        "text": " ",
        "userDefined": false
      },
      {
        "text": "starting",
        "meta": "@sys.ignore",
        "userDefined": true
      },
      {
        "text": " on ",
        "userDefined": false
      },
      {
        "text": "April 10",
        "alias": "checkin-date",
        "meta": "@sys.date-time",
        "userDefined": true
      },
      {
        "text": " for ",
        "userDefined": false
      },
      {
        "text": "5",
        "alias": "night",
        "meta": "@sys.number",
        "userDefined": true
      },
      {
        "text": " ",
        "userDefined": false
      },
      {
        "text": "nights make",
        "meta": "@sys.ignore",
        "userDefined": true
      },
      {
        "text": " ",
        "userDefined": false
      },
      {
        "text": "sure",
        "meta": "@sys.ignore",
        "userDefined": true
      },
      {
        "text": " ",
        "userDefined": false
      },
      {
        "text": "it",
        "meta": "@sys.ignore",
        "userDefined": true
      },
      {
        "text": "\u0027s a ",
        "userDefined": false
      },
      {
        "text": "Hyatt",
        "alias": "venue-chain",
        "meta": "@venue-accomodation-chain",
        "userDefined": true
      }
    ],
    "isTemplate": false,
    "count": 0,
    "updated": 0
  },
  {
    "id": "4d700266-d9c7-489c-a2e0-8ad855f5d3f6",
    "data": [
      {
        "text": "find ",
        "userDefined": false
      },
      {
        "text": "Ambassador",
        "alias": "venue-title",
        "meta": "@venue-accomodation-title",
        "userDefined": true
      },
      {
        "text": " ",
        "userDefined": false
      },
      {
        "text": "hotel",
        "alias": "venue-type",
        "meta": "@venue-accomodation-type",
        "userDefined": true
      }
    ],
    "isTemplate": false,
    "count": 0,
    "updated": 0
  },
  {
    "id": "9752b5dd-7848-42b8-b0b3-11c5b940d097",
    "data": [
      {
        "text": "list of ",
        "userDefined": false
      },
      {
        "text": "hotels",
        "alias": "venue-type",
        "meta": "@venue-accomodation-type",
        "userDefined": true
      },
      {
        "text": " in ",
        "userDefined": false
      },
      {
        "text": "Ahmedabad",
        "alias": "location",
        "meta": "@sys.location",
        "userDefined": true
      }
    ],
    "isTemplate": false,
    "count": 0,
    "updated": 0
  },
  {
    "id": "15259dab-a889-4418-94c6-a4767c619b38",
    "data": [
      {
        "text": "search ",
        "userDefined": false
      },
      {
        "text": "Apple inn",
        "alias": "venue-chain",
        "meta": "@venue-accomodation-chain",
        "userDefined": true
      },
      {
        "text": " ",
        "userDefined": false
      },
      {
        "text": "hotels",
        "alias": "venue-type",
        "meta": "@venue-accomodation-type",
        "userDefined": true
      }
    ],
    "isTemplate": false,
    "count": 0,
    "updated": 0
  },
  {
    "id": "40bda176-67e7-4061-948c-6a4228e38ecd",
    "data": [
      {
        "text": "find accommodation",
        "userDefined": false
      }
    ],
    "isTemplate": false,
    "count": 0,
    "updated": 0
  },
  {
    "id": "7f9fe30d-f157-4c09-8ae7-679d52304a69",
    "data": [
      {
        "text": "find ",
        "userDefined": false
      },
      {
        "text": "hotels",
        "alias": "venue-type",
        "meta": "@venue-accomodation-type",
        "userDefined": true
      },
      {
        "text": " in ",
        "userDefined": false
      },
      {
        "text": "Temecula",
        "alias": "location",
        "meta": "@sys.location",
        "userDefined": true
      }
    ],
    "isTemplate": false,
    "count": 0,
    "updated": 0
  },
  {
    "id": "a83fdb3f-113c-450d-b396-dd531369a821",
    "data": [
      {
        "text": "cheap",
        "alias": "sort",
        "meta": "@map-sort",
        "userDefined": true
      },
      {
        "text": " ",
        "userDefined": false
      },
      {
        "text": "hotels",
        "alias": "venue-type",
        "meta": "@venue-accomodation-type",
        "userDefined": true
      },
      {
        "text": " near ",
        "userDefined": false
      },
      {
        "text": "2nd street",
        "alias": "location",
        "meta": "@sys.location",
        "userDefined": true
      },
      {
        "text": " in ",
        "userDefined": false
      },
      {
        "text": "Victorville California",
        "alias": "location",
        "meta": "@sys.location",
        "userDefined": true
      }
    ],
    "isTemplate": false,
    "count": 0,
    "updated": 0
  },
  {
    "id": "ae71ce58-68b2-434c-8869-bc992abc5a67",
    "data": [
      {
        "text": "find a hotel in ",
        "userDefined": false
      },
      {
        "text": "Tokyo",
        "alias": "location",
        "meta": "@sys.location",
        "userDefined": true
      },
      {
        "text": " from ",
        "userDefined": false
      },
      {
        "text": "April 10",
        "alias": "checkin-date",
        "meta": "@sys.date-time",
        "userDefined": true
      },
      {
        "text": " for ",
        "userDefined": false
      },
      {
        "text": "5",
        "alias": "night",
        "meta": "@sys.number",
        "userDefined": true
      },
      {
        "text": " nights",
        "userDefined": false
      }
    ],
    "isTemplate": false,
    "count": 0,
    "updated": 0
  },
  {
    "id": "fc870e20-7993-4654-9df9-30de5afed3e5",
    "data": [
      {
        "text": "find ",
        "userDefined": false
      },
      {
        "text": "Hilton",
        "alias": "venue-chain",
        "meta": "@venue-accomodation-chain",
        "userDefined": true
      },
      {
        "text": " in ",
        "userDefined": false
      },
      {
        "text": "Scotts Valley",
        "alias": "location",
        "meta": "@sys.location",
        "userDefined": true
      }
    ],
    "isTemplate": false,
    "count": 0,
    "updated": 0
  },
  {
    "id": "1feaf550-2f0b-452f-b085-96bde8fed9c5",
    "data": [
      {
        "text": "Express Lancaster Ohio",
        "alias": "venue-chain",
        "meta": "@venue-accomodation-chain",
        "userDefined": true
      },
      {
        "text": " ",
        "userDefined": false
      },
      {
        "text": "beach resorts",
        "alias": "venue-type",
        "meta": "@venue-accomodation-type",
        "userDefined": true
      },
      {
        "text": " in ",
        "userDefined": false
      },
      {
        "text": "Ohio",
        "alias": "location",
        "meta": "@sys.location",
        "userDefined": true
      }
    ],
    "isTemplate": false,
    "count": 0,
    "updated": 0
  },
  {
    "id": "5edba597-d2c1-4860-aecc-97ecaebb5df3",
    "data": [
      {
        "text": "find ",
        "userDefined": false
      },
      {
        "text": "opened",
        "alias": "venue-chain",
        "meta": "@venue-accomodation-chain",
        "userDefined": true
      },
      {
        "text": " ",
        "userDefined": false
      },
      {
        "text": "hostels",
        "alias": "venue-type",
        "meta": "@venue-accomodation-type",
        "userDefined": true
      }
    ],
    "isTemplate": false,
    "count": 0,
    "updated": 0
  },
  {
    "id": "baf985c5-12e0-42cc-b6da-65b38b37e295",
    "data": [
      {
        "text": "find ",
        "userDefined": false
      },
      {
        "text": "Hilton",
        "alias": "venue-chain",
        "meta": "@venue-accomodation-chain",
        "userDefined": true
      }
    ],
    "isTemplate": false,
    "count": 0,
    "updated": 0
  },
  {
    "id": "c3f7af26-6417-4cb7-ad5c-b8feea9ea044",
    "data": [
      {
        "text": "can you show me the ",
        "userDefined": false
      },
      {
        "text": "highest rank",
        "alias": "rating",
        "meta": "@rating",
        "userDefined": true
      },
      {
        "text": " ",
        "userDefined": false
      },
      {
        "text": "hotels",
        "alias": "venue-type",
        "meta": "@venue-accomodation-type",
        "userDefined": true
      },
      {
        "text": " in ",
        "userDefined": false
      },
      {
        "text": "Okinawa",
        "alias": "location",
        "meta": "@sys.location",
        "userDefined": true
      }
    ],
    "isTemplate": false,
    "count": 0,
    "updated": 0
  },
  {
    "id": "256dc6fb-48eb-43ad-96e0-f6c5460ab695",
    "data": [
      {
        "text": "look up ",
        "userDefined": false
      },
      {
        "text": "hotels",
        "alias": "venue-type",
        "meta": "@venue-accomodation-type",
        "userDefined": true
      },
      {
        "text": " in ",
        "userDefined": false
      },
      {
        "text": "Washington county Kansas",
        "alias": "location",
        "meta": "@sys.location",
        "userDefined": true
      }
    ],
    "isTemplate": false,
    "count": 0,
    "updated": 0
  },
  {
    "id": "ef33dc85-fbf1-45c7-b5d6-388b94d47007",
    "data": [
      {
        "text": "search ",
        "userDefined": false
      },
      {
        "text": "all inclusive",
        "alias": "board-type",
        "meta": "@board-type",
        "userDefined": true
      },
      {
        "text": " ",
        "userDefined": false
      },
      {
        "text": "hotels",
        "alias": "venue-type",
        "meta": "@venue-accomodation-type",
        "userDefined": true
      }
    ],
    "isTemplate": false,
    "count": 0,
    "updated": 0
  },
  {
    "id": "d47a7504-f51b-486e-b5e7-ab1cbd6ce1e9",
    "data": [
      {
        "text": "I\u0027m looking for a ",
        "userDefined": false
      },
      {
        "text": "hotel",
        "alias": "venue-type",
        "meta": "@venue-accomodation-type",
        "userDefined": true
      },
      {
        "text": " room in ",
        "userDefined": false
      },
      {
        "text": "Buenos Aires",
        "alias": "location",
        "meta": "@sys.location",
        "userDefined": true
      }
    ],
    "isTemplate": false,
    "count": 1,
    "updated": 0
  }
]