[
  {
    "id": "c94ddc44-4966-40b6-8fac-474cc20e92eb",
    "data": [
      {
        "text": "find ",
        "userDefined": false
      },
      {
        "text": "best",
        "alias": "sort",
        "meta": "@map-sort",
        "userDefined": true
      },
      {
        "text": " ",
        "userDefined": false
      },
      {
        "text": "fitness",
        "alias": "venue-type",
        "meta": "@venue-sport-type",
        "userDefined": true
      },
      {
        "text": " in ",
        "userDefined": false
      },
      {
        "text": "Palo Alto",
        "alias": "location",
        "meta": "@sys.location",
        "userDefined": true
      }
    ],
    "isTemplate": false,
    "count": 0,
    "updated": 0
  },
  {
    "id": "a1d243f9-a41b-4f57-aa88-7ce003292003",
    "data": [
      {
        "text": "I want to go",
        "meta": "@sys.ignore",
        "userDefined": true
      },
      {
        "text": " ",
        "userDefined": false
      },
      {
        "text": "to",
        "meta": "@sys.ignore",
        "userDefined": true
      },
      {
        "text": " ",
        "userDefined": false
      },
      {
        "text": "gym",
        "alias": "venue-type",
        "meta": "@venue-sport-type",
        "userDefined": true
      },
      {
        "text": " with ",
        "userDefined": false
      },
      {
        "text": "Wi-Fi",
        "alias": "venue-facility",
        "meta": "@venue-facility",
        "userDefined": true
      }
    ],
    "isTemplate": false,
    "count": 0,
    "updated": 0
  },
  {
    "id": "2e175eef-7090-4039-bb30-47a7d64d860c",
    "data": [
      {
        "text": "find city ",
        "userDefined": false
      },
      {
        "text": "fitness",
        "alias": "venue-type",
        "meta": "@venue-sport-type",
        "userDefined": true
      }
    ],
    "isTemplate": false,
    "count": 0,
    "updated": 0
  },
  {
    "id": "32c4d163-b512-49f9-bc72-26e2ab65e8f8",
    "data": [
      {
        "text": "where is ",
        "userDefined": false
      },
      {
        "text": "ymca fitness",
        "alias": "venue-chain",
        "meta": "@venue-sport-chain",
        "userDefined": true
      }
    ],
    "isTemplate": false,
    "count": 0,
    "updated": 0
  },
  {
    "id": "8846041c-712e-4d2d-956d-108908a9a73f",
    "data": [
      {
        "text": "find ",
        "userDefined": false
      },
      {
        "text": "Dance clubs",
        "alias": "venue-type",
        "meta": "@venue-sport-type",
        "userDefined": true
      }
    ],
    "isTemplate": false,
    "count": 0,
    "updated": 0
  },
  {
    "id": "fece734e-e16b-46ef-9c21-74a4112c0431",
    "data": [
      {
        "text": "where can I ",
        "userDefined": false
      },
      {
        "text": "swim",
        "alias": "venue-type",
        "meta": "@venue-sport-type",
        "userDefined": true
      }
    ],
    "isTemplate": false,
    "count": 0,
    "updated": 0
  },
  {
    "id": "7f722269-08fd-42fa-8959-d381a14ce676",
    "data": [
      {
        "text": "search for ",
        "userDefined": false
      },
      {
        "text": "yoga",
        "alias": "venue-type",
        "meta": "@venue-sport-type",
        "userDefined": true
      },
      {
        "text": " in ",
        "userDefined": false
      },
      {
        "text": "London",
        "alias": "location",
        "meta": "@sys.location",
        "userDefined": true
      }
    ],
    "isTemplate": false,
    "count": 0,
    "updated": 0
  },
  {
    "id": "51544a5f-5497-426c-b756-f4f312265b6d",
    "data": [
      {
        "text": "yoga",
        "alias": "venue-type",
        "meta": "@venue-sport-type",
        "userDefined": true
      },
      {
        "text": " in ",
        "userDefined": false
      },
      {
        "text": "Moscow",
        "alias": "location",
        "meta": "@sys.location",
        "userDefined": true
      }
    ],
    "isTemplate": false,
    "count": 0,
    "updated": 0
  },
  {
    "id": "0556a149-af81-4cb8-aa98-446a584839d4",
    "data": [
      {
        "text": "opened",
        "alias": "open",
        "meta": "@open",
        "userDefined": true
      },
      {
        "text": " ",
        "userDefined": false
      },
      {
        "text": "gyms",
        "alias": "venue-type",
        "meta": "@venue-sport-type",
        "userDefined": true
      }
    ],
    "isTemplate": false,
    "count": 0,
    "updated": 0
  },
  {
    "id": "a8056d1c-cafd-498b-abcf-1c0262b56dc1",
    "data": [
      {
        "text": "best",
        "alias": "sort",
        "meta": "@map-sort",
        "userDefined": true
      },
      {
        "text": " ",
        "userDefined": false
      },
      {
        "text": "yoga club",
        "alias": "venue-type",
        "meta": "@venue-sport-type",
        "userDefined": true
      }
    ],
    "isTemplate": false,
    "count": 0,
    "updated": 0
  },
  {
    "id": "bcd6b746-5508-4a3b-bddf-bfed615bfdc3",
    "data": [
      {
        "text": "and the ",
        "userDefined": false
      },
      {
        "text": "nearest",
        "alias": "sort",
        "meta": "@map-sort",
        "userDefined": true
      },
      {
        "text": " ",
        "userDefined": false
      },
      {
        "text": "football stadium",
        "alias": "venue-type",
        "meta": "@venue-sport-type",
        "userDefined": true
      }
    ],
    "isTemplate": false,
    "count": 0,
    "updated": 0
  },
  {
    "id": "7d9ae4db-6cf8-43e7-a5d2-e44e113d757b",
    "data": [
      {
        "text": "find ",
        "userDefined": false
      },
      {
        "text": "Bare hills",
        "alias": "venue-title",
        "meta": "@venue-sport-title",
        "userDefined": true
      },
      {
        "text": " ",
        "userDefined": false
      },
      {
        "text": "fitness",
        "alias": "venue-type",
        "meta": "@venue-sport-type",
        "userDefined": true
      }
    ],
    "isTemplate": false,
    "count": 0,
    "updated": 0
  },
  {
    "id": "ee6e2e94-b9b0-4663-81dd-b8e5854c2d8f",
    "data": [
      {
        "text": "search",
        "meta": "@sys.ignore",
        "userDefined": true
      },
      {
        "text": " ",
        "userDefined": false
      },
      {
        "text": "yoga center",
        "alias": "venue-type",
        "meta": "@venue-sport-type",
        "userDefined": true
      },
      {
        "text": " with ",
        "userDefined": false
      },
      {
        "text": "parking",
        "alias": "venue-facility",
        "meta": "@venue-facility",
        "userDefined": true
      }
    ],
    "isTemplate": false,
    "count": 0,
    "updated": 0
  },
  {
    "id": "c45eea80-4a3c-4811-8ee0-e1c3100a2a24",
    "data": [
      {
        "text": "best",
        "alias": "sort",
        "meta": "@map-sort",
        "userDefined": true
      },
      {
        "text": " ",
        "userDefined": false
      },
      {
        "text": "gym",
        "alias": "venue-type",
        "meta": "@venue-sport-type",
        "userDefined": true
      },
      {
        "text": " with ",
        "userDefined": false
      },
      {
        "text": "Wi-Fi",
        "alias": "venue-facility",
        "meta": "@venue-facility",
        "userDefined": true
      },
      {
        "text": " ",
        "userDefined": false
      },
      {
        "text": "nearby",
        "alias": "sort",
        "meta": "@map-sort",
        "userDefined": true
      }
    ],
    "isTemplate": false,
    "count": 0,
    "updated": 0
  },
  {
    "id": "9b338c72-be15-494b-9761-7dc922701115",
    "data": [
      {
        "text": "fitness center",
        "alias": "venue-type",
        "meta": "@venue-sport-type",
        "userDefined": true
      },
      {
        "text": " with ",
        "userDefined": false
      },
      {
        "text": "highest rank",
        "alias": "rating",
        "meta": "@rating",
        "userDefined": true
      }
    ],
    "isTemplate": false,
    "count": 0,
    "updated": 0
  },
  {
    "id": "8fc443a7-acaa-4396-82cc-5c1d4edc3adf",
    "data": [
      {
        "text": "show ",
        "userDefined": false
      },
      {
        "text": "Equinox",
        "alias": "venue-chain",
        "meta": "@venue-sport-chain",
        "userDefined": true
      },
      {
        "text": " ",
        "userDefined": false
      },
      {
        "text": "fitness",
        "alias": "venue-type",
        "meta": "@venue-sport-type",
        "userDefined": true
      }
    ],
    "isTemplate": false,
    "count": 0,
    "updated": 0
  },
  {
    "id": "c5a94f04-c092-4eb2-b2f6-16c949059d37",
    "data": [
      {
        "text": "the ",
        "userDefined": false
      },
      {
        "text": "gym",
        "alias": "venue-type",
        "meta": "@venue-sport-type",
        "userDefined": true
      }
    ],
    "isTemplate": false,
    "count": 0,
    "updated": 0
  },
  {
    "id": "8a60ba5b-bb49-4fc4-86d7-7f78289e1688",
    "data": [
      {
        "text": "find ",
        "userDefined": false
      },
      {
        "text": "opened",
        "alias": "open",
        "meta": "@open",
        "userDefined": true
      },
      {
        "text": " ",
        "userDefined": false
      },
      {
        "text": "gyms",
        "alias": "venue-type",
        "meta": "@venue-sport-type",
        "userDefined": true
      }
    ],
    "isTemplate": false,
    "count": 0,
    "updated": 0
  },
  {
    "id": "ce59c7ef-048a-4c47-82ac-8695586cc40f",
    "data": [
      {
        "text": "fitness club",
        "alias": "venue-type",
        "meta": "@venue-sport-type",
        "userDefined": true
      }
    ],
    "isTemplate": false,
    "count": 0,
    "updated": 0
  },
  {
    "id": "ebbb236a-1b2d-460f-ae42-a98490acb52b",
    "data": [
      {
        "text": "where is ",
        "userDefined": false
      },
      {
        "text": "Fitness depot",
        "alias": "venue-title",
        "meta": "@venue-sport-title",
        "userDefined": true
      }
    ],
    "isTemplate": false,
    "count": 0,
    "updated": 0
  },
  {
    "id": "e2ab0a02-84e8-4474-8029-bdd1871f3d59",
    "data": [
      {
        "text": "Equinox",
        "alias": "venue-chain",
        "meta": "@venue-sport-chain",
        "userDefined": true
      },
      {
        "text": " ",
        "userDefined": false
      },
      {
        "text": "fitness",
        "alias": "venue-type",
        "meta": "@venue-sport-type",
        "userDefined": true
      }
    ],
    "isTemplate": false,
    "count": 0,
    "updated": 0
  },
  {
    "id": "a6f17b7e-0238-4bda-b62c-3c753158c4cb",
    "data": [
      {
        "text": "where is the ",
        "userDefined": false
      },
      {
        "text": "nearest",
        "alias": "sort",
        "meta": "@map-sort",
        "userDefined": true
      },
      {
        "text": " ",
        "userDefined": false
      },
      {
        "text": "football stadium",
        "alias": "venue-type",
        "meta": "@venue-sport-type",
        "userDefined": true
      }
    ],
    "isTemplate": false,
    "count": 0,
    "updated": 0
  },
  {
    "id": "61f92884-3191-405e-b02d-d3b49e3f4b6f",
    "data": [
      {
        "text": "where\u0027s the ",
        "userDefined": false
      },
      {
        "text": "nearest",
        "alias": "sort",
        "meta": "@map-sort",
        "userDefined": true
      },
      {
        "text": " ",
        "userDefined": false
      },
      {
        "text": "football stadium",
        "alias": "venue-type",
        "meta": "@venue-sport-type",
        "userDefined": true
      }
    ],
    "isTemplate": false,
    "count": 0,
    "updated": 0
  },
  {
    "id": "4aff9c6d-e264-436b-bde5-af29b714eaf1",
    "data": [
      {
        "text": "David Barton Gym",
        "alias": "venue-chain",
        "meta": "@venue-sport-chain",
        "userDefined": true
      }
    ],
    "isTemplate": false,
    "count": 0,
    "updated": 0
  },
  {
    "id": "21331cb2-1ab0-4939-aede-7da81213a49d",
    "data": [
      {
        "text": "best",
        "alias": "sort",
        "meta": "@map-sort",
        "userDefined": true
      },
      {
        "text": " ",
        "userDefined": false
      },
      {
        "text": "fitness",
        "alias": "venue-type",
        "meta": "@venue-sport-type",
        "userDefined": true
      },
      {
        "text": " in ",
        "userDefined": false
      },
      {
        "text": "LA",
        "alias": "location",
        "meta": "@sys.location",
        "userDefined": true
      }
    ],
    "isTemplate": false,
    "count": 0,
    "updated": 0
  },
  {
    "id": "a0286987-5441-47a9-8e60-caf470b2824e",
    "data": [
      {
        "text": "where is ",
        "userDefined": false
      },
      {
        "text": "Fitness depot",
        "alias": "venue-title",
        "meta": "@venue-sport-title",
        "userDefined": true
      },
      {
        "text": " located",
        "userDefined": false
      }
    ],
    "isTemplate": false,
    "count": 0,
    "updated": 0
  },
  {
    "id": "a8e40790-395d-4dc3-a589-f7ccf01f5425",
    "data": [
      {
        "text": "yoga",
        "alias": "venue-type",
        "meta": "@venue-sport-type",
        "userDefined": true
      }
    ],
    "isTemplate": false,
    "count": 0,
    "updated": 0
  },
  {
    "id": "7d47c877-fea2-4e37-8483-0314afbb2fc0",
    "data": [
      {
        "text": "find ",
        "userDefined": false
      },
      {
        "text": "cheapest",
        "alias": "sort",
        "meta": "@map-sort",
        "userDefined": true
      },
      {
        "text": " ",
        "userDefined": false
      },
      {
        "text": "fitness",
        "alias": "venue-type",
        "meta": "@venue-sport-type",
        "userDefined": true
      }
    ],
    "isTemplate": false,
    "count": 0,
    "updated": 0
  },
  {
    "id": "a63f431b-a7ef-4738-80c3-8068b8145cd7",
    "data": [
      {
        "text": "find ",
        "userDefined": false
      },
      {
        "text": "Yoga",
        "alias": "venue-type",
        "meta": "@venue-sport-type",
        "userDefined": true
      }
    ],
    "isTemplate": false,
    "count": 0,
    "updated": 0
  },
  {
    "id": "4b78756c-93ad-4624-858e-0c7019e53a77",
    "data": [
      {
        "text": "search ",
        "userDefined": false
      },
      {
        "text": "fitness center",
        "alias": "venue-type",
        "meta": "@venue-sport-type",
        "userDefined": true
      }
    ],
    "isTemplate": false,
    "count": 0,
    "updated": 0
  },
  {
    "id": "20462d3e-36d0-4cd1-9e75-edeb96c05cd8",
    "data": [
      {
        "text": "Bare hills",
        "alias": "venue-title",
        "meta": "@venue-sport-title",
        "userDefined": true
      },
      {
        "text": " ",
        "userDefined": false
      },
      {
        "text": "fitness",
        "alias": "venue-type",
        "meta": "@venue-sport-type",
        "userDefined": true
      }
    ],
    "isTemplate": false,
    "count": 0,
    "updated": 0
  },
  {
    "id": "0b4c7dab-df58-44bc-a26b-d48f36d80365",
    "data": [
      {
        "text": "stadium",
        "alias": "venue-type",
        "meta": "@venue-sport-type",
        "userDefined": true
      }
    ],
    "isTemplate": false,
    "count": 0,
    "updated": 0
  },
  {
    "id": "1bcfac11-1606-4183-bdb3-7bc85c078d5c",
    "data": [
      {
        "text": "find ",
        "userDefined": false
      },
      {
        "text": "best rated",
        "alias": "rating",
        "meta": "@rating",
        "userDefined": true
      },
      {
        "text": " ",
        "userDefined": false
      },
      {
        "text": "fitness center",
        "alias": "venue-type",
        "meta": "@venue-sport-type",
        "userDefined": true
      }
    ],
    "isTemplate": false,
    "count": 0,
    "updated": 0
  },
  {
    "id": "3861ceee-020a-4e13-84aa-4be57d7ae7c0",
    "data": [
      {
        "text": "show where is ",
        "userDefined": false
      },
      {
        "text": "Bare Hills",
        "alias": "venue-title",
        "meta": "@venue-sport-title",
        "userDefined": true
      },
      {
        "text": " ",
        "userDefined": false
      },
      {
        "text": "fitness",
        "alias": "venue-type",
        "meta": "@venue-sport-type",
        "userDefined": true
      },
      {
        "text": " located",
        "userDefined": false
      }
    ],
    "isTemplate": false,
    "count": 0,
    "updated": 0
  }
]