{
  "id": "6edeb166-dea3-4bee-8e6f-515c60f13525",
  "parentId": "1671e366-2adb-42f6-850b-06282b2c8355",
  "rootParentId": "1671e366-2adb-42f6-850b-06282b2c8355",
  "name": "venues.beauty.search - new venue",
  "auto": true,
  "contexts": [
    "venuesbeautysearch-followup"
  ],
  "responses": [
    {
      "resetContexts": false,
      "action": "venues.beauty.search",
      "affectedContexts": [],
      "parameters": [
        {
          "id": "0cc1d303-5068-48fd-857f-e7691db96eaf",
          "required": false,
          "dataType": "@venue-beauty-type",
          "name": "venue-type",
          "value": "$venue-type",
          "promptMessages": [],
          "noMatchPromptMessages": [],
          "noInputPromptMessages": [],
          "outputDialogContexts": [],
          "isList": false
        },
        {
          "id": "fc4b58ac-64ce-4976-8b60-83c9bcc83600",
          "required": false,
          "dataType": "",
          "name": "venue-chain",
          "value": "#venuesbeautysearch-followup.venue-chain",
          "promptMessages": [],
          "noMatchPromptMessages": [],
          "noInputPromptMessages": [],
          "outputDialogContexts": [],
          "isList": false
        },
        {
          "id": "b8e32fc4-9556-4e99-8e85-4e429266b9e3",
          "required": false,
          "dataType": "",
          "name": "venue-title",
          "value": "#venuesbeautysearch-followup.venue-title",
          "promptMessages": [],
          "noMatchPromptMessages": [],
          "noInputPromptMessages": [],
          "outputDialogContexts": [],
          "isList": false
        },
        {
          "id": "db644151-ad7a-4dd2-b510-35124e89ac34",
          "required": false,
          "dataType": "",
          "name": "location",
          "value": "#venuesbeautysearch-followup.location",
          "promptMessages": [],
          "noMatchPromptMessages": [],
          "noInputPromptMessages": [],
          "outputDialogContexts": [],
          "isList": false
        },
        {
          "id": "03221175-81fe-4628-a265-14670716c8c3",
          "required": false,
          "dataType": "",
          "name": "venue-facility",
          "value": "#venuesbeautysearch-followup.venue-facility",
          "promptMessages": [],
          "noMatchPromptMessages": [],
          "noInputPromptMessages": [],
          "outputDialogContexts": [],
          "isList": true
        },
        {
          "id": "0e66ae3f-0624-478f-98c6-078f9504c988",
          "required": false,
          "dataType": "",
          "name": "sort",
          "value": "#venuesbeautysearch-followup.sort",
          "promptMessages": [],
          "noMatchPromptMessages": [],
          "noInputPromptMessages": [],
          "outputDialogContexts": [],
          "isList": true
        },
        {
          "id": "7a371749-aa55-4cf0-a0d2-ce59f369a516",
          "required": false,
          "dataType": "",
          "name": "open",
          "value": "#venuesbeautysearch-followup.open",
          "promptMessages": [],
          "noMatchPromptMessages": [],
          "noInputPromptMessages": [],
          "outputDialogContexts": [],
          "isList": false
        },
        {
          "id": "38e8e59c-0d4c-4f6c-a143-eb143b9c1ab3",
          "required": false,
          "dataType": "",
          "name": "rating",
          "value": "#venuesbeautysearch-followup.rating",
          "promptMessages": [],
          "noMatchPromptMessages": [],
          "noInputPromptMessages": [],
          "outputDialogContexts": [],
          "isList": false
        }
      ],
      "messages": [
        {
          "type": 0,
          "lang": "en",
          "condition": "",
          "speech": []
        }
      ],
      "defaultResponsePlatforms": {},
      "speech": []
    }
  ],
  "priority": 500000,
  "webhookUsed": false,
  "webhookForSlotFilling": false,
  "fallbackIntent": false,
  "events": [],
  "conditionalResponses": [],
  "condition": "",
  "conditionalFollowupEvents": []
}