[
  {
    "id": "642bd136-292a-417f-bbe7-bfdf967fe142",
    "data": [
      {
        "text": "play",
        "meta": "@sys.ignore",
        "userDefined": false
      },
      {
        "text": " a ",
        "userDefined": false
      },
      {
        "text": "video",
        "meta": "@sys.ignore",
        "userDefined": false
      },
      {
        "text": " ",
        "userDefined": false
      },
      {
        "text": "cutie pie",
        "alias": "video",
        "meta": "@sys.any",
        "userDefined": true
      }
    ],
    "isTemplate": false,
    "count": 0,
    "updated": 0
  },
  {
    "id": "410e4041-8814-4a52-ba19-b953c4809d90",
    "data": [
      {
        "text": "play",
        "meta": "@sys.ignore",
        "userDefined": false
      },
      {
        "text": " some ",
        "userDefined": false
      },
      {
        "text": "horror",
        "alias": "movie-genre",
        "meta": "@movie-genre",
        "userDefined": false
      },
      {
        "text": " ",
        "userDefined": false
      },
      {
        "text": "films",
        "meta": "@sys.ignore",
        "userDefined": false
      }
    ],
    "isTemplate": false,
    "count": 0,
    "updated": 0
  },
  {
    "id": "9ee12fb3-df1e-4b24-93e3-94cee393970c",
    "data": [
      {
        "text": "let\u0027",
        "userDefined": false
      },
      {
        "text": "s",
        "meta": "@sys.ignore",
        "userDefined": false
      },
      {
        "text": " watch ",
        "userDefined": false
      },
      {
        "text": "Paint It Black",
        "alias": "song",
        "meta": "@song",
        "userDefined": false
      }
    ],
    "isTemplate": false,
    "count": 0,
    "updated": 0
  },
  {
    "id": "2357e64b-2629-4545-a7d4-35f537926ed5",
    "data": [
      {
        "text": "do you have some ",
        "userDefined": false
      },
      {
        "text": "Michael Jackson",
        "alias": "person",
        "meta": "@person",
        "userDefined": true
      },
      {
        "text": " videos",
        "userDefined": false
      }
    ],
    "isTemplate": false,
    "count": 0,
    "updated": 0
  },
  {
    "id": "27ee3d36-eb85-4bc4-98e7-24a18cdf90f7",
    "data": [
      {
        "text": "play a movie starring ",
        "userDefined": false
      },
      {
        "text": "Bruce Willis",
        "alias": "person",
        "meta": "@person",
        "userDefined": false
      }
    ],
    "isTemplate": false,
    "count": 0,
    "updated": 0
  },
  {
    "id": "67b55e8f-aa5a-457a-9cbf-789dce72234d",
    "data": [
      {
        "text": "can",
        "meta": "@sys.ignore",
        "userDefined": false
      },
      {
        "text": " you show me some videos",
        "userDefined": false
      }
    ],
    "isTemplate": false,
    "count": 0,
    "updated": 0
  },
  {
    "id": "ca215454-396c-4ae3-8d80-741475345fc9",
    "data": [
      {
        "text": "videos ",
        "userDefined": false
      },
      {
        "text": "of",
        "meta": "@sys.ignore",
        "userDefined": false
      },
      {
        "text": " ",
        "userDefined": false
      },
      {
        "text": "puppies",
        "alias": "video",
        "meta": "@sys.any",
        "userDefined": true
      }
    ],
    "isTemplate": false,
    "count": 0,
    "updated": 0
  },
  {
    "id": "f2768e45-2ac8-40e9-8f12-71eadeffe9b7",
    "data": [
      {
        "text": "play video",
        "userDefined": false
      }
    ],
    "isTemplate": false,
    "count": 0,
    "updated": 0
  },
  {
    "id": "5c76af3c-fe43-4732-a7b2-d37ccf2594d7",
    "data": [
      {
        "text": "play",
        "meta": "@sys.ignore",
        "userDefined": false
      },
      {
        "text": " ",
        "userDefined": false
      },
      {
        "text": "video",
        "meta": "@sys.ignore",
        "userDefined": false
      },
      {
        "text": " ",
        "userDefined": false
      },
      {
        "text": "Wannabe",
        "alias": "song",
        "meta": "@song",
        "userDefined": true
      }
    ],
    "isTemplate": false,
    "count": 0,
    "updated": 0
  },
  {
    "id": "61874e25-8018-4007-9810-b1864eca9227",
    "data": [
      {
        "text": "can",
        "meta": "@sys.ignore",
        "userDefined": true
      },
      {
        "text": " you play a movie",
        "userDefined": false
      }
    ],
    "isTemplate": false,
    "count": 0,
    "updated": 0
  },
  {
    "id": "17089da7-6a66-4198-bf28-ec45ccaa4269",
    "data": [
      {
        "text": "play ",
        "userDefined": false
      },
      {
        "text": "Harry Potter",
        "alias": "movie",
        "meta": "@movie",
        "userDefined": true
      },
      {
        "text": " ",
        "userDefined": false
      },
      {
        "text": "trailer",
        "alias": "trailer",
        "meta": "@trailer",
        "userDefined": true
      }
    ],
    "isTemplate": false,
    "count": 0,
    "updated": 0
  },
  {
    "id": "5247a5a2-e26f-471b-b07a-47ab249d7368",
    "data": [
      {
        "text": "play ",
        "userDefined": false
      },
      {
        "text": "Terminator",
        "alias": "movie",
        "meta": "@movie",
        "userDefined": true
      },
      {
        "text": " movie",
        "userDefined": false
      }
    ],
    "isTemplate": false,
    "count": 0,
    "updated": 0
  },
  {
    "id": "4749fe91-8d2f-41c0-b042-3ad7e8f14bd6",
    "data": [
      {
        "text": "let\u0027s watch ",
        "userDefined": false
      },
      {
        "text": "Minions",
        "alias": "movie",
        "meta": "@movie",
        "userDefined": false
      },
      {
        "text": " movie",
        "userDefined": false
      }
    ],
    "isTemplate": false,
    "count": 0,
    "updated": 0
  },
  {
    "id": "ef2b349c-5b75-45df-aea0-a520cd5509d1",
    "data": [
      {
        "text": "music",
        "alias": "video",
        "meta": "@sys.any",
        "userDefined": true
      },
      {
        "text": " videos",
        "userDefined": false
      }
    ],
    "isTemplate": false,
    "count": 0,
    "updated": 0
  },
  {
    "id": "e885bfc5-aa04-48f7-b49b-35650f748483",
    "data": [
      {
        "text": "I want to watch a film directed by ",
        "userDefined": false
      },
      {
        "text": "Tarantino",
        "alias": "person",
        "meta": "@person",
        "userDefined": true
      }
    ],
    "isTemplate": false,
    "count": 0,
    "updated": 0
  },
  {
    "id": "50bc467b-1014-4491-aa03-66b425fc917a",
    "data": [
      {
        "text": "play ",
        "userDefined": false
      },
      {
        "text": "sports",
        "alias": "video",
        "meta": "@sys.any",
        "userDefined": true
      },
      {
        "text": " ",
        "userDefined": false
      },
      {
        "text": "video",
        "meta": "@sys.ignore",
        "userDefined": false
      }
    ],
    "isTemplate": false,
    "count": 0,
    "updated": 0
  },
  {
    "id": "64bea5c6-aa41-4092-b9a1-0fee149d8f0b",
    "data": [
      {
        "text": "can",
        "meta": "@sys.ignore",
        "userDefined": false
      },
      {
        "text": " you show me a ",
        "userDefined": false
      },
      {
        "text": "video",
        "meta": "@sys.ignore",
        "userDefined": false
      }
    ],
    "isTemplate": false,
    "count": 0,
    "updated": 0
  },
  {
    "id": "7fd39796-e9c9-408c-9a5a-755f3225dc6f",
    "data": [
      {
        "text": "play some videos",
        "userDefined": false
      }
    ],
    "isTemplate": false,
    "count": 0,
    "updated": 0
  },
  {
    "id": "064f59c1-cceb-431e-80f5-64ad53130a1c",
    "data": [
      {
        "text": "can",
        "meta": "@sys.ignore",
        "userDefined": false
      },
      {
        "text": " you play ",
        "userDefined": false
      },
      {
        "text": "a video",
        "meta": "@sys.ignore",
        "userDefined": true
      }
    ],
    "isTemplate": false,
    "count": 0,
    "updated": 0
  },
  {
    "id": "564e6763-bbf3-40d4-baf2-b09ae18cc132",
    "data": [
      {
        "text": "football",
        "alias": "video",
        "meta": "@sys.any",
        "userDefined": false
      },
      {
        "text": " videos",
        "userDefined": false
      }
    ],
    "isTemplate": false,
    "count": 0,
    "updated": 0
  },
  {
    "id": "21c5b3d3-7cde-4811-b34f-93a413f53bb3",
    "data": [
      {
        "text": "video player",
        "userDefined": false
      }
    ],
    "isTemplate": false,
    "count": 0,
    "updated": 0
  },
  {
    "id": "57fa42d2-a0f3-4154-a38d-e9ff3e2cf038",
    "data": [
      {
        "text": "play videos about ",
        "userDefined": false
      },
      {
        "text": "snowboarding",
        "alias": "video",
        "meta": "@sys.any",
        "userDefined": true
      },
      {
        "text": " on ",
        "userDefined": false
      },
      {
        "text": "Youtube",
        "alias": "service",
        "meta": "@video-service",
        "userDefined": true
      }
    ],
    "isTemplate": false,
    "count": 1,
    "updated": 0
  },
  {
    "id": "f4caa9ff-0092-47e2-a352-6c91d5fac511",
    "data": [
      {
        "text": "play video ",
        "userDefined": false
      },
      {
        "text": "America\u0027s Funniest Home Videos",
        "alias": "video",
        "meta": "@sys.any",
        "userDefined": true
      }
    ],
    "isTemplate": false,
    "count": 15,
    "updated": 0
  },
  {
    "id": "2876ef92-ad9f-49ff-8094-ac8420ea142d",
    "data": [
      {
        "text": "play",
        "meta": "@sys.ignore",
        "userDefined": true
      },
      {
        "text": " ",
        "userDefined": false
      },
      {
        "text": "music",
        "meta": "@sys.ignore",
        "userDefined": true
      },
      {
        "text": " ",
        "userDefined": false
      },
      {
        "text": "video",
        "meta": "@sys.ignore",
        "userDefined": true
      },
      {
        "text": " for ",
        "userDefined": false
      },
      {
        "text": "Love the Way you Lie",
        "alias": "song",
        "meta": "@song",
        "userDefined": true
      }
    ],
    "isTemplate": false,
    "count": 0,
    "updated": 0
  },
  {
    "id": "b1fc30ef-6dbe-4686-8e4b-2b0454128a0c",
    "data": [
      {
        "text": "show me ",
        "userDefined": false
      },
      {
        "text": "Nirvana",
        "alias": "person",
        "meta": "@person",
        "userDefined": true
      },
      {
        "text": " videos on ",
        "userDefined": false
      },
      {
        "text": "Youtube",
        "alias": "service",
        "meta": "@video-service",
        "userDefined": true
      }
    ],
    "isTemplate": false,
    "count": 0,
    "updated": 0
  },
  {
    "id": "4dc22516-6827-4003-ae69-da19f6084c1e",
    "data": [
      {
        "text": "play ",
        "userDefined": false
      },
      {
        "text": "videos",
        "meta": "@sys.ignore",
        "userDefined": false
      },
      {
        "text": " from year ",
        "userDefined": false
      },
      {
        "text": "2014",
        "alias": "year",
        "meta": "@sys.number",
        "userDefined": true
      }
    ],
    "isTemplate": false,
    "count": 0,
    "updated": 0
  },
  {
    "id": "69de2783-78ae-4b8e-8409-9f45a1e05824",
    "data": [
      {
        "text": "watch ",
        "userDefined": false
      },
      {
        "text": "Harry Potter",
        "alias": "movie",
        "meta": "@movie",
        "userDefined": false
      }
    ],
    "isTemplate": false,
    "count": 0,
    "updated": 0
  },
  {
    "id": "62b9ba8e-59d0-49bf-afc8-12ee6462ee71",
    "data": [
      {
        "text": "baby",
        "alias": "video",
        "meta": "@sys.any",
        "userDefined": true
      },
      {
        "text": " videos",
        "userDefined": false
      }
    ],
    "isTemplate": false,
    "count": 0,
    "updated": 0
  },
  {
    "id": "c7a525bf-14d2-400d-8682-dfa7db2a8296",
    "data": [
      {
        "text": "show some ",
        "userDefined": false
      },
      {
        "text": "romantic",
        "alias": "movie-genre",
        "meta": "@movie-genre",
        "userDefined": false
      },
      {
        "text": " ",
        "userDefined": false
      },
      {
        "text": "video",
        "meta": "@sys.ignore",
        "userDefined": false
      }
    ],
    "isTemplate": false,
    "count": 0,
    "updated": 0
  },
  {
    "id": "903debe4-e178-4bce-82ec-c51922fa84f0",
    "data": [
      {
        "text": "can",
        "meta": "@sys.ignore",
        "userDefined": false
      },
      {
        "text": " you show me ",
        "userDefined": false
      },
      {
        "text": "Minecraft",
        "alias": "video",
        "meta": "@sys.any",
        "userDefined": true
      },
      {
        "text": " videos please",
        "userDefined": false
      }
    ],
    "isTemplate": false,
    "count": 0,
    "updated": 0
  },
  {
    "id": "5dba218c-ae80-441a-afe2-f5b4ae896152",
    "data": [
      {
        "text": "show me videos about ",
        "userDefined": false
      },
      {
        "text": "cars",
        "alias": "video",
        "meta": "@sys.any",
        "userDefined": true
      }
    ],
    "isTemplate": false,
    "count": 0,
    "updated": 0
  },
  {
    "id": "37d0c3e8-cf79-406c-888f-3b55329a815e",
    "data": [
      {
        "text": "play",
        "meta": "@sys.ignore",
        "userDefined": false
      },
      {
        "text": " a ",
        "userDefined": false
      },
      {
        "text": "video",
        "meta": "@sys.ignore",
        "userDefined": false
      },
      {
        "text": " from ",
        "userDefined": false
      },
      {
        "text": "Youtube",
        "alias": "service",
        "meta": "@video-service",
        "userDefined": false
      }
    ],
    "isTemplate": false,
    "count": 0,
    "updated": 0
  },
  {
    "id": "8461e0c2-65fe-4f6c-b40d-7ba9c94502be",
    "data": [
      {
        "text": "play",
        "meta": "@sys.ignore",
        "userDefined": false
      },
      {
        "text": " ",
        "userDefined": false
      },
      {
        "text": "Lilo \u0026 Stitch",
        "alias": "movie",
        "meta": "@movie",
        "userDefined": false
      }
    ],
    "isTemplate": false,
    "count": 0,
    "updated": 0
  },
  {
    "id": "4e2e92c0-4bcf-45d0-a070-d1572f2682e4",
    "data": [
      {
        "text": "play some ",
        "userDefined": false
      },
      {
        "text": "video",
        "meta": "@sys.ignore",
        "userDefined": false
      }
    ],
    "isTemplate": false,
    "count": 0,
    "updated": 0
  },
  {
    "id": "09e5d113-1095-4e32-a0b8-41466ef83fa8",
    "data": [
      {
        "text": "can",
        "meta": "@sys.ignore",
        "userDefined": false
      },
      {
        "text": " you show me videos",
        "userDefined": false
      }
    ],
    "isTemplate": false,
    "count": 0,
    "updated": 0
  },
  {
    "id": "a6d1e208-b9b1-4cad-981d-ed1e3545be48",
    "data": [
      {
        "text": "play ",
        "userDefined": false
      },
      {
        "text": "Spider Man",
        "alias": "movie",
        "meta": "@movie",
        "userDefined": true
      },
      {
        "text": " videos",
        "userDefined": false
      }
    ],
    "isTemplate": false,
    "count": 0,
    "updated": 0
  },
  {
    "id": "2ca3011b-7da9-4c26-9b2e-fac107c692b5",
    "data": [
      {
        "text": "show me some videos of ",
        "userDefined": false
      },
      {
        "text": "kittens",
        "alias": "video",
        "meta": "@sys.any",
        "userDefined": true
      }
    ],
    "isTemplate": false,
    "count": 0,
    "updated": 0
  },
  {
    "id": "ab48af3a-2607-48c3-8d3c-5700491ec71f",
    "data": [
      {
        "text": "I want to play the ",
        "userDefined": false
      },
      {
        "text": "video",
        "meta": "@sys.ignore",
        "userDefined": false
      }
    ],
    "isTemplate": false,
    "count": 0,
    "updated": 0
  },
  {
    "id": "adfefe7f-8e30-44f7-8507-67c1c1904951",
    "data": [
      {
        "text": "can",
        "meta": "@sys.ignore",
        "userDefined": false
      },
      {
        "text": " you show me the ",
        "userDefined": false
      },
      {
        "text": "video",
        "meta": "@sys.ignore",
        "userDefined": false
      }
    ],
    "isTemplate": false,
    "count": 0,
    "updated": 0
  },
  {
    "id": "bb4b932e-6906-485f-8663-70620162933c",
    "data": [
      {
        "text": "play",
        "meta": "@sys.ignore",
        "userDefined": false
      },
      {
        "text": " ",
        "userDefined": false
      },
      {
        "text": "video",
        "meta": "@sys.ignore",
        "userDefined": false
      },
      {
        "text": " ",
        "userDefined": false
      },
      {
        "text": "clip",
        "meta": "@sys.ignore",
        "userDefined": false
      },
      {
        "text": " by ",
        "userDefined": false
      },
      {
        "text": "Madonna",
        "alias": "person",
        "meta": "@person",
        "userDefined": false
      },
      {
        "text": " ",
        "userDefined": false
      },
      {
        "text": "on",
        "meta": "@sys.ignore",
        "userDefined": false
      },
      {
        "text": " ",
        "userDefined": false
      },
      {
        "text": "Vimeo",
        "alias": "service",
        "meta": "@video-service",
        "userDefined": true
      }
    ],
    "isTemplate": false,
    "count": 0,
    "updated": 0
  },
  {
    "id": "a9d8b037-329d-48bc-9d49-3953465b7db2",
    "data": [
      {
        "text": "my phone video",
        "userDefined": false
      }
    ],
    "isTemplate": false,
    "count": 0,
    "updated": 0
  },
  {
    "id": "97272669-c65c-4a0b-b1f2-3378b23c4ef2",
    "data": [
      {
        "text": "lovely",
        "alias": "video",
        "meta": "@sys.any",
        "userDefined": true
      },
      {
        "text": " video",
        "userDefined": false
      }
    ],
    "isTemplate": false,
    "count": 0,
    "updated": 0
  },
  {
    "id": "69315bc7-5f6d-42ca-8b6e-1f83d334e1f7",
    "data": [
      {
        "text": "play videos ",
        "userDefined": false
      },
      {
        "text": "on",
        "meta": "@sys.ignore",
        "userDefined": true
      },
      {
        "text": " ",
        "userDefined": false
      },
      {
        "text": "Youtube",
        "alias": "service",
        "meta": "@video-service",
        "userDefined": true
      }
    ],
    "isTemplate": false,
    "count": 0,
    "updated": 0
  },
  {
    "id": "9984394e-2e33-4bca-ab32-fccf2e850f2e",
    "data": [
      {
        "text": "I want to watch ",
        "userDefined": false
      },
      {
        "text": "Paul McCartney",
        "alias": "person",
        "meta": "@person",
        "userDefined": true
      },
      {
        "text": "\u0027s ",
        "userDefined": false
      },
      {
        "text": "videos",
        "meta": "@sys.ignore",
        "userDefined": false
      }
    ],
    "isTemplate": false,
    "count": 0,
    "updated": 0
  },
  {
    "id": "4b26b303-18fa-411d-bb6b-b7164237d44c",
    "data": [
      {
        "text": "show me ",
        "userDefined": false
      },
      {
        "text": "video",
        "meta": "@sys.ignore",
        "userDefined": false
      }
    ],
    "isTemplate": false,
    "count": 0,
    "updated": 0
  },
  {
    "id": "2cefcfa0-48ba-46c1-8506-4d90674ca17b",
    "data": [
      {
        "text": "play me a ",
        "userDefined": false
      },
      {
        "text": "video",
        "meta": "@sys.ignore",
        "userDefined": false
      }
    ],
    "isTemplate": false,
    "count": 0,
    "updated": 0
  },
  {
    "id": "7bc709fb-d0c5-447c-8b1a-425718f357e1",
    "data": [
      {
        "text": "play ",
        "userDefined": false
      },
      {
        "text": "Red Hot Chili Peppers",
        "alias": "person",
        "meta": "@person",
        "userDefined": true
      },
      {
        "text": " video",
        "userDefined": false
      }
    ],
    "isTemplate": false,
    "count": 1,
    "updated": 0
  },
  {
    "id": "f1d49794-1186-4df9-b18a-b3bd898d638a",
    "data": [
      {
        "text": "show me",
        "meta": "@sys.ignore",
        "userDefined": false
      },
      {
        "text": " ",
        "userDefined": false
      },
      {
        "text": "Nirvana",
        "alias": "person",
        "meta": "@person",
        "userDefined": false
      },
      {
        "text": " ",
        "userDefined": false
      },
      {
        "text": "videos on",
        "meta": "@sys.ignore",
        "userDefined": false
      },
      {
        "text": " ",
        "userDefined": false
      },
      {
        "text": "Youtube",
        "alias": "service",
        "meta": "@video-service",
        "userDefined": false
      }
    ],
    "isTemplate": false,
    "count": 0,
    "updated": 0
  },
  {
    "id": "875028d4-f3db-4744-b3b3-b49a0baa23f7",
    "data": [
      {
        "text": "Dracula official",
        "alias": "trailer",
        "meta": "@trailer",
        "userDefined": true
      },
      {
        "text": " video",
        "userDefined": false
      }
    ],
    "isTemplate": false,
    "count": 1,
    "updated": 0
  },
  {
    "id": "0332cfc3-87cd-44d8-ac6a-2f18e5a2eae4",
    "data": [
      {
        "text": "play video ",
        "userDefined": false
      },
      {
        "text": "wow",
        "alias": "video",
        "meta": "@sys.any",
        "userDefined": true
      }
    ],
    "isTemplate": false,
    "count": 0,
    "updated": 0
  },
  {
    "id": "4cca9fd5-0cb3-4b03-84ee-792a5a1cf826",
    "data": [
      {
        "text": "open",
        "meta": "@sys.ignore",
        "userDefined": false
      },
      {
        "text": " ",
        "userDefined": false
      },
      {
        "text": "Justin Bieber",
        "alias": "person",
        "meta": "@person",
        "userDefined": true
      },
      {
        "text": " ",
        "userDefined": false
      },
      {
        "text": "video",
        "meta": "@sys.ignore",
        "userDefined": false
      }
    ],
    "isTemplate": false,
    "count": 0,
    "updated": 0
  },
  {
    "id": "ecaad255-810d-424d-a019-f7b613fc7b3f",
    "data": [
      {
        "text": "play ",
        "userDefined": false
      },
      {
        "text": "Die Hard",
        "alias": "movie",
        "meta": "@movie",
        "userDefined": true
      },
      {
        "text": " with ",
        "userDefined": false
      },
      {
        "text": "Bruce Willis",
        "alias": "person",
        "meta": "@person",
        "userDefined": false
      }
    ],
    "isTemplate": false,
    "count": 0,
    "updated": 0
  },
  {
    "id": "6feb7501-65e7-4af5-93d4-7417a66b2059",
    "data": [
      {
        "text": "video",
        "meta": "@sys.ignore",
        "userDefined": false
      }
    ],
    "isTemplate": false,
    "count": 0,
    "updated": 0
  },
  {
    "id": "fa2c4113-4af1-448b-9aff-cf7727fe3607",
    "data": [
      {
        "text": "can",
        "meta": "@sys.ignore",
        "userDefined": false
      },
      {
        "text": " I watch a ",
        "userDefined": false
      },
      {
        "text": "video",
        "meta": "@sys.ignore",
        "userDefined": false
      }
    ],
    "isTemplate": false,
    "count": 0,
    "updated": 0
  },
  {
    "id": "3b141fae-1e1c-4d98-a252-83ac3b0a281b",
    "data": [
      {
        "text": "can",
        "meta": "@sys.ignore",
        "userDefined": false
      },
      {
        "text": " you show me videos ",
        "userDefined": false
      },
      {
        "text": "of",
        "meta": "@sys.ignore",
        "userDefined": false
      },
      {
        "text": " ",
        "userDefined": false
      },
      {
        "text": "Peppa",
        "alias": "video",
        "meta": "@sys.any",
        "userDefined": true
      }
    ],
    "isTemplate": false,
    "count": 0,
    "updated": 0
  },
  {
    "id": "00d28432-fac1-4364-8324-33f7d70fe2c5",
    "data": [
      {
        "text": "crazy",
        "alias": "video",
        "meta": "@sys.any",
        "userDefined": false
      },
      {
        "text": " videos",
        "userDefined": false
      }
    ],
    "isTemplate": false,
    "count": 0,
    "updated": 0
  },
  {
    "id": "15581942-81eb-4e8b-bfdd-ff7471bde351",
    "data": [
      {
        "text": "can you play a ",
        "userDefined": false
      },
      {
        "text": "Youtube",
        "alias": "service",
        "meta": "@video-service",
        "userDefined": true
      },
      {
        "text": " video for me",
        "userDefined": false
      }
    ],
    "isTemplate": false,
    "count": 0,
    "updated": 0
  },
  {
    "id": "6cc40192-a763-47d8-b027-ee9cf90d6224",
    "data": [
      {
        "text": "I want to watch some videos",
        "userDefined": false
      }
    ],
    "isTemplate": false,
    "count": 0,
    "updated": 0
  },
  {
    "id": "fb8363c4-630d-4ee7-bf84-a0991c158d6d",
    "data": [
      {
        "text": "play ",
        "userDefined": false
      },
      {
        "text": "Disney cartoons",
        "alias": "video",
        "meta": "@sys.any",
        "userDefined": true
      }
    ],
    "isTemplate": false,
    "count": 0,
    "updated": 0
  },
  {
    "id": "d9289a99-d0f6-4485-a01e-316eaf36bce6",
    "data": [
      {
        "text": "I",
        "meta": "@sys.ignore",
        "userDefined": false
      },
      {
        "text": "\u0027",
        "userDefined": false
      },
      {
        "text": "d",
        "meta": "@sys.ignore",
        "userDefined": false
      },
      {
        "text": " ",
        "userDefined": false
      },
      {
        "text": "like",
        "meta": "@sys.ignore",
        "userDefined": false
      },
      {
        "text": " ",
        "userDefined": false
      },
      {
        "text": "to",
        "meta": "@sys.ignore",
        "userDefined": false
      },
      {
        "text": " watch ",
        "userDefined": false
      },
      {
        "text": "Paint It Black",
        "alias": "song",
        "meta": "@song",
        "userDefined": false
      }
    ],
    "isTemplate": false,
    "count": 0,
    "updated": 0
  },
  {
    "id": "344e1151-6ee3-44b2-8b08-d5420d210d4b",
    "data": [
      {
        "text": "I want to watch ",
        "userDefined": false
      },
      {
        "text": "assassin creed",
        "alias": "video",
        "meta": "@sys.any",
        "userDefined": true
      },
      {
        "text": " ",
        "userDefined": false
      },
      {
        "text": "video",
        "meta": "@sys.ignore",
        "userDefined": false
      }
    ],
    "isTemplate": false,
    "count": 0,
    "updated": 0
  },
  {
    "id": "4af6edc4-8e75-4700-9076-117c86d416c7",
    "data": [
      {
        "text": "play ",
        "userDefined": false
      },
      {
        "text": "Ricky Martin",
        "alias": "person",
        "meta": "@person",
        "userDefined": true
      },
      {
        "text": " video",
        "userDefined": false
      }
    ],
    "isTemplate": false,
    "count": 0,
    "updated": 0
  },
  {
    "id": "cf6eeac1-8093-4a6e-9000-4ea1aa220197",
    "data": [
      {
        "text": "I",
        "meta": "@sys.ignore",
        "userDefined": false
      },
      {
        "text": " want ",
        "userDefined": false
      },
      {
        "text": "to",
        "meta": "@sys.ignore",
        "userDefined": false
      },
      {
        "text": " watch a ",
        "userDefined": false
      },
      {
        "text": "Tarantino",
        "alias": "person",
        "meta": "@person",
        "userDefined": false
      },
      {
        "text": " ",
        "userDefined": false
      },
      {
        "text": "movie",
        "meta": "@sys.ignore",
        "userDefined": false
      }
    ],
    "isTemplate": false,
    "count": 0,
    "updated": 0
  },
  {
    "id": "e33c1c64-1aa6-4762-bdfb-946094b42c6e",
    "data": [
      {
        "text": "play video ",
        "userDefined": false
      },
      {
        "text": "The Walking Dead episode 5",
        "alias": "movie",
        "meta": "@movie",
        "userDefined": true
      }
    ],
    "isTemplate": false,
    "count": 15,
    "updated": 0
  },
  {
    "id": "607eebb5-098b-46cd-adb8-d6d7aac2a95f",
    "data": [
      {
        "text": "play ",
        "userDefined": false
      },
      {
        "text": "the first",
        "meta": "@sys.ignore",
        "userDefined": false
      },
      {
        "text": " video on ",
        "userDefined": false
      },
      {
        "text": "YouTube",
        "alias": "service",
        "meta": "@video-service",
        "userDefined": true
      }
    ],
    "isTemplate": false,
    "count": 0,
    "updated": 0
  },
  {
    "id": "6fe15359-3b7a-48a6-a3f2-442c254564b7",
    "data": [
      {
        "text": "show me",
        "meta": "@sys.ignore",
        "userDefined": false
      },
      {
        "text": " ",
        "userDefined": false
      },
      {
        "text": "funny cat",
        "alias": "video",
        "meta": "@sys.any",
        "userDefined": true
      },
      {
        "text": " videos",
        "userDefined": false
      }
    ],
    "isTemplate": false,
    "count": 0,
    "updated": 0
  },
  {
    "id": "f1c641ef-7189-42ba-b351-800521d0989b",
    "data": [
      {
        "text": "play ",
        "userDefined": false
      },
      {
        "text": "Youtube",
        "alias": "service",
        "meta": "@video-service",
        "userDefined": true
      },
      {
        "text": " videos ",
        "userDefined": false
      },
      {
        "text": "Charlie bit my finger",
        "alias": "video",
        "meta": "@sys.any",
        "userDefined": true
      }
    ],
    "isTemplate": false,
    "count": 0,
    "updated": 0
  },
  {
    "id": "4332a002-0a09-4d56-af14-d89cc9f5f516",
    "data": [
      {
        "text": "show me ",
        "userDefined": false
      },
      {
        "text": "video",
        "meta": "@sys.ignore",
        "userDefined": false
      },
      {
        "text": " ",
        "userDefined": false
      },
      {
        "text": "of",
        "meta": "@sys.ignore",
        "userDefined": false
      },
      {
        "text": " ",
        "userDefined": false
      },
      {
        "text": "king of Scotland 1292",
        "alias": "video",
        "meta": "@sys.any",
        "userDefined": true
      }
    ],
    "isTemplate": false,
    "count": 0,
    "updated": 0
  },
  {
    "id": "ba4d071e-d660-4f5b-997c-6982a00f3dcc",
    "data": [
      {
        "text": "can",
        "meta": "@sys.ignore",
        "userDefined": false
      },
      {
        "text": " you show me videos ",
        "userDefined": false
      },
      {
        "text": "of",
        "meta": "@sys.ignore",
        "userDefined": false
      },
      {
        "text": " ",
        "userDefined": false
      },
      {
        "text": "Taylor Swift",
        "alias": "person",
        "meta": "@person",
        "userDefined": true
      }
    ],
    "isTemplate": false,
    "count": 0,
    "updated": 0
  },
  {
    "id": "5dfe09ca-ed0f-4d50-bd12-c5d576d04dca",
    "data": [
      {
        "text": "play ",
        "userDefined": false
      },
      {
        "text": "horror",
        "alias": "movie-genre",
        "meta": "@movie-genre",
        "userDefined": true
      },
      {
        "text": " movie",
        "userDefined": false
      }
    ],
    "isTemplate": false,
    "count": 0,
    "updated": 0
  },
  {
    "id": "1af71fdf-6f1f-41ef-b4c2-ca528a6537e1",
    "data": [
      {
        "text": "Hindi",
        "alias": "language",
        "meta": "@sys.language",
        "userDefined": false
      },
      {
        "text": " ",
        "userDefined": false
      },
      {
        "text": "movies",
        "meta": "@sys.ignore",
        "userDefined": false
      }
    ],
    "isTemplate": false,
    "count": 0,
    "updated": 0
  },
  {
    "id": "6f013066-df8f-451e-a468-7fd528f664d2",
    "data": [
      {
        "text": "play ",
        "userDefined": false
      },
      {
        "text": "Michael Jackson",
        "alias": "person",
        "meta": "@person",
        "userDefined": true
      },
      {
        "text": " video",
        "userDefined": false
      }
    ],
    "isTemplate": false,
    "count": 0,
    "updated": 0
  },
  {
    "id": "5f619438-1bef-44d2-96ea-aee512e16576",
    "data": [
      {
        "text": "I want to watch a ",
        "userDefined": false
      },
      {
        "text": "video",
        "meta": "@sys.ignore",
        "userDefined": false
      }
    ],
    "isTemplate": false,
    "count": 0,
    "updated": 0
  },
  {
    "id": "7d2a445d-1773-4e98-9971-207fa395bbf6",
    "data": [
      {
        "text": "videos of ",
        "userDefined": false
      },
      {
        "text": "baby unicorn",
        "alias": "video",
        "meta": "@sys.any",
        "userDefined": true
      }
    ],
    "isTemplate": false,
    "count": 0,
    "updated": 0
  },
  {
    "id": "6674f269-94a3-43b9-ab4d-2a5e814d7a99",
    "data": [
      {
        "text": "I",
        "meta": "@sys.ignore",
        "userDefined": false
      },
      {
        "text": " want ",
        "userDefined": false
      },
      {
        "text": "to",
        "meta": "@sys.ignore",
        "userDefined": false
      },
      {
        "text": " watch ",
        "userDefined": false
      },
      {
        "text": "Wannabe",
        "alias": "song",
        "meta": "@song",
        "userDefined": true
      }
    ],
    "isTemplate": false,
    "count": 0,
    "updated": 0
  },
  {
    "id": "785b998c-30fa-43ab-a85a-95ba757c1792",
    "data": [
      {
        "text": "play ",
        "userDefined": false
      },
      {
        "text": "pop",
        "alias": "music-genre",
        "meta": "@sys.music-genre",
        "userDefined": true
      },
      {
        "text": " ",
        "userDefined": false
      },
      {
        "text": "video",
        "meta": "@sys.ignore",
        "userDefined": true
      }
    ],
    "isTemplate": false,
    "count": 0,
    "updated": 0
  },
  {
    "id": "280a057d-2ebc-4ba2-a2ba-61a917594616",
    "data": [
      {
        "text": "video play",
        "userDefined": false
      }
    ],
    "isTemplate": false,
    "count": 0,
    "updated": 0
  },
  {
    "id": "a24763a4-b097-4ff9-b56e-8738f26a29cf",
    "data": [
      {
        "text": "I",
        "meta": "@sys.ignore",
        "userDefined": true
      },
      {
        "text": " want ",
        "userDefined": false
      },
      {
        "text": "to",
        "meta": "@sys.ignore",
        "userDefined": true
      },
      {
        "text": " watch a ",
        "userDefined": false
      },
      {
        "text": "movie",
        "meta": "@sys.ignore",
        "userDefined": true
      }
    ],
    "isTemplate": false,
    "count": 0,
    "updated": 0
  },
  {
    "id": "b64a76e5-db8c-420c-b800-85b88904fcab",
    "data": [
      {
        "text": "family",
        "alias": "movie-genre",
        "meta": "@movie-genre",
        "userDefined": true
      },
      {
        "text": " video",
        "userDefined": false
      }
    ],
    "isTemplate": false,
    "count": 0,
    "updated": 0
  },
  {
    "id": "555ffb36-754f-4524-8edc-735a78996034",
    "data": [
      {
        "text": "can you play ",
        "userDefined": false
      },
      {
        "text": "Eminem",
        "alias": "person",
        "meta": "@person",
        "userDefined": false
      },
      {
        "text": " ",
        "userDefined": false
      },
      {
        "text": "rap",
        "alias": "music-genre",
        "meta": "@sys.music-genre",
        "userDefined": true
      },
      {
        "text": " ",
        "userDefined": false
      },
      {
        "text": "video",
        "meta": "@sys.ignore",
        "userDefined": false
      },
      {
        "text": " for me",
        "userDefined": false
      }
    ],
    "isTemplate": false,
    "count": 0,
    "updated": 0
  },
  {
    "id": "28073be1-8135-46a7-ae40-b77af371cb99",
    "data": [
      {
        "text": "play ",
        "userDefined": false
      },
      {
        "text": "videos",
        "meta": "@sys.ignore",
        "userDefined": false
      },
      {
        "text": " about ",
        "userDefined": false
      },
      {
        "text": "love",
        "alias": "movie-genre",
        "meta": "@movie-genre",
        "userDefined": true
      }
    ],
    "isTemplate": false,
    "count": 0,
    "updated": 0
  },
  {
    "id": "20705ab5-6d25-4f69-878e-fca1c3fdd405",
    "data": [
      {
        "text": "watch ",
        "userDefined": false
      },
      {
        "text": "District 9",
        "alias": "movie",
        "meta": "@movie",
        "userDefined": false
      },
      {
        "text": " movie",
        "userDefined": false
      }
    ],
    "isTemplate": false,
    "count": 0,
    "updated": 0
  },
  {
    "id": "8a97d3b1-738a-48c7-9312-10a22003f2ca",
    "data": [
      {
        "text": "let\u0027s watch ",
        "userDefined": false
      },
      {
        "text": "Twilight",
        "alias": "movie",
        "meta": "@movie",
        "userDefined": false
      }
    ],
    "isTemplate": false,
    "count": 0,
    "updated": 0
  },
  {
    "id": "7ca6e470-dce8-49a7-9f36-e082e11c10d4",
    "data": [
      {
        "text": "watch ",
        "userDefined": false
      },
      {
        "text": "Oscars",
        "alias": "video",
        "meta": "@sys.any",
        "userDefined": true
      },
      {
        "text": " video",
        "userDefined": false
      }
    ],
    "isTemplate": false,
    "count": 1,
    "updated": 0
  },
  {
    "id": "44818250-3cd4-4e36-8561-59012e8ac257",
    "data": [
      {
        "text": "videos from ",
        "userDefined": false
      },
      {
        "text": "inside gaming",
        "alias": "video",
        "meta": "@sys.any",
        "userDefined": true
      }
    ],
    "isTemplate": false,
    "count": 0,
    "updated": 0
  },
  {
    "id": "16d44876-fe79-4f27-9120-9544667af946",
    "data": [
      {
        "text": "I would like to watch a ",
        "userDefined": false
      },
      {
        "text": "video",
        "meta": "@sys.ignore",
        "userDefined": false
      }
    ],
    "isTemplate": false,
    "count": 0,
    "updated": 0
  },
  {
    "id": "7f76d73d-a4e5-490c-9299-b32278f81c3e",
    "data": [
      {
        "text": "start",
        "meta": "@sys.ignore",
        "userDefined": false
      },
      {
        "text": " playing ",
        "userDefined": false
      },
      {
        "text": "video",
        "meta": "@sys.ignore",
        "userDefined": false
      },
      {
        "text": " ",
        "userDefined": false
      },
      {
        "text": "Wannabe",
        "alias": "song",
        "meta": "@song",
        "userDefined": true
      }
    ],
    "isTemplate": false,
    "count": 0,
    "updated": 0
  },
  {
    "id": "8672a738-0c9e-4c19-8f96-04bec29cccbf",
    "data": [
      {
        "text": "play the ",
        "userDefined": false
      },
      {
        "text": "beach",
        "alias": "movie-genre",
        "meta": "@movie-genre",
        "userDefined": true
      },
      {
        "text": " video",
        "userDefined": false
      }
    ],
    "isTemplate": false,
    "count": 0,
    "updated": 0
  },
  {
    "id": "da4ff5a2-089b-4285-82e5-4e452de3b3a6",
    "data": [
      {
        "text": "show ",
        "userDefined": false
      },
      {
        "text": "video",
        "meta": "@sys.ignore",
        "userDefined": true
      },
      {
        "text": " of ",
        "userDefined": false
      },
      {
        "text": "Adele",
        "alias": "person",
        "meta": "@person",
        "userDefined": true
      },
      {
        "text": "\u0027s ",
        "userDefined": false
      },
      {
        "text": "Hello",
        "alias": "song",
        "meta": "@song",
        "userDefined": true
      }
    ],
    "isTemplate": false,
    "count": 0,
    "updated": 0
  },
  {
    "id": "e0de739a-fa90-4371-ac1f-87833af0429a",
    "data": [
      {
        "text": "I want to watch a ",
        "userDefined": false
      },
      {
        "text": "Tarantino",
        "alias": "person",
        "meta": "@person",
        "userDefined": true
      },
      {
        "text": " movie",
        "userDefined": false
      }
    ],
    "isTemplate": false,
    "count": 0,
    "updated": 0
  },
  {
    "id": "ee025ad4-4823-485f-955f-4643c6a54986",
    "data": [
      {
        "text": "open",
        "meta": "@sys.ignore",
        "userDefined": false
      },
      {
        "text": " ",
        "userDefined": false
      },
      {
        "text": "video",
        "meta": "@sys.ignore",
        "userDefined": false
      }
    ],
    "isTemplate": false,
    "count": 0,
    "updated": 0
  },
  {
    "id": "69925a38-163b-4618-84c7-66c705f9938f",
    "data": [
      {
        "text": "play ",
        "userDefined": false
      },
      {
        "text": "video",
        "meta": "@sys.ignore",
        "userDefined": false
      },
      {
        "text": " songs",
        "userDefined": false
      }
    ],
    "isTemplate": false,
    "count": 0,
    "updated": 0
  },
  {
    "id": "eb45296b-c510-4f1b-b1ee-9bc366dbbe49",
    "data": [
      {
        "text": "show me ",
        "userDefined": false
      },
      {
        "text": "the first rap video ever made",
        "alias": "video",
        "meta": "@sys.any",
        "userDefined": true
      }
    ],
    "isTemplate": false,
    "count": 0,
    "updated": 0
  },
  {
    "id": "ebd69c75-afbb-4aaf-b292-0a4350ca6a11",
    "data": [
      {
        "text": "play ",
        "userDefined": false
      },
      {
        "text": "Madonna",
        "alias": "person",
        "meta": "@person",
        "userDefined": true
      },
      {
        "text": " video",
        "userDefined": false
      }
    ],
    "isTemplate": false,
    "count": 0,
    "updated": 0
  },
  {
    "id": "4d8ef80d-bc12-4d08-a168-91b29bda62af",
    "data": [
      {
        "text": "show me videos ",
        "userDefined": false
      },
      {
        "text": "of",
        "meta": "@sys.ignore",
        "userDefined": false
      },
      {
        "text": " ",
        "userDefined": false
      },
      {
        "text": "Katy Perry",
        "alias": "person",
        "meta": "@person",
        "userDefined": true
      }
    ],
    "isTemplate": false,
    "count": 0,
    "updated": 0
  },
  {
    "id": "2543d58a-ef2e-4de4-a6c2-a42f8ceea278",
    "data": [
      {
        "text": "Youtube",
        "alias": "service",
        "meta": "@video-service",
        "userDefined": true
      },
      {
        "text": " video ",
        "userDefined": false
      },
      {
        "text": "Justin Timberlake",
        "alias": "person",
        "meta": "@person",
        "userDefined": true
      }
    ],
    "isTemplate": false,
    "count": 0,
    "updated": 0
  },
  {
    "id": "7b2fd9bb-d3ba-4c66-b27b-3c1a89da463a",
    "data": [
      {
        "text": "show me videos ",
        "userDefined": false
      },
      {
        "text": "of",
        "meta": "@sys.ignore",
        "userDefined": false
      },
      {
        "text": " ",
        "userDefined": false
      },
      {
        "text": "what does the fox say",
        "alias": "video",
        "meta": "@sys.any",
        "userDefined": true
      }
    ],
    "isTemplate": false,
    "count": 0,
    "updated": 0
  },
  {
    "id": "4b82fb27-96f0-44fd-b0f4-8762cf5b6e5c",
    "data": [
      {
        "text": "can",
        "meta": "@sys.ignore",
        "userDefined": false
      },
      {
        "text": " you play some videos",
        "userDefined": false
      }
    ],
    "isTemplate": false,
    "count": 0,
    "updated": 0
  },
  {
    "id": "b2cc2e37-6e58-4d0e-bed5-497c6c51fded",
    "data": [
      {
        "text": "play",
        "meta": "@sys.ignore",
        "userDefined": false
      },
      {
        "text": " ",
        "userDefined": false
      },
      {
        "text": "video",
        "meta": "@sys.ignore",
        "userDefined": false
      },
      {
        "text": " by ",
        "userDefined": false
      },
      {
        "text": "U2",
        "alias": "person",
        "meta": "@person",
        "userDefined": false
      }
    ],
    "isTemplate": false,
    "count": 0,
    "updated": 0
  },
  {
    "id": "06ee31c6-7d14-4f61-b11b-dfe18100a9e1",
    "data": [
      {
        "text": "Madonna",
        "alias": "person",
        "meta": "@person",
        "userDefined": true
      },
      {
        "text": " video",
        "userDefined": false
      }
    ],
    "isTemplate": false,
    "count": 1,
    "updated": 0
  },
  {
    "id": "6e53453d-41fa-4899-91df-b4834eb2bd61",
    "data": [
      {
        "text": "I want to watch ",
        "userDefined": false
      },
      {
        "text": "Harry Potter",
        "alias": "movie",
        "meta": "@movie",
        "userDefined": false
      }
    ],
    "isTemplate": false,
    "count": 0,
    "updated": 0
  },
  {
    "id": "17fd5037-f10c-4b54-b681-eb97d3ccdb2b",
    "data": [
      {
        "text": "show me a video of ",
        "userDefined": false
      },
      {
        "text": "penguins",
        "alias": "video",
        "meta": "@sys.any",
        "userDefined": true
      }
    ],
    "isTemplate": false,
    "count": 0,
    "updated": 0
  },
  {
    "id": "201c2871-23b7-40cc-99cc-ef8e75e09c47",
    "data": [
      {
        "text": "show ",
        "userDefined": false
      },
      {
        "text": "trailer",
        "alias": "trailer",
        "meta": "@trailer",
        "userDefined": true
      },
      {
        "text": " for ",
        "userDefined": false
      },
      {
        "text": "Ex-Machina",
        "alias": "movie",
        "meta": "@movie",
        "userDefined": true
      }
    ],
    "isTemplate": false,
    "count": 0,
    "updated": 0
  },
  {
    "id": "af2259af-47fd-4f13-a86e-05fa067c5325",
    "data": [
      {
        "text": "play",
        "meta": "@sys.ignore",
        "userDefined": true
      },
      {
        "text": " the ",
        "userDefined": false
      },
      {
        "text": "trailer",
        "alias": "trailer",
        "meta": "@trailer",
        "userDefined": true
      },
      {
        "text": " for ",
        "userDefined": false
      },
      {
        "text": "The Angry Birds Movie",
        "alias": "movie",
        "meta": "@movie",
        "userDefined": true
      }
    ],
    "isTemplate": false,
    "count": 0,
    "updated": 0
  },
  {
    "id": "36ee8277-f5c4-47a9-a09e-40529520badf",
    "data": [
      {
        "text": "open",
        "meta": "@sys.ignore",
        "userDefined": false
      },
      {
        "text": " ",
        "userDefined": false
      },
      {
        "text": "make-up",
        "alias": "video",
        "meta": "@sys.any",
        "userDefined": true
      },
      {
        "text": " ",
        "userDefined": false
      },
      {
        "text": "video on",
        "meta": "@sys.ignore",
        "userDefined": false
      },
      {
        "text": " ",
        "userDefined": false
      },
      {
        "text": "Youtube",
        "alias": "service",
        "meta": "@video-service",
        "userDefined": true
      }
    ],
    "isTemplate": false,
    "count": 0,
    "updated": 0
  },
  {
    "id": "0c6fb5bf-5980-4fed-969c-1fb511931551",
    "data": [
      {
        "text": "videos ",
        "userDefined": false
      },
      {
        "text": "of",
        "meta": "@sys.ignore",
        "userDefined": false
      },
      {
        "text": " ",
        "userDefined": false
      },
      {
        "text": "Lady Gaga",
        "alias": "person",
        "meta": "@person",
        "userDefined": false
      }
    ],
    "isTemplate": false,
    "count": 0,
    "updated": 0
  },
  {
    "id": "251f40d0-03dd-4515-ae2b-4d093c24e2f1",
    "data": [
      {
        "text": "watch ",
        "userDefined": false
      },
      {
        "text": "video",
        "meta": "@sys.ignore",
        "userDefined": false
      }
    ],
    "isTemplate": false,
    "count": 0,
    "updated": 0
  },
  {
    "id": "cf0ce09e-8d5a-48aa-b3e6-3ae4ad17c247",
    "data": [
      {
        "text": "Scarlett Johansson",
        "alias": "person",
        "meta": "@person",
        "userDefined": false
      },
      {
        "text": " videos",
        "userDefined": false
      }
    ],
    "isTemplate": false,
    "count": 0,
    "updated": 0
  }
]