{
  "id": "c713719a-3845-4e23-ab35-82f18128de17",
  "name": "weather - context:weather - comment:activity",
  "auto": true,
  "contexts": [
    "weather"
  ],
  "responses": [
    {
      "resetContexts": false,
      "action": "#weather.intent_action",
      "affectedContexts": [
        {
          "name": "weather",
          "parameters": {},
          "lifespan": 2
        },
        {
          "name": "weather-contextweather-commentactivity-followup",
          "parameters": {},
          "lifespan": 2
        }
      ],
      "parameters": [
        {
          "id": "b41f3d2a-997e-4d78-ae21-36ee52cc1fa1",
          "required": false,
          "dataType": "@activity",
          "name": "activity",
          "value": "$activity",
          "promptMessages": [],
          "noMatchPromptMessages": [],
          "noInputPromptMessages": [],
          "outputDialogContexts": [],
          "isList": false
        }
      ],
      "messages": [
        {
          "type": 0,
          "lang": "es",
          "condition": "",
          "speech": []
        },
        {
          "type": 0,
          "lang": "zh-cn",
          "condition": "",
          "speech": []
        },
        {
          "type": 0,
          "lang": "fr",
          "condition": "",
          "speech": []
        },
        {
          "type": 0,
          "lang": "it",
          "condition": "",
          "speech": []
        },
        {
          "type": 0,
          "lang": "en",
          "condition": "",
          "speech": []
        },
        {
          "type": 0,
          "lang": "ja",
          "condition": "",
          "speech": []
        },
        {
          "type": 0,
          "lang": "pt-br",
          "condition": "",
          "speech": []
        },
        {
          "type": 0,
          "lang": "zh-tw",
          "condition": "",
          "speech": []
        },
        {
          "type": 0,
          "lang": "zh-hk",
          "condition": "",
          "speech": []
        },
        {
          "type": 0,
          "lang": "pt",
          "condition": "",
          "speech": []
        },
        {
          "type": 0,
          "lang": "ru",
          "condition": "",
          "speech": []
        },
        {
          "type": 0,
          "lang": "de",
          "condition": "",
          "speech": []
        }
      ],
      "defaultResponsePlatforms": {},
      "speech": []
    }
  ],
  "priority": 500000,
  "webhookUsed": false,
  "webhookForSlotFilling": false,
  "fallbackIntent": false,
  "events": [],
  "conditionalResponses": [],
  "condition": "",
  "conditionalFollowupEvents": []
}