[
  {
    "id": "75feca19-48c5-42ce-87af-1019ed4de902",
    "data": [
      {
        "text": "und zum ",
        "userDefined": false
      },
      {
        "text": "Fahrradfahren",
        "alias": "activity",
        "meta": "@activity",
        "userDefined": false
      }
    ],
    "isTemplate": false,
    "count": 0,
    "updated": 0
  },
  {
    "id": "32ac7b1a-886c-4cc1-9e2d-2ba2700acb5e",
    "data": [
      {
        "text": "und für eine ",
        "userDefined": false
      },
      {
        "text": "Radtour",
        "alias": "activity",
        "meta": "@activity",
        "userDefined": true
      }
    ],
    "isTemplate": false,
    "count": 0,
    "updated": 0
  },
  {
    "id": "03a54fd0-ef32-48e5-8f89-1a8eb6adbf3c",
    "data": [
      {
        "text": "und zum ",
        "userDefined": false
      },
      {
        "text": "Joggen",
        "alias": "activity",
        "meta": "@activity",
        "userDefined": false
      }
    ],
    "isTemplate": false,
    "count": 0,
    "updated": 0
  },
  {
    "id": "daf769ba-99fd-434b-9271-988880af8042",
    "data": [
      {
        "text": "kann ich bei diesem ",
        "userDefined": false
      },
      {
        "text": "Wetter",
        "meta": "@sys.ignore",
        "userDefined": false
      },
      {
        "text": " ",
        "userDefined": false
      },
      {
        "text": "Joggen",
        "alias": "activity",
        "meta": "@activity",
        "userDefined": false
      }
    ],
    "isTemplate": false,
    "count": 0,
    "updated": 0
  },
  {
    "id": "69e958a2-1ec2-4907-81d3-d4b98d2c9845",
    "data": [
      {
        "text": "ist",
        "meta": "@sys.ignore",
        "userDefined": false
      },
      {
        "text": " es gutes ",
        "userDefined": false
      },
      {
        "text": "Wetter",
        "meta": "@sys.ignore",
        "userDefined": false
      },
      {
        "text": " zum ",
        "userDefined": false
      },
      {
        "text": "Joggen",
        "alias": "activity",
        "meta": "@activity",
        "userDefined": false
      }
    ],
    "isTemplate": false,
    "count": 0,
    "updated": 0
  },
  {
    "id": "70ad2c14-e5c6-443d-a1aa-f2e13f73faf3",
    "data": [
      {
        "text": "und auch zum ",
        "userDefined": false
      },
      {
        "text": "Schwimmen",
        "alias": "activity",
        "meta": "@activity",
        "userDefined": false
      }
    ],
    "isTemplate": false,
    "count": 0,
    "updated": 0
  },
  {
    "id": "c4891a53-dc41-498f-ade9-f31dd0a2748b",
    "data": [
      {
        "text": "ist",
        "meta": "@sys.ignore",
        "userDefined": false
      },
      {
        "text": " es ",
        "userDefined": false
      },
      {
        "text": "Fahrradwetter",
        "alias": "activity",
        "meta": "@activity",
        "userDefined": true
      }
    ],
    "isTemplate": false,
    "count": 0,
    "updated": 0
  },
  {
    "id": "8e561d26-e5de-4b87-940c-61e107ac3b7c",
    "data": [
      {
        "text": "und zum ",
        "userDefined": false
      },
      {
        "text": "Laufen",
        "alias": "activity",
        "meta": "@activity",
        "userDefined": false
      }
    ],
    "isTemplate": false,
    "count": 0,
    "updated": 0
  }
]