{
  "id": "d59611b9-d542-4b6f-8ad7-9e0aa840ebae",
  "name": "smarthome.lights.saturation.check",
  "auto": true,
  "contexts": [],
  "responses": [
    {
      "resetContexts": false,
      "action": "smarthome.lights.saturation.check",
      "affectedContexts": [],
      "parameters": [
        {
          "id": "70d5e70f-c624-43f8-ac3f-0b62e41ed09b",
          "required": false,
          "dataType": "@room",
          "name": "room",
          "value": "$room",
          "promptMessages": [],
          "noMatchPromptMessages": [],
          "noInputPromptMessages": [],
          "outputDialogContexts": [],
          "isList": false
        },
        {
          "id": "122394eb-6a6b-4b0e-b6c4-e2e038478930",
          "required": false,
          "dataType": "@sys.number",
          "name": "value",
          "value": "$value",
          "promptMessages": [],
          "noMatchPromptMessages": [],
          "noInputPromptMessages": [],
          "outputDialogContexts": [],
          "isList": false
        },
        {
          "id": "570510e1-3071-49ab-9a70-07d4a2ff1048",
          "required": false,
          "dataType": "@all",
          "name": "all",
          "value": "$all",
          "promptMessages": [],
          "noMatchPromptMessages": [],
          "noInputPromptMessages": [],
          "outputDialogContexts": [],
          "isList": false
        },
        {
          "id": "aa04bef4-bf66-4a8d-b4d6-2e9b88b5d59f",
          "required": false,
          "dataType": "@color",
          "name": "color",
          "value": "$color",
          "promptMessages": [],
          "noMatchPromptMessages": [],
          "noInputPromptMessages": [],
          "outputDialogContexts": [],
          "isList": false
        },
        {
          "id": "005e052f-162b-4b14-b8ae-b4a272b4e5a0",
          "required": false,
          "dataType": "@lights",
          "name": "device",
          "value": "$device",
          "promptMessages": [],
          "noMatchPromptMessages": [],
          "noInputPromptMessages": [],
          "outputDialogContexts": [],
          "isList": false
        }
      ],
      "messages": [
        {
          "type": 0,
          "lang": "en",
          "condition": "",
          "speech": []
        }
      ],
      "defaultResponsePlatforms": {},
      "speech": []
    }
  ],
  "priority": 500000,
  "webhookUsed": false,
  "webhookForSlotFilling": false,
  "fallbackIntent": false,
  "events": [],
  "conditionalResponses": [],
  "condition": "",
  "conditionalFollowupEvents": []
}