{
  "id": "90c4b100-86ba-4977-80a4-1b9ca135398b",
  "name": "smarthome.lights.switch.check.on",
  "auto": true,
  "contexts": [],
  "responses": [
    {
      "resetContexts": false,
      "action": "smarthome.lights.switch.check.on",
      "affectedContexts": [
        {
          "name": "switch",
          "parameters": {},
          "lifespan": 3
        },
        {
          "name": "room",
          "parameters": {},
          "lifespan": 3
        }
      ],
      "parameters": [
        {
          "id": "db1f5c2e-b74d-4c01-b13b-ad5e8e0bf0b3",
          "required": false,
          "dataType": "@lights",
          "name": "device",
          "value": "$device",
          "promptMessages": [],
          "noMatchPromptMessages": [],
          "noInputPromptMessages": [],
          "outputDialogContexts": [],
          "isList": false
        },
        {
          "id": "c29b6f2e-2984-4b3c-be03-15666a8fcd83",
          "required": false,
          "dataType": "@color",
          "name": "color",
          "value": "$color",
          "promptMessages": [],
          "noMatchPromptMessages": [],
          "noInputPromptMessages": [],
          "outputDialogContexts": [],
          "isList": false
        },
        {
          "id": "9d7dfc14-2131-4621-b6fb-de0fe9c58057",
          "required": false,
          "dataType": "@all",
          "name": "all",
          "value": "$all",
          "promptMessages": [],
          "noMatchPromptMessages": [],
          "noInputPromptMessages": [],
          "outputDialogContexts": [],
          "isList": false
        },
        {
          "id": "b59cba6a-7bec-4491-be75-a81414290c9d",
          "required": false,
          "dataType": "@room",
          "name": "room",
          "value": "$room",
          "promptMessages": [],
          "noMatchPromptMessages": [],
          "noInputPromptMessages": [],
          "outputDialogContexts": [],
          "isList": false
        }
      ],
      "messages": [
        {
          "type": 0,
          "lang": "en",
          "condition": "",
          "speech": []
        }
      ],
      "defaultResponsePlatforms": {},
      "speech": []
    }
  ],
  "priority": 500000,
  "webhookUsed": false,
  "webhookForSlotFilling": false,
  "fallbackIntent": false,
  "events": [],
  "conditionalResponses": [],
  "condition": "",
  "conditionalFollowupEvents": []
}