{
  "id": "8e5be431-e2f0-4ef5-83b9-20daf55df6fa",
  "name": "smarthome.device.switch.schedule.off",
  "auto": true,
  "contexts": [],
  "responses": [
    {
      "resetContexts": false,
      "action": "smarthome.device.switch.schedule.off",
      "affectedContexts": [
        {
          "name": "schedule",
          "parameters": {},
          "lifespan": 5
        }
      ],
      "parameters": [
        {
          "id": "286e1eb8-bd19-4949-8f1e-dd0c042cdf0f",
          "required": false,
          "dataType": "@device",
          "name": "device",
          "value": "$device",
          "promptMessages": [],
          "noMatchPromptMessages": [],
          "noInputPromptMessages": [],
          "outputDialogContexts": [],
          "isList": false
        },
        {
          "id": "dcf6cd37-cf90-4db9-8556-0de8bdf718a0",
          "required": false,
          "dataType": "@sys.date-time",
          "name": "date-time",
          "value": "$date-time",
          "prompts": [
            {
              "lang": "en",
              "value": "What time?"
            }
          ],
          "promptMessages": [],
          "noMatchPromptMessages": [],
          "noInputPromptMessages": [],
          "outputDialogContexts": [],
          "isList": false
        },
        {
          "id": "7b46c1e9-7dbe-4e81-9587-667ebbeb173c",
          "required": false,
          "dataType": "@condition",
          "name": "condition",
          "value": "$condition",
          "promptMessages": [],
          "noMatchPromptMessages": [],
          "noInputPromptMessages": [],
          "outputDialogContexts": [],
          "isList": false
        },
        {
          "id": "d275d716-67b9-48a0-b87e-fd300cb5f541",
          "required": false,
          "dataType": "@recurrence",
          "name": "recurrence",
          "value": "$recurrence",
          "promptMessages": [],
          "noMatchPromptMessages": [],
          "noInputPromptMessages": [],
          "outputDialogContexts": [],
          "isList": false
        },
        {
          "id": "5e159da6-f758-4645-a2e4-ac20ae2254dd",
          "required": false,
          "dataType": "@room",
          "name": "room",
          "value": "$room",
          "promptMessages": [],
          "noMatchPromptMessages": [],
          "noInputPromptMessages": [],
          "outputDialogContexts": [],
          "isList": false
        },
        {
          "id": "c05bb7f9-040f-47d3-9a39-fdd78462ada8",
          "required": false,
          "dataType": "@all",
          "name": "all",
          "value": "$all",
          "promptMessages": [],
          "noMatchPromptMessages": [],
          "noInputPromptMessages": [],
          "outputDialogContexts": [],
          "isList": false
        }
      ],
      "messages": [
        {
          "type": 0,
          "lang": "en",
          "condition": "",
          "speech": []
        }
      ],
      "defaultResponsePlatforms": {},
      "speech": []
    }
  ],
  "priority": 500000,
  "webhookUsed": false,
  "webhookForSlotFilling": false,
  "fallbackIntent": false,
  "events": [],
  "conditionalResponses": [],
  "condition": "",
  "conditionalFollowupEvents": []
}