{
  "id": "e9b65150-5a85-42c8-999f-de1beab353f3",
  "name": "smarthome.device.switch.off",
  "auto": true,
  "contexts": [],
  "responses": [
    {
      "resetContexts": false,
      "action": "smarthome.device.switch.off",
      "affectedContexts": [
        {
          "name": "device-switch",
          "parameters": {},
          "lifespan": 5
        },
        {
          "name": "room",
          "parameters": {},
          "lifespan": 3
        },
        {
          "name": "check",
          "parameters": {},
          "lifespan": 3
        },
        {
          "name": "schedule",
          "parameters": {},
          "lifespan": 3
        }
      ],
      "parameters": [
        {
          "id": "50eca504-c47f-4249-9740-dbf4e3a01b6b",
          "required": false,
          "dataType": "@device",
          "name": "device",
          "value": "$device",
          "prompts": [
            {
              "lang": "en",
              "value": "Which device?"
            }
          ],
          "promptMessages": [],
          "noMatchPromptMessages": [],
          "noInputPromptMessages": [],
          "outputDialogContexts": [],
          "isList": false
        },
        {
          "id": "696e50bb-2391-4f7f-ba06-131d81def2b2",
          "required": false,
          "dataType": "@room",
          "name": "room",
          "value": "$room",
          "promptMessages": [],
          "noMatchPromptMessages": [],
          "noInputPromptMessages": [],
          "outputDialogContexts": [],
          "isList": false
        },
        {
          "id": "84aaeeaf-d26f-4dd8-9763-c547872890af",
          "required": false,
          "dataType": "@all",
          "name": "all",
          "value": "$all",
          "promptMessages": [],
          "noMatchPromptMessages": [],
          "noInputPromptMessages": [],
          "outputDialogContexts": [],
          "isList": false
        }
      ],
      "messages": [
        {
          "type": 0,
          "lang": "en",
          "condition": "",
          "speech": []
        }
      ],
      "defaultResponsePlatforms": {},
      "speech": []
    }
  ],
  "priority": 500000,
  "webhookUsed": false,
  "webhookForSlotFilling": false,
  "fallbackIntent": false,
  "events": [],
  "conditionalResponses": [],
  "condition": "",
  "conditionalFollowupEvents": []
}