{
  "id": "6a64a8ca-f9b4-443d-936b-c3b8b5f83334",
  "name": "map-sort",
  "isOverridable": true,
  "isEnum": false,
  "isRegexp": false,
  "automatedExpansion": false,
  "allowFuzzyExtraction": false
}