[
  {
    "id": "e5d6db62-1bab-404a-bf01-13346bb20ed4",
    "data": [
      {
        "text": "are there ",
        "userDefined": false
      },
      {
        "text": "hotels",
        "alias": "venue-type",
        "meta": "@venue-accomodation-type",
        "userDefined": false
      }
    ],
    "isTemplate": false,
    "count": 0,
    "updated": 0
  },
  {
    "id": "ffa50cb2-4370-43d6-8335-2bab77462ee6",
    "data": [
      {
        "text": "are there any ",
        "userDefined": false
      },
      {
        "text": "motels",
        "alias": "venue-type",
        "meta": "@venue-accomodation-type",
        "userDefined": false
      },
      {
        "text": " there",
        "userDefined": false
      }
    ],
    "isTemplate": false,
    "count": 0,
    "updated": 0
  },
  {
    "id": "02c8f1e5-9837-4d08-a0a3-d616e5efb771",
    "data": [
      {
        "text": "check ",
        "userDefined": false
      },
      {
        "text": "hostels",
        "alias": "venue-type",
        "meta": "@venue-accomodation-type",
        "userDefined": false
      },
      {
        "text": " there",
        "userDefined": false
      }
    ],
    "isTemplate": false,
    "count": 0,
    "updated": 0
  },
  {
    "id": "7aeba865-eb74-4a66-a896-c16bd01909cf",
    "data": [
      {
        "text": "also a ",
        "userDefined": false
      },
      {
        "text": "resort",
        "alias": "venue-type",
        "meta": "@venue-accomodation-type",
        "userDefined": false
      }
    ],
    "isTemplate": false,
    "count": 0,
    "updated": 0
  },
  {
    "id": "18845402-5b45-45dc-aa03-61fff756bc33",
    "data": [
      {
        "text": "hostel",
        "alias": "venue-type",
        "meta": "@venue-accomodation-type",
        "userDefined": false
      },
      {
        "text": " ",
        "userDefined": false
      },
      {
        "text": "now",
        "meta": "@sys.ignore",
        "userDefined": false
      },
      {
        "text": " please",
        "userDefined": false
      }
    ],
    "isTemplate": false,
    "count": 0,
    "updated": 0
  },
  {
    "id": "cdd0e3b3-aaae-4ab0-89f9-70d282fa29cc",
    "data": [
      {
        "text": "and a ",
        "userDefined": false
      },
      {
        "text": "hotel",
        "alias": "venue-type",
        "meta": "@venue-accomodation-type",
        "userDefined": false
      },
      {
        "text": " also",
        "userDefined": false
      }
    ],
    "isTemplate": false,
    "count": 0,
    "updated": 0
  },
  {
    "id": "41b76936-8b95-49f5-93a0-fe2ca5e254be",
    "data": [
      {
        "text": "look for similar ",
        "userDefined": false
      },
      {
        "text": "resorts",
        "alias": "venue-type",
        "meta": "@venue-accomodation-type",
        "userDefined": false
      }
    ],
    "isTemplate": false,
    "count": 0,
    "updated": 0
  }
]