{
  "id": "5b06c514-11a9-46a0-8306-aff756a4ff28",
  "name": "traffic.time_period.get - context:traffic - comment:time-period",
  "auto": true,
  "contexts": [
    "traffic"
  ],
  "responses": [
    {
      "resetContexts": false,
      "action": "traffic.time_period.get",
      "affectedContexts": [],
      "parameters": [
        {
          "id": "37410b8c-1187-403b-a861-b8bcdb4cb6bd",
          "required": false,
          "dataType": "@sys.time-period",
          "name": "time-period",
          "value": "$time-period",
          "promptMessages": [],
          "noMatchPromptMessages": [],
          "noInputPromptMessages": [],
          "outputDialogContexts": [],
          "isList": false
        }
      ],
      "messages": [
        {
          "type": 0,
          "lang": "en",
          "condition": "",
          "speech": []
        }
      ],
      "defaultResponsePlatforms": {},
      "speech": []
    }
  ],
  "priority": 500000,
  "webhookUsed": false,
  "webhookForSlotFilling": false,
  "fallbackIntent": false,
  "events": [],
  "conditionalResponses": [],
  "condition": "",
  "conditionalFollowupEvents": []
}