[
  {
    "id": "fd428698-ec9b-45b5-8263-dfd6bb283e2e",
    "data": [
      {
        "text": "2 hundred",
        "meta": "@sys.ignore",
        "userDefined": false
      }
    ],
    "isTemplate": false,
    "count": 0,
    "updated": 0
  },
  {
    "id": "b1f914a7-f020-4b49-bad8-09a5d7ae03a6",
    "data": [
      {
        "text": "$200",
        "meta": "@sys.ignore",
        "userDefined": false
      }
    ],
    "isTemplate": false,
    "count": 0,
    "updated": 0
  },
  {
    "id": "958cdb6f-0aad-4bd2-91c5-d0d6cbc46c50",
    "data": [
      {
        "text": "200",
        "meta": "@sys.ignore",
        "userDefined": false
      }
    ],
    "isTemplate": false,
    "count": 0,
    "updated": 0
  },
  {
    "id": "e651fe62-5eb6-403a-b9f5-addfb5ea25c1",
    "data": [
      {
        "text": "how about the one for ",
        "userDefined": false
      },
      {
        "text": "200 bucks",
        "meta": "@sys.ignore",
        "userDefined": false
      }
    ],
    "isTemplate": false,
    "count": 0,
    "updated": 0
  }
]