[
  {
    "value": "face",
    "synonyms": [
      "face",
      "my face"
    ]
  },
  {
    "value": "floor",
    "synonyms": [
      "feet",
      "floor"
    ]
  },
  {
    "value": "head",
    "synonyms": [
      "head"
    ]
  },
  {
    "value": "left side",
    "synonyms": [
      "left side"
    ]
  },
  {
    "value": "my feet",
    "synonyms": [
      "my feet"
    ]
  },
  {
    "value": "right side",
    "synonyms": [
      "right side"
    ]
  },
  {
    "value": "sides",
    "synonyms": [
      "sides"
    ]
  },
  {
    "value": "straight",
    "synonyms": [
      "straight"
    ]
  }
]