{
  "id": "f84298c7-43fe-4e5f-aa2c-e539e02046ce",
  "name": "car-device",
  "isOverridable": true,
  "isEnum": false,
  "isRegexp": false,
  "automatedExpansion": false,
  "allowFuzzyExtraction": false
}