[
  {
    "id": "68730e6e-f2bc-4914-84b4-98362160ec5c",
    "data": [
      {
        "text": "Mary\u0027s",
        "alias": "passenger",
        "meta": "@sys.given-name",
        "userDefined": false
      },
      {
        "text": " seat is too cold",
        "userDefined": false
      }
    ],
    "isTemplate": false,
    "count": 0,
    "updated": 0
  },
  {
    "id": "6d3ffe35-564c-4e3b-acf7-e3285258e0ee",
    "data": [
      {
        "text": "my seat",
        "alias": "car-part",
        "meta": "@car-seat",
        "userDefined": false
      },
      {
        "text": " is too cold",
        "userDefined": false
      }
    ],
    "isTemplate": false,
    "count": 0,
    "updated": 0
  },
  {
    "id": "2c8e5b54-7e02-4215-8874-12a0a5844f05",
    "data": [
      {
        "text": "driver\u0027s seat",
        "alias": "car-part",
        "meta": "@car-seat",
        "userDefined": false
      },
      {
        "text": " is too cold",
        "userDefined": false
      }
    ],
    "isTemplate": false,
    "count": 0,
    "updated": 0
  },
  {
    "id": "5a6fdb33-8a58-419f-b87a-2ff3e5f94c74",
    "data": [
      {
        "text": "make the ",
        "userDefined": false
      },
      {
        "text": "driver\u0027s seat",
        "alias": "car-part",
        "meta": "@car-seat",
        "userDefined": true
      },
      {
        "text": " ",
        "userDefined": false
      },
      {
        "text": "5",
        "alias": "temperature",
        "meta": "@sys.number",
        "userDefined": true
      },
      {
        "text": " degrees warmer",
        "userDefined": false
      }
    ],
    "isTemplate": false,
    "count": 0,
    "updated": 0
  },
  {
    "id": "5732706c-b4de-4adf-80ad-b9a592a24c6d",
    "data": [
      {
        "text": "turn ",
        "userDefined": false
      },
      {
        "text": "up",
        "meta": "@sys.ignore",
        "userDefined": true
      },
      {
        "text": " the ",
        "userDefined": false
      },
      {
        "text": "heater",
        "meta": "@sys.ignore",
        "userDefined": true
      },
      {
        "text": " for ",
        "userDefined": false
      },
      {
        "text": "rear left seat",
        "alias": "car-part",
        "meta": "@car-seat",
        "userDefined": true
      }
    ],
    "isTemplate": false,
    "count": 0,
    "updated": 0
  },
  {
    "id": "90f39396-0562-4dd5-bae9-fc603de21dfb",
    "data": [
      {
        "text": "please make ",
        "userDefined": false
      },
      {
        "text": "Jack\u0027s",
        "alias": "passenger",
        "meta": "@sys.given-name",
        "userDefined": true
      },
      {
        "text": " seat warmer",
        "userDefined": false
      }
    ],
    "isTemplate": false,
    "count": 0,
    "updated": 0
  },
  {
    "id": "13d355ad-6eac-4e22-8110-24579d444554",
    "data": [
      {
        "text": "turn the ",
        "userDefined": false
      },
      {
        "text": "heater",
        "meta": "@sys.ignore",
        "userDefined": true
      },
      {
        "text": " for both ",
        "userDefined": false
      },
      {
        "text": "left seats",
        "alias": "car-part",
        "meta": "@car-seat",
        "userDefined": true
      },
      {
        "text": " ",
        "userDefined": false
      },
      {
        "text": "up",
        "meta": "@sys.ignore",
        "userDefined": true
      }
    ],
    "isTemplate": false,
    "count": 0,
    "updated": 0
  },
  {
    "id": "44732964-4082-45a0-b77e-f5c268f1c605",
    "data": [
      {
        "text": "passenger seat",
        "alias": "car-part",
        "meta": "@car-seat",
        "userDefined": true
      },
      {
        "text": " is too cold",
        "userDefined": false
      }
    ],
    "isTemplate": false,
    "count": 0,
    "updated": 0
  },
  {
    "id": "3cfe83b4-3d40-4ea2-8ff3-235ac1b6536f",
    "data": [
      {
        "text": "turn ",
        "userDefined": false
      },
      {
        "text": "up",
        "meta": "@sys.ignore",
        "userDefined": true
      },
      {
        "text": " the temperature of ",
        "userDefined": false
      },
      {
        "text": "my seat",
        "alias": "car-part",
        "meta": "@car-seat",
        "userDefined": true
      }
    ],
    "isTemplate": false,
    "count": 0,
    "updated": 0
  },
  {
    "id": "2fe40dff-34c6-4ebe-8d4f-c5f04d80a76c",
    "data": [
      {
        "text": "the ",
        "userDefined": false
      },
      {
        "text": "driver\u0027s seat",
        "alias": "car-part",
        "meta": "@car-seat",
        "userDefined": true
      },
      {
        "text": " is too cold",
        "userDefined": false
      }
    ],
    "isTemplate": false,
    "count": 0,
    "updated": 0
  },
  {
    "id": "a2eb1866-66c0-4f4d-a160-f2dcaff6f7e0",
    "data": [
      {
        "text": "turn up the temperature for ",
        "userDefined": false
      },
      {
        "text": "driver\u0027s seat",
        "alias": "car-part",
        "meta": "@car-seat",
        "userDefined": true
      }
    ],
    "isTemplate": false,
    "count": 0,
    "updated": 0
  },
  {
    "id": "a894abe6-3635-4675-ad0f-7d6f44713724",
    "data": [
      {
        "text": "warm",
        "meta": "@sys.ignore",
        "userDefined": true
      },
      {
        "text": " ",
        "userDefined": false
      },
      {
        "text": "up",
        "meta": "@sys.ignore",
        "userDefined": true
      },
      {
        "text": " ",
        "userDefined": false
      },
      {
        "text": "driver\u0027s seat",
        "alias": "car-part",
        "meta": "@car-seat",
        "userDefined": true
      }
    ],
    "isTemplate": false,
    "count": 0,
    "updated": 0
  },
  {
    "id": "090a4995-f6ed-4b44-a210-ce65ded0b18f",
    "data": [
      {
        "text": "make ",
        "userDefined": false
      },
      {
        "text": "my seat",
        "alias": "car-part",
        "meta": "@car-seat",
        "userDefined": true
      },
      {
        "text": " warmer",
        "userDefined": false
      }
    ],
    "isTemplate": false,
    "count": 0,
    "updated": 0
  },
  {
    "id": "4599ffab-b191-409c-ba76-371928eae950",
    "data": [
      {
        "text": "turn",
        "meta": "@sys.ignore",
        "userDefined": true
      },
      {
        "text": " ",
        "userDefined": false
      },
      {
        "text": "up",
        "meta": "@sys.ignore",
        "userDefined": true
      },
      {
        "text": " the air ",
        "userDefined": false
      },
      {
        "text": "temperature",
        "meta": "@sys.ignore",
        "userDefined": true
      },
      {
        "text": " for ",
        "userDefined": false
      },
      {
        "text": "driver\u0027s seat",
        "alias": "car-part",
        "meta": "@car-seat",
        "userDefined": true
      }
    ],
    "isTemplate": false,
    "count": 0,
    "updated": 0
  },
  {
    "id": "53745f50-32bb-4090-a2ad-036520a0e2dc",
    "data": [
      {
        "text": "it",
        "meta": "@sys.ignore",
        "userDefined": true
      },
      {
        "text": "\u0027s too ",
        "userDefined": false
      },
      {
        "text": "cold",
        "meta": "@sys.ignore",
        "userDefined": true
      },
      {
        "text": " ",
        "userDefined": false
      },
      {
        "text": "in",
        "meta": "@sys.ignore",
        "userDefined": true
      },
      {
        "text": " the ",
        "userDefined": false
      },
      {
        "text": "backseat",
        "alias": "car-part",
        "meta": "@car-seat",
        "userDefined": true
      }
    ],
    "isTemplate": false,
    "count": 0,
    "updated": 0
  },
  {
    "id": "cecd92f3-a6f4-4bd3-bb22-30b0d055e037",
    "data": [
      {
        "text": "can you warm up ",
        "userDefined": false
      },
      {
        "text": "Nolan\u0027s",
        "alias": "passenger",
        "meta": "@sys.given-name",
        "userDefined": true
      },
      {
        "text": " seat",
        "userDefined": false
      }
    ],
    "isTemplate": false,
    "count": 0,
    "updated": 0
  },
  {
    "id": "cd45b918-407a-4bac-9ad9-0646183471a1",
    "data": [
      {
        "text": "the ",
        "userDefined": false
      },
      {
        "text": "passenger seat",
        "alias": "car-part",
        "meta": "@car-seat",
        "userDefined": true
      },
      {
        "text": " is freezing",
        "userDefined": false
      }
    ],
    "isTemplate": false,
    "count": 1,
    "updated": 0
  },
  {
    "id": "2315861d-d42f-4040-94cb-b750b12f94d2",
    "data": [
      {
        "text": "the ",
        "userDefined": false
      },
      {
        "text": "passenger seat",
        "alias": "car-part",
        "meta": "@car-seat",
        "userDefined": false
      },
      {
        "text": " is ",
        "userDefined": false
      },
      {
        "text": "freezing",
        "meta": "@sys.ignore",
        "userDefined": false
      }
    ],
    "isTemplate": false,
    "count": 0,
    "updated": 0
  },
  {
    "id": "6f0a43d6-5604-4468-8385-50d229dfec17",
    "data": [
      {
        "text": "warm",
        "meta": "@sys.ignore",
        "userDefined": true
      },
      {
        "text": " ",
        "userDefined": false
      },
      {
        "text": "baby seat",
        "alias": "car-part",
        "meta": "@car-seat",
        "userDefined": true
      },
      {
        "text": " ",
        "userDefined": false
      },
      {
        "text": "up",
        "meta": "@sys.ignore",
        "userDefined": true
      }
    ],
    "isTemplate": false,
    "count": 0,
    "updated": 0
  }
]