{
  "id": "36adb8cf-70fa-451d-b3fe-a19f1741d98b",
  "name": "car.ac.down",
  "auto": true,
  "contexts": [],
  "responses": [
    {
      "resetContexts": false,
      "action": "car.ac.down",
      "affectedContexts": [
        {
          "name": "car-ac",
          "parameters": {},
          "lifespan": 5
        }
      ],
      "parameters": [
        {
          "id": "407445f1-7756-41bf-87c5-0b67f678e57a",
          "required": false,
          "dataType": "@car-device",
          "name": "device",
          "value": "$device",
          "promptMessages": [],
          "noMatchPromptMessages": [],
          "noInputPromptMessages": [],
          "outputDialogContexts": [],
          "isList": false
        },
        {
          "id": "94dde3fa-368c-404f-acbf-e77b395ae07d",
          "required": false,
          "dataType": "@sys.number",
          "name": "change-value",
          "value": "$change-value",
          "promptMessages": [],
          "noMatchPromptMessages": [],
          "noInputPromptMessages": [],
          "outputDialogContexts": [],
          "isList": false
        },
        {
          "id": "8c538e70-2bc0-4817-9788-83cb558e46fd",
          "required": false,
          "dataType": "@air-direction",
          "name": "air-distribution",
          "value": "$air-distribution",
          "promptMessages": [],
          "noMatchPromptMessages": [],
          "noInputPromptMessages": [],
          "outputDialogContexts": [],
          "isList": true
        },
        {
          "id": "66cc5b3d-522c-4a7e-8a43-7af39fae6f22",
          "required": false,
          "dataType": "@sys.given-name",
          "name": "passenger",
          "value": "$passenger",
          "promptMessages": [],
          "noMatchPromptMessages": [],
          "noInputPromptMessages": [],
          "outputDialogContexts": [],
          "isList": false
        },
        {
          "id": "77485f90-37b3-4998-985b-f03cab8c21ae",
          "required": false,
          "dataType": "@sys.number",
          "name": "final-value",
          "value": "$final-value",
          "promptMessages": [],
          "noMatchPromptMessages": [],
          "noInputPromptMessages": [],
          "outputDialogContexts": [],
          "isList": false
        }
      ],
      "messages": [
        {
          "type": 0,
          "lang": "en",
          "condition": "",
          "speech": []
        }
      ],
      "defaultResponsePlatforms": {},
      "speech": []
    }
  ],
  "priority": 500000,
  "webhookUsed": false,
  "webhookForSlotFilling": false,
  "fallbackIntent": false,
  "events": [],
  "conditionalResponses": [],
  "condition": "",
  "conditionalFollowupEvents": []
}