[
  {
    "id": "5dfc9894-396c-453c-98dc-c60b5d79021e",
    "data": [
      {
        "text": "where\u0027s the ",
        "userDefined": false
      },
      {
        "text": "turn signal",
        "alias": "car-part",
        "meta": "@car-part",
        "userDefined": true
      }
    ],
    "isTemplate": false,
    "count": 0,
    "updated": 0
  },
  {
    "id": "f8db7090-4c52-479e-9b66-37b89fbfb2c9",
    "data": [
      {
        "text": "locate the ",
        "userDefined": false
      },
      {
        "text": "rear window defroster",
        "alias": "car-part",
        "meta": "@car-part",
        "userDefined": true
      }
    ],
    "isTemplate": false,
    "count": 0,
    "updated": 0
  },
  {
    "id": "415add31-3077-494e-9ed2-5960a4dac15f",
    "data": [
      {
        "text": "where can I find the ",
        "userDefined": false
      },
      {
        "text": "gas pedal",
        "alias": "car-part",
        "meta": "@car-part",
        "userDefined": true
      }
    ],
    "isTemplate": false,
    "count": 0,
    "updated": 0
  },
  {
    "id": "8fd3829a-519a-4e7d-8b3c-aa988f0cfcd9",
    "data": [
      {
        "text": "where is ",
        "userDefined": false
      },
      {
        "text": "gearbox",
        "alias": "car-part",
        "meta": "@car-part",
        "userDefined": true
      },
      {
        "text": " located ",
        "userDefined": false
      },
      {
        "text": "in",
        "meta": "@sys.ignore",
        "userDefined": false
      },
      {
        "text": " ",
        "userDefined": false
      },
      {
        "text": "the car",
        "meta": "@sys.ignore",
        "userDefined": false
      }
    ],
    "isTemplate": false,
    "count": 0,
    "updated": 0
  },
  {
    "id": "4d12f98d-a316-4838-b609-22bba451db15",
    "data": [
      {
        "text": "where is ",
        "userDefined": false
      },
      {
        "text": "airbag control",
        "alias": "car-part",
        "meta": "@car-part",
        "userDefined": true
      },
      {
        "text": " unit in my car",
        "userDefined": false
      }
    ],
    "isTemplate": false,
    "count": 0,
    "updated": 0
  },
  {
    "id": "eb9b879a-e635-4af3-8333-5177d43d78b9",
    "data": [
      {
        "text": "check the ",
        "userDefined": false
      },
      {
        "text": "speedometer",
        "alias": "car-part",
        "meta": "@car-part",
        "userDefined": false
      },
      {
        "text": " location in my ",
        "userDefined": false
      },
      {
        "text": "car",
        "meta": "@sys.ignore",
        "userDefined": false
      }
    ],
    "isTemplate": false,
    "count": 0,
    "updated": 0
  },
  {
    "id": "83b7cf21-f104-4d0c-aed5-a0eb2ad7fd30",
    "data": [
      {
        "text": "where is ",
        "userDefined": false
      },
      {
        "text": "ash tray",
        "alias": "car-part",
        "meta": "@car-part",
        "userDefined": false
      }
    ],
    "isTemplate": false,
    "count": 0,
    "updated": 0
  },
  {
    "id": "a5ea26dd-f192-4f0b-9168-d02bec34fc55",
    "data": [
      {
        "text": "is there a ",
        "userDefined": false
      },
      {
        "text": "steering wheel",
        "alias": "car-part",
        "meta": "@car-part",
        "userDefined": true
      }
    ],
    "isTemplate": false,
    "count": 0,
    "updated": 0
  },
  {
    "id": "70442fcd-20fd-4d8a-a74c-e4a772a6ecd1",
    "data": [
      {
        "text": "is there ",
        "userDefined": false
      },
      {
        "text": "air bag",
        "alias": "car-part",
        "meta": "@car-part",
        "userDefined": true
      },
      {
        "text": " in my car",
        "userDefined": false
      }
    ],
    "isTemplate": false,
    "count": 0,
    "updated": 0
  },
  {
    "id": "b8e54ee3-f62f-4f4c-be01-be4c09d39e01",
    "data": [
      {
        "text": "where\u0027s the ",
        "userDefined": false
      },
      {
        "text": "ashtray",
        "alias": "car-part",
        "meta": "@car-part",
        "userDefined": true
      }
    ],
    "isTemplate": false,
    "count": 0,
    "updated": 0
  },
  {
    "id": "bff981e8-3bf1-47d3-9cf1-f466fdeec095",
    "data": [
      {
        "text": "where is ",
        "userDefined": false
      },
      {
        "text": "airbag control",
        "alias": "car-part",
        "meta": "@car-part",
        "userDefined": false
      },
      {
        "text": " unit in my ",
        "userDefined": false
      },
      {
        "text": "car",
        "meta": "@sys.ignore",
        "userDefined": false
      }
    ],
    "isTemplate": false,
    "count": 0,
    "updated": 0
  },
  {
    "id": "75ec7810-a880-4cac-b5cc-0834c6d5b7d9",
    "data": [
      {
        "text": "location of ",
        "userDefined": false
      },
      {
        "text": "speedometer",
        "alias": "car-part",
        "meta": "@car-part",
        "userDefined": false
      }
    ],
    "isTemplate": false,
    "count": 0,
    "updated": 0
  },
  {
    "id": "51d24ffd-83cf-444d-b7f2-6c3672930332",
    "data": [
      {
        "text": "where is the ",
        "userDefined": false
      },
      {
        "text": "airbag",
        "alias": "car-part",
        "meta": "@car-part",
        "userDefined": true
      },
      {
        "text": " in this car",
        "userDefined": false
      }
    ],
    "isTemplate": false,
    "count": 0,
    "updated": 0
  }
]