[
  {
    "id": "f864d19e-5eb8-401d-bd9d-c657823c1bea",
    "data": [
      {
        "text": "make ",
        "userDefined": false
      },
      {
        "text": "every",
        "alias": "all",
        "meta": "@all",
        "userDefined": false
      },
      {
        "text": " seat ",
        "userDefined": false
      },
      {
        "text": "lower",
        "alias": "position",
        "meta": "@position",
        "userDefined": false
      },
      {
        "text": " to ",
        "userDefined": false
      },
      {
        "text": "20",
        "alias": "change-value",
        "meta": "@sys.number",
        "userDefined": false
      },
      {
        "text": " points when everyone ",
        "userDefined": false
      },
      {
        "text": "get out",
        "alias": "condition",
        "meta": "@condition",
        "userDefined": false
      },
      {
        "text": " of the car",
        "userDefined": false
      }
    ],
    "isTemplate": false,
    "count": 0,
    "updated": 0
  },
  {
    "id": "ad4cd9b5-28dc-404e-aa67-2a2ad740b99c",
    "data": [
      {
        "text": "make ",
        "userDefined": false
      },
      {
        "text": "my seat",
        "alias": "car-seat",
        "meta": "@car-seat",
        "userDefined": false
      },
      {
        "text": " ",
        "userDefined": false
      },
      {
        "text": "20",
        "alias": "change-value",
        "meta": "@sys.number",
        "userDefined": false
      },
      {
        "text": " points ",
        "userDefined": false
      },
      {
        "text": "lower",
        "alias": "position",
        "meta": "@position",
        "userDefined": false
      },
      {
        "text": " when I ",
        "userDefined": false
      },
      {
        "text": "get out",
        "alias": "condition",
        "meta": "@condition",
        "userDefined": false
      },
      {
        "text": " of the car",
        "userDefined": false
      }
    ],
    "isTemplate": false,
    "count": 0,
    "updated": 0
  },
  {
    "id": "c8370dba-4443-4715-937e-47fb7dc6ba87",
    "data": [
      {
        "text": "make ",
        "userDefined": false
      },
      {
        "text": "Karl\u0027s",
        "alias": "passenger",
        "meta": "@sys.given-name",
        "userDefined": true
      },
      {
        "text": " seat ",
        "userDefined": false
      },
      {
        "text": "10",
        "alias": "change-value",
        "meta": "@sys.number",
        "userDefined": false
      },
      {
        "text": " points ",
        "userDefined": false
      },
      {
        "text": "higher",
        "alias": "position",
        "meta": "@position",
        "userDefined": false
      },
      {
        "text": " when he ",
        "userDefined": false
      },
      {
        "text": "gets in the",
        "alias": "condition",
        "meta": "@condition",
        "userDefined": false
      },
      {
        "text": " car",
        "userDefined": false
      }
    ],
    "isTemplate": false,
    "count": 0,
    "updated": 0
  },
  {
    "id": "2388968a-198b-4378-a891-e2277b51a0a6",
    "data": [
      {
        "text": "make ",
        "userDefined": false
      },
      {
        "text": "my seat",
        "alias": "car-seat",
        "meta": "@car-seat",
        "userDefined": false
      },
      {
        "text": " ",
        "userDefined": false
      },
      {
        "text": "10",
        "alias": "change-value",
        "meta": "@sys.number",
        "userDefined": false
      },
      {
        "text": " points ",
        "userDefined": false
      },
      {
        "text": "lower",
        "alias": "position",
        "meta": "@position",
        "userDefined": false
      },
      {
        "text": " when I ",
        "userDefined": false
      },
      {
        "text": "get in the",
        "alias": "condition",
        "meta": "@condition",
        "userDefined": false
      },
      {
        "text": " car",
        "userDefined": false
      }
    ],
    "isTemplate": false,
    "count": 0,
    "updated": 0
  },
  {
    "id": "2343c946-ec5b-4254-9ed0-dbf9be5e5eb0",
    "data": [
      {
        "text": "bring ",
        "userDefined": false
      },
      {
        "text": "front seats",
        "alias": "car-seat",
        "meta": "@car-seat",
        "userDefined": false
      },
      {
        "text": " to ",
        "userDefined": false
      },
      {
        "text": "safe",
        "alias": "position",
        "meta": "@position",
        "userDefined": false
      },
      {
        "text": " position when I ",
        "userDefined": false
      },
      {
        "text": "leave",
        "alias": "condition",
        "meta": "@condition",
        "userDefined": false
      },
      {
        "text": " the car",
        "userDefined": false
      }
    ],
    "isTemplate": false,
    "count": 0,
    "updated": 0
  },
  {
    "id": "1eaafbd4-4e0b-4e16-bdbd-0de75a541ce4",
    "data": [
      {
        "text": "return ",
        "userDefined": false
      },
      {
        "text": "all of",
        "alias": "all",
        "meta": "@all",
        "userDefined": false
      },
      {
        "text": " the seats to ",
        "userDefined": false
      },
      {
        "text": "safe",
        "alias": "position",
        "meta": "@position",
        "userDefined": false
      },
      {
        "text": " position once everyone ",
        "userDefined": false
      },
      {
        "text": "abandon",
        "alias": "condition",
        "meta": "@condition",
        "userDefined": false
      },
      {
        "text": " the car",
        "userDefined": false
      }
    ],
    "isTemplate": false,
    "count": 0,
    "updated": 0
  },
  {
    "id": "b19dcf4a-b884-49a3-bf52-2c39fb06493b",
    "data": [
      {
        "text": "make ",
        "userDefined": false
      },
      {
        "text": "my seat",
        "alias": "car-seat",
        "meta": "@car-seat",
        "userDefined": false
      },
      {
        "text": " ",
        "userDefined": false
      },
      {
        "text": "20",
        "alias": "change-value",
        "meta": "@sys.number",
        "userDefined": false
      },
      {
        "text": " points ",
        "userDefined": false
      },
      {
        "text": "lower",
        "alias": "position",
        "meta": "@position",
        "userDefined": false
      },
      {
        "text": " on ",
        "userDefined": false
      },
      {
        "text": "sunrise",
        "alias": "condition",
        "meta": "@condition",
        "userDefined": false
      }
    ],
    "isTemplate": false,
    "count": 0,
    "updated": 0
  },
  {
    "id": "7b63002e-4623-48ce-be19-962abeafae42",
    "data": [
      {
        "text": "make ",
        "userDefined": false
      },
      {
        "text": "each",
        "alias": "all",
        "meta": "@all",
        "userDefined": false
      },
      {
        "text": " seat ",
        "userDefined": false
      },
      {
        "text": "20",
        "alias": "change-value",
        "meta": "@sys.number",
        "userDefined": false
      },
      {
        "text": " points ",
        "userDefined": false
      },
      {
        "text": "higher",
        "alias": "position",
        "meta": "@position",
        "userDefined": false
      },
      {
        "text": " on ",
        "userDefined": false
      },
      {
        "text": "sunset",
        "alias": "condition",
        "meta": "@condition",
        "userDefined": false
      }
    ],
    "isTemplate": false,
    "count": 0,
    "updated": 0
  },
  {
    "id": "3dfd1a9e-ab89-4d1a-8154-721e1b9e6061",
    "data": [
      {
        "text": "bring ",
        "userDefined": false
      },
      {
        "text": "John\u0027s",
        "alias": "passenger",
        "meta": "@sys.given-name",
        "userDefined": false
      },
      {
        "text": "  seat to the ",
        "userDefined": false
      },
      {
        "text": "safe",
        "alias": "position",
        "meta": "@position",
        "userDefined": true
      },
      {
        "text": " position when he ",
        "userDefined": false
      },
      {
        "text": "gets out",
        "alias": "condition",
        "meta": "@condition",
        "userDefined": false
      },
      {
        "text": " of the car",
        "userDefined": false
      }
    ],
    "isTemplate": false,
    "count": 0,
    "updated": 0
  },
  {
    "id": "febf7733-d0dc-476e-afa4-6a36b503b252",
    "data": [
      {
        "text": "make ",
        "userDefined": false
      },
      {
        "text": "every",
        "alias": "all",
        "meta": "@all",
        "userDefined": false
      },
      {
        "text": " seat ",
        "userDefined": false
      },
      {
        "text": "lower",
        "alias": "position",
        "meta": "@position",
        "userDefined": false
      },
      {
        "text": " to ",
        "userDefined": false
      },
      {
        "text": "20",
        "alias": "change-value",
        "meta": "@sys.number",
        "userDefined": false
      },
      {
        "text": " points when I ",
        "userDefined": false
      },
      {
        "text": "leave",
        "alias": "condition",
        "meta": "@condition",
        "userDefined": false
      },
      {
        "text": " the car",
        "userDefined": false
      }
    ],
    "isTemplate": false,
    "count": 0,
    "updated": 0
  },
  {
    "id": "5969d6b0-b64a-46d0-8cbb-5544896a50ef",
    "data": [
      {
        "text": "make ",
        "userDefined": false
      },
      {
        "text": "my seat",
        "alias": "car-seat",
        "meta": "@car-seat",
        "userDefined": false
      },
      {
        "text": " to ",
        "userDefined": false
      },
      {
        "text": "safe",
        "alias": "position",
        "meta": "@position",
        "userDefined": false
      },
      {
        "text": " position when I ",
        "userDefined": false
      },
      {
        "text": "leave",
        "alias": "condition",
        "meta": "@condition",
        "userDefined": false
      },
      {
        "text": " the car",
        "userDefined": false
      }
    ],
    "isTemplate": false,
    "count": 1,
    "updated": 0
  },
  {
    "id": "420c4a48-88ff-4764-ba9f-f7711296fbee",
    "data": [
      {
        "text": "make ",
        "userDefined": false
      },
      {
        "text": "Mary\u0027s",
        "alias": "passenger",
        "meta": "@sys.given-name",
        "userDefined": false
      },
      {
        "text": " seat ",
        "userDefined": false
      },
      {
        "text": "lower",
        "alias": "position",
        "meta": "@position",
        "userDefined": false
      },
      {
        "text": " to ",
        "userDefined": false
      },
      {
        "text": "15",
        "alias": "change-value",
        "meta": "@sys.number",
        "userDefined": false
      },
      {
        "text": " points when she ",
        "userDefined": false
      },
      {
        "text": "gets in the",
        "alias": "condition",
        "meta": "@condition",
        "userDefined": false
      },
      {
        "text": " car",
        "userDefined": false
      }
    ],
    "isTemplate": false,
    "count": 0,
    "updated": 0
  },
  {
    "id": "c95a9334-2135-482e-ba75-6e250596b0d2",
    "data": [
      {
        "text": "bring",
        "meta": "@sys.ignore",
        "userDefined": false
      },
      {
        "text": " ",
        "userDefined": false
      },
      {
        "text": "all of",
        "alias": "all",
        "meta": "@all",
        "userDefined": true
      },
      {
        "text": " the ",
        "userDefined": false
      },
      {
        "text": "seats",
        "meta": "@sys.ignore",
        "userDefined": false
      },
      {
        "text": " ",
        "userDefined": false
      },
      {
        "text": "to",
        "meta": "@sys.ignore",
        "userDefined": false
      },
      {
        "text": " ",
        "userDefined": false
      },
      {
        "text": "safe",
        "alias": "position",
        "meta": "@position",
        "userDefined": false
      },
      {
        "text": " position ",
        "userDefined": false
      },
      {
        "text": "when",
        "meta": "@sys.ignore",
        "userDefined": false
      },
      {
        "text": " I ",
        "userDefined": false
      },
      {
        "text": "leave",
        "alias": "condition",
        "meta": "@condition",
        "userDefined": false
      },
      {
        "text": " ",
        "userDefined": false
      },
      {
        "text": "the car",
        "meta": "@sys.ignore",
        "userDefined": false
      }
    ],
    "isTemplate": false,
    "count": 1,
    "updated": 0
  },
  {
    "id": "75b8e28b-0244-40b6-bb67-ab78fbf8a42f",
    "data": [
      {
        "text": "make ",
        "userDefined": false
      },
      {
        "text": "Karl\u0027s",
        "alias": "passenger",
        "meta": "@sys.given-name",
        "userDefined": true
      },
      {
        "text": " ",
        "userDefined": false
      },
      {
        "text": "seat",
        "meta": "@sys.ignore",
        "userDefined": false
      },
      {
        "text": " ",
        "userDefined": false
      },
      {
        "text": "higher",
        "alias": "position",
        "meta": "@position",
        "userDefined": false
      },
      {
        "text": " to ",
        "userDefined": false
      },
      {
        "text": "10",
        "alias": "change-value",
        "meta": "@sys.number",
        "userDefined": true
      },
      {
        "text": " points ",
        "userDefined": false
      },
      {
        "text": "when",
        "meta": "@sys.ignore",
        "userDefined": false
      },
      {
        "text": " he ",
        "userDefined": false
      },
      {
        "text": "gets in",
        "alias": "condition",
        "meta": "@condition",
        "userDefined": false
      },
      {
        "text": " ",
        "userDefined": false
      },
      {
        "text": "the car",
        "meta": "@sys.ignore",
        "userDefined": false
      }
    ],
    "isTemplate": false,
    "count": 0,
    "updated": 0
  },
  {
    "id": "d168f1c0-cebf-413c-87e4-c51d8c228269",
    "data": [
      {
        "text": "make ",
        "userDefined": false
      },
      {
        "text": "my seat",
        "alias": "car-seat",
        "meta": "@car-seat",
        "userDefined": false
      },
      {
        "text": " ",
        "userDefined": false
      },
      {
        "text": "higher",
        "alias": "position",
        "meta": "@position",
        "userDefined": false
      },
      {
        "text": " ",
        "userDefined": false
      },
      {
        "text": "when",
        "meta": "@sys.ignore",
        "userDefined": false
      },
      {
        "text": " I ",
        "userDefined": false
      },
      {
        "text": "get in",
        "alias": "condition",
        "meta": "@condition",
        "userDefined": false
      },
      {
        "text": " ",
        "userDefined": false
      },
      {
        "text": "the car",
        "meta": "@sys.ignore",
        "userDefined": false
      }
    ],
    "isTemplate": false,
    "count": 0,
    "updated": 0
  }
]