{
  "id": "040e2eaf-3384-4cf0-9721-778462311d59",
  "name": "car.lights.switch.off - context:car-switch - comment:turn off",
  "auto": true,
  "contexts": [
    "car-switch"
  ],
  "responses": [
    {
      "resetContexts": false,
      "action": "car.lights.switch.off",
      "affectedContexts": [],
      "parameters": [],
      "messages": [
        {
          "type": 0,
          "lang": "en",
          "condition": "",
          "speech": []
        }
      ],
      "defaultResponsePlatforms": {},
      "speech": []
    }
  ],
  "priority": 500000,
  "webhookUsed": false,
  "webhookForSlotFilling": false,
  "fallbackIntent": false,
  "events": [],
  "conditionalResponses": [],
  "condition": "",
  "conditionalFollowupEvents": []
}