[
  {
    "id": "1b305d9c-d255-4b35-ad5d-e11e5e5199d0",
    "data": [
      {
        "text": "you can\u0027t stop the music",
        "userDefined": false
      }
    ],
    "isTemplate": false,
    "count": 0,
    "updated": 0
  },
  {
    "id": "76f2b64b-4dd0-4958-9b2b-8b0f3ad904dd",
    "data": [
      {
        "text": "go back to previous train station",
        "userDefined": false
      }
    ],
    "isTemplate": false,
    "count": 0,
    "updated": 0
  },
  {
    "id": "0d142c55-1454-46b0-8b8a-82800ecc4f0c",
    "data": [
      {
        "text": "repeat this order one more time",
        "userDefined": false
      }
    ],
    "isTemplate": false,
    "count": 0,
    "updated": 0
  },
  {
    "id": "53421da5-3090-4ec9-8782-39e9e0094f2d",
    "data": [
      {
        "text": "I love country music on radio",
        "userDefined": false
      }
    ],
    "isTemplate": false,
    "count": 0,
    "updated": 0
  },
  {
    "id": "8d5d95df-ae14-49f8-98a0-b360d7bc8d93",
    "data": [
      {
        "text": "find me the cafe nearby",
        "userDefined": false
      }
    ],
    "isTemplate": false,
    "count": 0,
    "updated": 0
  },
  {
    "id": "ef126999-4b46-48a9-9dca-a0a9c2e04122",
    "data": [
      {
        "text": "can you please play a movie from my collection",
        "userDefined": false
      }
    ],
    "isTemplate": false,
    "count": 0,
    "updated": 0
  },
  {
    "id": "d2c3136e-e774-46f9-b9c0-7c4b3e1e559c",
    "data": [
      {
        "text": "you should download a movie",
        "userDefined": false
      }
    ],
    "isTemplate": false,
    "count": 0,
    "updated": 0
  },
  {
    "id": "3612cd2e-70cf-4d19-b03d-377b47dc42f5",
    "data": [
      {
        "text": "you shouldn\u0027t download music",
        "userDefined": false
      }
    ],
    "isTemplate": false,
    "count": 0,
    "updated": 0
  },
  {
    "id": "501fe1c2-c911-48e6-bed8-3b64b1078092",
    "data": [
      {
        "text": "don\u0027t download some rock n roll music",
        "userDefined": false
      }
    ],
    "isTemplate": false,
    "count": 0,
    "updated": 0
  }
]