[
  {
    "id": "5229aae8-a7e8-49ee-820f-d9903c6e20ec",
    "data": [
      {
        "text": "skip ",
        "userDefined": false
      },
      {
        "text": "next",
        "meta": "@sys.ignore",
        "userDefined": false
      }
    ],
    "isTemplate": false,
    "count": 0,
    "updated": 0
  },
  {
    "id": "19c392aa-9bce-4ac2-9f43-2cc14e682ef4",
    "data": [
      {
        "text": "next",
        "meta": "@sys.ignore",
        "userDefined": true
      },
      {
        "text": " please",
        "userDefined": false
      }
    ],
    "isTemplate": false,
    "count": 0,
    "updated": 0
  },
  {
    "id": "029bc33c-af14-46b0-b25e-d8923c0209b4",
    "data": [
      {
        "text": "skip to ",
        "userDefined": false
      },
      {
        "text": "next",
        "meta": "@sys.ignore",
        "userDefined": false
      }
    ],
    "isTemplate": false,
    "count": 0,
    "updated": 0
  },
  {
    "id": "e2d947e9-c7c3-4ade-a0c1-05c2c199a4c2",
    "data": [
      {
        "text": "play another ",
        "userDefined": false
      },
      {
        "text": "one",
        "meta": "@sys.ignore",
        "userDefined": false
      }
    ],
    "isTemplate": false,
    "count": 0,
    "updated": 0
  },
  {
    "id": "a1106841-4c65-48e3-92af-6d17875bfb9a",
    "data": [
      {
        "text": "skip ",
        "userDefined": false
      },
      {
        "text": "to",
        "meta": "@sys.ignore",
        "userDefined": false
      },
      {
        "text": " the ",
        "userDefined": false
      },
      {
        "text": "next",
        "meta": "@sys.ignore",
        "userDefined": false
      },
      {
        "text": " ",
        "userDefined": false
      },
      {
        "text": "one",
        "meta": "@sys.ignore",
        "userDefined": false
      }
    ],
    "isTemplate": false,
    "count": 0,
    "updated": 0
  },
  {
    "id": "bf54bebb-a5c3-4dde-84f2-53bba08dd69d",
    "data": [
      {
        "text": "now the ",
        "userDefined": false
      },
      {
        "text": "next",
        "meta": "@sys.ignore",
        "userDefined": false
      },
      {
        "text": " ",
        "userDefined": false
      },
      {
        "text": "one",
        "meta": "@sys.ignore",
        "userDefined": false
      }
    ],
    "isTemplate": false,
    "count": 0,
    "updated": 0
  },
  {
    "id": "5c20dad8-c38c-4467-b51c-8dfdcfbd86e7",
    "data": [
      {
        "text": "what\u0027",
        "userDefined": false
      },
      {
        "text": "s",
        "meta": "@sys.ignore",
        "userDefined": false
      },
      {
        "text": " the ",
        "userDefined": false
      },
      {
        "text": "next",
        "meta": "@sys.ignore",
        "userDefined": false
      },
      {
        "text": " ",
        "userDefined": false
      },
      {
        "text": "song",
        "meta": "@sys.ignore",
        "userDefined": false
      }
    ],
    "isTemplate": false,
    "count": 0,
    "updated": 0
  },
  {
    "id": "c1078e10-d872-4582-a9e5-1c1212c93021",
    "data": [
      {
        "text": "go to the ",
        "userDefined": false
      },
      {
        "text": "next",
        "meta": "@sys.ignore",
        "userDefined": false
      },
      {
        "text": " ",
        "userDefined": false
      },
      {
        "text": "one",
        "meta": "@sys.ignore",
        "userDefined": false
      }
    ],
    "isTemplate": false,
    "count": 0,
    "updated": 0
  },
  {
    "id": "8096c55f-c7c5-453d-90b8-3f0951f05b2e",
    "data": [
      {
        "text": "what\u0027",
        "userDefined": false
      },
      {
        "text": "s",
        "meta": "@sys.ignore",
        "userDefined": false
      },
      {
        "text": " the ",
        "userDefined": false
      },
      {
        "text": "next",
        "meta": "@sys.ignore",
        "userDefined": false
      },
      {
        "text": " ",
        "userDefined": false
      },
      {
        "text": "one",
        "meta": "@sys.ignore",
        "userDefined": false
      }
    ],
    "isTemplate": false,
    "count": 0,
    "updated": 0
  },
  {
    "id": "6f04b325-bcc9-4dae-ad67-32bb90ef584a",
    "data": [
      {
        "text": "go to the ",
        "userDefined": false
      },
      {
        "text": "next",
        "meta": "@sys.ignore",
        "userDefined": false
      }
    ],
    "isTemplate": false,
    "count": 0,
    "updated": 0
  },
  {
    "id": "6c480577-8609-466b-9d12-7ea2065633f7",
    "data": [
      {
        "text": "next",
        "meta": "@sys.ignore",
        "userDefined": true
      },
      {
        "text": " song",
        "userDefined": false
      }
    ],
    "isTemplate": false,
    "count": 1,
    "updated": 0
  },
  {
    "id": "92d89a20-e6ea-4e86-bad1-3df4b100b6e2",
    "data": [
      {
        "text": "play ",
        "userDefined": false
      },
      {
        "text": "next",
        "meta": "@sys.ignore",
        "userDefined": false
      },
      {
        "text": " track",
        "userDefined": false
      }
    ],
    "isTemplate": false,
    "count": 0,
    "updated": 0
  },
  {
    "id": "abfc032f-d9e1-4b65-8ede-ac5e825d2cab",
    "data": [
      {
        "text": "the",
        "meta": "@sys.ignore",
        "userDefined": false
      },
      {
        "text": " following song",
        "userDefined": false
      }
    ],
    "isTemplate": false,
    "count": 0,
    "updated": 0
  },
  {
    "id": "b25e09de-ede9-4573-89c1-a91fb50a0544",
    "data": [
      {
        "text": "play the ",
        "userDefined": false
      },
      {
        "text": "next",
        "meta": "@sys.ignore",
        "userDefined": false
      },
      {
        "text": " ",
        "userDefined": false
      },
      {
        "text": "one",
        "meta": "@sys.ignore",
        "userDefined": false
      }
    ],
    "isTemplate": false,
    "count": 0,
    "updated": 0
  },
  {
    "id": "d6a1deb1-583c-40d6-9436-bcbf50b56629",
    "data": [
      {
        "text": "what\u0027s",
        "meta": "@sys.ignore",
        "userDefined": false
      },
      {
        "text": " ",
        "userDefined": false
      },
      {
        "text": "next",
        "meta": "@sys.ignore",
        "userDefined": false
      }
    ],
    "isTemplate": false,
    "count": 0,
    "updated": 0
  },
  {
    "id": "db21597f-c287-47e1-ad80-df0dcc5ac0ca",
    "data": [
      {
        "text": "next",
        "meta": "@sys.ignore",
        "userDefined": true
      }
    ],
    "isTemplate": false,
    "count": 0,
    "updated": 0
  },
  {
    "id": "b2a41a74-d73d-4711-a0ef-11d0dcc81185",
    "data": [
      {
        "text": "next",
        "meta": "@sys.ignore",
        "userDefined": false
      },
      {
        "text": " ",
        "userDefined": false
      },
      {
        "text": "track",
        "meta": "@sys.ignore",
        "userDefined": false
      }
    ],
    "isTemplate": false,
    "count": 0,
    "updated": 0
  },
  {
    "id": "443c0204-ff05-475e-beea-0d0089efecdd",
    "data": [
      {
        "text": "the ",
        "userDefined": false
      },
      {
        "text": "next",
        "meta": "@sys.ignore",
        "userDefined": false
      },
      {
        "text": " please",
        "userDefined": false
      }
    ],
    "isTemplate": false,
    "count": 0,
    "updated": 0
  },
  {
    "id": "44d1c624-317b-472d-9db8-b6733f461a1d",
    "data": [
      {
        "text": "skip ",
        "userDefined": false
      },
      {
        "text": "forward",
        "meta": "@sys.ignore",
        "userDefined": true
      }
    ],
    "isTemplate": false,
    "count": 0,
    "updated": 0
  },
  {
    "id": "50f3bcf9-6389-4219-935c-ab48c2a61082",
    "data": [
      {
        "text": "other",
        "userDefined": false
      }
    ],
    "isTemplate": false,
    "count": 0,
    "updated": 0
  },
  {
    "id": "b235aede-a65c-4ae8-836d-870e9ee5dbed",
    "data": [
      {
        "text": "skip",
        "userDefined": false
      }
    ],
    "isTemplate": false,
    "count": 0,
    "updated": 0
  },
  {
    "id": "bf2be705-9ef1-4cb8-9278-ceea0436ee52",
    "data": [
      {
        "text": "go ",
        "userDefined": false
      },
      {
        "text": "forward",
        "meta": "@sys.ignore",
        "userDefined": true
      }
    ],
    "isTemplate": false,
    "count": 0,
    "updated": 0
  },
  {
    "id": "dd796d72-2cb8-4439-8250-de0c955aadfc",
    "data": [
      {
        "text": "skip this ",
        "userDefined": false
      },
      {
        "text": "song",
        "meta": "@sys.ignore",
        "userDefined": false
      }
    ],
    "isTemplate": false,
    "count": 0,
    "updated": 0
  },
  {
    "id": "ad6cad84-0434-4158-92c9-b7a01ffcb53d",
    "data": [
      {
        "text": "play ",
        "userDefined": false
      },
      {
        "text": "the",
        "meta": "@sys.ignore",
        "userDefined": false
      },
      {
        "text": " ",
        "userDefined": false
      },
      {
        "text": "next",
        "meta": "@sys.ignore",
        "userDefined": false
      },
      {
        "text": " song",
        "userDefined": false
      }
    ],
    "isTemplate": false,
    "count": 0,
    "updated": 0
  },
  {
    "id": "72102902-73ae-417d-96c3-0d674df6e13c",
    "data": [
      {
        "text": "play ",
        "userDefined": false
      },
      {
        "text": "next",
        "meta": "@sys.ignore",
        "userDefined": true
      }
    ],
    "isTemplate": false,
    "count": 0,
    "updated": 0
  },
  {
    "id": "54e2c666-3353-4fc8-8558-c0b64fa1c336",
    "data": [
      {
        "text": "the ",
        "userDefined": false
      },
      {
        "text": "next",
        "meta": "@sys.ignore",
        "userDefined": false
      },
      {
        "text": " song",
        "userDefined": false
      }
    ],
    "isTemplate": false,
    "count": 0,
    "updated": 0
  }
]