[
  {
    "id": "2783e4b1-d64a-4924-8d45-c6bd4a506074",
    "data": [
      {
        "text": "I need a ",
        "userDefined": false
      },
      {
        "text": "cheeseburger",
        "alias": "product",
        "meta": "@delivery-product",
        "userDefined": true
      },
      {
        "text": " as well",
        "userDefined": false
      }
    ],
    "isTemplate": false,
    "count": 0,
    "updated": 0
  },
  {
    "id": "a8e92d27-4629-4bae-8740-7b56578912e9",
    "data": [
      {
        "text": "I would ",
        "userDefined": false
      },
      {
        "text": "like",
        "meta": "@sys.ignore",
        "userDefined": false
      },
      {
        "text": " ",
        "userDefined": false
      },
      {
        "text": "to",
        "meta": "@sys.ignore",
        "userDefined": false
      },
      {
        "text": " take a ",
        "userDefined": false
      },
      {
        "text": "pizza",
        "alias": "product",
        "meta": "@delivery-product",
        "userDefined": false
      },
      {
        "text": " too",
        "userDefined": false
      }
    ],
    "isTemplate": false,
    "count": 0,
    "updated": 0
  },
  {
    "id": "9229f269-4659-4cb0-8dba-822aa6e75545",
    "data": [
      {
        "text": "what about ",
        "userDefined": false
      },
      {
        "text": "pizza",
        "alias": "product",
        "meta": "@delivery-product",
        "userDefined": true
      }
    ],
    "isTemplate": false,
    "count": 0,
    "updated": 0
  },
  {
    "id": "248ff3cf-f8c4-477e-b48d-45cc4c871a10",
    "data": [
      {
        "text": "and ",
        "userDefined": false
      },
      {
        "text": "burger",
        "alias": "product",
        "meta": "@delivery-product",
        "userDefined": true
      },
      {
        "text": " and ",
        "userDefined": false
      },
      {
        "text": "fries",
        "alias": "product",
        "meta": "@delivery-product",
        "userDefined": true
      }
    ],
    "isTemplate": false,
    "count": 0,
    "updated": 0
  },
  {
    "id": "bb27620c-8f0f-4d86-b9a5-505e63f2559d",
    "data": [
      {
        "text": "take ",
        "userDefined": false
      },
      {
        "text": "pizza",
        "alias": "product",
        "meta": "@delivery-product",
        "userDefined": true
      },
      {
        "text": " too",
        "userDefined": false
      }
    ],
    "isTemplate": false,
    "count": 0,
    "updated": 0
  },
  {
    "id": "2534229f-a50c-4770-bb1e-29320b247960",
    "data": [
      {
        "text": "and ",
        "userDefined": false
      },
      {
        "text": "Italian",
        "alias": "cuisine",
        "meta": "@cuisine",
        "userDefined": true
      },
      {
        "text": " ",
        "userDefined": false
      },
      {
        "text": "food",
        "meta": "@sys.ignore",
        "userDefined": true
      }
    ],
    "isTemplate": false,
    "count": 0,
    "updated": 0
  },
  {
    "id": "c2ac3b7e-3058-4d70-aa0d-da43bb200683",
    "data": [
      {
        "text": "and ",
        "userDefined": false
      },
      {
        "text": "French",
        "alias": "cuisine",
        "meta": "@cuisine",
        "userDefined": false
      },
      {
        "text": " ",
        "userDefined": false
      },
      {
        "text": "food",
        "meta": "@sys.ignore",
        "userDefined": false
      }
    ],
    "isTemplate": false,
    "count": 0,
    "updated": 0
  },
  {
    "id": "b7feff54-82ab-4032-89c3-57ee5f850330",
    "data": [
      {
        "text": "and ",
        "userDefined": false
      },
      {
        "text": "burger",
        "alias": "product",
        "meta": "@delivery-product",
        "userDefined": true
      },
      {
        "text": " too",
        "userDefined": false
      }
    ],
    "isTemplate": false,
    "count": 0,
    "updated": 0
  },
  {
    "id": "1986409b-fbf1-4f74-9216-6012c76b94e4",
    "data": [
      {
        "text": "what about ",
        "userDefined": false
      },
      {
        "text": "Chinese",
        "alias": "cuisine",
        "meta": "@cuisine",
        "userDefined": true
      },
      {
        "text": " food",
        "userDefined": false
      }
    ],
    "isTemplate": false,
    "count": 0,
    "updated": 0
  },
  {
    "id": "87f744a4-baad-49a4-9681-9bfbd8bcfbe1",
    "data": [
      {
        "text": "and ",
        "userDefined": false
      },
      {
        "text": "pizza",
        "alias": "product",
        "meta": "@delivery-product",
        "userDefined": true
      }
    ],
    "isTemplate": false,
    "count": 0,
    "updated": 0
  }
]