[
  {
    "id": "d5ec4425-da6e-40b8-b9d9-029ad0599d23",
    "data": [
      {
        "text": "add ",
        "userDefined": false
      },
      {
        "text": "3",
        "alias": "amount",
        "meta": "@sys.number",
        "userDefined": true
      },
      {
        "text": " ",
        "userDefined": false
      },
      {
        "text": "pizzas",
        "alias": "product",
        "meta": "@delivery-product",
        "userDefined": true
      },
      {
        "text": " and ",
        "userDefined": false
      },
      {
        "text": "2",
        "alias": "amount",
        "meta": "@sys.number",
        "userDefined": true
      },
      {
        "text": " ",
        "userDefined": false
      },
      {
        "text": "diet Cokes",
        "alias": "product",
        "meta": "@delivery-product",
        "userDefined": true
      }
    ],
    "isTemplate": false,
    "count": 0,
    "updated": 0
  },
  {
    "id": "2c834259-2e94-4da0-8bcd-816d7e392cd7",
    "data": [
      {
        "text": "can",
        "meta": "@sys.ignore",
        "userDefined": true
      },
      {
        "text": " I have ",
        "userDefined": false
      },
      {
        "text": "2",
        "alias": "amount",
        "meta": "@sys.number",
        "userDefined": true
      },
      {
        "text": " ",
        "userDefined": false
      },
      {
        "text": "burgers",
        "alias": "product",
        "meta": "@delivery-product",
        "userDefined": true
      },
      {
        "text": " with ",
        "userDefined": false
      },
      {
        "text": "fries",
        "alias": "product",
        "meta": "@delivery-product",
        "userDefined": true
      }
    ],
    "isTemplate": false,
    "count": 0,
    "updated": 0
  },
  {
    "id": "b9bf3478-8d7a-47cd-8955-a01f6974e7f6",
    "data": [
      {
        "text": "another ",
        "userDefined": false
      },
      {
        "text": "salad",
        "alias": "product",
        "meta": "@delivery-product",
        "userDefined": true
      }
    ],
    "isTemplate": false,
    "count": 0,
    "updated": 0
  },
  {
    "id": "0e6d4012-7770-48e7-93e4-9a588b87d709",
    "data": [
      {
        "text": "can",
        "meta": "@sys.ignore",
        "userDefined": true
      },
      {
        "text": " I ",
        "userDefined": false
      },
      {
        "text": "get",
        "meta": "@sys.ignore",
        "userDefined": true
      },
      {
        "text": " ",
        "userDefined": false
      },
      {
        "text": "4",
        "alias": "amount",
        "meta": "@sys.number",
        "userDefined": true
      },
      {
        "text": " ",
        "userDefined": false
      },
      {
        "text": "burgers",
        "alias": "product",
        "meta": "@delivery-product",
        "userDefined": true
      }
    ],
    "isTemplate": false,
    "count": 0,
    "updated": 0
  },
  {
    "id": "51decd47-191a-4ba6-b89b-848d74fb5aaf",
    "data": [
      {
        "text": "add extra ",
        "userDefined": false
      },
      {
        "text": "cheese",
        "alias": "product",
        "meta": "@delivery-product",
        "userDefined": false
      }
    ],
    "isTemplate": false,
    "count": 0,
    "updated": 0
  },
  {
    "id": "d7b1f102-efbd-44e1-a388-071daab4dd91",
    "data": [
      {
        "text": "can I have a pepperoni ",
        "userDefined": false
      },
      {
        "text": "pizza",
        "alias": "product",
        "meta": "@delivery-product",
        "userDefined": true
      },
      {
        "text": " and a ",
        "userDefined": false
      },
      {
        "text": "hawaiian pizza",
        "alias": "product",
        "meta": "@delivery-product",
        "userDefined": true
      }
    ],
    "isTemplate": false,
    "count": 0,
    "updated": 0
  },
  {
    "id": "03e01968-1968-447f-b708-8c3e773e5ee1",
    "data": [
      {
        "text": "add another ",
        "userDefined": false
      },
      {
        "text": "pizza",
        "alias": "product",
        "meta": "@delivery-product",
        "userDefined": true
      },
      {
        "text": " to my order",
        "userDefined": false
      }
    ],
    "isTemplate": false,
    "count": 0,
    "updated": 0
  },
  {
    "id": "b30e6b10-60e5-442c-94df-634e80b6eaab",
    "data": [
      {
        "text": "please add a ",
        "userDefined": false
      },
      {
        "text": "large pepperoni pizza",
        "alias": "product",
        "meta": "@delivery-product",
        "userDefined": true
      },
      {
        "text": " a ",
        "userDefined": false
      },
      {
        "text": "regular diet Pepsi",
        "alias": "product",
        "meta": "@delivery-product",
        "userDefined": true
      },
      {
        "text": " ",
        "userDefined": false
      },
      {
        "text": "brownie",
        "alias": "product",
        "meta": "@delivery-product",
        "userDefined": true
      },
      {
        "text": " and ",
        "userDefined": false
      },
      {
        "text": "bread sticks",
        "alias": "product",
        "meta": "@delivery-product",
        "userDefined": true
      }
    ],
    "isTemplate": false,
    "count": 0,
    "updated": 0
  },
  {
    "id": "f842b11b-d562-4437-98e4-d0fa3583ad4a",
    "data": [
      {
        "text": "can",
        "meta": "@sys.ignore",
        "userDefined": true
      },
      {
        "text": " you add ",
        "userDefined": false
      },
      {
        "text": "one",
        "alias": "amount",
        "meta": "@sys.number",
        "userDefined": true
      },
      {
        "text": " more ",
        "userDefined": false
      },
      {
        "text": "milkshake",
        "alias": "product",
        "meta": "@delivery-product",
        "userDefined": true
      },
      {
        "text": " to my order",
        "userDefined": false
      }
    ],
    "isTemplate": false,
    "count": 0,
    "updated": 0
  },
  {
    "id": "64662a50-b4d5-4e67-af60-088079c164ad",
    "data": [
      {
        "text": "add ",
        "userDefined": false
      },
      {
        "text": "one",
        "alias": "amount",
        "meta": "@sys.number",
        "userDefined": false
      },
      {
        "text": " more portion of ",
        "userDefined": false
      },
      {
        "text": "fries",
        "alias": "product",
        "meta": "@delivery-product",
        "userDefined": false
      }
    ],
    "isTemplate": false,
    "count": 0,
    "updated": 0
  },
  {
    "id": "36aa9e9a-5458-4d02-b8e2-055219a31a1f",
    "data": [
      {
        "text": "another ",
        "userDefined": false
      },
      {
        "text": "burger",
        "alias": "product",
        "meta": "@delivery-product",
        "userDefined": false
      },
      {
        "text": " please",
        "userDefined": false
      }
    ],
    "isTemplate": false,
    "count": 0,
    "updated": 0
  },
  {
    "id": "4d82b3d4-89cb-4bf3-99e9-827af2453a74",
    "data": [
      {
        "text": "I ",
        "userDefined": false
      },
      {
        "text": "wish",
        "meta": "@sys.ignore",
        "userDefined": false
      },
      {
        "text": " ",
        "userDefined": false
      },
      {
        "text": "one",
        "alias": "amount",
        "meta": "@sys.number",
        "userDefined": false
      },
      {
        "text": " ",
        "userDefined": false
      },
      {
        "text": "pizza",
        "alias": "product",
        "meta": "@delivery-product",
        "userDefined": false
      },
      {
        "text": " more",
        "userDefined": false
      }
    ],
    "isTemplate": false,
    "count": 0,
    "updated": 0
  },
  {
    "id": "d52a016e-3064-40fd-9ce8-a47c5eb2282a",
    "data": [
      {
        "text": "I\u0027d like to have more ",
        "userDefined": false
      },
      {
        "text": "fries",
        "alias": "product",
        "meta": "@delivery-product",
        "userDefined": true
      }
    ],
    "isTemplate": false,
    "count": 0,
    "updated": 0
  },
  {
    "id": "41523237-23f2-4665-ae1c-c44b3407c342",
    "data": [
      {
        "text": "add ",
        "userDefined": false
      },
      {
        "text": "burger",
        "alias": "product",
        "meta": "@delivery-product",
        "userDefined": true
      },
      {
        "text": " to my basket",
        "userDefined": false
      }
    ],
    "isTemplate": false,
    "count": 0,
    "updated": 0
  }
]