[
  {
    "id": "f87181c8-4ba6-41c3-9c14-b705c718a7d3",
    "data": [
      {
        "text": "tell me the meaning ",
        "userDefined": false
      },
      {
        "text": "of",
        "meta": "@sys.ignore",
        "userDefined": false
      },
      {
        "text": " life",
        "userDefined": false
      }
    ],
    "isTemplate": false,
    "count": 0,
    "updated": 0
  },
  {
    "id": "c9a9c8ee-83c1-4e71-8d64-364595b9b018",
    "data": [
      {
        "text": "can you tell me the meaning ",
        "userDefined": false
      },
      {
        "text": "of",
        "meta": "@sys.ignore",
        "userDefined": false
      },
      {
        "text": " life",
        "userDefined": false
      }
    ],
    "isTemplate": false,
    "count": 0,
    "updated": 0
  },
  {
    "id": "22d45d90-486c-4899-9209-c80855687695",
    "data": [
      {
        "text": "life meaning",
        "userDefined": false
      }
    ],
    "isTemplate": false,
    "count": 0,
    "updated": 0
  },
  {
    "id": "18241702-ff27-4f9f-9879-be7cdac7317a",
    "data": [
      {
        "text": "what\u0027s the meaning ",
        "userDefined": false
      },
      {
        "text": "of",
        "meta": "@sys.ignore",
        "userDefined": false
      },
      {
        "text": " life",
        "userDefined": false
      }
    ],
    "isTemplate": false,
    "count": 0,
    "updated": 0
  },
  {
    "id": "9565ee04-ab97-4b8f-a11a-07009a22e232",
    "data": [
      {
        "text": "so what is the meaning ",
        "userDefined": false
      },
      {
        "text": "of",
        "meta": "@sys.ignore",
        "userDefined": false
      },
      {
        "text": " life",
        "userDefined": false
      }
    ],
    "isTemplate": false,
    "count": 0,
    "updated": 0
  },
  {
    "id": "ec488f1b-989d-4280-a302-95420b91eb0d",
    "data": [
      {
        "text": "show me the meaning ",
        "userDefined": false
      },
      {
        "text": "of",
        "meta": "@sys.ignore",
        "userDefined": false
      },
      {
        "text": " life",
        "userDefined": false
      }
    ],
    "isTemplate": false,
    "count": 0,
    "updated": 0
  },
  {
    "id": "b247e780-aa97-4803-9e54-9d9a917bde6c",
    "data": [
      {
        "text": "do you know the meaning ",
        "userDefined": false
      },
      {
        "text": "of",
        "meta": "@sys.ignore",
        "userDefined": false
      },
      {
        "text": " life",
        "userDefined": false
      }
    ],
    "isTemplate": false,
    "count": 0,
    "updated": 0
  },
  {
    "id": "3a1d45ca-c22c-4082-9f88-08cae81e9bb2",
    "data": [
      {
        "text": "what\u0027s the meaning ",
        "userDefined": false
      },
      {
        "text": "of",
        "meta": "@sys.ignore",
        "userDefined": false
      },
      {
        "text": " life the universe and everything",
        "userDefined": false
      }
    ],
    "isTemplate": false,
    "count": 0,
    "updated": 0
  },
  {
    "id": "d02bbadf-d310-4da9-b4a3-959f4c3c1a48",
    "data": [
      {
        "text": "the meaning ",
        "userDefined": false
      },
      {
        "text": "of",
        "meta": "@sys.ignore",
        "userDefined": false
      },
      {
        "text": " life",
        "userDefined": false
      }
    ],
    "isTemplate": false,
    "count": 1,
    "updated": 0
  }
]