{
  "description": "Giving your users access information on the web is just an ask away with this agent. Let your users find a recipe for a last minute dinner or locate that article they were talking about. Help them prove they\u0027re right (or wrong) with a quick ask.",
  "language": "en",
  "shortDescription": "Perform a web search",
  "examples": "User: Google a recipe for tomato soup.\nUser: Find Metropolitan Museum on Wikipedia.\nUser: Look up Monty Python.\nUser: Can you search for information?\nUser: Google how to cook dinner.\nUser: Find Lady Gaga\u0027s husband on the Internet.",
  "linkToDocs": "",
  "disableInteractionLogs": false,
  "disableStackdriverLogs": true,
  "googleAssistant": {
    "googleAssistantCompatible": false,
    "project": "",
    "welcomeIntentSignInRequired": false,
    "startIntents": [],
    "systemIntents": [],
    "endIntentIds": [],
    "oAuthLinking": {
      "required": false,
      "providerId": "",
      "authorizationUrl": "",
      "tokenUrl": "",
      "scopes": "",
      "privacyPolicyUrl": "",
      "grantType": "AUTH_CODE_GRANT"
    },
    "voiceType": "MALE_1",
    "capabilities": [],
    "env": "",
    "protocolVersion": "V1",
    "autoPreviewEnabled": false,
    "isDeviceAgent": false
  },
  "defaultTimezone": "America/New_York",
  "webhook": {
    "url": "",
    "username": "",
    "headers": {},
    "available": false,
    "useForDomains": false,
    "cloudFunctionsEnabled": false,
    "cloudFunctionsInitialized": false
  },
  "isPrivate": false,
  "customClassifierMode": "use.instead",
  "mlMinConfidence": 0.3,
  "supportedLanguages": [],
  "onePlatformApiVersion": "v2",
  "analyzeQueryTextSentiment": false,
  "enabledKnowledgeBaseNames": [],
  "knowledgeServiceConfidenceAdjustment": -0.4,
  "dialogBuilderMode": false,
  "baseActionPackagesUrl": ""
}