[
  {
    "value": "true",
    "synonyms": [
      "direct",
      "no layover",
      "non stop",
      "non-stop",
      "nonstop",
      "without layover",
      "without stop",
      "without stoping",
      "without stops"
    ]
  }
]